{
  "board": {
    "3dviewports": [],
    "design_settings": {
      "defaults": {
        "apply_defaults_to_fp_fields": false,
        "apply_defaults_to_fp_shapes": false,
        "apply_defaults_to_fp_text": false,
        "board_outline_line_width": 0.049999999999999996,
        "copper_line_width": 0.19999999999999998,
        "copper_text_italic": false,
        "copper_text_size_h": 1.5,
        "copper_text_size_v": 1.5,
        "copper_text_thickness": 0.3,
        "copper_text_upright": false,
        "courtyard_line_width": 0.049999999999999996,
        "dimension_precision": 4,
        "dimension_units": 3,
        "dimensions": {
          "arrow_length": 1270000,
          "extension_offset": 500000,
          "keep_text_aligned": true,
          "suppress_zeroes": false,
          "text_position": 0,
          "units_format": 1
        },
        "fab_line_width": 0.09999999999999999,
        "fab_text_italic": false,
        "fab_text_size_h": 1.0,
        "fab_text_size_v": 1.0,
        "fab_text_thickness": 0.15,
        "fab_text_upright": false,
        "other_line_width": 0.09999999999999999,
        "other_text_italic": false,
        "other_text_size_h": 1.0,
        "other_text_size_v": 1.0,
        "other_text_thickness": 0.15,
        "other_text_upright": false,
        "pads": {
          "drill": 0.762,
          "height": 1.524,
          "width": 1.524
        },
        "silk_line_width": 0.12,
        "silk_text_italic": false,
        "silk_text_size_h": 1.0,
        "silk_text_size_v": 1.0,
        "silk_text_thickness": 0.15,
        "silk_text_upright": false,
        "zones": {
          "min_clearance": 0.254
        }
      },
      "diff_pair_dimensions": [],
      "drc_exclusions": [],
      "meta": {
        "filename": "board_design_settings.json",
        "version": 2
      },
      "rule_severities": {
        "annular_width": "error",
        "clearance": "error",
        "connection_width": "warning",
        "copper_edge_clearance": "error",
        "copper_sliver": "warning",
        "courtyards_overlap": "error",
        "diff_pair_gap_out_of_range": "error",
        "diff_pair_uncoupled_length_too_long": "error",
        "drill_out_of_range": "error",
        "duplicate_footprints": "warning",
        "extra_footprint": "warning",
        "footprint": "error",
        "footprint_symbol_mismatch": "warning",
        "footprint_type_mismatch": "ignore",
        "hole_clearance": "error",
        "hole_near_hole": "error",
        "invalid_outline": "error",
        "isolated_copper": "warning",
        "item_on_disabled_layer": "error",
        "items_not_allowed": "error",
        "length_out_of_range": "error",
        "lib_footprint_issues": "warning",
        "lib_footprint_mismatch": "warning",
        "malformed_courtyard": "error",
        "microvia_drill_out_of_range": "error",
        "missing_courtyard": "ignore",
        "missing_footprint": "warning",
        "net_conflict": "warning",
        "npth_inside_courtyard": "ignore",
        "padstack": "warning",
        "pth_inside_courtyard": "ignore",
        "shorting_items": "error",
        "silk_edge_clearance": "warning",
        "silk_over_copper": "warning",
        "silk_overlap": "warning",
        "skew_out_of_range": "error",
        "solder_mask_bridge": "error",
        "starved_thermal": "error",
        "text_height": "warning",
        "text_thickness": "warning",
        "through_hole_pad_without_hole": "error",
        "too_many_vias": "error",
        "track_dangling": "warning",
        "track_width": "error",
        "tracks_crossing": "error",
        "unconnected_items": "error",
        "unresolved_variable": "error",
        "via_dangling": "warning",
        "zones_intersect": "error"
      },
      "rule_severitieslegacy_courtyards_overlap": true,
      "rule_severitieslegacy_no_courtyard_defined": false,
      "rules": {
        "max_error": 0.005,
        "min_clearance": 0.0,
        "min_connection": 0.0,
        "min_copper_edge_clearance": 0.024999999999999998,
        "min_hole_clearance": 0.25,
        "min_hole_to_hole": 0.25,
        "min_microvia_diameter": 0.19999999999999998,
        "min_microvia_drill": 0.09999999999999999,
        "min_resolved_spokes": 2,
        "min_silk_clearance": 0.0,
        "min_text_height": 0.7999999999999999,
        "min_text_thickness": 0.08,
        "min_through_hole_diameter": 0.3,
        "min_track_width": 0.19999999999999998,
        "min_via_annular_width": 0.09999999999999999,
        "min_via_diameter": 0.39999999999999997,
        "solder_mask_to_copper_clearance": 0.0,
        "use_height_for_length_calcs": true
      },
      "teardrop_options": [
        {
          "td_onpadsmd": true,
          "td_onroundshapesonly": false,
          "td_ontrackend": false,
          "td_onviapad": true
        }
      ],
      "teardrop_parameters": [
        {
          "td_allow_use_two_tracks": true,
          "td_curve_segcount": 0,
          "td_height_ratio": 1.0,
          "td_length_ratio": 0.5,
          "td_maxheight": 2.0,
          "td_maxlen": 1.0,
          "td_on_pad_in_zone": false,
          "td_target_name": "td_round_shape",
          "td_width_to_size_filter_ratio": 0.9
        },
        {
          "td_allow_use_two_tracks": true,
          "td_curve_segcount": 0,
          "td_height_ratio": 1.0,
          "td_length_ratio": 0.5,
          "td_maxheight": 2.0,
          "td_maxlen": 1.0,
          "td_on_pad_in_zone": false,
          "td_target_name": "td_rect_shape",
          "td_width_to_size_filter_ratio": 0.9
        },
        {
          "td_allow_use_two_tracks": true,
          "td_curve_segcount": 0,
          "td_height_ratio": 1.0,
          "td_length_ratio": 0.5,
          "td_maxheight": 2.0,
          "td_maxlen": 1.0,
          "td_on_pad_in_zone": false,
          "td_target_name": "td_track_end",
          "td_width_to_size_filter_ratio": 0.9
        }
      ],
      "track_widths": [
        0.0,
        0.2,
        0.254,
        0.381,
        0.508,
        0.5842,
        0.635,
        0.762,
        0.8128,
        1.016,
        1.27,
        1.778,
        2.0,
        2.54
      ],
      "tuning_pattern_settings": {
        "diff_pair_defaults": {
          "corner_radius_percentage": 80,
          "corner_style": 1,
          "max_amplitude": 1.0,
          "min_amplitude": 0.2,
          "single_sided": false,
          "spacing": 1.0
        },
        "diff_pair_skew_defaults": {
          "corner_radius_percentage": 80,
          "corner_style": 1,
          "max_amplitude": 1.0,
          "min_amplitude": 0.2,
          "single_sided": false,
          "spacing": 0.6
        },
        "single_track_defaults": {
          "corner_radius_percentage": 80,
          "corner_style": 1,
          "max_amplitude": 1.0,
          "min_amplitude": 0.2,
          "single_sided": false,
          "spacing": 0.6
        }
      },
      "via_dimensions": [
        {
          "diameter": 0.0,
          "drill": 0.0
        },
        {
          "diameter": 0.6,
          "drill": 0.3
        },
        {
          "diameter": 0.6,
          "drill": 0.4
        },
        {
          "diameter": 1.0,
          "drill": 0.5
        },
        {
          "diameter": 1.5,
          "drill": 0.5
        },
        {
          "diameter": 2.0,
          "drill": 1.0
        }
      ],
      "zones_allow_external_fillets": false
    },
    "ipc2581": {
      "dist": "",
      "distpn": "",
      "internal_id": "",
      "mfg": "",
      "mpn": ""
    },
    "layer_presets": [],
    "viewports": []
  },
  "boards": [],
  "cvpcb": {
    "equivalence_files": []
  },
  "erc": {
    "erc_exclusions": [],
    "meta": {
      "version": 0
    },
    "pin_map": [
      [
        0,
        0,
        0,
        0,
        0,
        0,
        1,
        0,
        0,
        0,
        0,
        2
      ],
      [
        0,
        2,
        0,
        1,
        0,
        0,
        1,
        0,
        2,
        2,
        2,
        2
      ],
      [
        0,
        0,
        0,
        0,
        0,
        0,
        1,
        0,
        1,
        0,
        1,
        2
      ],
      [
        0,
        1,
        0,
        0,
        0,
        0,
        1,
        1,
        2,
        1,
        1,
        2
      ],
      [
        0,
        0,
        0,
        0,
        0,
        0,
        1,
        0,
        0,
        0,
        0,
        2
      ],
      [
        0,
        0,
        0,
        0,
        0,
        0,
        0,
        0,
        0,
        0,
        0,
        2
      ],
      [
        1,
        1,
        1,
        1,
        1,
        0,
        1,
        1,
        1,
        1,
        1,
        2
      ],
      [
        0,
        0,
        0,
        1,
        0,
        0,
        1,
        0,
        0,
        0,
        0,
        2
      ],
      [
        0,
        2,
        1,
        2,
        0,
        0,
        1,
        0,
        2,
        2,
        2,
        2
      ],
      [
        0,
        2,
        0,
        1,
        0,
        0,
        1,
        0,
        2,
        0,
        0,
        2
      ],
      [
        0,
        2,
        1,
        1,
        0,
        0,
        1,
        0,
        2,
        0,
        0,
        2
      ],
      [
        2,
        2,
        2,
        2,
        2,
        2,
        2,
        2,
        2,
        2,
        2,
        2
      ]
    ],
    "rule_severities": {
      "bus_definition_conflict": "error",
      "bus_entry_needed": "error",
      "bus_to_bus_conflict": "error",
      "bus_to_net_conflict": "error",
      "conflicting_netclasses": "error",
      "different_unit_footprint": "error",
      "different_unit_net": "error",
      "duplicate_reference": "error",
      "duplicate_sheet_names": "error",
      "endpoint_off_grid": "warning",
      "extra_units": "error",
      "global_label_dangling": "warning",
      "hier_label_mismatch": "error",
      "label_dangling": "error",
      "lib_symbol_issues": "warning",
      "missing_bidi_pin": "warning",
      "missing_input_pin": "warning",
      "missing_power_pin": "error",
      "missing_unit": "warning",
      "multiple_net_names": "warning",
      "net_not_bus_member": "warning",
      "no_connect_connected": "warning",
      "no_connect_dangling": "warning",
      "pin_not_connected": "error",
      "pin_not_driven": "error",
      "pin_to_pin": "warning",
      "power_pin_not_driven": "error",
      "similar_labels": "warning",
      "simulation_model_issue": "ignore",
      "unannotated": "error",
      "unit_value_mismatch": "error",
      "unresolved_variable": "error",
      "wire_dangling": "error"
    }
  },
  "libraries": {
    "pinned_footprint_libs": [],
    "pinned_symbol_libs": []
  },
  "meta": {
    "filename": "ESP32_Smart_Power_Meter_SMD_v0.3.kicad_pro",
    "version": 1
  },
  "net_settings": {
    "classes": [
      {
        "bus_width": 12,
        "clearance": 0.2,
        "diff_pair_gap": 0.25,
        "diff_pair_via_gap": 0.25,
        "diff_pair_width": 0.2,
        "line_style": 0,
        "microvia_diameter": 0.3,
        "microvia_drill": 0.1,
        "name": "Default",
        "pcb_color": "rgba(0, 0, 0, 0.000)",
        "schematic_color": "rgba(0, 0, 0, 0.000)",
        "track_width": 0.25,
        "via_diameter": 0.8,
        "via_drill": 0.4,
        "wire_width": 6
      }
    ],
    "meta": {
      "version": 3
    },
    "net_colors": null,
    "netclass_assignments": null,
    "netclass_patterns": [
      {
        "netclass": "Default",
        "pattern": "+12V"
      },
      {
        "netclass": "Default",
        "pattern": "+3.3VA"
      },
      {
        "netclass": "Default",
        "pattern": "+3V3"
      },
      {
        "netclass": "Default",
        "pattern": "+5V"
      },
      {
        "netclass": "Default",
        "pattern": "+5VA"
      },
      {
        "netclass": "Default",
        "pattern": "+BATT"
      },
      {
        "netclass": "Default",
        "pattern": "/A9_RXD"
      },
      {
        "netclass": "Default",
        "pattern": "/A9_TXD"
      },
      {
        "netclass": "Default",
        "pattern": "/BATT_ADC"
      },
      {
        "netclass": "Default",
        "pattern": "/BUZZER"
      },
      {
        "netclass": "Default",
        "pattern": "/CF1"
      },
      {
        "netclass": "Default",
        "pattern": "/CF2"
      },
      {
        "netclass": "Default",
        "pattern": "/CF3"
      },
      {
        "netclass": "Default",
        "pattern": "/CF4"
      },
      {
        "netclass": "Default",
        "pattern": "/CP_DTR"
      },
      {
        "netclass": "Default",
        "pattern": "/CP_RTS"
      },
      {
        "netclass": "Default",
        "pattern": "/CP_RXD"
      },
      {
        "netclass": "Default",
        "pattern": "/CP_TXD"
      },
      {
        "netclass": "Default",
        "pattern": "/DMA"
      },
      {
        "netclass": "Default",
        "pattern": "/ESP_EN"
      },
      {
        "netclass": "Default",
        "pattern": "/IA+"
      },
      {
        "netclass": "Default",
        "pattern": "/IA-"
      },
      {
        "netclass": "Default",
        "pattern": "/IAN"
      },
      {
        "netclass": "Default",
        "pattern": "/IAP"
      },
      {
        "netclass": "Default",
        "pattern": "/IB+"
      },
      {
        "netclass": "Default",
        "pattern": "/IB-"
      },
      {
        "netclass": "Default",
        "pattern": "/IBN"
      },
      {
        "netclass": "Default",
        "pattern": "/IBP"
      },
      {
        "netclass": "Default",
        "pattern": "/IC+"
      },
      {
        "netclass": "Default",
        "pattern": "/IC-"
      },
      {
        "netclass": "Default",
        "pattern": "/ICN"
      },
      {
        "netclass": "Default",
        "pattern": "/ICP"
      },
      {
        "netclass": "Default",
        "pattern": "/IN+"
      },
      {
        "netclass": "Default",
        "pattern": "/IN-"
      },
      {
        "netclass": "Default",
        "pattern": "/INN"
      },
      {
        "netclass": "Default",
        "pattern": "/INP"
      },
      {
        "netclass": "Default",
        "pattern": "/IO2"
      },
      {
        "netclass": "Default",
        "pattern": "/IRQ0"
      },
      {
        "netclass": "Default",
        "pattern": "/IRQ1"
      },
      {
        "netclass": "Default",
        "pattern": "/KEY_IO0"
      },
      {
        "netclass": "Default",
        "pattern": "/PERI_PWR"
      },
      {
        "netclass": "Default",
        "pattern": "/PM0"
      },
      {
        "netclass": "Default",
        "pattern": "/PM1"
      },
      {
        "netclass": "Default",
        "pattern": "/RLY_TRIG1"
      },
      {
        "netclass": "Default",
        "pattern": "/RLY_TRIG2"
      },
      {
        "netclass": "Default",
        "pattern": "/RXD0"
      },
      {
        "netclass": "Default",
        "pattern": "/SCLK"
      },
      {
        "netclass": "Default",
        "pattern": "/SDI"
      },
      {
        "netclass": "Default",
        "pattern": "/SDO"
      },
      {
        "netclass": "Default",
        "pattern": "/SD_CLK"
      },
      {
        "netclass": "Default",
        "pattern": "/SD_CS"
      },
      {
        "netclass": "Default",
        "pattern": "/SD_DI"
      },
      {
        "netclass": "Default",
        "pattern": "/TEMP_HUMI"
      },
      {
        "netclass": "Default",
        "pattern": "/TXD0"
      },
      {
        "netclass": "Default",
        "pattern": "/UA"
      },
      {
        "netclass": "Default",
        "pattern": "/UB"
      },
      {
        "netclass": "Default",
        "pattern": "/UC"
      },
      {
        "netclass": "Default",
        "pattern": "/USB_DN"
      },
      {
        "netclass": "Default",
        "pattern": "/USB_DP"
      },
      {
        "netclass": "Default",
        "pattern": "/VAP"
      },
      {
        "netclass": "Default",
        "pattern": "/VBP"
      },
      {
        "netclass": "Default",
        "pattern": "/VBUS"
      },
      {
        "netclass": "Default",
        "pattern": "/VCP"
      },
      {
        "netclass": "Default",
        "pattern": "/VIN_5V"
      },
      {
        "netclass": "Default",
        "pattern": "/WarnOut"
      },
      {
        "netclass": "Default",
        "pattern": "/ZX0"
      },
      {
        "netclass": "Default",
        "pattern": "/ZX1"
      },
      {
        "netclass": "Default",
        "pattern": "/ZX2"
      },
      {
        "netclass": "Default",
        "pattern": "/~{CS}"
      },
      {
        "netclass": "Default",
        "pattern": "GND"
      },
      {
        "netclass": "Default",
        "pattern": "GNDA"
      },
      {
        "netclass": "Default",
        "pattern": "GNDPWR"
      },
      {
        "netclass": "Default",
        "pattern": "Net-(BZ1-Pad2)"
      },
      {
        "netclass": "Default",
        "pattern": "Net-(C10-Pad1)"
      },
      {
        "netclass": "Default",
        "pattern": "Net-(C10-Pad2)"
      },
      {
        "netclass": "Default",
        "pattern": "Net-(C12-Pad1)"
      },
      {
        "netclass": "Default",
        "pattern": "Net-(C12-Pad2)"
      },
      {
        "netclass": "Default",
        "pattern": "Net-(C15-Pad1)"
      },
      {
        "netclass": "Default",
        "pattern": "Net-(C17-Pad1)"
      },
      {
        "netclass": "Default",
        "pattern": "Net-(C18-Pad2)"
      },
      {
        "netclass": "Default",
        "pattern": "Net-(C20-Pad1)"
      },
      {
        "netclass": "Default",
        "pattern": "Net-(C39-Pad1)"
      },
      {
        "netclass": "Default",
        "pattern": "Net-(C43-Pad1)"
      },
      {
        "netclass": "Default",
        "pattern": "Net-(C45-Pad1)"
      },
      {
        "netclass": "Default",
        "pattern": "Net-(C46-Pad1)"
      },
      {
        "netclass": "Default",
        "pattern": "Net-(C48-Pad1)"
      },
      {
        "netclass": "Default",
        "pattern": "Net-(C49-Pad1)"
      },
      {
        "netclass": "Default",
        "pattern": "Net-(C51-Pad1)"
      },
      {
        "netclass": "Default",
        "pattern": "Net-(C51-Pad2)"
      },
      {
        "netclass": "Default",
        "pattern": "Net-(C52-Pad1)"
      },
      {
        "netclass": "Default",
        "pattern": "Net-(C53-Pad1)"
      },
      {
        "netclass": "Default",
        "pattern": "Net-(D1-Pad1)"
      },
      {
        "netclass": "Default",
        "pattern": "Net-(D16-Pad2)"
      },
      {
        "netclass": "Default",
        "pattern": "Net-(D17-Pad3)"
      },
      {
        "netclass": "Default",
        "pattern": "Net-(D17-Pad4)"
      },
      {
        "netclass": "Default",
        "pattern": "Net-(D18-Pad2)"
      },
      {
        "netclass": "Default",
        "pattern": "Net-(D19-Pad1)"
      },
      {
        "netclass": "Default",
        "pattern": "Net-(D19-Pad2)"
      },
      {
        "netclass": "Default",
        "pattern": "Net-(D2-Pad1)"
      },
      {
        "netclass": "Default",
        "pattern": "Net-(D22-Pad2)"
      },
      {
        "netclass": "Default",
        "pattern": "Net-(D23-Pad2)"
      },
      {
        "netclass": "Default",
        "pattern": "Net-(D24-Pad1)"
      },
      {
        "netclass": "Default",
        "pattern": "Net-(D26-Pad1)"
      },
      {
        "netclass": "Default",
        "pattern": "Net-(D27-Pad1)"
      },
      {
        "netclass": "Default",
        "pattern": "Net-(D28-Pad1)"
      },
      {
        "netclass": "Default",
        "pattern": "Net-(D29-Pad1)"
      },
      {
        "netclass": "Default",
        "pattern": "Net-(D3-Pad2)"
      },
      {
        "netclass": "Default",
        "pattern": "Net-(D4-Pad2)"
      },
      {
        "netclass": "Default",
        "pattern": "Net-(D5-Pad1)"
      },
      {
        "netclass": "Default",
        "pattern": "Net-(F1-Pad2)"
      },
      {
        "netclass": "Default",
        "pattern": "Net-(FL1-Pad1)"
      },
      {
        "netclass": "Default",
        "pattern": "Net-(J16-Pad2)"
      },
      {
        "netclass": "Default",
        "pattern": "Net-(J16-Pad3)"
      },
      {
        "netclass": "Default",
        "pattern": "Net-(J17-Pad1)"
      },
      {
        "netclass": "Default",
        "pattern": "Net-(J17-Pad2)"
      },
      {
        "netclass": "Default",
        "pattern": "Net-(J17-Pad3)"
      },
      {
        "netclass": "Default",
        "pattern": "Net-(J17-Pad4)"
      },
      {
        "netclass": "Default",
        "pattern": "Net-(J17-Pad5)"
      },
      {
        "netclass": "Default",
        "pattern": "Net-(J3-Pad1)"
      },
      {
        "netclass": "Default",
        "pattern": "Net-(J3-Pad2)"
      },
      {
        "netclass": "Default",
        "pattern": "Net-(J5-Pad1)"
      },
      {
        "netclass": "Default",
        "pattern": "Net-(J5-Pad2)"
      },
      {
        "netclass": "Default",
        "pattern": "Net-(J8-Pad4)"
      },
      {
        "netclass": "Default",
        "pattern": "Net-(K1-Pad4)"
      },
      {
        "netclass": "Default",
        "pattern": "Net-(K2-Pad4)"
      },
      {
        "netclass": "Default",
        "pattern": "Net-(MICRO_SD1-Pad1)"
      },
      {
        "netclass": "Default",
        "pattern": "Net-(MICRO_SD1-Pad8)"
      },
      {
        "netclass": "Default",
        "pattern": "Net-(MICRO_SD1-PadCD1)"
      },
      {
        "netclass": "Default",
        "pattern": "Net-(Q1-Pad1)"
      },
      {
        "netclass": "Default",
        "pattern": "Net-(Q2-Pad1)"
      },
      {
        "netclass": "Default",
        "pattern": "Net-(Q3-Pad1)"
      },
      {
        "netclass": "Default",
        "pattern": "Net-(Q4-Pad1)"
      },
      {
        "netclass": "Default",
        "pattern": "Net-(Q5-Pad1)"
      },
      {
        "netclass": "Default",
        "pattern": "Net-(Q6-Pad1)"
      },
      {
        "netclass": "Default",
        "pattern": "Net-(Q9-Pad1)"
      },
      {
        "netclass": "Default",
        "pattern": "Net-(R100-Pad1)"
      },
      {
        "netclass": "Default",
        "pattern": "Net-(R101-Pad1)"
      },
      {
        "netclass": "Default",
        "pattern": "Net-(R102-Pad2)"
      },
      {
        "netclass": "Default",
        "pattern": "Net-(R103-Pad2)"
      },
      {
        "netclass": "Default",
        "pattern": "Net-(R11-Pad2)"
      },
      {
        "netclass": "Default",
        "pattern": "Net-(R2-Pad2)"
      },
      {
        "netclass": "Default",
        "pattern": "Net-(R22-Pad2)"
      },
      {
        "netclass": "Default",
        "pattern": "Net-(R3-Pad2)"
      },
      {
        "netclass": "Default",
        "pattern": "Net-(R36-Pad2)"
      },
      {
        "netclass": "Default",
        "pattern": "Net-(R39-Pad2)"
      },
      {
        "netclass": "Default",
        "pattern": "Net-(R40-Pad1)"
      },
      {
        "netclass": "Default",
        "pattern": "Net-(R41-Pad1)"
      },
      {
        "netclass": "Default",
        "pattern": "Net-(R42-Pad1)"
      },
      {
        "netclass": "Default",
        "pattern": "Net-(R47-Pad1)"
      },
      {
        "netclass": "Default",
        "pattern": "Net-(R48-Pad1)"
      },
      {
        "netclass": "Default",
        "pattern": "Net-(R52-Pad1)"
      },
      {
        "netclass": "Default",
        "pattern": "Net-(R57-Pad1)"
      },
      {
        "netclass": "Default",
        "pattern": "Net-(R58-Pad1)"
      },
      {
        "netclass": "Default",
        "pattern": "Net-(R59-Pad1)"
      },
      {
        "netclass": "Default",
        "pattern": "Net-(R60-Pad1)"
      },
      {
        "netclass": "Default",
        "pattern": "Net-(R61-Pad1)"
      },
      {
        "netclass": "Default",
        "pattern": "Net-(R62-Pad1)"
      },
      {
        "netclass": "Default",
        "pattern": "Net-(R63-Pad1)"
      },
      {
        "netclass": "Default",
        "pattern": "Net-(R64-Pad1)"
      },
      {
        "netclass": "Default",
        "pattern": "Net-(R65-Pad1)"
      },
      {
        "netclass": "Default",
        "pattern": "Net-(R66-Pad1)"
      },
      {
        "netclass": "Default",
        "pattern": "Net-(R67-Pad1)"
      },
      {
        "netclass": "Default",
        "pattern": "Net-(R68-Pad1)"
      },
      {
        "netclass": "Default",
        "pattern": "Net-(R9-Pad1)"
      },
      {
        "netclass": "Default",
        "pattern": "Net-(R98-Pad1)"
      },
      {
        "netclass": "Default",
        "pattern": "Net-(R99-Pad1)"
      },
      {
        "netclass": "Default",
        "pattern": "Net-(U10-Pad1)"
      },
      {
        "netclass": "Default",
        "pattern": "Net-(U10-Pad10)"
      },
      {
        "netclass": "Default",
        "pattern": "Net-(U10-Pad11)"
      },
      {
        "netclass": "Default",
        "pattern": "Net-(U10-Pad12)"
      },
      {
        "netclass": "Default",
        "pattern": "Net-(U10-Pad13)"
      },
      {
        "netclass": "Default",
        "pattern": "Net-(U10-Pad14)"
      },
      {
        "netclass": "Default",
        "pattern": "Net-(U10-Pad15)"
      },
      {
        "netclass": "Default",
        "pattern": "Net-(U10-Pad16)"
      },
      {
        "netclass": "Default",
        "pattern": "Net-(U10-Pad17)"
      },
      {
        "netclass": "Default",
        "pattern": "Net-(U10-Pad18)"
      },
      {
        "netclass": "Default",
        "pattern": "Net-(U10-Pad19)"
      },
      {
        "netclass": "Default",
        "pattern": "Net-(U10-Pad2)"
      },
      {
        "netclass": "Default",
        "pattern": "Net-(U10-Pad20)"
      },
      {
        "netclass": "Default",
        "pattern": "Net-(U10-Pad21)"
      },
      {
        "netclass": "Default",
        "pattern": "Net-(U10-Pad22)"
      },
      {
        "netclass": "Default",
        "pattern": "Net-(U10-Pad23)"
      },
      {
        "netclass": "Default",
        "pattern": "Net-(U10-Pad27)"
      },
      {
        "netclass": "Default",
        "pattern": "Net-(U12-Pad12)"
      },
      {
        "netclass": "Default",
        "pattern": "Net-(U12-Pad14)"
      },
      {
        "netclass": "Default",
        "pattern": "Net-(U12-Pad17)"
      },
      {
        "netclass": "Default",
        "pattern": "Net-(U12-Pad18)"
      },
      {
        "netclass": "Default",
        "pattern": "Net-(U12-Pad19)"
      },
      {
        "netclass": "Default",
        "pattern": "Net-(U12-Pad20)"
      },
      {
        "netclass": "Default",
        "pattern": "Net-(U12-Pad21)"
      },
      {
        "netclass": "Default",
        "pattern": "Net-(U12-Pad22)"
      },
      {
        "netclass": "Default",
        "pattern": "Net-(U12-Pad32)"
      },
      {
        "netclass": "Default",
        "pattern": "Net-(U12-Pad5)"
      },
      {
        "netclass": "Default",
        "pattern": "Net-(U12-Pad6)"
      },
      {
        "netclass": "Default",
        "pattern": "Net-(U12-Pad7)"
      },
      {
        "netclass": "Default",
        "pattern": "Net-(U2-Pad1)"
      },
      {
        "netclass": "Default",
        "pattern": "Net-(U6-Pad35)"
      },
      {
        "netclass": "Default",
        "pattern": "Net-(U6-Pad44)"
      },
      {
        "netclass": "Default",
        "pattern": "Net-(U6-Pad45)"
      },
      {
        "netclass": "Default",
        "pattern": "Net-(U6-Pad46)"
      },
      {
        "netclass": "Default",
        "pattern": "Net-(U7-Pad10)"
      },
      {
        "netclass": "Default",
        "pattern": "Net-(U7-Pad11)"
      },
      {
        "netclass": "Default",
        "pattern": "Net-(U7-Pad12)"
      },
      {
        "netclass": "Default",
        "pattern": "Net-(U7-Pad17)"
      },
      {
        "netclass": "Default",
        "pattern": "Net-(U7-Pad18)"
      },
      {
        "netclass": "Default",
        "pattern": "Net-(U7-Pad19)"
      },
      {
        "netclass": "Default",
        "pattern": "Net-(U7-Pad20)"
      },
      {
        "netclass": "Default",
        "pattern": "Net-(U7-Pad21)"
      },
      {
        "netclass": "Default",
        "pattern": "Net-(U7-Pad22)"
      },
      {
        "netclass": "Default",
        "pattern": "Net-(U7-Pad23)"
      },
      {
        "netclass": "Default",
        "pattern": "Net-(U7-Pad24)"
      },
      {
        "netclass": "Default",
        "pattern": "Net-(U7-Pad25)"
      },
      {
        "netclass": "Default",
        "pattern": "Net-(U7-Pad26)"
      },
      {
        "netclass": "Default",
        "pattern": "Net-(U7-Pad27)"
      },
      {
        "netclass": "Default",
        "pattern": "Net-(U7-Pad28)"
      },
      {
        "netclass": "Default",
        "pattern": "Net-(U7-Pad29)"
      },
      {
        "netclass": "Default",
        "pattern": "Net-(U7-Pad3)"
      },
      {
        "netclass": "Default",
        "pattern": "Net-(U7-Pad30)"
      },
      {
        "netclass": "Default",
        "pattern": "Net-(U7-Pad4)"
      },
      {
        "netclass": "Default",
        "pattern": "Net-(U7-Pad7)"
      },
      {
        "netclass": "Default",
        "pattern": "Net-(U7-Pad8)"
      },
      {
        "netclass": "Default",
        "pattern": "Net-(U7-Pad9)"
      }
    ]
  },
  "pcbnew": {
    "last_paths": {
      "gencad": "",
      "idf": "",
      "netlist": "",
      "plot": "Gerber/",
      "pos_files": "Assembly/",
      "specctra_dsn": "",
      "step": "",
      "svg": "",
      "vrml": ""
    },
    "page_layout_descr_file": ""
  },
  "schematic": {
    "annotate_start_num": 0,
    "bom_fmt_presets": [],
    "bom_fmt_settings": {
      "field_delimiter": ",",
      "keep_line_breaks": false,
      "keep_tabs": false,
      "name": "CSV",
      "ref_delimiter": ",",
      "ref_range_delimiter": "",
      "string_delimiter": "\""
    },
    "bom_presets": [],
    "bom_settings": {
      "exclude_dnp": false,
      "fields_ordered": [
        {
          "group_by": false,
          "label": "Reference",
          "name": "Reference",
          "show": true
        },
        {
          "group_by": true,
          "label": "Value",
          "name": "Value",
          "show": true
        },
        {
          "group_by": false,
          "label": "Datasheet",
          "name": "Datasheet",
          "show": true
        },
        {
          "group_by": true,
          "label": "Footprint",
          "name": "Footprint",
          "show": true
        },
        {
          "group_by": false,
          "label": "Qty",
          "name": "${QUANTITY}",
          "show": true
        },
        {
          "group_by": true,
          "label": "DNP",
          "name": "${DNP}",
          "show": true
        },
        {
          "group_by": false,
          "label": "#",
          "name": "${ITEM_NUMBER}",
          "show": false
        },
        {
          "group_by": false,
          "label": "Description",
          "name": "Description",
          "show": false
        }
      ],
      "filter_string": "",
      "group_symbols": true,
      "name": "",
      "sort_asc": true,
      "sort_field": "Reference"
    },
    "connection_grid_size": 50.0,
    "drawing": {
      "dashed_lines_dash_length_ratio": 12.0,
      "dashed_lines_gap_length_ratio": 3.0,
      "default_line_thickness": 6.0,
      "default_text_size": 50.0,
      "field_names": [],
      "intersheets_ref_own_page": false,
      "intersheets_ref_prefix": "",
      "intersheets_ref_short": false,
      "intersheets_ref_show": false,
      "intersheets_ref_suffix": "",
      "junction_size_choice": 3,
      "label_size_ratio": 0.25,
      "operating_point_overlay_i_precision": 3,
      "operating_point_overlay_i_range": "~A",
      "operating_point_overlay_v_precision": 3,
      "operating_point_overlay_v_range": "~V",
      "overbar_offset_ratio": 1.23,
      "pin_symbol_size": 0.0,
      "text_offset_ratio": 0.08
    },
    "legacy_lib_dir": "",
    "legacy_lib_list": [],
    "meta": {
      "version": 1
    },
    "net_format_name": "",
    "page_layout_descr_file": "",
    "plot_directory": "./",
    "spice_adjust_passive_values": false,
    "spice_current_sheet_as_root": false,
    "spice_external_command": "spice \"%I\"",
    "spice_model_current_sheet_as_root": true,
    "spice_save_all_currents": false,
    "spice_save_all_dissipations": false,
    "spice_save_all_voltages": false,
    "subpart_first_id": 65,
    "subpart_id_separator": 0
  },
  "sheets": [
    [
      "c2c9bfc2-9548-4c31-bfeb-50dec9627b7d",
      "Root"
    ]
  ],
  "text_variables": {}
}
