%TF.GenerationSoftware,KiCad,Pcbnew,(5.1.7)-1*%
%TF.CreationDate,2021-02-19T13:57:31+06:30*%
%TF.ProjectId,WPAS_Lite_SMD_v0.1,57504153-5f4c-4697-9465-5f534d445f76,0*%
%TF.SameCoordinates,Original*%
%TF.FileFunction,Paste,Top*%
%TF.FilePolarity,Positive*%
%FSLAX46Y46*%
G04 Gerber Fmt 4.6, Leading zero omitted, Abs format (unit mm)*
G04 Created by KiCad (PCBNEW (5.1.7)-1) date 2021-02-19 13:57:31*
%MOMM*%
%LPD*%
G01*
G04 APERTURE LIST*
%ADD10R,0.900000X0.800000*%
%ADD11O,2.250000X1.600000*%
%ADD12R,2.500000X1.000000*%
%ADD13R,1.200000X0.900000*%
%ADD14R,0.500000X0.800000*%
%ADD15R,0.400000X0.800000*%
%ADD16R,2.400000X1.800000*%
%ADD17R,5.250000X4.550000*%
%ADD18R,1.100000X4.600000*%
%ADD19R,2.000000X1.500000*%
%ADD20R,2.000000X3.800000*%
%ADD21R,3.050000X2.750000*%
%ADD22R,2.200000X1.200000*%
%ADD23R,1.500000X2.000000*%
%ADD24R,3.800000X2.000000*%
%ADD25R,0.800000X0.900000*%
%ADD26R,2.900000X5.400000*%
%ADD27R,0.900000X1.200000*%
%ADD28R,2.500000X1.800000*%
%ADD29R,1.910000X0.910000*%
%ADD30R,0.910000X1.910000*%
%ADD31R,1.500000X6.700000*%
G04 APERTURE END LIST*
%TO.C,R8*%
G36*
G01*
X102990798Y-105022600D02*
X103890802Y-105022600D01*
G75*
G02*
X104140800Y-105272598I0J-249998D01*
G01*
X104140800Y-105797602D01*
G75*
G02*
X103890802Y-106047600I-249998J0D01*
G01*
X102990798Y-106047600D01*
G75*
G02*
X102740800Y-105797602I0J249998D01*
G01*
X102740800Y-105272598D01*
G75*
G02*
X102990798Y-105022600I249998J0D01*
G01*
G37*
G36*
G01*
X102990798Y-103197600D02*
X103890802Y-103197600D01*
G75*
G02*
X104140800Y-103447598I0J-249998D01*
G01*
X104140800Y-103972602D01*
G75*
G02*
X103890802Y-104222600I-249998J0D01*
G01*
X102990798Y-104222600D01*
G75*
G02*
X102740800Y-103972602I0J249998D01*
G01*
X102740800Y-103447598D01*
G75*
G02*
X102990798Y-103197600I249998J0D01*
G01*
G37*
%TD*%
%TO.C,R7*%
G36*
G01*
X101878300Y-94901598D02*
X101878300Y-95801602D01*
G75*
G02*
X101628302Y-96051600I-249998J0D01*
G01*
X101103298Y-96051600D01*
G75*
G02*
X100853300Y-95801602I0J249998D01*
G01*
X100853300Y-94901598D01*
G75*
G02*
X101103298Y-94651600I249998J0D01*
G01*
X101628302Y-94651600D01*
G75*
G02*
X101878300Y-94901598I0J-249998D01*
G01*
G37*
G36*
G01*
X103703300Y-94901598D02*
X103703300Y-95801602D01*
G75*
G02*
X103453302Y-96051600I-249998J0D01*
G01*
X102928298Y-96051600D01*
G75*
G02*
X102678300Y-95801602I0J249998D01*
G01*
X102678300Y-94901598D01*
G75*
G02*
X102928298Y-94651600I249998J0D01*
G01*
X103453302Y-94651600D01*
G75*
G02*
X103703300Y-94901598I0J-249998D01*
G01*
G37*
%TD*%
%TO.C,R4*%
G36*
G01*
X103770800Y-101149998D02*
X103770800Y-102050002D01*
G75*
G02*
X103520802Y-102300000I-249998J0D01*
G01*
X102995798Y-102300000D01*
G75*
G02*
X102745800Y-102050002I0J249998D01*
G01*
X102745800Y-101149998D01*
G75*
G02*
X102995798Y-100900000I249998J0D01*
G01*
X103520802Y-100900000D01*
G75*
G02*
X103770800Y-101149998I0J-249998D01*
G01*
G37*
G36*
G01*
X105595800Y-101149998D02*
X105595800Y-102050002D01*
G75*
G02*
X105345802Y-102300000I-249998J0D01*
G01*
X104820798Y-102300000D01*
G75*
G02*
X104570800Y-102050002I0J249998D01*
G01*
X104570800Y-101149998D01*
G75*
G02*
X104820798Y-100900000I249998J0D01*
G01*
X105345802Y-100900000D01*
G75*
G02*
X105595800Y-101149998I0J-249998D01*
G01*
G37*
%TD*%
%TO.C,R1*%
G36*
G01*
X107036798Y-98744500D02*
X107936802Y-98744500D01*
G75*
G02*
X108186800Y-98994498I0J-249998D01*
G01*
X108186800Y-99519502D01*
G75*
G02*
X107936802Y-99769500I-249998J0D01*
G01*
X107036798Y-99769500D01*
G75*
G02*
X106786800Y-99519502I0J249998D01*
G01*
X106786800Y-98994498D01*
G75*
G02*
X107036798Y-98744500I249998J0D01*
G01*
G37*
G36*
G01*
X107036798Y-96919500D02*
X107936802Y-96919500D01*
G75*
G02*
X108186800Y-97169498I0J-249998D01*
G01*
X108186800Y-97694502D01*
G75*
G02*
X107936802Y-97944500I-249998J0D01*
G01*
X107036798Y-97944500D01*
G75*
G02*
X106786800Y-97694502I0J249998D01*
G01*
X106786800Y-97169498D01*
G75*
G02*
X107036798Y-96919500I249998J0D01*
G01*
G37*
%TD*%
D10*
%TO.C,Q5*%
X107153200Y-102550000D03*
X109153200Y-101600000D03*
X109153200Y-103500000D03*
%TD*%
%TO.C,Q2*%
X103190800Y-98382000D03*
X105190800Y-97432000D03*
X105190800Y-99332000D03*
%TD*%
%TO.C,U3*%
G36*
G01*
X90840500Y-91582000D02*
X90375500Y-91582000D01*
G75*
G02*
X90143000Y-91349500I0J232500D01*
G01*
X90143000Y-90884500D01*
G75*
G02*
X90375500Y-90652000I232500J0D01*
G01*
X90840500Y-90652000D01*
G75*
G02*
X91073000Y-90884500I0J-232500D01*
G01*
X91073000Y-91349500D01*
G75*
G02*
X90840500Y-91582000I-232500J0D01*
G01*
G37*
G36*
G01*
X89690500Y-91582000D02*
X89225500Y-91582000D01*
G75*
G02*
X88993000Y-91349500I0J232500D01*
G01*
X88993000Y-90884500D01*
G75*
G02*
X89225500Y-90652000I232500J0D01*
G01*
X89690500Y-90652000D01*
G75*
G02*
X89923000Y-90884500I0J-232500D01*
G01*
X89923000Y-91349500D01*
G75*
G02*
X89690500Y-91582000I-232500J0D01*
G01*
G37*
G36*
G01*
X90840500Y-92732000D02*
X90375500Y-92732000D01*
G75*
G02*
X90143000Y-92499500I0J232500D01*
G01*
X90143000Y-92034500D01*
G75*
G02*
X90375500Y-91802000I232500J0D01*
G01*
X90840500Y-91802000D01*
G75*
G02*
X91073000Y-92034500I0J-232500D01*
G01*
X91073000Y-92499500D01*
G75*
G02*
X90840500Y-92732000I-232500J0D01*
G01*
G37*
G36*
G01*
X89690500Y-92732000D02*
X89225500Y-92732000D01*
G75*
G02*
X88993000Y-92499500I0J232500D01*
G01*
X88993000Y-92034500D01*
G75*
G02*
X89225500Y-91802000I232500J0D01*
G01*
X89690500Y-91802000D01*
G75*
G02*
X89923000Y-92034500I0J-232500D01*
G01*
X89923000Y-92499500D01*
G75*
G02*
X89690500Y-92732000I-232500J0D01*
G01*
G37*
G36*
G01*
X88458000Y-92992000D02*
X87733000Y-92992000D01*
G75*
G02*
X87683000Y-92942000I0J50000D01*
G01*
X87683000Y-92842000D01*
G75*
G02*
X87733000Y-92792000I50000J0D01*
G01*
X88458000Y-92792000D01*
G75*
G02*
X88508000Y-92842000I0J-50000D01*
G01*
X88508000Y-92942000D01*
G75*
G02*
X88458000Y-92992000I-50000J0D01*
G01*
G37*
G36*
G01*
X88458000Y-92592000D02*
X87733000Y-92592000D01*
G75*
G02*
X87683000Y-92542000I0J50000D01*
G01*
X87683000Y-92442000D01*
G75*
G02*
X87733000Y-92392000I50000J0D01*
G01*
X88458000Y-92392000D01*
G75*
G02*
X88508000Y-92442000I0J-50000D01*
G01*
X88508000Y-92542000D01*
G75*
G02*
X88458000Y-92592000I-50000J0D01*
G01*
G37*
G36*
G01*
X88458000Y-92192000D02*
X87733000Y-92192000D01*
G75*
G02*
X87683000Y-92142000I0J50000D01*
G01*
X87683000Y-92042000D01*
G75*
G02*
X87733000Y-91992000I50000J0D01*
G01*
X88458000Y-91992000D01*
G75*
G02*
X88508000Y-92042000I0J-50000D01*
G01*
X88508000Y-92142000D01*
G75*
G02*
X88458000Y-92192000I-50000J0D01*
G01*
G37*
G36*
G01*
X88458000Y-91792000D02*
X87733000Y-91792000D01*
G75*
G02*
X87683000Y-91742000I0J50000D01*
G01*
X87683000Y-91642000D01*
G75*
G02*
X87733000Y-91592000I50000J0D01*
G01*
X88458000Y-91592000D01*
G75*
G02*
X88508000Y-91642000I0J-50000D01*
G01*
X88508000Y-91742000D01*
G75*
G02*
X88458000Y-91792000I-50000J0D01*
G01*
G37*
G36*
G01*
X88458000Y-91392000D02*
X87733000Y-91392000D01*
G75*
G02*
X87683000Y-91342000I0J50000D01*
G01*
X87683000Y-91242000D01*
G75*
G02*
X87733000Y-91192000I50000J0D01*
G01*
X88458000Y-91192000D01*
G75*
G02*
X88508000Y-91242000I0J-50000D01*
G01*
X88508000Y-91342000D01*
G75*
G02*
X88458000Y-91392000I-50000J0D01*
G01*
G37*
G36*
G01*
X88458000Y-90992000D02*
X87733000Y-90992000D01*
G75*
G02*
X87683000Y-90942000I0J50000D01*
G01*
X87683000Y-90842000D01*
G75*
G02*
X87733000Y-90792000I50000J0D01*
G01*
X88458000Y-90792000D01*
G75*
G02*
X88508000Y-90842000I0J-50000D01*
G01*
X88508000Y-90942000D01*
G75*
G02*
X88458000Y-90992000I-50000J0D01*
G01*
G37*
G36*
G01*
X88458000Y-90592000D02*
X87733000Y-90592000D01*
G75*
G02*
X87683000Y-90542000I0J50000D01*
G01*
X87683000Y-90442000D01*
G75*
G02*
X87733000Y-90392000I50000J0D01*
G01*
X88458000Y-90392000D01*
G75*
G02*
X88508000Y-90442000I0J-50000D01*
G01*
X88508000Y-90542000D01*
G75*
G02*
X88458000Y-90592000I-50000J0D01*
G01*
G37*
G36*
G01*
X88883000Y-90167000D02*
X88783000Y-90167000D01*
G75*
G02*
X88733000Y-90117000I0J50000D01*
G01*
X88733000Y-89392000D01*
G75*
G02*
X88783000Y-89342000I50000J0D01*
G01*
X88883000Y-89342000D01*
G75*
G02*
X88933000Y-89392000I0J-50000D01*
G01*
X88933000Y-90117000D01*
G75*
G02*
X88883000Y-90167000I-50000J0D01*
G01*
G37*
G36*
G01*
X89283000Y-90167000D02*
X89183000Y-90167000D01*
G75*
G02*
X89133000Y-90117000I0J50000D01*
G01*
X89133000Y-89392000D01*
G75*
G02*
X89183000Y-89342000I50000J0D01*
G01*
X89283000Y-89342000D01*
G75*
G02*
X89333000Y-89392000I0J-50000D01*
G01*
X89333000Y-90117000D01*
G75*
G02*
X89283000Y-90167000I-50000J0D01*
G01*
G37*
G36*
G01*
X89683000Y-90167000D02*
X89583000Y-90167000D01*
G75*
G02*
X89533000Y-90117000I0J50000D01*
G01*
X89533000Y-89392000D01*
G75*
G02*
X89583000Y-89342000I50000J0D01*
G01*
X89683000Y-89342000D01*
G75*
G02*
X89733000Y-89392000I0J-50000D01*
G01*
X89733000Y-90117000D01*
G75*
G02*
X89683000Y-90167000I-50000J0D01*
G01*
G37*
G36*
G01*
X90083000Y-90167000D02*
X89983000Y-90167000D01*
G75*
G02*
X89933000Y-90117000I0J50000D01*
G01*
X89933000Y-89392000D01*
G75*
G02*
X89983000Y-89342000I50000J0D01*
G01*
X90083000Y-89342000D01*
G75*
G02*
X90133000Y-89392000I0J-50000D01*
G01*
X90133000Y-90117000D01*
G75*
G02*
X90083000Y-90167000I-50000J0D01*
G01*
G37*
G36*
G01*
X90483000Y-90167000D02*
X90383000Y-90167000D01*
G75*
G02*
X90333000Y-90117000I0J50000D01*
G01*
X90333000Y-89392000D01*
G75*
G02*
X90383000Y-89342000I50000J0D01*
G01*
X90483000Y-89342000D01*
G75*
G02*
X90533000Y-89392000I0J-50000D01*
G01*
X90533000Y-90117000D01*
G75*
G02*
X90483000Y-90167000I-50000J0D01*
G01*
G37*
G36*
G01*
X90883000Y-90167000D02*
X90783000Y-90167000D01*
G75*
G02*
X90733000Y-90117000I0J50000D01*
G01*
X90733000Y-89392000D01*
G75*
G02*
X90783000Y-89342000I50000J0D01*
G01*
X90883000Y-89342000D01*
G75*
G02*
X90933000Y-89392000I0J-50000D01*
G01*
X90933000Y-90117000D01*
G75*
G02*
X90883000Y-90167000I-50000J0D01*
G01*
G37*
G36*
G01*
X91283000Y-90167000D02*
X91183000Y-90167000D01*
G75*
G02*
X91133000Y-90117000I0J50000D01*
G01*
X91133000Y-89392000D01*
G75*
G02*
X91183000Y-89342000I50000J0D01*
G01*
X91283000Y-89342000D01*
G75*
G02*
X91333000Y-89392000I0J-50000D01*
G01*
X91333000Y-90117000D01*
G75*
G02*
X91283000Y-90167000I-50000J0D01*
G01*
G37*
G36*
G01*
X92333000Y-90592000D02*
X91608000Y-90592000D01*
G75*
G02*
X91558000Y-90542000I0J50000D01*
G01*
X91558000Y-90442000D01*
G75*
G02*
X91608000Y-90392000I50000J0D01*
G01*
X92333000Y-90392000D01*
G75*
G02*
X92383000Y-90442000I0J-50000D01*
G01*
X92383000Y-90542000D01*
G75*
G02*
X92333000Y-90592000I-50000J0D01*
G01*
G37*
G36*
G01*
X92333000Y-90992000D02*
X91608000Y-90992000D01*
G75*
G02*
X91558000Y-90942000I0J50000D01*
G01*
X91558000Y-90842000D01*
G75*
G02*
X91608000Y-90792000I50000J0D01*
G01*
X92333000Y-90792000D01*
G75*
G02*
X92383000Y-90842000I0J-50000D01*
G01*
X92383000Y-90942000D01*
G75*
G02*
X92333000Y-90992000I-50000J0D01*
G01*
G37*
G36*
G01*
X92333000Y-91392000D02*
X91608000Y-91392000D01*
G75*
G02*
X91558000Y-91342000I0J50000D01*
G01*
X91558000Y-91242000D01*
G75*
G02*
X91608000Y-91192000I50000J0D01*
G01*
X92333000Y-91192000D01*
G75*
G02*
X92383000Y-91242000I0J-50000D01*
G01*
X92383000Y-91342000D01*
G75*
G02*
X92333000Y-91392000I-50000J0D01*
G01*
G37*
G36*
G01*
X92333000Y-91792000D02*
X91608000Y-91792000D01*
G75*
G02*
X91558000Y-91742000I0J50000D01*
G01*
X91558000Y-91642000D01*
G75*
G02*
X91608000Y-91592000I50000J0D01*
G01*
X92333000Y-91592000D01*
G75*
G02*
X92383000Y-91642000I0J-50000D01*
G01*
X92383000Y-91742000D01*
G75*
G02*
X92333000Y-91792000I-50000J0D01*
G01*
G37*
G36*
G01*
X92333000Y-92192000D02*
X91608000Y-92192000D01*
G75*
G02*
X91558000Y-92142000I0J50000D01*
G01*
X91558000Y-92042000D01*
G75*
G02*
X91608000Y-91992000I50000J0D01*
G01*
X92333000Y-91992000D01*
G75*
G02*
X92383000Y-92042000I0J-50000D01*
G01*
X92383000Y-92142000D01*
G75*
G02*
X92333000Y-92192000I-50000J0D01*
G01*
G37*
G36*
G01*
X92333000Y-92592000D02*
X91608000Y-92592000D01*
G75*
G02*
X91558000Y-92542000I0J50000D01*
G01*
X91558000Y-92442000D01*
G75*
G02*
X91608000Y-92392000I50000J0D01*
G01*
X92333000Y-92392000D01*
G75*
G02*
X92383000Y-92442000I0J-50000D01*
G01*
X92383000Y-92542000D01*
G75*
G02*
X92333000Y-92592000I-50000J0D01*
G01*
G37*
G36*
G01*
X92333000Y-92992000D02*
X91608000Y-92992000D01*
G75*
G02*
X91558000Y-92942000I0J50000D01*
G01*
X91558000Y-92842000D01*
G75*
G02*
X91608000Y-92792000I50000J0D01*
G01*
X92333000Y-92792000D01*
G75*
G02*
X92383000Y-92842000I0J-50000D01*
G01*
X92383000Y-92942000D01*
G75*
G02*
X92333000Y-92992000I-50000J0D01*
G01*
G37*
G36*
G01*
X91283000Y-94042000D02*
X91183000Y-94042000D01*
G75*
G02*
X91133000Y-93992000I0J50000D01*
G01*
X91133000Y-93267000D01*
G75*
G02*
X91183000Y-93217000I50000J0D01*
G01*
X91283000Y-93217000D01*
G75*
G02*
X91333000Y-93267000I0J-50000D01*
G01*
X91333000Y-93992000D01*
G75*
G02*
X91283000Y-94042000I-50000J0D01*
G01*
G37*
G36*
G01*
X90883000Y-94042000D02*
X90783000Y-94042000D01*
G75*
G02*
X90733000Y-93992000I0J50000D01*
G01*
X90733000Y-93267000D01*
G75*
G02*
X90783000Y-93217000I50000J0D01*
G01*
X90883000Y-93217000D01*
G75*
G02*
X90933000Y-93267000I0J-50000D01*
G01*
X90933000Y-93992000D01*
G75*
G02*
X90883000Y-94042000I-50000J0D01*
G01*
G37*
G36*
G01*
X90483000Y-94042000D02*
X90383000Y-94042000D01*
G75*
G02*
X90333000Y-93992000I0J50000D01*
G01*
X90333000Y-93267000D01*
G75*
G02*
X90383000Y-93217000I50000J0D01*
G01*
X90483000Y-93217000D01*
G75*
G02*
X90533000Y-93267000I0J-50000D01*
G01*
X90533000Y-93992000D01*
G75*
G02*
X90483000Y-94042000I-50000J0D01*
G01*
G37*
G36*
G01*
X90083000Y-94042000D02*
X89983000Y-94042000D01*
G75*
G02*
X89933000Y-93992000I0J50000D01*
G01*
X89933000Y-93267000D01*
G75*
G02*
X89983000Y-93217000I50000J0D01*
G01*
X90083000Y-93217000D01*
G75*
G02*
X90133000Y-93267000I0J-50000D01*
G01*
X90133000Y-93992000D01*
G75*
G02*
X90083000Y-94042000I-50000J0D01*
G01*
G37*
G36*
G01*
X89683000Y-94042000D02*
X89583000Y-94042000D01*
G75*
G02*
X89533000Y-93992000I0J50000D01*
G01*
X89533000Y-93267000D01*
G75*
G02*
X89583000Y-93217000I50000J0D01*
G01*
X89683000Y-93217000D01*
G75*
G02*
X89733000Y-93267000I0J-50000D01*
G01*
X89733000Y-93992000D01*
G75*
G02*
X89683000Y-94042000I-50000J0D01*
G01*
G37*
G36*
G01*
X89283000Y-94042000D02*
X89183000Y-94042000D01*
G75*
G02*
X89133000Y-93992000I0J50000D01*
G01*
X89133000Y-93267000D01*
G75*
G02*
X89183000Y-93217000I50000J0D01*
G01*
X89283000Y-93217000D01*
G75*
G02*
X89333000Y-93267000I0J-50000D01*
G01*
X89333000Y-93992000D01*
G75*
G02*
X89283000Y-94042000I-50000J0D01*
G01*
G37*
G36*
G01*
X88883000Y-94042000D02*
X88783000Y-94042000D01*
G75*
G02*
X88733000Y-93992000I0J50000D01*
G01*
X88733000Y-93267000D01*
G75*
G02*
X88783000Y-93217000I50000J0D01*
G01*
X88883000Y-93217000D01*
G75*
G02*
X88933000Y-93267000I0J-50000D01*
G01*
X88933000Y-93992000D01*
G75*
G02*
X88883000Y-94042000I-50000J0D01*
G01*
G37*
%TD*%
D11*
%TO.C,U2*%
X133913000Y-109423200D03*
X133913000Y-111963200D03*
X124913000Y-111963200D03*
X124913000Y-109423200D03*
%TD*%
%TO.C,U1*%
X133913000Y-117068600D03*
X133913000Y-119608600D03*
X124913000Y-119608600D03*
X124913000Y-117068600D03*
%TD*%
D12*
%TO.C,U4*%
X130866200Y-87432000D03*
X130866200Y-89432000D03*
X130866200Y-91432000D03*
X130866200Y-93432000D03*
X130866200Y-95432000D03*
X130866200Y-97432000D03*
X130866200Y-99432000D03*
X130866200Y-101432000D03*
X115666200Y-101432000D03*
X115666200Y-99432000D03*
X115666200Y-97432000D03*
X115666200Y-95432000D03*
X115666200Y-93432000D03*
X115666200Y-91432000D03*
X115666200Y-89432000D03*
X115666200Y-87432000D03*
%TD*%
D13*
%TO.C,D6*%
X148107400Y-102101000D03*
X148107400Y-105401000D03*
%TD*%
%TO.C,D4*%
X148107400Y-130930000D03*
X148107400Y-134230000D03*
%TD*%
D14*
%TO.C,RN3*%
X100488600Y-84545600D03*
D15*
X99688600Y-84545600D03*
D14*
X98088600Y-84545600D03*
D15*
X98888600Y-84545600D03*
D14*
X100488600Y-86345600D03*
D15*
X98888600Y-86345600D03*
X99688600Y-86345600D03*
D14*
X98088600Y-86345600D03*
%TD*%
%TO.C,D3*%
G36*
G01*
X144891600Y-102981600D02*
X146141600Y-102981600D01*
G75*
G02*
X146391600Y-103231600I0J-250000D01*
G01*
X146391600Y-103981600D01*
G75*
G02*
X146141600Y-104231600I-250000J0D01*
G01*
X144891600Y-104231600D01*
G75*
G02*
X144641600Y-103981600I0J250000D01*
G01*
X144641600Y-103231600D01*
G75*
G02*
X144891600Y-102981600I250000J0D01*
G01*
G37*
G36*
G01*
X144891600Y-100181600D02*
X146141600Y-100181600D01*
G75*
G02*
X146391600Y-100431600I0J-250000D01*
G01*
X146391600Y-101181600D01*
G75*
G02*
X146141600Y-101431600I-250000J0D01*
G01*
X144891600Y-101431600D01*
G75*
G02*
X144641600Y-101181600I0J250000D01*
G01*
X144641600Y-100431600D01*
G75*
G02*
X144891600Y-100181600I250000J0D01*
G01*
G37*
%TD*%
%TO.C,D2*%
G36*
G01*
X144891600Y-130772200D02*
X146141600Y-130772200D01*
G75*
G02*
X146391600Y-131022200I0J-250000D01*
G01*
X146391600Y-131772200D01*
G75*
G02*
X146141600Y-132022200I-250000J0D01*
G01*
X144891600Y-132022200D01*
G75*
G02*
X144641600Y-131772200I0J250000D01*
G01*
X144641600Y-131022200D01*
G75*
G02*
X144891600Y-130772200I250000J0D01*
G01*
G37*
G36*
G01*
X144891600Y-127972200D02*
X146141600Y-127972200D01*
G75*
G02*
X146391600Y-128222200I0J-250000D01*
G01*
X146391600Y-128972200D01*
G75*
G02*
X146141600Y-129222200I-250000J0D01*
G01*
X144891600Y-129222200D01*
G75*
G02*
X144641600Y-128972200I0J250000D01*
G01*
X144641600Y-128222200D01*
G75*
G02*
X144891600Y-127972200I250000J0D01*
G01*
G37*
%TD*%
D16*
%TO.C,R29*%
X120216000Y-153136600D03*
X110466000Y-153136600D03*
%TD*%
D17*
%TO.C,U9*%
X125672800Y-152207000D03*
X131222800Y-157057000D03*
X131222800Y-152207000D03*
X125672800Y-157057000D03*
D18*
X125047800Y-145482000D03*
X126747800Y-145482000D03*
X128447800Y-145482000D03*
X130147800Y-145482000D03*
X131847800Y-145482000D03*
%TD*%
%TO.C,U8*%
G36*
G01*
X107214800Y-136878200D02*
X107214800Y-136578200D01*
G75*
G02*
X107364800Y-136428200I150000J0D01*
G01*
X109014800Y-136428200D01*
G75*
G02*
X109164800Y-136578200I0J-150000D01*
G01*
X109164800Y-136878200D01*
G75*
G02*
X109014800Y-137028200I-150000J0D01*
G01*
X107364800Y-137028200D01*
G75*
G02*
X107214800Y-136878200I0J150000D01*
G01*
G37*
G36*
G01*
X107214800Y-138148200D02*
X107214800Y-137848200D01*
G75*
G02*
X107364800Y-137698200I150000J0D01*
G01*
X109014800Y-137698200D01*
G75*
G02*
X109164800Y-137848200I0J-150000D01*
G01*
X109164800Y-138148200D01*
G75*
G02*
X109014800Y-138298200I-150000J0D01*
G01*
X107364800Y-138298200D01*
G75*
G02*
X107214800Y-138148200I0J150000D01*
G01*
G37*
G36*
G01*
X107214800Y-139418200D02*
X107214800Y-139118200D01*
G75*
G02*
X107364800Y-138968200I150000J0D01*
G01*
X109014800Y-138968200D01*
G75*
G02*
X109164800Y-139118200I0J-150000D01*
G01*
X109164800Y-139418200D01*
G75*
G02*
X109014800Y-139568200I-150000J0D01*
G01*
X107364800Y-139568200D01*
G75*
G02*
X107214800Y-139418200I0J150000D01*
G01*
G37*
G36*
G01*
X107214800Y-140688200D02*
X107214800Y-140388200D01*
G75*
G02*
X107364800Y-140238200I150000J0D01*
G01*
X109014800Y-140238200D01*
G75*
G02*
X109164800Y-140388200I0J-150000D01*
G01*
X109164800Y-140688200D01*
G75*
G02*
X109014800Y-140838200I-150000J0D01*
G01*
X107364800Y-140838200D01*
G75*
G02*
X107214800Y-140688200I0J150000D01*
G01*
G37*
G36*
G01*
X107214800Y-141958200D02*
X107214800Y-141658200D01*
G75*
G02*
X107364800Y-141508200I150000J0D01*
G01*
X109014800Y-141508200D01*
G75*
G02*
X109164800Y-141658200I0J-150000D01*
G01*
X109164800Y-141958200D01*
G75*
G02*
X109014800Y-142108200I-150000J0D01*
G01*
X107364800Y-142108200D01*
G75*
G02*
X107214800Y-141958200I0J150000D01*
G01*
G37*
G36*
G01*
X107214800Y-143228200D02*
X107214800Y-142928200D01*
G75*
G02*
X107364800Y-142778200I150000J0D01*
G01*
X109014800Y-142778200D01*
G75*
G02*
X109164800Y-142928200I0J-150000D01*
G01*
X109164800Y-143228200D01*
G75*
G02*
X109014800Y-143378200I-150000J0D01*
G01*
X107364800Y-143378200D01*
G75*
G02*
X107214800Y-143228200I0J150000D01*
G01*
G37*
G36*
G01*
X107214800Y-144498200D02*
X107214800Y-144198200D01*
G75*
G02*
X107364800Y-144048200I150000J0D01*
G01*
X109014800Y-144048200D01*
G75*
G02*
X109164800Y-144198200I0J-150000D01*
G01*
X109164800Y-144498200D01*
G75*
G02*
X109014800Y-144648200I-150000J0D01*
G01*
X107364800Y-144648200D01*
G75*
G02*
X107214800Y-144498200I0J150000D01*
G01*
G37*
G36*
G01*
X102264800Y-144498200D02*
X102264800Y-144198200D01*
G75*
G02*
X102414800Y-144048200I150000J0D01*
G01*
X104064800Y-144048200D01*
G75*
G02*
X104214800Y-144198200I0J-150000D01*
G01*
X104214800Y-144498200D01*
G75*
G02*
X104064800Y-144648200I-150000J0D01*
G01*
X102414800Y-144648200D01*
G75*
G02*
X102264800Y-144498200I0J150000D01*
G01*
G37*
G36*
G01*
X102264800Y-143228200D02*
X102264800Y-142928200D01*
G75*
G02*
X102414800Y-142778200I150000J0D01*
G01*
X104064800Y-142778200D01*
G75*
G02*
X104214800Y-142928200I0J-150000D01*
G01*
X104214800Y-143228200D01*
G75*
G02*
X104064800Y-143378200I-150000J0D01*
G01*
X102414800Y-143378200D01*
G75*
G02*
X102264800Y-143228200I0J150000D01*
G01*
G37*
G36*
G01*
X102264800Y-141958200D02*
X102264800Y-141658200D01*
G75*
G02*
X102414800Y-141508200I150000J0D01*
G01*
X104064800Y-141508200D01*
G75*
G02*
X104214800Y-141658200I0J-150000D01*
G01*
X104214800Y-141958200D01*
G75*
G02*
X104064800Y-142108200I-150000J0D01*
G01*
X102414800Y-142108200D01*
G75*
G02*
X102264800Y-141958200I0J150000D01*
G01*
G37*
G36*
G01*
X102264800Y-140688200D02*
X102264800Y-140388200D01*
G75*
G02*
X102414800Y-140238200I150000J0D01*
G01*
X104064800Y-140238200D01*
G75*
G02*
X104214800Y-140388200I0J-150000D01*
G01*
X104214800Y-140688200D01*
G75*
G02*
X104064800Y-140838200I-150000J0D01*
G01*
X102414800Y-140838200D01*
G75*
G02*
X102264800Y-140688200I0J150000D01*
G01*
G37*
G36*
G01*
X102264800Y-139418200D02*
X102264800Y-139118200D01*
G75*
G02*
X102414800Y-138968200I150000J0D01*
G01*
X104064800Y-138968200D01*
G75*
G02*
X104214800Y-139118200I0J-150000D01*
G01*
X104214800Y-139418200D01*
G75*
G02*
X104064800Y-139568200I-150000J0D01*
G01*
X102414800Y-139568200D01*
G75*
G02*
X102264800Y-139418200I0J150000D01*
G01*
G37*
G36*
G01*
X102264800Y-138148200D02*
X102264800Y-137848200D01*
G75*
G02*
X102414800Y-137698200I150000J0D01*
G01*
X104064800Y-137698200D01*
G75*
G02*
X104214800Y-137848200I0J-150000D01*
G01*
X104214800Y-138148200D01*
G75*
G02*
X104064800Y-138298200I-150000J0D01*
G01*
X102414800Y-138298200D01*
G75*
G02*
X102264800Y-138148200I0J150000D01*
G01*
G37*
G36*
G01*
X102264800Y-136878200D02*
X102264800Y-136578200D01*
G75*
G02*
X102414800Y-136428200I150000J0D01*
G01*
X104064800Y-136428200D01*
G75*
G02*
X104214800Y-136578200I0J-150000D01*
G01*
X104214800Y-136878200D01*
G75*
G02*
X104064800Y-137028200I-150000J0D01*
G01*
X102414800Y-137028200D01*
G75*
G02*
X102264800Y-136878200I0J150000D01*
G01*
G37*
%TD*%
D19*
%TO.C,U6*%
X108405900Y-116419600D03*
X108405900Y-121019600D03*
X108405900Y-118719600D03*
D20*
X114705900Y-118719600D03*
%TD*%
D21*
%TO.C,U5*%
X90031200Y-120242600D03*
X86681200Y-123292600D03*
X90031200Y-123292600D03*
X86681200Y-120242600D03*
D22*
X94656200Y-119487600D03*
X94656200Y-124047600D03*
%TD*%
D14*
%TO.C,RN2*%
X78759200Y-86345600D03*
D15*
X79559200Y-86345600D03*
D14*
X81159200Y-86345600D03*
D15*
X80359200Y-86345600D03*
D14*
X78759200Y-84545600D03*
D15*
X80359200Y-84545600D03*
X79559200Y-84545600D03*
D14*
X81159200Y-84545600D03*
%TD*%
%TO.C,RN1*%
X85820400Y-86345600D03*
D15*
X86620400Y-86345600D03*
D14*
X88220400Y-86345600D03*
D15*
X87420400Y-86345600D03*
D14*
X85820400Y-84545600D03*
D15*
X87420400Y-84545600D03*
X86620400Y-84545600D03*
D14*
X88220400Y-84545600D03*
%TD*%
%TO.C,R52*%
G36*
G01*
X145966602Y-106762600D02*
X145066598Y-106762600D01*
G75*
G02*
X144816600Y-106512602I0J249998D01*
G01*
X144816600Y-105987598D01*
G75*
G02*
X145066598Y-105737600I249998J0D01*
G01*
X145966602Y-105737600D01*
G75*
G02*
X146216600Y-105987598I0J-249998D01*
G01*
X146216600Y-106512602D01*
G75*
G02*
X145966602Y-106762600I-249998J0D01*
G01*
G37*
G36*
G01*
X145966602Y-108587600D02*
X145066598Y-108587600D01*
G75*
G02*
X144816600Y-108337602I0J249998D01*
G01*
X144816600Y-107812598D01*
G75*
G02*
X145066598Y-107562600I249998J0D01*
G01*
X145966602Y-107562600D01*
G75*
G02*
X146216600Y-107812598I0J-249998D01*
G01*
X146216600Y-108337602D01*
G75*
G02*
X145966602Y-108587600I-249998J0D01*
G01*
G37*
%TD*%
%TO.C,R51*%
G36*
G01*
X145966602Y-134397800D02*
X145066598Y-134397800D01*
G75*
G02*
X144816600Y-134147802I0J249998D01*
G01*
X144816600Y-133622798D01*
G75*
G02*
X145066598Y-133372800I249998J0D01*
G01*
X145966602Y-133372800D01*
G75*
G02*
X146216600Y-133622798I0J-249998D01*
G01*
X146216600Y-134147802D01*
G75*
G02*
X145966602Y-134397800I-249998J0D01*
G01*
G37*
G36*
G01*
X145966602Y-136222800D02*
X145066598Y-136222800D01*
G75*
G02*
X144816600Y-135972802I0J249998D01*
G01*
X144816600Y-135447798D01*
G75*
G02*
X145066598Y-135197800I249998J0D01*
G01*
X145966602Y-135197800D01*
G75*
G02*
X146216600Y-135447798I0J-249998D01*
G01*
X146216600Y-135972802D01*
G75*
G02*
X145966602Y-136222800I-249998J0D01*
G01*
G37*
%TD*%
%TO.C,R50*%
G36*
G01*
X143109300Y-112413202D02*
X143109300Y-111513198D01*
G75*
G02*
X143359298Y-111263200I249998J0D01*
G01*
X143884302Y-111263200D01*
G75*
G02*
X144134300Y-111513198I0J-249998D01*
G01*
X144134300Y-112413202D01*
G75*
G02*
X143884302Y-112663200I-249998J0D01*
G01*
X143359298Y-112663200D01*
G75*
G02*
X143109300Y-112413202I0J249998D01*
G01*
G37*
G36*
G01*
X141284300Y-112413202D02*
X141284300Y-111513198D01*
G75*
G02*
X141534298Y-111263200I249998J0D01*
G01*
X142059302Y-111263200D01*
G75*
G02*
X142309300Y-111513198I0J-249998D01*
G01*
X142309300Y-112413202D01*
G75*
G02*
X142059302Y-112663200I-249998J0D01*
G01*
X141534298Y-112663200D01*
G75*
G02*
X141284300Y-112413202I0J249998D01*
G01*
G37*
%TD*%
%TO.C,R49*%
G36*
G01*
X143109300Y-120058602D02*
X143109300Y-119158598D01*
G75*
G02*
X143359298Y-118908600I249998J0D01*
G01*
X143884302Y-118908600D01*
G75*
G02*
X144134300Y-119158598I0J-249998D01*
G01*
X144134300Y-120058602D01*
G75*
G02*
X143884302Y-120308600I-249998J0D01*
G01*
X143359298Y-120308600D01*
G75*
G02*
X143109300Y-120058602I0J249998D01*
G01*
G37*
G36*
G01*
X141284300Y-120058602D02*
X141284300Y-119158598D01*
G75*
G02*
X141534298Y-118908600I249998J0D01*
G01*
X142059302Y-118908600D01*
G75*
G02*
X142309300Y-119158598I0J-249998D01*
G01*
X142309300Y-120058602D01*
G75*
G02*
X142059302Y-120308600I-249998J0D01*
G01*
X141534298Y-120308600D01*
G75*
G02*
X141284300Y-120058602I0J249998D01*
G01*
G37*
%TD*%
%TO.C,R48*%
G36*
G01*
X139134800Y-112413202D02*
X139134800Y-111513198D01*
G75*
G02*
X139384798Y-111263200I249998J0D01*
G01*
X139909802Y-111263200D01*
G75*
G02*
X140159800Y-111513198I0J-249998D01*
G01*
X140159800Y-112413202D01*
G75*
G02*
X139909802Y-112663200I-249998J0D01*
G01*
X139384798Y-112663200D01*
G75*
G02*
X139134800Y-112413202I0J249998D01*
G01*
G37*
G36*
G01*
X137309800Y-112413202D02*
X137309800Y-111513198D01*
G75*
G02*
X137559798Y-111263200I249998J0D01*
G01*
X138084802Y-111263200D01*
G75*
G02*
X138334800Y-111513198I0J-249998D01*
G01*
X138334800Y-112413202D01*
G75*
G02*
X138084802Y-112663200I-249998J0D01*
G01*
X137559798Y-112663200D01*
G75*
G02*
X137309800Y-112413202I0J249998D01*
G01*
G37*
%TD*%
%TO.C,R47*%
G36*
G01*
X114994100Y-141408998D02*
X114994100Y-142309002D01*
G75*
G02*
X114744102Y-142559000I-249998J0D01*
G01*
X114219098Y-142559000D01*
G75*
G02*
X113969100Y-142309002I0J249998D01*
G01*
X113969100Y-141408998D01*
G75*
G02*
X114219098Y-141159000I249998J0D01*
G01*
X114744102Y-141159000D01*
G75*
G02*
X114994100Y-141408998I0J-249998D01*
G01*
G37*
G36*
G01*
X116819100Y-141408998D02*
X116819100Y-142309002D01*
G75*
G02*
X116569102Y-142559000I-249998J0D01*
G01*
X116044098Y-142559000D01*
G75*
G02*
X115794100Y-142309002I0J249998D01*
G01*
X115794100Y-141408998D01*
G75*
G02*
X116044098Y-141159000I249998J0D01*
G01*
X116569102Y-141159000D01*
G75*
G02*
X116819100Y-141408998I0J-249998D01*
G01*
G37*
%TD*%
%TO.C,R46*%
G36*
G01*
X115794100Y-139847202D02*
X115794100Y-138947198D01*
G75*
G02*
X116044098Y-138697200I249998J0D01*
G01*
X116569102Y-138697200D01*
G75*
G02*
X116819100Y-138947198I0J-249998D01*
G01*
X116819100Y-139847202D01*
G75*
G02*
X116569102Y-140097200I-249998J0D01*
G01*
X116044098Y-140097200D01*
G75*
G02*
X115794100Y-139847202I0J249998D01*
G01*
G37*
G36*
G01*
X113969100Y-139847202D02*
X113969100Y-138947198D01*
G75*
G02*
X114219098Y-138697200I249998J0D01*
G01*
X114744102Y-138697200D01*
G75*
G02*
X114994100Y-138947198I0J-249998D01*
G01*
X114994100Y-139847202D01*
G75*
G02*
X114744102Y-140097200I-249998J0D01*
G01*
X114219098Y-140097200D01*
G75*
G02*
X113969100Y-139847202I0J249998D01*
G01*
G37*
%TD*%
%TO.C,R45*%
G36*
G01*
X139134800Y-120058602D02*
X139134800Y-119158598D01*
G75*
G02*
X139384798Y-118908600I249998J0D01*
G01*
X139909802Y-118908600D01*
G75*
G02*
X140159800Y-119158598I0J-249998D01*
G01*
X140159800Y-120058602D01*
G75*
G02*
X139909802Y-120308600I-249998J0D01*
G01*
X139384798Y-120308600D01*
G75*
G02*
X139134800Y-120058602I0J249998D01*
G01*
G37*
G36*
G01*
X137309800Y-120058602D02*
X137309800Y-119158598D01*
G75*
G02*
X137559798Y-118908600I249998J0D01*
G01*
X138084802Y-118908600D01*
G75*
G02*
X138334800Y-119158598I0J-249998D01*
G01*
X138334800Y-120058602D01*
G75*
G02*
X138084802Y-120308600I-249998J0D01*
G01*
X137559798Y-120308600D01*
G75*
G02*
X137309800Y-120058602I0J249998D01*
G01*
G37*
%TD*%
%TO.C,R44*%
G36*
G01*
X110712200Y-134663602D02*
X110712200Y-133763598D01*
G75*
G02*
X110962198Y-133513600I249998J0D01*
G01*
X111487202Y-133513600D01*
G75*
G02*
X111737200Y-133763598I0J-249998D01*
G01*
X111737200Y-134663602D01*
G75*
G02*
X111487202Y-134913600I-249998J0D01*
G01*
X110962198Y-134913600D01*
G75*
G02*
X110712200Y-134663602I0J249998D01*
G01*
G37*
G36*
G01*
X108887200Y-134663602D02*
X108887200Y-133763598D01*
G75*
G02*
X109137198Y-133513600I249998J0D01*
G01*
X109662202Y-133513600D01*
G75*
G02*
X109912200Y-133763598I0J-249998D01*
G01*
X109912200Y-134663602D01*
G75*
G02*
X109662202Y-134913600I-249998J0D01*
G01*
X109137198Y-134913600D01*
G75*
G02*
X108887200Y-134663602I0J249998D01*
G01*
G37*
%TD*%
%TO.C,R43*%
G36*
G01*
X121481800Y-109873202D02*
X121481800Y-108973198D01*
G75*
G02*
X121731798Y-108723200I249998J0D01*
G01*
X122256802Y-108723200D01*
G75*
G02*
X122506800Y-108973198I0J-249998D01*
G01*
X122506800Y-109873202D01*
G75*
G02*
X122256802Y-110123200I-249998J0D01*
G01*
X121731798Y-110123200D01*
G75*
G02*
X121481800Y-109873202I0J249998D01*
G01*
G37*
G36*
G01*
X119656800Y-109873202D02*
X119656800Y-108973198D01*
G75*
G02*
X119906798Y-108723200I249998J0D01*
G01*
X120431802Y-108723200D01*
G75*
G02*
X120681800Y-108973198I0J-249998D01*
G01*
X120681800Y-109873202D01*
G75*
G02*
X120431802Y-110123200I-249998J0D01*
G01*
X119906798Y-110123200D01*
G75*
G02*
X119656800Y-109873202I0J249998D01*
G01*
G37*
%TD*%
%TO.C,R42*%
G36*
G01*
X100754602Y-135415700D02*
X99854598Y-135415700D01*
G75*
G02*
X99604600Y-135165702I0J249998D01*
G01*
X99604600Y-134640698D01*
G75*
G02*
X99854598Y-134390700I249998J0D01*
G01*
X100754602Y-134390700D01*
G75*
G02*
X101004600Y-134640698I0J-249998D01*
G01*
X101004600Y-135165702D01*
G75*
G02*
X100754602Y-135415700I-249998J0D01*
G01*
G37*
G36*
G01*
X100754602Y-137240700D02*
X99854598Y-137240700D01*
G75*
G02*
X99604600Y-136990702I0J249998D01*
G01*
X99604600Y-136465698D01*
G75*
G02*
X99854598Y-136215700I249998J0D01*
G01*
X100754602Y-136215700D01*
G75*
G02*
X101004600Y-136465698I0J-249998D01*
G01*
X101004600Y-136990702D01*
G75*
G02*
X100754602Y-137240700I-249998J0D01*
G01*
G37*
%TD*%
%TO.C,R41*%
G36*
G01*
X111422602Y-137238200D02*
X110522598Y-137238200D01*
G75*
G02*
X110272600Y-136988202I0J249998D01*
G01*
X110272600Y-136463198D01*
G75*
G02*
X110522598Y-136213200I249998J0D01*
G01*
X111422602Y-136213200D01*
G75*
G02*
X111672600Y-136463198I0J-249998D01*
G01*
X111672600Y-136988202D01*
G75*
G02*
X111422602Y-137238200I-249998J0D01*
G01*
G37*
G36*
G01*
X111422602Y-139063200D02*
X110522598Y-139063200D01*
G75*
G02*
X110272600Y-138813202I0J249998D01*
G01*
X110272600Y-138288198D01*
G75*
G02*
X110522598Y-138038200I249998J0D01*
G01*
X111422602Y-138038200D01*
G75*
G02*
X111672600Y-138288198I0J-249998D01*
G01*
X111672600Y-138813202D01*
G75*
G02*
X111422602Y-139063200I-249998J0D01*
G01*
G37*
%TD*%
%TO.C,R40*%
G36*
G01*
X106235800Y-147911398D02*
X106235800Y-148811402D01*
G75*
G02*
X105985802Y-149061400I-249998J0D01*
G01*
X105460798Y-149061400D01*
G75*
G02*
X105210800Y-148811402I0J249998D01*
G01*
X105210800Y-147911398D01*
G75*
G02*
X105460798Y-147661400I249998J0D01*
G01*
X105985802Y-147661400D01*
G75*
G02*
X106235800Y-147911398I0J-249998D01*
G01*
G37*
G36*
G01*
X108060800Y-147911398D02*
X108060800Y-148811402D01*
G75*
G02*
X107810802Y-149061400I-249998J0D01*
G01*
X107285798Y-149061400D01*
G75*
G02*
X107035800Y-148811402I0J249998D01*
G01*
X107035800Y-147911398D01*
G75*
G02*
X107285798Y-147661400I249998J0D01*
G01*
X107810802Y-147661400D01*
G75*
G02*
X108060800Y-147911398I0J-249998D01*
G01*
G37*
%TD*%
%TO.C,R39*%
G36*
G01*
X121481800Y-117518602D02*
X121481800Y-116618598D01*
G75*
G02*
X121731798Y-116368600I249998J0D01*
G01*
X122256802Y-116368600D01*
G75*
G02*
X122506800Y-116618598I0J-249998D01*
G01*
X122506800Y-117518602D01*
G75*
G02*
X122256802Y-117768600I-249998J0D01*
G01*
X121731798Y-117768600D01*
G75*
G02*
X121481800Y-117518602I0J249998D01*
G01*
G37*
G36*
G01*
X119656800Y-117518602D02*
X119656800Y-116618598D01*
G75*
G02*
X119906798Y-116368600I249998J0D01*
G01*
X120431802Y-116368600D01*
G75*
G02*
X120681800Y-116618598I0J-249998D01*
G01*
X120681800Y-117518602D01*
G75*
G02*
X120431802Y-117768600I-249998J0D01*
G01*
X119906798Y-117768600D01*
G75*
G02*
X119656800Y-117518602I0J249998D01*
G01*
G37*
%TD*%
%TO.C,R37*%
G36*
G01*
X98316202Y-139325400D02*
X97416198Y-139325400D01*
G75*
G02*
X97166200Y-139075402I0J249998D01*
G01*
X97166200Y-138550398D01*
G75*
G02*
X97416198Y-138300400I249998J0D01*
G01*
X98316202Y-138300400D01*
G75*
G02*
X98566200Y-138550398I0J-249998D01*
G01*
X98566200Y-139075402D01*
G75*
G02*
X98316202Y-139325400I-249998J0D01*
G01*
G37*
G36*
G01*
X98316202Y-141150400D02*
X97416198Y-141150400D01*
G75*
G02*
X97166200Y-140900402I0J249998D01*
G01*
X97166200Y-140375398D01*
G75*
G02*
X97416198Y-140125400I249998J0D01*
G01*
X98316202Y-140125400D01*
G75*
G02*
X98566200Y-140375398I0J-249998D01*
G01*
X98566200Y-140900402D01*
G75*
G02*
X98316202Y-141150400I-249998J0D01*
G01*
G37*
%TD*%
%TO.C,R36*%
G36*
G01*
X102565400Y-148811402D02*
X102565400Y-147911398D01*
G75*
G02*
X102815398Y-147661400I249998J0D01*
G01*
X103340402Y-147661400D01*
G75*
G02*
X103590400Y-147911398I0J-249998D01*
G01*
X103590400Y-148811402D01*
G75*
G02*
X103340402Y-149061400I-249998J0D01*
G01*
X102815398Y-149061400D01*
G75*
G02*
X102565400Y-148811402I0J249998D01*
G01*
G37*
G36*
G01*
X100740400Y-148811402D02*
X100740400Y-147911398D01*
G75*
G02*
X100990398Y-147661400I249998J0D01*
G01*
X101515402Y-147661400D01*
G75*
G02*
X101765400Y-147911398I0J-249998D01*
G01*
X101765400Y-148811402D01*
G75*
G02*
X101515402Y-149061400I-249998J0D01*
G01*
X100990398Y-149061400D01*
G75*
G02*
X100740400Y-148811402I0J249998D01*
G01*
G37*
%TD*%
%TO.C,R35*%
G36*
G01*
X111778500Y-148811402D02*
X111778500Y-147911398D01*
G75*
G02*
X112028498Y-147661400I249998J0D01*
G01*
X112553502Y-147661400D01*
G75*
G02*
X112803500Y-147911398I0J-249998D01*
G01*
X112803500Y-148811402D01*
G75*
G02*
X112553502Y-149061400I-249998J0D01*
G01*
X112028498Y-149061400D01*
G75*
G02*
X111778500Y-148811402I0J249998D01*
G01*
G37*
G36*
G01*
X109953500Y-148811402D02*
X109953500Y-147911398D01*
G75*
G02*
X110203498Y-147661400I249998J0D01*
G01*
X110728502Y-147661400D01*
G75*
G02*
X110978500Y-147911398I0J-249998D01*
G01*
X110978500Y-148811402D01*
G75*
G02*
X110728502Y-149061400I-249998J0D01*
G01*
X110203498Y-149061400D01*
G75*
G02*
X109953500Y-148811402I0J249998D01*
G01*
G37*
%TD*%
%TO.C,R34*%
G36*
G01*
X118903500Y-147911398D02*
X118903500Y-148811402D01*
G75*
G02*
X118653502Y-149061400I-249998J0D01*
G01*
X118128498Y-149061400D01*
G75*
G02*
X117878500Y-148811402I0J249998D01*
G01*
X117878500Y-147911398D01*
G75*
G02*
X118128498Y-147661400I249998J0D01*
G01*
X118653502Y-147661400D01*
G75*
G02*
X118903500Y-147911398I0J-249998D01*
G01*
G37*
G36*
G01*
X120728500Y-147911398D02*
X120728500Y-148811402D01*
G75*
G02*
X120478502Y-149061400I-249998J0D01*
G01*
X119953498Y-149061400D01*
G75*
G02*
X119703500Y-148811402I0J249998D01*
G01*
X119703500Y-147911398D01*
G75*
G02*
X119953498Y-147661400I249998J0D01*
G01*
X120478502Y-147661400D01*
G75*
G02*
X120728500Y-147911398I0J-249998D01*
G01*
G37*
%TD*%
%TO.C,R31*%
G36*
G01*
X96639802Y-154191600D02*
X95739798Y-154191600D01*
G75*
G02*
X95489800Y-153941602I0J249998D01*
G01*
X95489800Y-153416598D01*
G75*
G02*
X95739798Y-153166600I249998J0D01*
G01*
X96639802Y-153166600D01*
G75*
G02*
X96889800Y-153416598I0J-249998D01*
G01*
X96889800Y-153941602D01*
G75*
G02*
X96639802Y-154191600I-249998J0D01*
G01*
G37*
G36*
G01*
X96639802Y-156016600D02*
X95739798Y-156016600D01*
G75*
G02*
X95489800Y-155766602I0J249998D01*
G01*
X95489800Y-155241598D01*
G75*
G02*
X95739798Y-154991600I249998J0D01*
G01*
X96639802Y-154991600D01*
G75*
G02*
X96889800Y-155241598I0J-249998D01*
G01*
X96889800Y-155766602D01*
G75*
G02*
X96639802Y-156016600I-249998J0D01*
G01*
G37*
%TD*%
%TO.C,R30*%
G36*
G01*
X103345402Y-154191600D02*
X102445398Y-154191600D01*
G75*
G02*
X102195400Y-153941602I0J249998D01*
G01*
X102195400Y-153416598D01*
G75*
G02*
X102445398Y-153166600I249998J0D01*
G01*
X103345402Y-153166600D01*
G75*
G02*
X103595400Y-153416598I0J-249998D01*
G01*
X103595400Y-153941602D01*
G75*
G02*
X103345402Y-154191600I-249998J0D01*
G01*
G37*
G36*
G01*
X103345402Y-156016600D02*
X102445398Y-156016600D01*
G75*
G02*
X102195400Y-155766602I0J249998D01*
G01*
X102195400Y-155241598D01*
G75*
G02*
X102445398Y-154991600I249998J0D01*
G01*
X103345402Y-154991600D01*
G75*
G02*
X103595400Y-155241598I0J-249998D01*
G01*
X103595400Y-155766602D01*
G75*
G02*
X103345402Y-156016600I-249998J0D01*
G01*
G37*
%TD*%
%TO.C,R27*%
G36*
G01*
X97974998Y-154991600D02*
X98875002Y-154991600D01*
G75*
G02*
X99125000Y-155241598I0J-249998D01*
G01*
X99125000Y-155766602D01*
G75*
G02*
X98875002Y-156016600I-249998J0D01*
G01*
X97974998Y-156016600D01*
G75*
G02*
X97725000Y-155766602I0J249998D01*
G01*
X97725000Y-155241598D01*
G75*
G02*
X97974998Y-154991600I249998J0D01*
G01*
G37*
G36*
G01*
X97974998Y-153166600D02*
X98875002Y-153166600D01*
G75*
G02*
X99125000Y-153416598I0J-249998D01*
G01*
X99125000Y-153941602D01*
G75*
G02*
X98875002Y-154191600I-249998J0D01*
G01*
X97974998Y-154191600D01*
G75*
G02*
X97725000Y-153941602I0J249998D01*
G01*
X97725000Y-153416598D01*
G75*
G02*
X97974998Y-153166600I249998J0D01*
G01*
G37*
%TD*%
%TO.C,R26*%
G36*
G01*
X104680598Y-154991600D02*
X105580602Y-154991600D01*
G75*
G02*
X105830600Y-155241598I0J-249998D01*
G01*
X105830600Y-155766602D01*
G75*
G02*
X105580602Y-156016600I-249998J0D01*
G01*
X104680598Y-156016600D01*
G75*
G02*
X104430600Y-155766602I0J249998D01*
G01*
X104430600Y-155241598D01*
G75*
G02*
X104680598Y-154991600I249998J0D01*
G01*
G37*
G36*
G01*
X104680598Y-153166600D02*
X105580602Y-153166600D01*
G75*
G02*
X105830600Y-153416598I0J-249998D01*
G01*
X105830600Y-153941602D01*
G75*
G02*
X105580602Y-154191600I-249998J0D01*
G01*
X104680598Y-154191600D01*
G75*
G02*
X104430600Y-153941602I0J249998D01*
G01*
X104430600Y-153416598D01*
G75*
G02*
X104680598Y-153166600I249998J0D01*
G01*
G37*
%TD*%
%TO.C,R25*%
G36*
G01*
X101110202Y-154191600D02*
X100210198Y-154191600D01*
G75*
G02*
X99960200Y-153941602I0J249998D01*
G01*
X99960200Y-153416598D01*
G75*
G02*
X100210198Y-153166600I249998J0D01*
G01*
X101110202Y-153166600D01*
G75*
G02*
X101360200Y-153416598I0J-249998D01*
G01*
X101360200Y-153941602D01*
G75*
G02*
X101110202Y-154191600I-249998J0D01*
G01*
G37*
G36*
G01*
X101110202Y-156016600D02*
X100210198Y-156016600D01*
G75*
G02*
X99960200Y-155766602I0J249998D01*
G01*
X99960200Y-155241598D01*
G75*
G02*
X100210198Y-154991600I249998J0D01*
G01*
X101110202Y-154991600D01*
G75*
G02*
X101360200Y-155241598I0J-249998D01*
G01*
X101360200Y-155766602D01*
G75*
G02*
X101110202Y-156016600I-249998J0D01*
G01*
G37*
%TD*%
%TO.C,R24*%
G36*
G01*
X107815802Y-154191600D02*
X106915798Y-154191600D01*
G75*
G02*
X106665800Y-153941602I0J249998D01*
G01*
X106665800Y-153416598D01*
G75*
G02*
X106915798Y-153166600I249998J0D01*
G01*
X107815802Y-153166600D01*
G75*
G02*
X108065800Y-153416598I0J-249998D01*
G01*
X108065800Y-153941602D01*
G75*
G02*
X107815802Y-154191600I-249998J0D01*
G01*
G37*
G36*
G01*
X107815802Y-156016600D02*
X106915798Y-156016600D01*
G75*
G02*
X106665800Y-155766602I0J249998D01*
G01*
X106665800Y-155241598D01*
G75*
G02*
X106915798Y-154991600I249998J0D01*
G01*
X107815802Y-154991600D01*
G75*
G02*
X108065800Y-155241598I0J-249998D01*
G01*
X108065800Y-155766602D01*
G75*
G02*
X107815802Y-156016600I-249998J0D01*
G01*
G37*
%TD*%
%TO.C,R23*%
G36*
G01*
X94951600Y-83912998D02*
X94951600Y-84813002D01*
G75*
G02*
X94701602Y-85063000I-249998J0D01*
G01*
X94176598Y-85063000D01*
G75*
G02*
X93926600Y-84813002I0J249998D01*
G01*
X93926600Y-83912998D01*
G75*
G02*
X94176598Y-83663000I249998J0D01*
G01*
X94701602Y-83663000D01*
G75*
G02*
X94951600Y-83912998I0J-249998D01*
G01*
G37*
G36*
G01*
X96776600Y-83912998D02*
X96776600Y-84813002D01*
G75*
G02*
X96526602Y-85063000I-249998J0D01*
G01*
X96001598Y-85063000D01*
G75*
G02*
X95751600Y-84813002I0J249998D01*
G01*
X95751600Y-83912998D01*
G75*
G02*
X96001598Y-83663000I249998J0D01*
G01*
X96526602Y-83663000D01*
G75*
G02*
X96776600Y-83912998I0J-249998D01*
G01*
G37*
%TD*%
%TO.C,R22*%
G36*
G01*
X62821398Y-133193100D02*
X63721402Y-133193100D01*
G75*
G02*
X63971400Y-133443098I0J-249998D01*
G01*
X63971400Y-133968102D01*
G75*
G02*
X63721402Y-134218100I-249998J0D01*
G01*
X62821398Y-134218100D01*
G75*
G02*
X62571400Y-133968102I0J249998D01*
G01*
X62571400Y-133443098D01*
G75*
G02*
X62821398Y-133193100I249998J0D01*
G01*
G37*
G36*
G01*
X62821398Y-131368100D02*
X63721402Y-131368100D01*
G75*
G02*
X63971400Y-131618098I0J-249998D01*
G01*
X63971400Y-132143102D01*
G75*
G02*
X63721402Y-132393100I-249998J0D01*
G01*
X62821398Y-132393100D01*
G75*
G02*
X62571400Y-132143102I0J249998D01*
G01*
X62571400Y-131618098D01*
G75*
G02*
X62821398Y-131368100I249998J0D01*
G01*
G37*
%TD*%
%TO.C,R21*%
G36*
G01*
X66185202Y-132393100D02*
X65285198Y-132393100D01*
G75*
G02*
X65035200Y-132143102I0J249998D01*
G01*
X65035200Y-131618098D01*
G75*
G02*
X65285198Y-131368100I249998J0D01*
G01*
X66185202Y-131368100D01*
G75*
G02*
X66435200Y-131618098I0J-249998D01*
G01*
X66435200Y-132143102D01*
G75*
G02*
X66185202Y-132393100I-249998J0D01*
G01*
G37*
G36*
G01*
X66185202Y-134218100D02*
X65285198Y-134218100D01*
G75*
G02*
X65035200Y-133968102I0J249998D01*
G01*
X65035200Y-133443098D01*
G75*
G02*
X65285198Y-133193100I249998J0D01*
G01*
X66185202Y-133193100D01*
G75*
G02*
X66435200Y-133443098I0J-249998D01*
G01*
X66435200Y-133968102D01*
G75*
G02*
X66185202Y-134218100I-249998J0D01*
G01*
G37*
%TD*%
%TO.C,R18*%
G36*
G01*
X84309000Y-92488598D02*
X84309000Y-93388602D01*
G75*
G02*
X84059002Y-93638600I-249998J0D01*
G01*
X83533998Y-93638600D01*
G75*
G02*
X83284000Y-93388602I0J249998D01*
G01*
X83284000Y-92488598D01*
G75*
G02*
X83533998Y-92238600I249998J0D01*
G01*
X84059002Y-92238600D01*
G75*
G02*
X84309000Y-92488598I0J-249998D01*
G01*
G37*
G36*
G01*
X86134000Y-92488598D02*
X86134000Y-93388602D01*
G75*
G02*
X85884002Y-93638600I-249998J0D01*
G01*
X85358998Y-93638600D01*
G75*
G02*
X85109000Y-93388602I0J249998D01*
G01*
X85109000Y-92488598D01*
G75*
G02*
X85358998Y-92238600I249998J0D01*
G01*
X85884002Y-92238600D01*
G75*
G02*
X86134000Y-92488598I0J-249998D01*
G01*
G37*
%TD*%
%TO.C,R16*%
G36*
G01*
X94328402Y-100209400D02*
X93428398Y-100209400D01*
G75*
G02*
X93178400Y-99959402I0J249998D01*
G01*
X93178400Y-99434398D01*
G75*
G02*
X93428398Y-99184400I249998J0D01*
G01*
X94328402Y-99184400D01*
G75*
G02*
X94578400Y-99434398I0J-249998D01*
G01*
X94578400Y-99959402D01*
G75*
G02*
X94328402Y-100209400I-249998J0D01*
G01*
G37*
G36*
G01*
X94328402Y-102034400D02*
X93428398Y-102034400D01*
G75*
G02*
X93178400Y-101784402I0J249998D01*
G01*
X93178400Y-101259398D01*
G75*
G02*
X93428398Y-101009400I249998J0D01*
G01*
X94328402Y-101009400D01*
G75*
G02*
X94578400Y-101259398I0J-249998D01*
G01*
X94578400Y-101784402D01*
G75*
G02*
X94328402Y-102034400I-249998J0D01*
G01*
G37*
%TD*%
%TO.C,R15*%
G36*
G01*
X95790598Y-101009400D02*
X96690602Y-101009400D01*
G75*
G02*
X96940600Y-101259398I0J-249998D01*
G01*
X96940600Y-101784402D01*
G75*
G02*
X96690602Y-102034400I-249998J0D01*
G01*
X95790598Y-102034400D01*
G75*
G02*
X95540600Y-101784402I0J249998D01*
G01*
X95540600Y-101259398D01*
G75*
G02*
X95790598Y-101009400I249998J0D01*
G01*
G37*
G36*
G01*
X95790598Y-99184400D02*
X96690602Y-99184400D01*
G75*
G02*
X96940600Y-99434398I0J-249998D01*
G01*
X96940600Y-99959402D01*
G75*
G02*
X96690602Y-100209400I-249998J0D01*
G01*
X95790598Y-100209400D01*
G75*
G02*
X95540600Y-99959402I0J249998D01*
G01*
X95540600Y-99434398D01*
G75*
G02*
X95790598Y-99184400I249998J0D01*
G01*
G37*
%TD*%
%TO.C,R14*%
G36*
G01*
X110801998Y-102987500D02*
X111702002Y-102987500D01*
G75*
G02*
X111952000Y-103237498I0J-249998D01*
G01*
X111952000Y-103762502D01*
G75*
G02*
X111702002Y-104012500I-249998J0D01*
G01*
X110801998Y-104012500D01*
G75*
G02*
X110552000Y-103762502I0J249998D01*
G01*
X110552000Y-103237498D01*
G75*
G02*
X110801998Y-102987500I249998J0D01*
G01*
G37*
G36*
G01*
X110801998Y-101162500D02*
X111702002Y-101162500D01*
G75*
G02*
X111952000Y-101412498I0J-249998D01*
G01*
X111952000Y-101937502D01*
G75*
G02*
X111702002Y-102187500I-249998J0D01*
G01*
X110801998Y-102187500D01*
G75*
G02*
X110552000Y-101937502I0J249998D01*
G01*
X110552000Y-101412498D01*
G75*
G02*
X110801998Y-101162500I249998J0D01*
G01*
G37*
%TD*%
%TO.C,R13*%
G36*
G01*
X70390598Y-116907900D02*
X71290602Y-116907900D01*
G75*
G02*
X71540600Y-117157898I0J-249998D01*
G01*
X71540600Y-117682902D01*
G75*
G02*
X71290602Y-117932900I-249998J0D01*
G01*
X70390598Y-117932900D01*
G75*
G02*
X70140600Y-117682902I0J249998D01*
G01*
X70140600Y-117157898D01*
G75*
G02*
X70390598Y-116907900I249998J0D01*
G01*
G37*
G36*
G01*
X70390598Y-115082900D02*
X71290602Y-115082900D01*
G75*
G02*
X71540600Y-115332898I0J-249998D01*
G01*
X71540600Y-115857902D01*
G75*
G02*
X71290602Y-116107900I-249998J0D01*
G01*
X70390598Y-116107900D01*
G75*
G02*
X70140600Y-115857902I0J249998D01*
G01*
X70140600Y-115332898D01*
G75*
G02*
X70390598Y-115082900I249998J0D01*
G01*
G37*
%TD*%
%TO.C,R12*%
G36*
G01*
X109582798Y-98744500D02*
X110482802Y-98744500D01*
G75*
G02*
X110732800Y-98994498I0J-249998D01*
G01*
X110732800Y-99519502D01*
G75*
G02*
X110482802Y-99769500I-249998J0D01*
G01*
X109582798Y-99769500D01*
G75*
G02*
X109332800Y-99519502I0J249998D01*
G01*
X109332800Y-98994498D01*
G75*
G02*
X109582798Y-98744500I249998J0D01*
G01*
G37*
G36*
G01*
X109582798Y-96919500D02*
X110482802Y-96919500D01*
G75*
G02*
X110732800Y-97169498I0J-249998D01*
G01*
X110732800Y-97694502D01*
G75*
G02*
X110482802Y-97944500I-249998J0D01*
G01*
X109582798Y-97944500D01*
G75*
G02*
X109332800Y-97694502I0J249998D01*
G01*
X109332800Y-97169498D01*
G75*
G02*
X109582798Y-96919500I249998J0D01*
G01*
G37*
%TD*%
%TO.C,R10*%
G36*
G01*
X112337800Y-95293602D02*
X112337800Y-94393598D01*
G75*
G02*
X112587798Y-94143600I249998J0D01*
G01*
X113112802Y-94143600D01*
G75*
G02*
X113362800Y-94393598I0J-249998D01*
G01*
X113362800Y-95293602D01*
G75*
G02*
X113112802Y-95543600I-249998J0D01*
G01*
X112587798Y-95543600D01*
G75*
G02*
X112337800Y-95293602I0J249998D01*
G01*
G37*
G36*
G01*
X110512800Y-95293602D02*
X110512800Y-94393598D01*
G75*
G02*
X110762798Y-94143600I249998J0D01*
G01*
X111287802Y-94143600D01*
G75*
G02*
X111537800Y-94393598I0J-249998D01*
G01*
X111537800Y-95293602D01*
G75*
G02*
X111287802Y-95543600I-249998J0D01*
G01*
X110762798Y-95543600D01*
G75*
G02*
X110512800Y-95293602I0J249998D01*
G01*
G37*
%TD*%
%TO.C,R6*%
G36*
G01*
X134612802Y-99944500D02*
X133712798Y-99944500D01*
G75*
G02*
X133462800Y-99694502I0J249998D01*
G01*
X133462800Y-99169498D01*
G75*
G02*
X133712798Y-98919500I249998J0D01*
G01*
X134612802Y-98919500D01*
G75*
G02*
X134862800Y-99169498I0J-249998D01*
G01*
X134862800Y-99694502D01*
G75*
G02*
X134612802Y-99944500I-249998J0D01*
G01*
G37*
G36*
G01*
X134612802Y-101769500D02*
X133712798Y-101769500D01*
G75*
G02*
X133462800Y-101519502I0J249998D01*
G01*
X133462800Y-100994498D01*
G75*
G02*
X133712798Y-100744500I249998J0D01*
G01*
X134612802Y-100744500D01*
G75*
G02*
X134862800Y-100994498I0J-249998D01*
G01*
X134862800Y-101519502D01*
G75*
G02*
X134612802Y-101769500I-249998J0D01*
G01*
G37*
%TD*%
%TO.C,R5*%
G36*
G01*
X133712798Y-96744500D02*
X134612802Y-96744500D01*
G75*
G02*
X134862800Y-96994498I0J-249998D01*
G01*
X134862800Y-97519502D01*
G75*
G02*
X134612802Y-97769500I-249998J0D01*
G01*
X133712798Y-97769500D01*
G75*
G02*
X133462800Y-97519502I0J249998D01*
G01*
X133462800Y-96994498D01*
G75*
G02*
X133712798Y-96744500I249998J0D01*
G01*
G37*
G36*
G01*
X133712798Y-94919500D02*
X134612802Y-94919500D01*
G75*
G02*
X134862800Y-95169498I0J-249998D01*
G01*
X134862800Y-95694502D01*
G75*
G02*
X134612802Y-95944500I-249998J0D01*
G01*
X133712798Y-95944500D01*
G75*
G02*
X133462800Y-95694502I0J249998D01*
G01*
X133462800Y-95169498D01*
G75*
G02*
X133712798Y-94919500I249998J0D01*
G01*
G37*
%TD*%
%TO.C,R3*%
G36*
G01*
X111537800Y-86981998D02*
X111537800Y-87882002D01*
G75*
G02*
X111287802Y-88132000I-249998J0D01*
G01*
X110762798Y-88132000D01*
G75*
G02*
X110512800Y-87882002I0J249998D01*
G01*
X110512800Y-86981998D01*
G75*
G02*
X110762798Y-86732000I249998J0D01*
G01*
X111287802Y-86732000D01*
G75*
G02*
X111537800Y-86981998I0J-249998D01*
G01*
G37*
G36*
G01*
X113362800Y-86981998D02*
X113362800Y-87882002D01*
G75*
G02*
X113112802Y-88132000I-249998J0D01*
G01*
X112587798Y-88132000D01*
G75*
G02*
X112337800Y-87882002I0J249998D01*
G01*
X112337800Y-86981998D01*
G75*
G02*
X112587798Y-86732000I249998J0D01*
G01*
X113112802Y-86732000D01*
G75*
G02*
X113362800Y-86981998I0J-249998D01*
G01*
G37*
%TD*%
%TO.C,R2*%
G36*
G01*
X111537800Y-90981998D02*
X111537800Y-91882002D01*
G75*
G02*
X111287802Y-92132000I-249998J0D01*
G01*
X110762798Y-92132000D01*
G75*
G02*
X110512800Y-91882002I0J249998D01*
G01*
X110512800Y-90981998D01*
G75*
G02*
X110762798Y-90732000I249998J0D01*
G01*
X111287802Y-90732000D01*
G75*
G02*
X111537800Y-90981998I0J-249998D01*
G01*
G37*
G36*
G01*
X113362800Y-90981998D02*
X113362800Y-91882002D01*
G75*
G02*
X113112802Y-92132000I-249998J0D01*
G01*
X112587798Y-92132000D01*
G75*
G02*
X112337800Y-91882002I0J249998D01*
G01*
X112337800Y-90981998D01*
G75*
G02*
X112587798Y-90732000I249998J0D01*
G01*
X113112802Y-90732000D01*
G75*
G02*
X113362800Y-90981998I0J-249998D01*
G01*
G37*
%TD*%
D23*
%TO.C,Q4*%
X137781000Y-104496000D03*
X142381000Y-104496000D03*
X140081000Y-104496000D03*
D24*
X140081000Y-98196000D03*
%TD*%
D23*
%TO.C,Q3*%
X141796800Y-123824600D03*
X137196800Y-123824600D03*
X139496800Y-123824600D03*
D24*
X139496800Y-130124600D03*
%TD*%
D25*
%TO.C,Q1*%
X90754200Y-103521900D03*
X89804200Y-101521900D03*
X91704200Y-101521900D03*
%TD*%
D26*
%TO.C,L1*%
X122287800Y-130683000D03*
X132187800Y-130683000D03*
%TD*%
D27*
%TO.C,D12*%
X113006600Y-134213600D03*
X116306600Y-134213600D03*
%TD*%
D28*
%TO.C,D11*%
X134130800Y-140208000D03*
X130130800Y-140208000D03*
%TD*%
D27*
%TO.C,D10*%
X104064800Y-134239000D03*
X107364800Y-134239000D03*
%TD*%
%TO.C,D9*%
X66191400Y-129463800D03*
X62891400Y-129463800D03*
%TD*%
D28*
%TO.C,D8*%
X94656200Y-115595400D03*
X90656200Y-115595400D03*
%TD*%
D29*
%TO.C,D7*%
X163322000Y-151530600D03*
X163322000Y-153980600D03*
X157522000Y-153980600D03*
X157522000Y-151530600D03*
%TD*%
%TO.C,D5*%
G36*
G01*
X108654000Y-95299850D02*
X108654000Y-94387350D01*
G75*
G02*
X108897750Y-94143600I243750J0D01*
G01*
X109385250Y-94143600D01*
G75*
G02*
X109629000Y-94387350I0J-243750D01*
G01*
X109629000Y-95299850D01*
G75*
G02*
X109385250Y-95543600I-243750J0D01*
G01*
X108897750Y-95543600D01*
G75*
G02*
X108654000Y-95299850I0J243750D01*
G01*
G37*
G36*
G01*
X106779000Y-95299850D02*
X106779000Y-94387350D01*
G75*
G02*
X107022750Y-94143600I243750J0D01*
G01*
X107510250Y-94143600D01*
G75*
G02*
X107754000Y-94387350I0J-243750D01*
G01*
X107754000Y-95299850D01*
G75*
G02*
X107510250Y-95543600I-243750J0D01*
G01*
X107022750Y-95543600D01*
G75*
G02*
X106779000Y-95299850I0J243750D01*
G01*
G37*
%TD*%
D30*
%TO.C,D1*%
X91547400Y-155061600D03*
X89097400Y-155061600D03*
X89097400Y-149261600D03*
X91547400Y-149261600D03*
%TD*%
%TO.C,C18*%
G36*
G01*
X91833000Y-86987400D02*
X91833000Y-86037400D01*
G75*
G02*
X92083000Y-85787400I250000J0D01*
G01*
X92583000Y-85787400D01*
G75*
G02*
X92833000Y-86037400I0J-250000D01*
G01*
X92833000Y-86987400D01*
G75*
G02*
X92583000Y-87237400I-250000J0D01*
G01*
X92083000Y-87237400D01*
G75*
G02*
X91833000Y-86987400I0J250000D01*
G01*
G37*
G36*
G01*
X89933000Y-86987400D02*
X89933000Y-86037400D01*
G75*
G02*
X90183000Y-85787400I250000J0D01*
G01*
X90683000Y-85787400D01*
G75*
G02*
X90933000Y-86037400I0J-250000D01*
G01*
X90933000Y-86987400D01*
G75*
G02*
X90683000Y-87237400I-250000J0D01*
G01*
X90183000Y-87237400D01*
G75*
G02*
X89933000Y-86987400I0J250000D01*
G01*
G37*
%TD*%
%TO.C,C17*%
G36*
G01*
X114406600Y-137413200D02*
X114406600Y-136463200D01*
G75*
G02*
X114656600Y-136213200I250000J0D01*
G01*
X115156600Y-136213200D01*
G75*
G02*
X115406600Y-136463200I0J-250000D01*
G01*
X115406600Y-137413200D01*
G75*
G02*
X115156600Y-137663200I-250000J0D01*
G01*
X114656600Y-137663200D01*
G75*
G02*
X114406600Y-137413200I0J250000D01*
G01*
G37*
G36*
G01*
X112506600Y-137413200D02*
X112506600Y-136463200D01*
G75*
G02*
X112756600Y-136213200I250000J0D01*
G01*
X113256600Y-136213200D01*
G75*
G02*
X113506600Y-136463200I0J-250000D01*
G01*
X113506600Y-137413200D01*
G75*
G02*
X113256600Y-137663200I-250000J0D01*
G01*
X112756600Y-137663200D01*
G75*
G02*
X112506600Y-137413200I0J250000D01*
G01*
G37*
%TD*%
%TO.C,C15*%
G36*
G01*
X97391200Y-136228200D02*
X98341200Y-136228200D01*
G75*
G02*
X98591200Y-136478200I0J-250000D01*
G01*
X98591200Y-136978200D01*
G75*
G02*
X98341200Y-137228200I-250000J0D01*
G01*
X97391200Y-137228200D01*
G75*
G02*
X97141200Y-136978200I0J250000D01*
G01*
X97141200Y-136478200D01*
G75*
G02*
X97391200Y-136228200I250000J0D01*
G01*
G37*
G36*
G01*
X97391200Y-134328200D02*
X98341200Y-134328200D01*
G75*
G02*
X98591200Y-134578200I0J-250000D01*
G01*
X98591200Y-135078200D01*
G75*
G02*
X98341200Y-135328200I-250000J0D01*
G01*
X97391200Y-135328200D01*
G75*
G02*
X97141200Y-135078200I0J250000D01*
G01*
X97141200Y-134578200D01*
G75*
G02*
X97391200Y-134328200I250000J0D01*
G01*
G37*
%TD*%
%TO.C,C14*%
G36*
G01*
X72931000Y-116995400D02*
X73881000Y-116995400D01*
G75*
G02*
X74131000Y-117245400I0J-250000D01*
G01*
X74131000Y-117745400D01*
G75*
G02*
X73881000Y-117995400I-250000J0D01*
G01*
X72931000Y-117995400D01*
G75*
G02*
X72681000Y-117745400I0J250000D01*
G01*
X72681000Y-117245400D01*
G75*
G02*
X72931000Y-116995400I250000J0D01*
G01*
G37*
G36*
G01*
X72931000Y-115095400D02*
X73881000Y-115095400D01*
G75*
G02*
X74131000Y-115345400I0J-250000D01*
G01*
X74131000Y-115845400D01*
G75*
G02*
X73881000Y-116095400I-250000J0D01*
G01*
X72931000Y-116095400D01*
G75*
G02*
X72681000Y-115845400I0J250000D01*
G01*
X72681000Y-115345400D01*
G75*
G02*
X72931000Y-115095400I250000J0D01*
G01*
G37*
%TD*%
%TO.C,C13*%
G36*
G01*
X111904800Y-129283000D02*
X110954800Y-129283000D01*
G75*
G02*
X110704800Y-129033000I0J250000D01*
G01*
X110704800Y-128533000D01*
G75*
G02*
X110954800Y-128283000I250000J0D01*
G01*
X111904800Y-128283000D01*
G75*
G02*
X112154800Y-128533000I0J-250000D01*
G01*
X112154800Y-129033000D01*
G75*
G02*
X111904800Y-129283000I-250000J0D01*
G01*
G37*
G36*
G01*
X111904800Y-131183000D02*
X110954800Y-131183000D01*
G75*
G02*
X110704800Y-130933000I0J250000D01*
G01*
X110704800Y-130433000D01*
G75*
G02*
X110954800Y-130183000I250000J0D01*
G01*
X111904800Y-130183000D01*
G75*
G02*
X112154800Y-130433000I0J-250000D01*
G01*
X112154800Y-130933000D01*
G75*
G02*
X111904800Y-131183000I-250000J0D01*
G01*
G37*
%TD*%
%TO.C,C12*%
G36*
G01*
X116856600Y-127033000D02*
X115756600Y-127033000D01*
G75*
G02*
X115506600Y-126783000I0J250000D01*
G01*
X115506600Y-123783000D01*
G75*
G02*
X115756600Y-123533000I250000J0D01*
G01*
X116856600Y-123533000D01*
G75*
G02*
X117106600Y-123783000I0J-250000D01*
G01*
X117106600Y-126783000D01*
G75*
G02*
X116856600Y-127033000I-250000J0D01*
G01*
G37*
G36*
G01*
X116856600Y-132433000D02*
X115756600Y-132433000D01*
G75*
G02*
X115506600Y-132183000I0J250000D01*
G01*
X115506600Y-129183000D01*
G75*
G02*
X115756600Y-128933000I250000J0D01*
G01*
X116856600Y-128933000D01*
G75*
G02*
X117106600Y-129183000I0J-250000D01*
G01*
X117106600Y-132183000D01*
G75*
G02*
X116856600Y-132433000I-250000J0D01*
G01*
G37*
%TD*%
%TO.C,C11*%
G36*
G01*
X78578200Y-120795400D02*
X80578200Y-120795400D01*
G75*
G02*
X80828200Y-121045400I0J-250000D01*
G01*
X80828200Y-124945400D01*
G75*
G02*
X80578200Y-125195400I-250000J0D01*
G01*
X78578200Y-125195400D01*
G75*
G02*
X78328200Y-124945400I0J250000D01*
G01*
X78328200Y-121045400D01*
G75*
G02*
X78578200Y-120795400I250000J0D01*
G01*
G37*
G36*
G01*
X78578200Y-113395400D02*
X80578200Y-113395400D01*
G75*
G02*
X80828200Y-113645400I0J-250000D01*
G01*
X80828200Y-117545400D01*
G75*
G02*
X80578200Y-117795400I-250000J0D01*
G01*
X78578200Y-117795400D01*
G75*
G02*
X78328200Y-117545400I0J250000D01*
G01*
X78328200Y-113645400D01*
G75*
G02*
X78578200Y-113395400I250000J0D01*
G01*
G37*
%TD*%
%TO.C,C10*%
G36*
G01*
X142181600Y-140833000D02*
X141231600Y-140833000D01*
G75*
G02*
X140981600Y-140583000I0J250000D01*
G01*
X140981600Y-140083000D01*
G75*
G02*
X141231600Y-139833000I250000J0D01*
G01*
X142181600Y-139833000D01*
G75*
G02*
X142431600Y-140083000I0J-250000D01*
G01*
X142431600Y-140583000D01*
G75*
G02*
X142181600Y-140833000I-250000J0D01*
G01*
G37*
G36*
G01*
X142181600Y-142733000D02*
X141231600Y-142733000D01*
G75*
G02*
X140981600Y-142483000I0J250000D01*
G01*
X140981600Y-141983000D01*
G75*
G02*
X141231600Y-141733000I250000J0D01*
G01*
X142181600Y-141733000D01*
G75*
G02*
X142431600Y-141983000I0J-250000D01*
G01*
X142431600Y-142483000D01*
G75*
G02*
X142181600Y-142733000I-250000J0D01*
G01*
G37*
%TD*%
%TO.C,C9*%
G36*
G01*
X139721400Y-141133000D02*
X139221400Y-141133000D01*
G75*
G02*
X138996400Y-140908000I0J225000D01*
G01*
X138996400Y-140458000D01*
G75*
G02*
X139221400Y-140233000I225000J0D01*
G01*
X139721400Y-140233000D01*
G75*
G02*
X139946400Y-140458000I0J-225000D01*
G01*
X139946400Y-140908000D01*
G75*
G02*
X139721400Y-141133000I-225000J0D01*
G01*
G37*
G36*
G01*
X139721400Y-142683000D02*
X139221400Y-142683000D01*
G75*
G02*
X138996400Y-142458000I0J225000D01*
G01*
X138996400Y-142008000D01*
G75*
G02*
X139221400Y-141783000I225000J0D01*
G01*
X139721400Y-141783000D01*
G75*
G02*
X139946400Y-142008000I0J-225000D01*
G01*
X139946400Y-142458000D01*
G75*
G02*
X139721400Y-142683000I-225000J0D01*
G01*
G37*
%TD*%
%TO.C,C8*%
G36*
G01*
X137835401Y-139858000D02*
X136535399Y-139858000D01*
G75*
G02*
X136285400Y-139608001I0J249999D01*
G01*
X136285400Y-138957999D01*
G75*
G02*
X136535399Y-138708000I249999J0D01*
G01*
X137835401Y-138708000D01*
G75*
G02*
X138085400Y-138957999I0J-249999D01*
G01*
X138085400Y-139608001D01*
G75*
G02*
X137835401Y-139858000I-249999J0D01*
G01*
G37*
G36*
G01*
X137835401Y-142808000D02*
X136535399Y-142808000D01*
G75*
G02*
X136285400Y-142558001I0J249999D01*
G01*
X136285400Y-141907999D01*
G75*
G02*
X136535399Y-141658000I249999J0D01*
G01*
X137835401Y-141658000D01*
G75*
G02*
X138085400Y-141907999I0J-249999D01*
G01*
X138085400Y-142558001D01*
G75*
G02*
X137835401Y-142808000I-249999J0D01*
G01*
G37*
%TD*%
D31*
%TO.C,C7*%
X87071200Y-130155200D03*
X87071200Y-143455200D03*
%TD*%
%TO.C,C6*%
G36*
G01*
X110818400Y-111546200D02*
X110818400Y-113396200D01*
G75*
G02*
X110568400Y-113646200I-250000J0D01*
G01*
X108993400Y-113646200D01*
G75*
G02*
X108743400Y-113396200I0J250000D01*
G01*
X108743400Y-111546200D01*
G75*
G02*
X108993400Y-111296200I250000J0D01*
G01*
X110568400Y-111296200D01*
G75*
G02*
X110818400Y-111546200I0J-250000D01*
G01*
G37*
G36*
G01*
X115743400Y-111546200D02*
X115743400Y-113396200D01*
G75*
G02*
X115493400Y-113646200I-250000J0D01*
G01*
X113918400Y-113646200D01*
G75*
G02*
X113668400Y-113396200I0J250000D01*
G01*
X113668400Y-111546200D01*
G75*
G02*
X113918400Y-111296200I250000J0D01*
G01*
X115493400Y-111296200D01*
G75*
G02*
X115743400Y-111546200I0J-250000D01*
G01*
G37*
%TD*%
%TO.C,C5*%
X143941800Y-162757600D03*
X143941800Y-149457600D03*
%TD*%
%TO.C,C4*%
G36*
G01*
X107005900Y-123689066D02*
X107005900Y-124639066D01*
G75*
G02*
X106755900Y-124889066I-250000J0D01*
G01*
X106255900Y-124889066D01*
G75*
G02*
X106005900Y-124639066I0J250000D01*
G01*
X106005900Y-123689066D01*
G75*
G02*
X106255900Y-123439066I250000J0D01*
G01*
X106755900Y-123439066D01*
G75*
G02*
X107005900Y-123689066I0J-250000D01*
G01*
G37*
G36*
G01*
X108905900Y-123689066D02*
X108905900Y-124639066D01*
G75*
G02*
X108655900Y-124889066I-250000J0D01*
G01*
X108155900Y-124889066D01*
G75*
G02*
X107905900Y-124639066I0J250000D01*
G01*
X107905900Y-123689066D01*
G75*
G02*
X108155900Y-123439066I250000J0D01*
G01*
X108655900Y-123439066D01*
G75*
G02*
X108905900Y-123689066I0J-250000D01*
G01*
G37*
%TD*%
%TO.C,C3*%
G36*
G01*
X107005900Y-126513532D02*
X107005900Y-127463532D01*
G75*
G02*
X106755900Y-127713532I-250000J0D01*
G01*
X106255900Y-127713532D01*
G75*
G02*
X106005900Y-127463532I0J250000D01*
G01*
X106005900Y-126513532D01*
G75*
G02*
X106255900Y-126263532I250000J0D01*
G01*
X106755900Y-126263532D01*
G75*
G02*
X107005900Y-126513532I0J-250000D01*
G01*
G37*
G36*
G01*
X108905900Y-126513532D02*
X108905900Y-127463532D01*
G75*
G02*
X108655900Y-127713532I-250000J0D01*
G01*
X108155900Y-127713532D01*
G75*
G02*
X107905900Y-127463532I0J250000D01*
G01*
X107905900Y-126513532D01*
G75*
G02*
X108155900Y-126263532I250000J0D01*
G01*
X108655900Y-126263532D01*
G75*
G02*
X108905900Y-126513532I0J-250000D01*
G01*
G37*
%TD*%
%TO.C,C2*%
G36*
G01*
X104518400Y-129758000D02*
X104518400Y-131608000D01*
G75*
G02*
X104268400Y-131858000I-250000J0D01*
G01*
X102693400Y-131858000D01*
G75*
G02*
X102443400Y-131608000I0J250000D01*
G01*
X102443400Y-129758000D01*
G75*
G02*
X102693400Y-129508000I250000J0D01*
G01*
X104268400Y-129508000D01*
G75*
G02*
X104518400Y-129758000I0J-250000D01*
G01*
G37*
G36*
G01*
X109443400Y-129758000D02*
X109443400Y-131608000D01*
G75*
G02*
X109193400Y-131858000I-250000J0D01*
G01*
X107618400Y-131858000D01*
G75*
G02*
X107368400Y-131608000I0J250000D01*
G01*
X107368400Y-129758000D01*
G75*
G02*
X107618400Y-129508000I250000J0D01*
G01*
X109193400Y-129508000D01*
G75*
G02*
X109443400Y-129758000I0J-250000D01*
G01*
G37*
%TD*%
%TO.C,C1*%
G36*
G01*
X114266200Y-104935000D02*
X114266200Y-105885000D01*
G75*
G02*
X114016200Y-106135000I-250000J0D01*
G01*
X113516200Y-106135000D01*
G75*
G02*
X113266200Y-105885000I0J250000D01*
G01*
X113266200Y-104935000D01*
G75*
G02*
X113516200Y-104685000I250000J0D01*
G01*
X114016200Y-104685000D01*
G75*
G02*
X114266200Y-104935000I0J-250000D01*
G01*
G37*
G36*
G01*
X116166200Y-104935000D02*
X116166200Y-105885000D01*
G75*
G02*
X115916200Y-106135000I-250000J0D01*
G01*
X115416200Y-106135000D01*
G75*
G02*
X115166200Y-105885000I0J250000D01*
G01*
X115166200Y-104935000D01*
G75*
G02*
X115416200Y-104685000I250000J0D01*
G01*
X115916200Y-104685000D01*
G75*
G02*
X116166200Y-104935000I0J-250000D01*
G01*
G37*
%TD*%
M02*
