M48
; DRILL file {KiCad (5.1.7)-1} date 02/19/21 13:57:46
; FORMAT={3:3/ absolute / metric / suppress leading zeros}
; #@! TF.CreationDate,2021-02-19T13:57:46+06:30
; #@! TF.GenerationSoftware,Kicad,Pcbnew,(5.1.7)-1
FMAT,2
METRIC,TZ
T1C0.300
T2C0.400
T3C0.500
T4C0.800
T5C1.000
T6C1.100
T7C1.520
T8C2.100
T9C3.000
%
G90
G05
T1
X87681Y-101143
X88468Y-103988
X89083Y-94691
X93294Y-93079
X94234Y-93624
X95352Y-93650
X96266Y-85877
X96368Y-134823
X100482Y-87300
X111227Y-132639
X117373Y-114452
T2
X63500Y-93980
X63500Y-99060
X63500Y-104140
X63500Y-109220
X63500Y-139700
X63500Y-144780
X63500Y-149860
X66040Y-149860
X68580Y-93980
X68580Y-99060
X68580Y-104140
X68580Y-149860
X71120Y-121920
X71120Y-124460
X71120Y-149860
X73660Y-109220
X76200Y-111760
X76200Y-127000
X78740Y-127000
X81280Y-111760
X81280Y-127000
X83820Y-83820
X83820Y-85090
X83820Y-86360
X86360Y-88900
X86360Y-111760
X91440Y-99060
X91440Y-127000
X93980Y-86360
X93980Y-87630
X93980Y-111760
X95250Y-86360
X96520Y-111760
X99060Y-111760
X99060Y-114300
X99060Y-116840
X99060Y-121920
X99060Y-124460
X99060Y-127000
X99060Y-144780
X101600Y-119380
X104140Y-124460
X104140Y-127000
X105258Y-142824
X105410Y-138430
X108102Y-150673
X110490Y-142240
X111760Y-124460
X111760Y-127000
X112293Y-97460
X113030Y-101727
X113614Y-144247
X114300Y-132080
X114300Y-134620
X116967Y-117043
X118161Y-97460
X118389Y-150622
X119380Y-87630
X119380Y-90170
X119380Y-92710
X119380Y-95250
X119380Y-102870
X119380Y-119380
X119380Y-121920
X119380Y-144780
X121920Y-87630
X121920Y-90170
X121920Y-92710
X121920Y-95250
X121920Y-100330
X121920Y-102870
X121920Y-114300
X121920Y-121920
X124460Y-87630
X124460Y-90170
X124460Y-92710
X124460Y-100330
X124460Y-102870
X127000Y-87630
X127000Y-90170
X127000Y-97790
X127000Y-100330
X127000Y-102870
X127000Y-114300
X127000Y-121920
X127000Y-162560
X128270Y-92126
X129540Y-162560
X132080Y-121920
X132080Y-162560
X134620Y-106680
X134620Y-114300
X137160Y-114300
X137160Y-121920
X137160Y-134620
X137160Y-144780
X139700Y-93980
X139700Y-106680
X139700Y-114300
X139700Y-134620
X139700Y-144780
X142240Y-114300
X142240Y-134620
X144780Y-93980
X144780Y-114300
X144780Y-121920
X144780Y-124460
X147320Y-83820
X147320Y-88900
X147320Y-99060
X147320Y-111760
X147320Y-114300
X147320Y-119380
X147320Y-121920
X147320Y-124460
X147320Y-139700
X147320Y-142240
X154940Y-154940
X154940Y-157480
X154940Y-160020
X154940Y-162560
X154940Y-165100
T3
X95098Y-82677
X101567Y-94227
X101567Y-105468
X101567Y-110711
X105258Y-140589
X109474Y-87427
X111481Y-99492
X132258Y-142265
T4
X69799Y-143713
X72339Y-143713
X74879Y-143713
X68529Y-131166
X68529Y-133706
X68529Y-136246
X68529Y-138786
X76149Y-131166
X76149Y-133706
X76149Y-136246
X76149Y-138786
T5
X97561Y-80975
X100101Y-80975
X102641Y-80975
X105181Y-80975
X107721Y-80975
X110261Y-80975
X135331Y-84352
X135331Y-86892
X135331Y-89432
X73660Y-89002
X73660Y-91542
X73660Y-94082
X73660Y-96622
X73660Y-99162
X77724Y-105029
X85324Y-105029
X74320Y-80975
X76860Y-80975
X79400Y-80975
X81940Y-80975
X84480Y-80975
X87020Y-80975
X89560Y-80975
X92100Y-80975
X89633Y-96926
X92173Y-96926
T6
X103657Y-85219
X103657Y-91719
X108157Y-85219
X108157Y-91719
X156504Y-126980
X156504Y-137180
X140233Y-81968
X140233Y-88468
X144733Y-81968
X144733Y-88468
X156504Y-98151
X156504Y-108351
T7
X163322Y-162204
X168402Y-162204
X75286Y-162204
X80366Y-162204
X100279Y-162204
X105359Y-162204
X112776Y-162204
X117856Y-162204
X87782Y-162204
X92862Y-162204
T8
X169204Y-123180
X171704Y-140980
X179304Y-140980
X169204Y-94351
X171704Y-112151
X179304Y-112151
T9
X64770Y-82550
X64770Y-162560
X179070Y-162560
X179070Y-82550
T0
M30
