G04 #@! TF.GenerationSoftware,KiCad,Pcbnew,(5.1.7)-1*
G04 #@! TF.CreationDate,2022-06-29T19:44:56+06:30*
G04 #@! TF.ProjectId,EPS32_Smart_Power_Meter_SMD_v0.2,45505333-325f-4536-9d61-72745f506f77,2*
G04 #@! TF.SameCoordinates,Original*
G04 #@! TF.FileFunction,Soldermask,Bot*
G04 #@! TF.FilePolarity,Negative*
%FSLAX46Y46*%
G04 Gerber Fmt 4.6, Leading zero omitted, Abs format (unit mm)*
G04 Created by KiCad (PCBNEW (5.1.7)-1) date 2022-06-29 19:44:56*
%MOMM*%
%LPD*%
G01*
G04 APERTURE LIST*
%ADD10C,2.600000*%
%ADD11R,2.600000X2.600000*%
%ADD12C,1.524000*%
%ADD13C,3.000000*%
%ADD14C,2.500000*%
%ADD15C,0.999997*%
%ADD16O,1.700000X1.700000*%
%ADD17R,1.700000X1.700000*%
%ADD18C,2.000000*%
%ADD19R,2.000000X2.000000*%
%ADD20C,0.800000*%
%ADD21C,6.000000*%
%ADD22C,1.500000*%
%ADD23R,3.000000X3.000000*%
%ADD24C,2.300000*%
%ADD25C,3.250000*%
%ADD26R,1.500000X1.500000*%
%ADD27R,4.400000X1.800000*%
%ADD28O,4.000000X1.800000*%
%ADD29O,1.800000X4.000000*%
G04 APERTURE END LIST*
D10*
G04 #@! TO.C,J20*
X110949800Y-42367200D03*
X105949800Y-42367200D03*
X100949800Y-42367200D03*
X95949800Y-42367200D03*
X90949800Y-42367200D03*
X85949800Y-42367200D03*
D11*
X80949800Y-42367200D03*
G04 #@! TD*
D12*
G04 #@! TO.C,U3*
X155905200Y-118770400D03*
X158445200Y-118770400D03*
X160985200Y-118770400D03*
X163525200Y-118770400D03*
X166065200Y-103530400D03*
X163525200Y-103530400D03*
X160985200Y-103530400D03*
X158445200Y-103530400D03*
X155905200Y-103530400D03*
G04 #@! TD*
D13*
G04 #@! TO.C,K3*
X117754400Y-104216200D03*
D14*
X123704400Y-106166200D03*
D13*
X123754400Y-118416200D03*
X111704400Y-118366200D03*
D14*
X111704400Y-106166200D03*
G04 #@! TD*
D15*
G04 #@! TO.C,MICRO_SD1*
X234111800Y-72644000D03*
X234111800Y-80619600D03*
G04 #@! TD*
D16*
G04 #@! TO.C,U1*
X130505200Y-70840600D03*
X135585200Y-70840600D03*
X158445200Y-70840600D03*
X160985200Y-70840600D03*
X163525200Y-70840600D03*
X127965200Y-70840600D03*
X143205200Y-70840600D03*
X133045200Y-70840600D03*
X138125200Y-70840600D03*
D17*
X125425200Y-70840600D03*
D16*
X148285200Y-70840600D03*
X150825200Y-70840600D03*
X140665200Y-70840600D03*
X145745200Y-70840600D03*
X155905200Y-70840600D03*
X153365200Y-70840600D03*
X163525200Y-93700600D03*
X160985200Y-93700600D03*
X158445200Y-93700600D03*
X155905200Y-93700600D03*
X153365200Y-93700600D03*
X150825200Y-93700600D03*
X148285200Y-93700600D03*
X145745200Y-93700600D03*
X138125200Y-93700600D03*
X135585200Y-93700600D03*
X133045200Y-93700600D03*
X130505200Y-93700600D03*
X127965200Y-93700600D03*
D17*
X125425200Y-93700600D03*
G04 #@! TD*
D16*
G04 #@! TO.C,J6*
X133045200Y-98171000D03*
X135585200Y-98171000D03*
X138125200Y-98171000D03*
D17*
X140665200Y-98171000D03*
G04 #@! TD*
D16*
G04 #@! TO.C,J19*
X221005400Y-50774600D03*
X221005400Y-53314600D03*
X221005400Y-55854600D03*
D17*
X221005400Y-58394600D03*
G04 #@! TD*
D18*
G04 #@! TO.C,BZ1*
X143205200Y-121208800D03*
D19*
X135605200Y-121208800D03*
G04 #@! TD*
D20*
G04 #@! TO.C,H4*
X236590990Y-126409010D03*
X235000000Y-125750000D03*
X233409010Y-126409010D03*
X232750000Y-128000000D03*
X233409010Y-129590990D03*
X235000000Y-130250000D03*
X236590990Y-129590990D03*
X237250000Y-128000000D03*
D21*
X235000000Y-128000000D03*
G04 #@! TD*
D20*
G04 #@! TO.C,H3*
X74590990Y-126409010D03*
X73000000Y-125750000D03*
X71409010Y-126409010D03*
X70750000Y-128000000D03*
X71409010Y-129590990D03*
X73000000Y-130250000D03*
X74590990Y-129590990D03*
X75250000Y-128000000D03*
D21*
X73000000Y-128000000D03*
G04 #@! TD*
D20*
G04 #@! TO.C,H2*
X236590990Y-39409010D03*
X235000000Y-38750000D03*
X233409010Y-39409010D03*
X232750000Y-41000000D03*
X233409010Y-42590990D03*
X235000000Y-43250000D03*
X236590990Y-42590990D03*
X237250000Y-41000000D03*
D21*
X235000000Y-41000000D03*
G04 #@! TD*
D20*
G04 #@! TO.C,H1*
X74590990Y-39409010D03*
X73000000Y-38750000D03*
X71409010Y-39409010D03*
X70750000Y-41000000D03*
X71409010Y-42590990D03*
X73000000Y-43250000D03*
X74590990Y-42590990D03*
X75250000Y-41000000D03*
D21*
X73000000Y-41000000D03*
G04 #@! TD*
D16*
G04 #@! TO.C,J16*
X119100600Y-69646800D03*
X119100600Y-67106800D03*
X119100600Y-64566800D03*
X119100600Y-62026800D03*
X119100600Y-59486800D03*
D17*
X119100600Y-56946800D03*
G04 #@! TD*
D16*
G04 #@! TO.C,J3*
X93726000Y-50012600D03*
X96266000Y-50012600D03*
X98806000Y-50012600D03*
X101346000Y-50012600D03*
X103886000Y-50012600D03*
X106426000Y-50012600D03*
X108966000Y-50012600D03*
X111506000Y-50012600D03*
X114046000Y-50012600D03*
X116586000Y-50012600D03*
D17*
X119126000Y-50012600D03*
G04 #@! TD*
D16*
G04 #@! TO.C,J12*
X89839800Y-81838800D03*
X89839800Y-79298800D03*
D17*
X89839800Y-76758800D03*
G04 #@! TD*
D22*
G04 #@! TO.C,Y2*
X96110400Y-83693000D03*
X100990400Y-83693000D03*
G04 #@! TD*
D13*
G04 #@! TO.C,K2*
X100330000Y-104216200D03*
D14*
X106280000Y-106166200D03*
D13*
X106330000Y-118416200D03*
X94280000Y-118366200D03*
D14*
X94280000Y-106166200D03*
G04 #@! TD*
D13*
G04 #@! TO.C,K1*
X82905600Y-104216200D03*
D14*
X88855600Y-106166200D03*
D13*
X88905600Y-118416200D03*
X76855600Y-118366200D03*
D14*
X76855600Y-106166200D03*
G04 #@! TD*
D16*
G04 #@! TO.C,J18*
X99568000Y-56946800D03*
X102108000Y-56946800D03*
X104648000Y-56946800D03*
D17*
X107188000Y-56946800D03*
G04 #@! TD*
D13*
G04 #@! TO.C,J15*
X120294400Y-127914400D03*
D23*
X115214400Y-127914400D03*
G04 #@! TD*
D13*
G04 #@! TO.C,J14*
X102870000Y-127914400D03*
D23*
X97790000Y-127914400D03*
G04 #@! TD*
D13*
G04 #@! TO.C,J13*
X85445600Y-127914400D03*
D23*
X80365600Y-127914400D03*
G04 #@! TD*
D16*
G04 #@! TO.C,J11*
X93726000Y-64566800D03*
X93726000Y-62026800D03*
X93726000Y-59486800D03*
D17*
X93726000Y-56946800D03*
G04 #@! TD*
D22*
G04 #@! TO.C,J10*
X141357000Y-52218400D03*
X139067000Y-52218400D03*
X129927000Y-52218400D03*
X127637000Y-52218400D03*
D24*
X126367000Y-46508400D03*
X142627000Y-46508400D03*
D25*
X140847000Y-43078400D03*
X128147000Y-43078400D03*
D22*
X138049000Y-47398400D03*
X136017000Y-47398400D03*
X133985000Y-47398400D03*
X131953000Y-47398400D03*
X137033000Y-45618400D03*
X135001000Y-45618400D03*
X132969000Y-45618400D03*
D26*
X130937000Y-45618400D03*
G04 #@! TD*
D16*
G04 #@! TO.C,J9*
X147777200Y-48295400D03*
X147777200Y-45755400D03*
X147777200Y-43215400D03*
D17*
X147777200Y-40675400D03*
G04 #@! TD*
D16*
G04 #@! TO.C,J7*
X198184000Y-71983600D03*
X195644000Y-71983600D03*
D17*
X193104000Y-71983600D03*
G04 #@! TD*
D13*
G04 #@! TO.C,J5*
X152247600Y-127914400D03*
D23*
X167487600Y-127914400D03*
D13*
X157327600Y-127914400D03*
X162407600Y-127914400D03*
G04 #@! TD*
D27*
G04 #@! TO.C,J2*
X201066400Y-117906800D03*
D28*
X201066400Y-123706800D03*
D29*
X205866400Y-120906800D03*
G04 #@! TD*
D13*
G04 #@! TO.C,J1*
X216331800Y-128006800D03*
D23*
X211251800Y-128006800D03*
G04 #@! TD*
M02*
