EESchema Schematic File Version 4
EELAYER 30 0
EELAYER END
$Descr A4 11693 8268
encoding utf-8
Sheet 1 2
Title "WAS New Main Card v0.1"
Date "2021-01-06"
Rev "0"
Comp "Everything Electronic"
Comment1 ""
Comment2 ""
Comment3 ""
Comment4 ""
$EndDescr
$Comp
L power:+5V #PWR020
U 1 1 5FB0043B
P 6600 6850
F 0 "#PWR020" H 6600 6700 50  0001 C CNN
F 1 "+5V" H 6615 7023 50  0000 C CNN
F 2 "" H 6600 6850 50  0001 C CNN
F 3 "" H 6600 6850 50  0001 C CNN
	1    6600 6850
	1    0    0    -1  
$EndComp
$Comp
L Device:C C1
U 1 1 600626EF
P 8450 5800
F 0 "C1" H 8565 5846 50  0000 L CNN
F 1 "104" H 8565 5755 50  0000 L CNN
F 2 "Capacitor_THT:C_Rect_L7.0mm_W3.5mm_P5.00mm" H 8488 5650 50  0001 C CNN
F 3 "~" H 8450 5800 50  0001 C CNN
	1    8450 5800
	1    0    0    -1  
$EndComp
$Comp
L power:GND #PWR02
U 1 1 5FB0A6B6
P 8450 6000
F 0 "#PWR02" H 8450 5750 50  0001 C CNN
F 1 "GND" H 8455 5827 50  0000 C CNN
F 2 "" H 8450 6000 50  0001 C CNN
F 3 "" H 8450 6000 50  0001 C CNN
	1    8450 6000
	1    0    0    -1  
$EndComp
Wire Wire Line
	8450 5550 8450 5650
Wire Wire Line
	8450 5950 8450 6000
$Comp
L Mechanical:MountingHole H1
U 1 1 60062701
P 10600 6650
F 0 "H1" H 10700 6696 50  0000 L CNN
F 1 "MountingHole" H 10700 6605 50  0000 L CNN
F 2 "MountingHole:MountingHole_3mm" H 10600 6650 50  0001 C CNN
F 3 "~" H 10600 6650 50  0001 C CNN
	1    10600 6650
	1    0    0    -1  
$EndComp
$Comp
L Mechanical:MountingHole H2
U 1 1 600722EB
P 10600 6900
F 0 "H2" H 10700 6946 50  0000 L CNN
F 1 "MountingHole" H 10700 6855 50  0000 L CNN
F 2 "MountingHole:MountingHole_3mm" H 10600 6900 50  0001 C CNN
F 3 "~" H 10600 6900 50  0001 C CNN
	1    10600 6900
	1    0    0    -1  
$EndComp
$Comp
L Mechanical:MountingHole H3
U 1 1 60062703
P 10600 7150
F 0 "H3" H 10700 7196 50  0000 L CNN
F 1 "MountingHole" H 10700 7105 50  0000 L CNN
F 2 "MountingHole:MountingHole_3mm" H 10600 7150 50  0001 C CNN
F 3 "~" H 10600 7150 50  0001 C CNN
	1    10600 7150
	1    0    0    -1  
$EndComp
$Comp
L Mechanical:MountingHole H4
U 1 1 60072588
P 10600 7400
F 0 "H4" H 10700 7446 50  0000 L CNN
F 1 "MountingHole" H 10700 7355 50  0000 L CNN
F 2 "MountingHole:MountingHole_3mm" H 10600 7400 50  0001 C CNN
F 3 "~" H 10600 7400 50  0001 C CNN
	1    10600 7400
	1    0    0    -1  
$EndComp
$Comp
L Connector:Screw_Terminal_01x02 J1
U 1 1 5FBC8EAC
P 700 6750
F 0 "J1" H 750 6450 50  0000 C CNN
F 1 "AC13V" H 650 6550 50  0000 C CNN
F 2 "TerminalBlock:TerminalBlock_bornier-2_P5.08mm" H 700 6750 50  0001 C CNN
F 3 "~" H 700 6750 50  0001 C CNN
	1    700  6750
	-1   0    0    1   
$EndComp
$Comp
L Device:CP C3
U 1 1 5FBCC0FB
P 2650 7000
F 0 "C3" H 2768 7046 50  0000 L CNN
F 1 "10uF" H 2768 6955 50  0000 L CNN
F 2 "Capacitor_THT:C_Radial_D6.3mm_H11.0mm_P2.50mm" H 2688 6850 50  0001 C CNN
F 3 "~" H 2650 7000 50  0001 C CNN
	1    2650 7000
	1    0    0    -1  
$EndComp
$Comp
L Device:CP C5
U 1 1 5FBCDEEB
P 3100 7000
F 0 "C5" H 3218 7046 50  0000 L CNN
F 1 "1uF" H 3218 6955 50  0000 L CNN
F 2 "Capacitor_THT:C_Radial_D6.3mm_H11.0mm_P2.50mm" H 3138 6850 50  0001 C CNN
F 3 "~" H 3100 7000 50  0001 C CNN
	1    3100 7000
	1    0    0    -1  
$EndComp
$Comp
L Device:C C6
U 1 1 5FBD0331
P 3500 7000
F 0 "C6" H 3615 7046 50  0000 L CNN
F 1 "104" H 3615 6955 50  0000 L CNN
F 2 "Capacitor_THT:C_Rect_L7.0mm_W3.5mm_P5.00mm" H 3538 6850 50  0001 C CNN
F 3 "~" H 3500 7000 50  0001 C CNN
	1    3500 7000
	1    0    0    -1  
$EndComp
$Comp
L Device:C C9
U 1 1 5FF821FC
P 6350 7200
F 0 "C9" H 6465 7246 50  0000 L CNN
F 1 "104" H 6465 7155 50  0000 L CNN
F 2 "Capacitor_THT:C_Rect_L7.0mm_W3.5mm_P5.00mm" H 6388 7050 50  0001 C CNN
F 3 "~" H 6350 7200 50  0001 C CNN
	1    6350 7200
	1    0    0    -1  
$EndComp
$Comp
L power:GND #PWR0117
U 1 1 60006FD8
P 1150 6800
F 0 "#PWR0117" H 1150 6550 50  0001 C CNN
F 1 "GND" H 1150 6650 50  0000 C CNN
F 2 "" H 1150 6800 50  0001 C CNN
F 3 "" H 1150 6800 50  0001 C CNN
	1    1150 6800
	1    0    0    -1  
$EndComp
$Comp
L Regulator_Switching:LM2596S-5 U2
U 1 1 5FC8C9A0
P 4400 6850
F 0 "U2" H 4400 7217 50  0000 C CNN
F 1 "LM2596S-5" H 4400 7126 50  0000 C CNN
F 2 "Package_TO_SOT_SMD:TO-263-5_TabPin3" H 4450 6600 50  0001 L CIN
F 3 "http://www.ti.com/lit/ds/symlink/lm2596.pdf" H 4400 6850 50  0001 C CNN
	1    4400 6850
	1    0    0    -1  
$EndComp
$Comp
L Diode:1N5822 D2
U 1 1 5FC8F02C
P 5100 7200
F 0 "D2" V 5054 7280 50  0000 L CNN
F 1 "1N5824" V 5145 7280 50  0000 L CNN
F 2 "Diode_SMD:D_SMA" H 5100 7025 50  0001 C CNN
F 3 "http://www.vishay.com/docs/88526/1n5820.pdf" H 5100 7200 50  0001 C CNN
	1    5100 7200
	0    1    1    0   
$EndComp
$Comp
L pspice:INDUCTOR L1
U 1 1 5FC910BF
P 5550 6950
F 0 "L1" H 5550 7165 50  0000 C CNN
F 1 "33uH" H 5550 7074 50  0000 C CNN
F 2 "Inductor_THT:L_Axial_L26.7mm_D14.0mm_P7.62mm_Vertical_Vishay_IHA-104" H 5550 6950 50  0001 C CNN
F 3 "~" H 5550 6950 50  0001 C CNN
	1    5550 6950
	1    0    0    -1  
$EndComp
$Comp
L power:GND #PWR0108
U 1 1 5FD0DC28
P 3800 7050
F 0 "#PWR0108" H 3800 6800 50  0001 C CNN
F 1 "GND" H 3805 6877 50  0000 C CNN
F 2 "" H 3800 7050 50  0001 C CNN
F 3 "" H 3800 7050 50  0001 C CNN
	1    3800 7050
	1    0    0    -1  
$EndComp
Wire Wire Line
	3900 6950 3800 6950
Wire Wire Line
	3800 6950 3800 7050
$Comp
L power:GND #PWR0112
U 1 1 5FD1A800
P 4400 7250
F 0 "#PWR0112" H 4400 7000 50  0001 C CNN
F 1 "GND" H 4405 7077 50  0000 C CNN
F 2 "" H 4400 7250 50  0001 C CNN
F 3 "" H 4400 7250 50  0001 C CNN
	1    4400 7250
	1    0    0    -1  
$EndComp
Wire Wire Line
	4400 7250 4400 7150
$Comp
L power:GND #PWR0115
U 1 1 5FD27415
P 5100 7450
F 0 "#PWR0115" H 5100 7200 50  0001 C CNN
F 1 "GND" H 5105 7277 50  0000 C CNN
F 2 "" H 5100 7450 50  0001 C CNN
F 3 "" H 5100 7450 50  0001 C CNN
	1    5100 7450
	1    0    0    -1  
$EndComp
Wire Wire Line
	5100 7450 5100 7350
Wire Wire Line
	4900 6950 5100 6950
Wire Wire Line
	5100 7050 5100 6950
Connection ~ 5100 6950
Wire Wire Line
	5100 6950 5300 6950
$Comp
L Device:CP C2
U 1 1 5FDA4CC7
P 6050 7200
F 0 "C2" H 5800 7250 50  0000 L CNN
F 1 "220uF" H 5700 7150 50  0000 L CNN
F 2 "Capacitor_THT:CP_Radial_D8.0mm_P3.50mm" H 6088 7050 50  0001 C CNN
F 3 "~" H 6050 7200 50  0001 C CNN
	1    6050 7200
	1    0    0    -1  
$EndComp
Wire Wire Line
	5800 6950 6050 6950
Wire Wire Line
	6600 6950 6600 6850
Connection ~ 6050 6950
Wire Wire Line
	6050 6950 6350 6950
Connection ~ 6350 6950
Wire Wire Line
	6350 6950 6600 6950
$Comp
L power:GND #PWR0116
U 1 1 5FDD847E
P 6050 7450
F 0 "#PWR0116" H 6050 7200 50  0001 C CNN
F 1 "GND" H 6055 7277 50  0000 C CNN
F 2 "" H 6050 7450 50  0001 C CNN
F 3 "" H 6050 7450 50  0001 C CNN
	1    6050 7450
	1    0    0    -1  
$EndComp
$Comp
L power:GND #PWR0118
U 1 1 5FDD876F
P 6350 7450
F 0 "#PWR0118" H 6350 7200 50  0001 C CNN
F 1 "GND" H 6355 7277 50  0000 C CNN
F 2 "" H 6350 7450 50  0001 C CNN
F 3 "" H 6350 7450 50  0001 C CNN
	1    6350 7450
	1    0    0    -1  
$EndComp
Wire Wire Line
	6050 6950 6050 7050
Wire Wire Line
	6350 6950 6350 7050
Wire Wire Line
	6050 7450 6050 7350
Wire Wire Line
	6350 7450 6350 7350
Wire Wire Line
	4900 6750 6050 6750
Wire Wire Line
	6050 6750 6050 6950
Wire Wire Line
	2650 6850 2650 6750
Wire Wire Line
	2650 6750 3100 6750
Wire Wire Line
	3100 6850 3100 6750
Connection ~ 3100 6750
Wire Wire Line
	3100 6750 3500 6750
Wire Wire Line
	3500 6850 3500 6750
$Comp
L power:GND #PWR019
U 1 1 5FDE6587
P 2650 7250
F 0 "#PWR019" H 2650 7000 50  0001 C CNN
F 1 "GND" H 2655 7077 50  0000 C CNN
F 2 "" H 2650 7250 50  0001 C CNN
F 3 "" H 2650 7250 50  0001 C CNN
	1    2650 7250
	1    0    0    -1  
$EndComp
$Comp
L power:GND #PWR022
U 1 1 5FDE696E
P 3100 7250
F 0 "#PWR022" H 3100 7000 50  0001 C CNN
F 1 "GND" H 3105 7077 50  0000 C CNN
F 2 "" H 3100 7250 50  0001 C CNN
F 3 "" H 3100 7250 50  0001 C CNN
	1    3100 7250
	1    0    0    -1  
$EndComp
$Comp
L power:GND #PWR026
U 1 1 5FDE6AF2
P 3500 7250
F 0 "#PWR026" H 3500 7000 50  0001 C CNN
F 1 "GND" H 3505 7077 50  0000 C CNN
F 2 "" H 3500 7250 50  0001 C CNN
F 3 "" H 3500 7250 50  0001 C CNN
	1    3500 7250
	1    0    0    -1  
$EndComp
Wire Wire Line
	2650 7250 2650 7150
Wire Wire Line
	3100 7250 3100 7150
Wire Wire Line
	3500 7250 3500 7150
$Comp
L power:GND #PWR08
U 1 1 5FEB5C8B
P 8050 5400
F 0 "#PWR08" H 8050 5150 50  0001 C CNN
F 1 "GND" H 8055 5227 50  0000 C CNN
F 2 "" H 8050 5400 50  0001 C CNN
F 3 "" H 8050 5400 50  0001 C CNN
	1    8050 5400
	1    0    0    -1  
$EndComp
Wire Wire Line
	8050 5400 8050 5300
$Comp
L power:+12V #PWR032
U 1 1 602398BC
P 3500 6600
F 0 "#PWR032" H 3500 6450 50  0001 C CNN
F 1 "+12V" H 3515 6773 50  0000 C CNN
F 2 "" H 3500 6600 50  0001 C CNN
F 3 "" H 3500 6600 50  0001 C CNN
	1    3500 6600
	1    0    0    -1  
$EndComp
$Comp
L power:GND #PWR013
U 1 1 600626F4
P 10750 5450
F 0 "#PWR013" H 10750 5200 50  0001 C CNN
F 1 "GND" H 10755 5277 50  0000 C CNN
F 2 "" H 10750 5450 50  0001 C CNN
F 3 "" H 10750 5450 50  0001 C CNN
	1    10750 5450
	1    0    0    -1  
$EndComp
Text Label 10600 5200 0    50   ~ 0
RXD
Text Label 10600 5300 0    50   ~ 0
TXD
$Comp
L Device:R R2
U 1 1 5FEE94B5
P 8400 4600
F 0 "R2" H 8500 4500 50  0000 L CNN
F 1 "10k" H 8450 4600 50  0000 L CNN
F 2 "Resistor_THT:R_Axial_DIN0207_L6.3mm_D2.5mm_P7.62mm_Horizontal" V 8330 4600 50  0001 C CNN
F 3 "~" H 8400 4600 50  0001 C CNN
	1    8400 4600
	-1   0    0    1   
$EndComp
$Comp
L Device:R R3
U 1 1 5FEEA206
P 8650 4600
F 0 "R3" H 8750 4500 50  0000 L CNN
F 1 "10k" H 8700 4600 50  0000 L CNN
F 2 "Resistor_THT:R_Axial_DIN0207_L6.3mm_D2.5mm_P7.62mm_Horizontal" V 8580 4600 50  0001 C CNN
F 3 "~" H 8650 4600 50  0001 C CNN
	1    8650 4600
	-1   0    0    1   
$EndComp
$Comp
L power:GND #PWR025
U 1 1 5FEEA735
P 9300 6250
F 0 "#PWR025" H 9300 6000 50  0001 C CNN
F 1 "GND" H 9305 6077 50  0000 C CNN
F 2 "" H 9300 6250 50  0001 C CNN
F 3 "" H 9300 6250 50  0001 C CNN
	1    9300 6250
	1    0    0    -1  
$EndComp
Wire Wire Line
	9300 6250 9300 6150
$Comp
L power:+3.3V #PWR023
U 1 1 5FEEE3E8
P 9300 4300
F 0 "#PWR023" H 9300 4150 50  0001 C CNN
F 1 "+3.3V" H 9315 4473 50  0000 C CNN
F 2 "" H 9300 4300 50  0001 C CNN
F 3 "" H 9300 4300 50  0001 C CNN
	1    9300 4300
	1    0    0    -1  
$EndComp
Wire Wire Line
	8650 4750 8650 4850
Wire Wire Line
	8650 4850 8700 4850
Wire Wire Line
	8400 4750 8400 5050
Wire Wire Line
	8400 5050 8700 5050
$Comp
L power:+3.3V #PWR016
U 1 1 5FEFEF6B
P 8650 4300
F 0 "#PWR016" H 8650 4150 50  0001 C CNN
F 1 "+3.3V" H 8665 4473 50  0000 C CNN
F 2 "" H 8650 4300 50  0001 C CNN
F 3 "" H 8650 4300 50  0001 C CNN
	1    8650 4300
	1    0    0    -1  
$EndComp
Wire Wire Line
	8650 4450 8650 4350
Wire Wire Line
	8400 4450 8400 4350
Wire Wire Line
	8400 4350 8650 4350
Connection ~ 8650 4350
Wire Wire Line
	8650 4350 8650 4300
Wire Wire Line
	9300 4300 9300 4350
$Comp
L Regulator_Linear:AMS1117-3.3 U1
U 1 1 5FF50324
P 2150 5300
F 0 "U1" H 2150 5542 50  0000 C CNN
F 1 "AMS1117-3.3" H 2150 5451 50  0000 C CNN
F 2 "Package_TO_SOT_SMD:SOT-223-3_TabPin2" H 2150 5500 50  0001 C CNN
F 3 "http://www.advanced-monolithic.com/pdf/ds1117.pdf" H 2250 5050 50  0001 C CNN
	1    2150 5300
	1    0    0    -1  
$EndComp
$Comp
L Device:CP C13
U 1 1 5FF5739D
P 2600 5550
F 0 "C13" H 2718 5596 50  0000 L CNN
F 1 "10uF" H 2718 5505 50  0000 L CNN
F 2 "Capacitor_THT:C_Radial_D6.3mm_H11.0mm_P2.50mm" H 2638 5400 50  0001 C CNN
F 3 "~" H 2600 5550 50  0001 C CNN
	1    2600 5550
	1    0    0    -1  
$EndComp
$Comp
L power:+3.3V #PWR028
U 1 1 5FF584A5
P 2850 5250
F 0 "#PWR028" H 2850 5100 50  0001 C CNN
F 1 "+3.3V" H 2865 5423 50  0000 C CNN
F 2 "" H 2850 5250 50  0001 C CNN
F 3 "" H 2850 5250 50  0001 C CNN
	1    2850 5250
	1    0    0    -1  
$EndComp
Wire Wire Line
	2450 5300 2600 5300
Wire Wire Line
	2850 5300 2850 5250
Wire Wire Line
	2600 5400 2600 5300
Connection ~ 2600 5300
Wire Wire Line
	2600 5300 2850 5300
$Comp
L power:GND #PWR021
U 1 1 5FF68240
P 2150 5800
F 0 "#PWR021" H 2150 5550 50  0001 C CNN
F 1 "GND" H 2155 5627 50  0000 C CNN
F 2 "" H 2150 5800 50  0001 C CNN
F 3 "" H 2150 5800 50  0001 C CNN
	1    2150 5800
	1    0    0    -1  
$EndComp
$Comp
L power:GND #PWR027
U 1 1 5FF6851C
P 2600 5800
F 0 "#PWR027" H 2600 5550 50  0001 C CNN
F 1 "GND" H 2605 5627 50  0000 C CNN
F 2 "" H 2600 5800 50  0001 C CNN
F 3 "" H 2600 5800 50  0001 C CNN
	1    2600 5800
	1    0    0    -1  
$EndComp
Wire Wire Line
	2150 5800 2150 5600
Wire Wire Line
	2600 5800 2600 5700
Wire Wire Line
	650  5300 650  5250
Wire Wire Line
	800  5400 800  5300
Connection ~ 800  5300
Wire Wire Line
	800  5300 650  5300
Wire Wire Line
	1250 5400 1250 5300
Connection ~ 1250 5300
Wire Wire Line
	1250 5300 800  5300
Wire Wire Line
	1650 5400 1650 5300
Wire Wire Line
	1650 5300 1250 5300
$Comp
L power:GND #PWR015
U 1 1 5FFA7244
P 1650 5800
F 0 "#PWR015" H 1650 5550 50  0001 C CNN
F 1 "GND" H 1655 5627 50  0000 C CNN
F 2 "" H 1650 5800 50  0001 C CNN
F 3 "" H 1650 5800 50  0001 C CNN
	1    1650 5800
	1    0    0    -1  
$EndComp
$Comp
L power:GND #PWR010
U 1 1 5FFA744B
P 1250 5800
F 0 "#PWR010" H 1250 5550 50  0001 C CNN
F 1 "GND" H 1255 5627 50  0000 C CNN
F 2 "" H 1250 5800 50  0001 C CNN
F 3 "" H 1250 5800 50  0001 C CNN
	1    1250 5800
	1    0    0    -1  
$EndComp
$Comp
L power:GND #PWR05
U 1 1 5FFA75F4
P 800 5800
F 0 "#PWR05" H 800 5550 50  0001 C CNN
F 1 "GND" H 805 5627 50  0000 C CNN
F 2 "" H 800 5800 50  0001 C CNN
F 3 "" H 800 5800 50  0001 C CNN
	1    800  5800
	1    0    0    -1  
$EndComp
Wire Wire Line
	800  5800 800  5700
Wire Wire Line
	1250 5800 1250 5700
Wire Wire Line
	1650 5800 1650 5700
$Comp
L Device:CP C4
U 1 1 5FFBDF70
P 800 5550
F 0 "C4" H 918 5596 50  0000 L CNN
F 1 "10uF" H 918 5505 50  0000 L CNN
F 2 "Capacitor_THT:C_Radial_D6.3mm_H11.0mm_P2.50mm" H 838 5400 50  0001 C CNN
F 3 "~" H 800 5550 50  0001 C CNN
	1    800  5550
	1    0    0    -1  
$EndComp
$Comp
L Device:CP C10
U 1 1 5FFBDF76
P 1250 5550
F 0 "C10" H 1368 5596 50  0000 L CNN
F 1 "1uF" H 1368 5505 50  0000 L CNN
F 2 "Capacitor_THT:C_Radial_D6.3mm_H11.0mm_P2.50mm" H 1288 5400 50  0001 C CNN
F 3 "~" H 1250 5550 50  0001 C CNN
	1    1250 5550
	1    0    0    -1  
$EndComp
$Comp
L Device:C C12
U 1 1 5FFBDF7C
P 1650 5550
F 0 "C12" H 1765 5596 50  0000 L CNN
F 1 "104" H 1765 5505 50  0000 L CNN
F 2 "Capacitor_THT:C_Rect_L7.0mm_W3.5mm_P5.00mm" H 1688 5400 50  0001 C CNN
F 3 "~" H 1650 5550 50  0001 C CNN
	1    1650 5550
	1    0    0    -1  
$EndComp
Wire Wire Line
	1850 5300 1650 5300
Connection ~ 1650 5300
Wire Notes Line
	3050 4950 3050 6100
Wire Notes Line
	3050 6100 550  6100
Wire Notes Line
	550  6100 550  4950
Wire Notes Line
	550  4950 3050 4950
$Comp
L Switch:SW_Push SW1
U 1 1 5FEA2066
P 8050 5100
F 0 "SW1" V 8096 5052 50  0000 R CNN
F 1 "RST" V 8005 5052 50  0000 R CNN
F 2 "Button_Switch_THT:SW_PUSH_6mm" H 8050 5300 50  0001 C CNN
F 3 "~" H 8050 5300 50  0001 C CNN
	1    8050 5100
	0    -1   -1   0   
$EndComp
Wire Wire Line
	8650 4850 8050 4850
Wire Wire Line
	8050 4850 8050 4900
Connection ~ 8650 4850
Connection ~ 2650 6750
$Comp
L power:GND #PWR035
U 1 1 600B2750
P 10750 6000
F 0 "#PWR035" H 10750 5750 50  0001 C CNN
F 1 "GND" H 10755 5827 50  0000 C CNN
F 2 "" H 10750 6000 50  0001 C CNN
F 3 "" H 10750 6000 50  0001 C CNN
	1    10750 6000
	1    0    0    -1  
$EndComp
$Comp
L Device:LED D5
U 1 1 600B2756
P 10550 5850
F 0 "D5" H 10750 5800 50  0000 R CNN
F 1 "LED" H 10600 5950 50  0000 R CNN
F 2 "LED_THT:LED_D5.0mm" H 10550 5850 50  0001 C CNN
F 3 "~" H 10550 5850 50  0001 C CNN
	1    10550 5850
	-1   0    0    1   
$EndComp
Wire Wire Line
	10400 5850 10350 5850
Text Label 10150 4950 2    50   ~ 0
TXD
Wire Wire Line
	10150 4950 9900 4950
Text Label 10150 5150 2    50   ~ 0
RXD
Wire Wire Line
	10150 5150 9900 5150
$Comp
L Device:R R5
U 1 1 6010D408
P 10100 4600
F 0 "R5" H 10200 4500 50  0000 L CNN
F 1 "10k" H 10150 4600 50  0000 L CNN
F 2 "Resistor_THT:R_Axial_DIN0207_L6.3mm_D2.5mm_P7.62mm_Horizontal" V 10030 4600 50  0001 C CNN
F 3 "~" H 10100 4600 50  0001 C CNN
	1    10100 4600
	-1   0    0    1   
$EndComp
Wire Wire Line
	9900 4850 10100 4850
Wire Wire Line
	10100 4850 10100 4750
Wire Wire Line
	10100 4450 10100 4350
Wire Wire Line
	10100 4350 9300 4350
Connection ~ 9300 4350
Wire Wire Line
	9300 4350 9300 4650
$Comp
L Device:R R6
U 1 1 6011D8D0
P 10200 5750
F 0 "R6" V 10150 5500 50  0000 L CNN
F 1 "10k" V 10200 5700 50  0000 L CNN
F 2 "Resistor_THT:R_Axial_DIN0207_L6.3mm_D2.5mm_P7.62mm_Horizontal" V 10130 5750 50  0001 C CNN
F 3 "~" H 10200 5750 50  0001 C CNN
	1    10200 5750
	0    1    1    0   
$EndComp
$Comp
L power:GND #PWR036
U 1 1 601260D7
P 10900 6000
F 0 "#PWR036" H 10900 5750 50  0001 C CNN
F 1 "GND" H 10905 5827 50  0000 C CNN
F 2 "" H 10900 6000 50  0001 C CNN
F 3 "" H 10900 6000 50  0001 C CNN
	1    10900 6000
	1    0    0    -1  
$EndComp
Text Label 10150 5450 2    50   ~ 0
SDA
$Comp
L Switch:SW_Push SW2
U 1 1 601440B4
P 10400 5100
F 0 "SW2" V 10446 5052 50  0000 R CNN
F 1 "PG" V 10355 5052 50  0000 R CNN
F 2 "Button_Switch_THT:SW_PUSH_6mm" H 10400 5300 50  0001 C CNN
F 3 "~" H 10400 5300 50  0001 C CNN
	1    10400 5100
	0    1    1    0   
$EndComp
$Comp
L power:GND #PWR033
U 1 1 601596F6
P 10400 5400
F 0 "#PWR033" H 10400 5150 50  0001 C CNN
F 1 "GND" H 10405 5227 50  0000 C CNN
F 2 "" H 10400 5400 50  0001 C CNN
F 3 "" H 10400 5400 50  0001 C CNN
	1    10400 5400
	1    0    0    -1  
$EndComp
Wire Wire Line
	10400 5400 10400 5300
$Comp
L Device:Buzzer BZ1
U 1 1 60163BE0
P 4500 4900
F 0 "BZ1" H 4500 5100 50  0000 L CNN
F 1 "Buzzer" H 4500 4700 50  0000 L CNN
F 2 "Buzzer_Beeper:Buzzer_12x9.5RM7.6" V 4475 5000 50  0001 C CNN
F 3 "~" V 4475 5000 50  0001 C CNN
	1    4500 4900
	1    0    0    -1  
$EndComp
$Comp
L Transistor_BJT:BC547 Q1
U 1 1 60165812
P 4250 5400
F 0 "Q1" H 4441 5446 50  0000 L CNN
F 1 "BC547" H 4441 5355 50  0000 L CNN
F 2 "Package_TO_SOT_THT:TO-92_Inline_Wide" H 4450 5325 50  0001 L CIN
F 3 "https://www.onsemi.com/pub/Collateral/BC550-D.pdf" H 4250 5400 50  0001 L CNN
	1    4250 5400
	1    0    0    -1  
$EndComp
$Comp
L Device:R R15
U 1 1 6016677A
P 3600 5400
F 0 "R15" V 3800 5400 50  0000 L CNN
F 1 "1k" V 3700 5350 50  0000 L CNN
F 2 "Resistor_THT:R_Axial_DIN0207_L6.3mm_D2.5mm_P7.62mm_Horizontal" V 3530 5400 50  0001 C CNN
F 3 "~" H 3600 5400 50  0001 C CNN
	1    3600 5400
	0    -1   -1   0   
$EndComp
$Comp
L Device:R R16
U 1 1 60167523
P 3900 5600
F 0 "R16" H 3700 5650 50  0000 L CNN
F 1 "4.7k" H 3700 5550 50  0000 L CNN
F 2 "Resistor_THT:R_Axial_DIN0207_L6.3mm_D2.5mm_P7.62mm_Horizontal" V 3830 5600 50  0001 C CNN
F 3 "~" H 3900 5600 50  0001 C CNN
	1    3900 5600
	1    0    0    -1  
$EndComp
Text Label 3150 5400 0    50   ~ 0
BUZ
Wire Wire Line
	3150 5400 3450 5400
Wire Wire Line
	3750 5400 3900 5400
Wire Wire Line
	3900 5450 3900 5400
Connection ~ 3900 5400
Wire Wire Line
	3900 5400 4050 5400
$Comp
L power:GND #PWR039
U 1 1 6018F5A0
P 3900 5850
F 0 "#PWR039" H 3900 5600 50  0001 C CNN
F 1 "GND" H 3905 5677 50  0000 C CNN
F 2 "" H 3900 5850 50  0001 C CNN
F 3 "" H 3900 5850 50  0001 C CNN
	1    3900 5850
	1    0    0    -1  
$EndComp
Wire Wire Line
	3900 5850 3900 5750
$Comp
L power:GND #PWR041
U 1 1 60199A4E
P 4350 5850
F 0 "#PWR041" H 4350 5600 50  0001 C CNN
F 1 "GND" H 4355 5677 50  0000 C CNN
F 2 "" H 4350 5850 50  0001 C CNN
F 3 "" H 4350 5850 50  0001 C CNN
	1    4350 5850
	1    0    0    -1  
$EndComp
Wire Wire Line
	4350 5850 4350 5600
Wire Wire Line
	4350 5200 4350 5000
Wire Wire Line
	4350 5000 4400 5000
$Comp
L power:+5V #PWR040
U 1 1 601AE3AB
P 4350 4750
F 0 "#PWR040" H 4350 4600 50  0001 C CNN
F 1 "+5V" H 4365 4923 50  0000 C CNN
F 2 "" H 4350 4750 50  0001 C CNN
F 3 "" H 4350 4750 50  0001 C CNN
	1    4350 4750
	1    0    0    -1  
$EndComp
Wire Wire Line
	4400 4800 4350 4800
Wire Wire Line
	4350 4800 4350 4750
Text Label 10150 5550 2    50   ~ 0
SCL
Wire Wire Line
	10150 5450 9900 5450
Wire Wire Line
	10150 5550 9900 5550
Wire Wire Line
	10750 6000 10750 5850
Wire Wire Line
	10750 5850 10700 5850
Wire Wire Line
	10900 6000 10900 5750
Wire Wire Line
	10350 5750 10900 5750
Wire Wire Line
	10050 5750 9900 5750
Wire Wire Line
	10050 5850 9900 5850
Wire Wire Line
	10600 5200 10850 5200
Wire Wire Line
	10600 5300 10850 5300
Wire Wire Line
	10850 5400 10750 5400
Wire Wire Line
	10750 5400 10750 5450
$Comp
L Device:R R12
U 1 1 604495D4
P 10650 4550
F 0 "R12" H 10750 4450 50  0000 L CNN
F 1 "10k" H 10700 4550 50  0000 L CNN
F 2 "Resistor_THT:R_Axial_DIN0207_L6.3mm_D2.5mm_P7.62mm_Horizontal" V 10580 4550 50  0001 C CNN
F 3 "~" H 10650 4550 50  0001 C CNN
	1    10650 4550
	-1   0    0    1   
$EndComp
$Comp
L Device:R R14
U 1 1 60449B02
P 10900 4550
F 0 "R14" H 11000 4450 50  0000 L CNN
F 1 "10k" H 10950 4550 50  0000 L CNN
F 2 "Resistor_THT:R_Axial_DIN0207_L6.3mm_D2.5mm_P7.62mm_Horizontal" V 10830 4550 50  0001 C CNN
F 3 "~" H 10900 4550 50  0001 C CNN
	1    10900 4550
	-1   0    0    1   
$EndComp
Text Label 10450 4750 0    50   ~ 0
SDA
Wire Wire Line
	10450 4750 10650 4750
Wire Wire Line
	10650 4750 10650 4700
Text Label 10450 4900 0    50   ~ 0
SCL
Wire Wire Line
	10450 4900 10900 4900
Wire Wire Line
	10900 4900 10900 4700
$Comp
L power:+3.3V #PWR034
U 1 1 60486FC2
P 10750 4300
F 0 "#PWR034" H 10750 4150 50  0001 C CNN
F 1 "+3.3V" H 10750 4450 50  0000 C CNN
F 2 "" H 10750 4300 50  0001 C CNN
F 3 "" H 10750 4300 50  0001 C CNN
	1    10750 4300
	1    0    0    -1  
$EndComp
Wire Wire Line
	10650 4400 10650 4300
Wire Wire Line
	10650 4300 10750 4300
Wire Wire Line
	10750 4300 10900 4300
Wire Wire Line
	10900 4300 10900 4400
Connection ~ 10750 4300
$Comp
L My_Lib_KiCAD:ESP12E_My U4
U 1 1 606FB5DD
P 9300 5350
F 0 "U4" H 8950 6150 50  0000 C CNN
F 1 "ESP12E_My" H 9050 6050 50  0000 C CNN
F 2 "RF_Module:ESP-12E" H 8850 6150 50  0001 C CNN
F 3 "" H 10300 4550 50  0001 C CNN
	1    9300 5350
	1    0    0    -1  
$EndComp
$Comp
L power:+3.3V #PWR0101
U 1 1 608FF5A0
P 8450 5550
F 0 "#PWR0101" H 8450 5400 50  0001 C CNN
F 1 "+3.3V" H 8465 5723 50  0000 C CNN
F 2 "" H 8450 5550 50  0001 C CNN
F 3 "" H 8450 5550 50  0001 C CNN
	1    8450 5550
	1    0    0    -1  
$EndComp
$Comp
L Connector_Generic:Conn_01x03 J3
U 1 1 60943597
P 11050 5300
F 0 "J3" H 10900 4950 50  0000 L CNN
F 1 "ESP_Program" H 10650 5050 50  0000 L CNN
F 2 "Connector_PinHeader_2.54mm:PinHeader_1x03_P2.54mm_Vertical" H 11050 5300 50  0001 C CNN
F 3 "~" H 11050 5300 50  0001 C CNN
	1    11050 5300
	1    0    0    1   
$EndComp
Wire Notes Line
	4800 4500 4800 6100
Wire Notes Line
	4800 6100 3100 6100
Wire Notes Line
	3100 6100 3100 4500
Wire Notes Line
	3100 4500 4800 4500
$Comp
L PIC18F46K22-E_P:PIC18F46K22-E_P U9
U 1 1 5FFD2822
P 2650 2400
F 0 "U9" H 1800 3600 50  0000 C CNN
F 1 "PIC18F46K22-E_P" H 2100 3450 50  0000 C CNN
F 2 "Package_DIP:DIP-40_W15.24mm" H 2650 2400 50  0001 L BNN
F 3 "" H 2650 2400 50  0001 L BNN
F 4 "Microchip" H 2650 2400 50  0001 L BNN "MANUFACTURER"
F 5 "G" H 2650 2400 50  0001 L BNN "PARTREV"
F 6 "IPC 7351B" H 2650 2400 50  0001 L BNN "STANDARD"
F 7 "6.35 mm" H 2650 2400 50  0001 L BNN "MAXIMUM_PACKAGE_HEIGHT"
	1    2650 2400
	1    0    0    -1  
$EndComp
$Comp
L Device:R R45
U 1 1 6047307B
P 4700 3500
F 0 "R45" V 4800 3500 50  0000 L CNN
F 1 "10k" V 4700 3450 50  0000 L CNN
F 2 "Resistor_THT:R_Axial_DIN0207_L6.3mm_D2.5mm_P7.62mm_Horizontal" V 4630 3500 50  0001 C CNN
F 3 "~" H 4700 3500 50  0001 C CNN
	1    4700 3500
	0    -1   -1   0   
$EndComp
Wire Wire Line
	4550 3500 4250 3500
$Comp
L power:+5V #PWR063
U 1 1 604935D2
P 5050 3450
F 0 "#PWR063" H 5050 3300 50  0001 C CNN
F 1 "+5V" H 5065 3623 50  0000 C CNN
F 2 "" H 5050 3450 50  0001 C CNN
F 3 "" H 5050 3450 50  0001 C CNN
	1    5050 3450
	1    0    0    -1  
$EndComp
$Comp
L power:GND #PWR053
U 1 1 604B2797
P 4450 3700
F 0 "#PWR053" H 4450 3450 50  0001 C CNN
F 1 "GND" H 4455 3527 50  0000 C CNN
F 2 "" H 4450 3700 50  0001 C CNN
F 3 "" H 4450 3700 50  0001 C CNN
	1    4450 3700
	1    0    0    -1  
$EndComp
$Comp
L power:+5V #PWR060
U 1 1 604D17C7
P 4350 1150
F 0 "#PWR060" H 4350 1000 50  0001 C CNN
F 1 "+5V" H 4365 1323 50  0000 C CNN
F 2 "" H 4350 1150 50  0001 C CNN
F 3 "" H 4350 1150 50  0001 C CNN
	1    4350 1150
	1    0    0    -1  
$EndComp
Wire Wire Line
	4250 1200 4350 1200
Wire Wire Line
	4350 1200 4350 1150
Text Label 700  1700 0    50   ~ 0
V_Sense
Wire Wire Line
	700  1800 1050 1800
Text Label 700  1900 0    50   ~ 0
I1_Sense
Wire Wire Line
	700  1900 1050 1900
Text Label 700  2000 0    50   ~ 0
I2_Sense
Wire Wire Line
	700  2000 1050 2000
$Comp
L Connector_Generic:Conn_01x05 J8
U 1 1 6058F993
P 1150 1200
F 0 "J8" H 1100 1600 50  0000 L CNN
F 1 "Program" H 1000 1500 50  0000 L CNN
F 2 "Connector_PinHeader_2.54mm:PinHeader_1x05_P2.54mm_Vertical" H 1150 1200 50  0001 C CNN
F 3 "~" H 1150 1200 50  0001 C CNN
	1    1150 1200
	1    0    0    -1  
$EndComp
Text Label 4550 3500 2    50   ~ 0
VPP
Text Label 750  1000 0    50   ~ 0
VPP
Wire Wire Line
	750  1000 950  1000
Text Label 700  3200 0    50   ~ 0
PGC
Text Label 700  3300 0    50   ~ 0
PGD
Text Label 750  1300 0    50   ~ 0
PGD
Text Label 750  1400 0    50   ~ 0
PGC
Wire Wire Line
	750  1300 950  1300
Wire Wire Line
	750  1400 950  1400
$Comp
L power:+5V #PWR037
U 1 1 6063316A
P 600 950
F 0 "#PWR037" H 600 800 50  0001 C CNN
F 1 "+5V" H 615 1123 50  0000 C CNN
F 2 "" H 600 950 50  0001 C CNN
F 3 "" H 600 950 50  0001 C CNN
	1    600  950 
	1    0    0    -1  
$EndComp
Wire Wire Line
	950  1100 600  1100
Wire Wire Line
	600  1100 600  950 
$Comp
L power:GND #PWR047
U 1 1 606545B3
P 600 1400
F 0 "#PWR047" H 600 1150 50  0001 C CNN
F 1 "GND" H 605 1227 50  0000 C CNN
F 2 "" H 600 1400 50  0001 C CNN
F 3 "" H 600 1400 50  0001 C CNN
	1    600  1400
	1    0    0    -1  
$EndComp
Wire Wire Line
	950  1200 600  1200
Wire Wire Line
	600  1200 600  1400
$Comp
L RA-02_LORA:RA-02_LORA U10
U 1 1 6067A40D
P 6250 5400
F 0 "U10" H 6250 6167 50  0000 C CNN
F 1 "RA-02_LORA" H 6250 6076 50  0000 C CNN
F 2 "RF_Module:Ai-Thinker-Ra-01-LoRa" H 6250 5400 50  0001 L BNN
F 3 "" H 6250 5400 50  0001 L BNN
F 4 "Ai-Thinker" H 6250 5400 50  0001 L BNN "MANUFACTURER"
F 5 "2018/03/02" H 6250 5400 50  0001 L BNN "PARTREV"
F 6 "3.3mm" H 6250 5400 50  0001 L BNN "MAXIMUM_PACKAGE_HEIGHT"
F 7 "Manufacturer Recommendations" H 6250 5400 50  0001 L BNN "STANDARD"
	1    6250 5400
	1    0    0    -1  
$EndComp
$Comp
L Diode_Bridge:DF01M D3
U 1 1 6067DAE1
P 1550 6750
F 0 "D3" H 1700 7000 50  0000 L CNN
F 1 "DF01M" H 1700 6900 50  0000 L CNN
F 2 "Diode_THT:Diode_Bridge_DIP-4_W7.62mm_P5.08mm" H 1700 6875 50  0001 L CNN
F 3 "http://www.vishay.com/docs/88571/dfm.pdf" H 1550 6750 50  0001 C CNN
	1    1550 6750
	1    0    0    -1  
$EndComp
$Comp
L Device:CP C8
U 1 1 60681506
P 2150 7000
F 0 "C8" H 2268 7046 50  0000 L CNN
F 1 "470uF" H 2268 6955 50  0000 L CNN
F 2 "Capacitor_THT:C_Radial_D10.0mm_H12.5mm_P5.00mm" H 2188 6850 50  0001 C CNN
F 3 "~" H 2150 7000 50  0001 C CNN
	1    2150 7000
	1    0    0    -1  
$EndComp
Text Label 700  2400 0    50   ~ 0
OSC1
Text Label 700  2300 0    50   ~ 0
OSC2
$Comp
L Device:C C18
U 1 1 60832942
P 4550 950
F 0 "C18" H 4665 996 50  0000 L CNN
F 1 "104" H 4665 905 50  0000 L CNN
F 2 "Capacitor_THT:C_Rect_L7.0mm_W3.5mm_P5.00mm" H 4588 800 50  0001 C CNN
F 3 "~" H 4550 950 50  0001 C CNN
	1    4550 950 
	1    0    0    -1  
$EndComp
$Comp
L power:+5V #PWR061
U 1 1 60834382
P 4550 750
F 0 "#PWR061" H 4550 600 50  0001 C CNN
F 1 "+5V" H 4565 923 50  0000 C CNN
F 2 "" H 4550 750 50  0001 C CNN
F 3 "" H 4550 750 50  0001 C CNN
	1    4550 750 
	1    0    0    -1  
$EndComp
$Comp
L power:GND #PWR062
U 1 1 60834636
P 4550 1150
F 0 "#PWR062" H 4550 900 50  0001 C CNN
F 1 "GND" H 4555 977 50  0000 C CNN
F 2 "" H 4550 1150 50  0001 C CNN
F 3 "" H 4550 1150 50  0001 C CNN
	1    4550 1150
	1    0    0    -1  
$EndComp
Wire Wire Line
	4550 1150 4550 1100
Wire Wire Line
	4550 800  4550 750 
Text Label 4900 5300 0    50   ~ 0
NSS
Wire Wire Line
	4900 5300 5250 5300
Text Label 4900 5400 0    50   ~ 0
SCK
Text Label 4900 5500 0    50   ~ 0
MOSI
Text Label 4900 5600 0    50   ~ 0
MISO
Wire Wire Line
	5250 5400 4900 5400
Wire Wire Line
	5250 5500 4900 5500
Wire Wire Line
	5250 5600 4900 5600
Text Label 4900 5100 0    50   ~ 0
RESET
Wire Wire Line
	4900 5100 5250 5100
$Comp
L power:+3.3V #PWR073
U 1 1 608FF159
P 6950 4850
F 0 "#PWR073" H 6950 4700 50  0001 C CNN
F 1 "+3.3V" H 6965 5023 50  0000 C CNN
F 2 "" H 6950 4850 50  0001 C CNN
F 3 "" H 6950 4850 50  0001 C CNN
	1    6950 4850
	1    0    0    -1  
$EndComp
Wire Wire Line
	6850 4900 6950 4900
Wire Wire Line
	6950 4900 6950 4850
$Comp
L power:GND #PWR074
U 1 1 6091D14B
P 6950 5850
F 0 "#PWR074" H 6950 5600 50  0001 C CNN
F 1 "GND" H 6955 5677 50  0000 C CNN
F 2 "" H 6950 5850 50  0001 C CNN
F 3 "" H 6950 5850 50  0001 C CNN
	1    6950 5850
	1    0    0    -1  
$EndComp
Wire Wire Line
	6850 5800 6950 5800
Wire Wire Line
	6950 5800 6950 5850
Text Label 7450 5100 2    50   ~ 0
DI00
Wire Wire Line
	7450 5100 7200 5100
Wire Wire Line
	2150 6850 2150 6750
Wire Wire Line
	2150 6750 2650 6750
$Comp
L power:GND #PWR07
U 1 1 60B5915B
P 2150 7250
F 0 "#PWR07" H 2150 7000 50  0001 C CNN
F 1 "GND" H 2155 7077 50  0000 C CNN
F 2 "" H 2150 7250 50  0001 C CNN
F 3 "" H 2150 7250 50  0001 C CNN
	1    2150 7250
	1    0    0    -1  
$EndComp
Wire Wire Line
	2150 7250 2150 7150
Wire Wire Line
	3900 6750 3500 6750
Connection ~ 3500 6750
Wire Wire Line
	3500 6600 3500 6750
Wire Wire Line
	1250 6750 1150 6750
Wire Wire Line
	1150 6750 1150 6800
Wire Wire Line
	900  6650 1000 6650
Wire Wire Line
	1000 6650 1000 6350
Wire Wire Line
	1000 6350 1550 6350
Wire Wire Line
	1550 6350 1550 6450
Wire Wire Line
	900  6750 1000 6750
Wire Wire Line
	1000 6750 1000 7150
Wire Wire Line
	1000 7150 1550 7150
Wire Wire Line
	1550 7150 1550 7050
$Comp
L power:GND #PWR01
U 1 1 60D39813
P 5950 1050
F 0 "#PWR01" H 5950 800 50  0001 C CNN
F 1 "GND" H 5950 900 50  0000 C CNN
F 2 "" H 5950 1050 50  0001 C CNN
F 3 "" H 5950 1050 50  0001 C CNN
	1    5950 1050
	1    0    0    -1  
$EndComp
$Comp
L Diode_Bridge:DF01M D1
U 1 1 60D39819
P 6350 1000
F 0 "D1" H 6500 1250 50  0000 L CNN
F 1 "DF01M" H 6500 1150 50  0000 L CNN
F 2 "Diode_THT:Diode_Bridge_DIP-4_W7.62mm_P5.08mm" H 6500 1125 50  0001 L CNN
F 3 "http://www.vishay.com/docs/88571/dfm.pdf" H 6350 1000 50  0001 C CNN
	1    6350 1000
	1    0    0    -1  
$EndComp
Wire Wire Line
	6050 1000 5950 1000
Wire Wire Line
	5950 1000 5950 1050
Wire Wire Line
	5700 900  5800 900 
Wire Wire Line
	5800 900  5800 600 
Wire Wire Line
	5800 600  6350 600 
Wire Wire Line
	6350 600  6350 700 
Wire Wire Line
	5700 1000 5800 1000
Wire Wire Line
	5800 1000 5800 1400
Wire Wire Line
	5800 1400 6350 1400
Wire Wire Line
	6350 1400 6350 1300
$Comp
L Device:CP C7
U 1 1 60D6086B
P 6850 1250
F 0 "C7" H 6968 1296 50  0000 L CNN
F 1 "470uF" H 6968 1205 50  0000 L CNN
F 2 "Capacitor_THT:C_Radial_D10.0mm_H12.5mm_P5.00mm" H 6888 1100 50  0001 C CNN
F 3 "~" H 6850 1250 50  0001 C CNN
	1    6850 1250
	1    0    0    -1  
$EndComp
$Comp
L Regulator_Linear:LM7812_TO220 U5
U 1 1 60D60E37
P 7400 1000
F 0 "U5" H 7400 1242 50  0000 C CNN
F 1 "LM7812" H 7400 1151 50  0000 C CNN
F 2 "Package_TO_SOT_THT:TO-220-3_Vertical" H 7400 1225 50  0001 C CIN
F 3 "https://www.onsemi.cn/PowerSolutions/document/MC7800-D.PDF" H 7400 950 50  0001 C CNN
	1    7400 1000
	1    0    0    -1  
$EndComp
Wire Wire Line
	7100 1000 6850 1000
Wire Wire Line
	6850 1100 6850 1000
Connection ~ 6850 1000
Wire Wire Line
	6850 1000 6650 1000
$Comp
L power:GND #PWR06
U 1 1 60DB0212
P 7400 1500
F 0 "#PWR06" H 7400 1250 50  0001 C CNN
F 1 "GND" H 7400 1350 50  0000 C CNN
F 2 "" H 7400 1500 50  0001 C CNN
F 3 "" H 7400 1500 50  0001 C CNN
	1    7400 1500
	1    0    0    -1  
$EndComp
$Comp
L power:GND #PWR03
U 1 1 60DD7D14
P 6850 1500
F 0 "#PWR03" H 6850 1250 50  0001 C CNN
F 1 "GND" H 6850 1350 50  0000 C CNN
F 2 "" H 6850 1500 50  0001 C CNN
F 3 "" H 6850 1500 50  0001 C CNN
	1    6850 1500
	1    0    0    -1  
$EndComp
Wire Wire Line
	6850 1500 6850 1400
$Comp
L Device:D D8
U 1 1 60E002F5
P 7950 1000
F 0 "D8" H 8050 800 50  0000 C CNN
F 1 "1N4007" H 7950 900 50  0000 C CNN
F 2 "Diode_THT:D_DO-41_SOD81_P7.62mm_Horizontal" H 7950 1000 50  0001 C CNN
F 3 "~" H 7950 1000 50  0001 C CNN
	1    7950 1000
	-1   0    0    1   
$EndComp
Wire Wire Line
	7800 1000 7700 1000
$Comp
L Device:CP C11
U 1 1 60E296C6
P 8250 1250
F 0 "C11" H 8000 1300 50  0000 L CNN
F 1 "470uF" H 7900 1200 50  0000 L CNN
F 2 "Capacitor_THT:C_Radial_D10.0mm_H12.5mm_P5.00mm" H 8288 1100 50  0001 C CNN
F 3 "~" H 8250 1250 50  0001 C CNN
	1    8250 1250
	1    0    0    -1  
$EndComp
$Comp
L Amplifier_Operational:LM741 U7
U 1 1 60E29E0D
P 9850 1650
F 0 "U7" H 9850 1900 50  0000 L CNN
F 1 "LM741" H 9850 1800 50  0000 L CNN
F 2 "Package_DIP:DIP-8_W7.62mm" H 9900 1700 50  0001 C CNN
F 3 "http://www.ti.com/lit/ds/symlink/lm741.pdf" H 10000 1800 50  0001 C CNN
	1    9850 1650
	1    0    0    -1  
$EndComp
$Comp
L Device:R_POT RV1
U 1 1 60E2C68D
P 9150 1550
F 0 "RV1" H 9080 1596 50  0000 R CNN
F 1 "10k" H 9080 1505 50  0000 R CNN
F 2 "Potentiometer_THT:Potentiometer_Bourns_3296W_Vertical" H 9150 1550 50  0001 C CNN
F 3 "~" H 9150 1550 50  0001 C CNN
	1    9150 1550
	1    0    0    -1  
$EndComp
$Comp
L Device:Q_NPN_ECB Q2
U 1 1 60E2FA30
P 8800 2500
F 0 "Q2" H 8991 2546 50  0000 L CNN
F 1 "D882" H 8991 2455 50  0000 L CNN
F 2 "Package_TO_SOT_THT:TO-126-3_Vertical" H 9000 2600 50  0001 C CNN
F 3 "~" H 8800 2500 50  0001 C CNN
	1    8800 2500
	1    0    0    -1  
$EndComp
$Comp
L Device:R R11
U 1 1 60E31EC8
P 8400 2500
F 0 "R11" V 8500 2450 50  0000 L CNN
F 1 "560R" V 8400 2400 50  0000 L CNN
F 2 "Resistor_THT:R_Axial_DIN0207_L6.3mm_D2.5mm_P7.62mm_Horizontal" V 8330 2500 50  0001 C CNN
F 3 "~" H 8400 2500 50  0001 C CNN
	1    8400 2500
	0    -1   -1   0   
$EndComp
Wire Wire Line
	8550 2500 8600 2500
$Comp
L Connector:Screw_Terminal_01x02 J7
U 1 1 60E855E5
P 8200 2150
F 0 "J7" H 8200 1850 50  0000 C CNN
F 1 "PD" H 8200 1950 50  0000 C CNN
F 2 "TerminalBlock:TerminalBlock_bornier-2_P5.08mm" H 8200 2150 50  0001 C CNN
F 3 "~" H 8200 2150 50  0001 C CNN
	1    8200 2150
	-1   0    0    1   
$EndComp
$Comp
L power:GND #PWR011
U 1 1 60EDCAD0
P 8900 2800
F 0 "#PWR011" H 8900 2550 50  0001 C CNN
F 1 "GND" H 8900 2650 50  0000 C CNN
F 2 "" H 8900 2800 50  0001 C CNN
F 3 "" H 8900 2800 50  0001 C CNN
	1    8900 2800
	1    0    0    -1  
$EndComp
Wire Wire Line
	8900 2800 8900 2700
Wire Wire Line
	7400 1300 7400 1500
Wire Wire Line
	8100 1000 8250 1000
Wire Wire Line
	9750 1000 9750 1350
Wire Wire Line
	9150 1400 9150 1000
Connection ~ 9150 1000
Wire Wire Line
	9150 1000 9750 1000
$Comp
L power:GND #PWR09
U 1 1 60FDB324
P 8250 1500
F 0 "#PWR09" H 8250 1250 50  0001 C CNN
F 1 "GND" H 8250 1350 50  0000 C CNN
F 2 "" H 8250 1500 50  0001 C CNN
F 3 "" H 8250 1500 50  0001 C CNN
	1    8250 1500
	1    0    0    -1  
$EndComp
Wire Wire Line
	8250 1000 8250 1100
Wire Wire Line
	8250 1500 8250 1400
Wire Wire Line
	9550 1550 9300 1550
$Comp
L power:GND #PWR012
U 1 1 610DD9C8
P 9150 1800
F 0 "#PWR012" H 9150 1550 50  0001 C CNN
F 1 "GND" H 9150 1650 50  0000 C CNN
F 2 "" H 9150 1800 50  0001 C CNN
F 3 "" H 9150 1800 50  0001 C CNN
	1    9150 1800
	1    0    0    -1  
$EndComp
Wire Wire Line
	9150 1800 9150 1700
Wire Wire Line
	9400 2050 9400 1750
Wire Wire Line
	9400 1750 9550 1750
Wire Wire Line
	8900 2150 8900 2300
Text Label 7900 2500 0    50   ~ 0
PDC
Wire Wire Line
	7900 2500 8250 2500
$Comp
L Device:C C14
U 1 1 611E715D
P 8550 1250
F 0 "C14" H 8700 1300 50  0000 L CNN
F 1 "103" H 8665 1205 50  0000 L CNN
F 2 "Capacitor_THT:C_Rect_L7.0mm_W3.5mm_P5.00mm" H 8588 1100 50  0001 C CNN
F 3 "~" H 8550 1250 50  0001 C CNN
	1    8550 1250
	1    0    0    -1  
$EndComp
$Comp
L Device:R R13
U 1 1 611E7C17
P 8900 1250
F 0 "R13" H 8950 1300 50  0000 L CNN
F 1 "56R" H 8950 1200 50  0000 L CNN
F 2 "Resistor_THT:R_Axial_DIN0207_L6.3mm_D2.5mm_P7.62mm_Horizontal" V 8830 1250 50  0001 C CNN
F 3 "~" H 8900 1250 50  0001 C CNN
	1    8900 1250
	1    0    0    -1  
$EndComp
Wire Wire Line
	8250 1000 8550 1000
Connection ~ 8250 1000
Wire Wire Line
	8550 1100 8550 1000
Connection ~ 8550 1000
Wire Wire Line
	8550 1000 8900 1000
Wire Wire Line
	8900 1100 8900 1000
Connection ~ 8900 1000
Wire Wire Line
	8900 1000 9150 1000
Wire Wire Line
	8400 2050 8550 2050
Wire Wire Line
	8550 1400 8550 2050
Connection ~ 8550 2050
Wire Wire Line
	8550 2050 8900 2050
Wire Wire Line
	8900 1400 8900 2050
Connection ~ 8900 2050
Wire Wire Line
	8900 2050 9400 2050
Wire Wire Line
	8400 2150 8900 2150
$Comp
L power:GND #PWR014
U 1 1 61356AF3
P 9750 2050
F 0 "#PWR014" H 9750 1800 50  0001 C CNN
F 1 "GND" H 9750 1900 50  0000 C CNN
F 2 "" H 9750 2050 50  0001 C CNN
F 3 "" H 9750 2050 50  0001 C CNN
	1    9750 2050
	1    0    0    -1  
$EndComp
Wire Wire Line
	9750 2050 9750 1950
$Comp
L Device:R R21
U 1 1 61385E1F
P 10350 1900
F 0 "R21" H 10400 1950 50  0000 L CNN
F 1 "1k" H 10400 1850 50  0000 L CNN
F 2 "Resistor_THT:R_Axial_DIN0207_L6.3mm_D2.5mm_P7.62mm_Horizontal" V 10280 1900 50  0001 C CNN
F 3 "~" H 10350 1900 50  0001 C CNN
	1    10350 1900
	1    0    0    -1  
$EndComp
$Comp
L Device:R R22
U 1 1 61386435
P 10350 2350
F 0 "R22" H 10400 2400 50  0000 L CNN
F 1 "1k" H 10400 2300 50  0000 L CNN
F 2 "Resistor_THT:R_Axial_DIN0207_L6.3mm_D2.5mm_P7.62mm_Horizontal" V 10280 2350 50  0001 C CNN
F 3 "~" H 10350 2350 50  0001 C CNN
	1    10350 2350
	1    0    0    -1  
$EndComp
Wire Wire Line
	10150 1650 10350 1650
Wire Wire Line
	10350 1650 10350 1750
Wire Wire Line
	10350 2200 10350 2100
$Comp
L power:GND #PWR017
U 1 1 613E4A82
P 10350 2650
F 0 "#PWR017" H 10350 2400 50  0001 C CNN
F 1 "GND" H 10350 2500 50  0000 C CNN
F 2 "" H 10350 2650 50  0001 C CNN
F 3 "" H 10350 2650 50  0001 C CNN
	1    10350 2650
	1    0    0    -1  
$EndComp
Wire Wire Line
	10350 2650 10350 2500
$Comp
L Diode:1N47xxA D9
U 1 1 614145A6
P 10700 2350
F 0 "D9" V 10654 2430 50  0000 L CNN
F 1 "1N4733A" V 10745 2430 50  0000 L CNN
F 2 "Diode_THT:D_DO-41_SOD81_P10.16mm_Horizontal" H 10700 2175 50  0001 C CNN
F 3 "https://www.vishay.com/docs/85816/1n4728a.pdf" H 10700 2350 50  0001 C CNN
	1    10700 2350
	0    1    1    0   
$EndComp
Wire Wire Line
	10700 2200 10700 2100
Wire Wire Line
	10700 2100 10350 2100
Connection ~ 10350 2100
Wire Wire Line
	10350 2100 10350 2050
$Comp
L power:GND #PWR018
U 1 1 61445ED7
P 10700 2650
F 0 "#PWR018" H 10700 2400 50  0001 C CNN
F 1 "GND" H 10700 2500 50  0000 C CNN
F 2 "" H 10700 2650 50  0001 C CNN
F 3 "" H 10700 2650 50  0001 C CNN
	1    10700 2650
	1    0    0    -1  
$EndComp
Wire Wire Line
	10700 2650 10700 2500
Text Label 11000 2100 2    50   ~ 0
POD
Wire Wire Line
	11000 2100 10700 2100
Connection ~ 10700 2100
Text Label 700  1800 0    50   ~ 0
POD
Wire Wire Line
	700  1700 1050 1700
Text Label 700  2600 0    50   ~ 0
DI00
Text Label 700  3100 0    50   ~ 0
BUZ
Wire Wire Line
	4600 1500 4250 1500
Text Label 700  2100 0    50   ~ 0
RLY1
Text Label 700  2200 0    50   ~ 0
RLY2
Text Label 4600 3300 2    50   ~ 0
RLY3
Wire Wire Line
	700  3200 1050 3200
Wire Wire Line
	700  3300 1050 3300
Wire Wire Line
	4600 3300 4250 3300
Wire Wire Line
	700  2200 1050 2200
Wire Wire Line
	700  2100 1050 2100
Wire Wire Line
	700  2600 1050 2600
Wire Wire Line
	700  2400 1050 2400
Wire Wire Line
	700  2300 1050 2300
Text Label 4600 1500 2    50   ~ 0
PDC
Wire Wire Line
	700  3100 1050 3100
Wire Wire Line
	4250 1800 4600 1800
Wire Wire Line
	4250 1900 4600 1900
Wire Wire Line
	4250 1700 4600 1700
Text Label 4600 1800 2    50   ~ 0
MISO
Text Label 4600 1900 2    50   ~ 0
MOSI
Text Label 4600 1700 2    50   ~ 0
SCK
Wire Wire Line
	4600 1600 4250 1600
Text Label 4600 1600 2    50   ~ 0
NSS
Wire Wire Line
	1050 2700 700  2700
Wire Wire Line
	1050 2800 700  2800
Text Label 700  2800 0    50   ~ 0
CLK2
Text Label 700  2700 0    50   ~ 0
DATA2
Wire Wire Line
	4250 2800 4600 2800
Wire Wire Line
	4250 2700 4600 2700
Text Label 4600 2700 2    50   ~ 0
CLK1
Text Label 4600 2800 2    50   ~ 0
DATA1
Wire Wire Line
	4600 2300 4250 2300
Wire Wire Line
	4600 2400 4250 2400
Text Label 4600 2400 2    50   ~ 0
SDA
Text Label 4600 2300 2    50   ~ 0
SCL
$Comp
L Device:R R10
U 1 1 600B274A
P 10200 5850
F 0 "R10" V 10150 5600 50  0000 L CNN
F 1 "100R" V 10200 5750 50  0000 L CNN
F 2 "Resistor_THT:R_Axial_DIN0207_L6.3mm_D2.5mm_P7.62mm_Horizontal" V 10130 5850 50  0001 C CNN
F 3 "~" H 10200 5850 50  0001 C CNN
	1    10200 5850
	0    1    1    0   
$EndComp
$Comp
L Device:C C21
U 1 1 6074FABA
P 4950 950
F 0 "C21" H 5065 996 50  0000 L CNN
F 1 "104" H 5065 905 50  0000 L CNN
F 2 "Capacitor_THT:C_Rect_L7.0mm_W3.5mm_P5.00mm" H 4988 800 50  0001 C CNN
F 3 "~" H 4950 950 50  0001 C CNN
	1    4950 950 
	1    0    0    -1  
$EndComp
$Comp
L power:+5V #PWR0102
U 1 1 6074FF8E
P 4950 750
F 0 "#PWR0102" H 4950 600 50  0001 C CNN
F 1 "+5V" H 4965 923 50  0000 C CNN
F 2 "" H 4950 750 50  0001 C CNN
F 3 "" H 4950 750 50  0001 C CNN
	1    4950 750 
	1    0    0    -1  
$EndComp
$Comp
L power:GND #PWR0103
U 1 1 607502B1
P 4950 1150
F 0 "#PWR0103" H 4950 900 50  0001 C CNN
F 1 "GND" H 4955 977 50  0000 C CNN
F 2 "" H 4950 1150 50  0001 C CNN
F 3 "" H 4950 1150 50  0001 C CNN
	1    4950 1150
	1    0    0    -1  
$EndComp
Wire Wire Line
	4950 1150 4950 1100
Wire Wire Line
	4950 800  4950 750 
Wire Wire Line
	1850 6750 2150 6750
Connection ~ 2150 6750
Wire Notes Line
	6800 7750 550  7750
Wire Notes Line
	550  7750 550  6150
Wire Notes Line
	550  6150 6800 6150
Wire Notes Line
	6800 6150 6800 7750
$Comp
L Device:R R1
U 1 1 614A4C65
P 5400 5100
F 0 "R1" V 5450 5250 50  0000 L CNN
F 1 "22R" V 5400 5050 50  0000 L CNN
F 2 "Resistor_THT:R_Axial_DIN0207_L6.3mm_D2.5mm_P7.62mm_Horizontal" V 5330 5100 50  0001 C CNN
F 3 "~" H 5400 5100 50  0001 C CNN
	1    5400 5100
	0    -1   -1   0   
$EndComp
$Comp
L Device:R R4
U 1 1 614A568D
P 5400 5300
F 0 "R4" V 5450 5500 50  0000 L CNN
F 1 "22R" V 5400 5250 50  0000 L CNN
F 2 "Resistor_THT:R_Axial_DIN0207_L6.3mm_D2.5mm_P7.62mm_Horizontal" V 5330 5300 50  0001 C CNN
F 3 "~" H 5400 5300 50  0001 C CNN
	1    5400 5300
	0    -1   -1   0   
$EndComp
$Comp
L Device:R R7
U 1 1 614A5877
P 5400 5400
F 0 "R7" V 5450 5600 50  0000 L CNN
F 1 "22R" V 5400 5350 50  0000 L CNN
F 2 "Resistor_THT:R_Axial_DIN0207_L6.3mm_D2.5mm_P7.62mm_Horizontal" V 5330 5400 50  0001 C CNN
F 3 "~" H 5400 5400 50  0001 C CNN
	1    5400 5400
	0    -1   -1   0   
$EndComp
$Comp
L Device:R R8
U 1 1 614A601F
P 5400 5500
F 0 "R8" V 5450 5700 50  0000 L CNN
F 1 "22R" V 5400 5450 50  0000 L CNN
F 2 "Resistor_THT:R_Axial_DIN0207_L6.3mm_D2.5mm_P2.54mm_Vertical" V 5330 5500 50  0001 C CNN
F 3 "~" H 5400 5500 50  0001 C CNN
	1    5400 5500
	0    -1   -1   0   
$EndComp
$Comp
L Device:R R9
U 1 1 614A6263
P 5400 5600
F 0 "R9" V 5450 5800 50  0000 L CNN
F 1 "22R" V 5400 5550 50  0000 L CNN
F 2 "Resistor_THT:R_Axial_DIN0207_L6.3mm_D2.5mm_P2.54mm_Vertical" V 5330 5600 50  0001 C CNN
F 3 "~" H 5400 5600 50  0001 C CNN
	1    5400 5600
	0    -1   -1   0   
$EndComp
Wire Wire Line
	5550 5100 5650 5100
Wire Wire Line
	5550 5300 5650 5300
Wire Wire Line
	5550 5400 5650 5400
Wire Wire Line
	5550 5500 5650 5500
Wire Wire Line
	5550 5600 5650 5600
$Comp
L Device:R R17
U 1 1 61595ED8
P 7050 5100
F 0 "R17" V 6950 4950 50  0000 L CNN
F 1 "22R" V 7050 5000 50  0000 L CNN
F 2 "Resistor_THT:R_Axial_DIN0207_L6.3mm_D2.5mm_P7.62mm_Horizontal" V 6980 5100 50  0001 C CNN
F 3 "~" H 7050 5100 50  0001 C CNN
	1    7050 5100
	0    1    1    0   
$EndComp
Wire Wire Line
	6850 5100 6900 5100
Text Label 4600 2100 2    50   ~ 0
RESET
Wire Wire Line
	4600 2100 4250 2100
Wire Wire Line
	4850 3500 5050 3500
Wire Wire Line
	5050 3500 5050 3450
Wire Wire Line
	10100 4850 10400 4850
Wire Wire Line
	10400 4850 10400 4900
Connection ~ 10100 4850
Wire Notes Line
	11200 4000 11200 6500
Wire Notes Line
	11200 6500 7900 6500
Wire Notes Line
	7900 6500 7900 4000
Wire Notes Line
	7900 4000 11200 4000
Wire Notes Line
	7450 4550 7450 6100
Wire Notes Line
	7450 6100 4850 6100
Wire Notes Line
	4850 6100 4850 4550
Wire Notes Line
	4850 4550 7450 4550
Wire Notes Line
	11150 550  11150 3050
Wire Notes Line
	11150 3050 5350 3050
Wire Notes Line
	5350 3050 5350 550 
Wire Notes Line
	5350 550  11150 550 
Wire Wire Line
	4250 3700 4450 3700
$Comp
L Connector:Screw_Terminal_01x02 J2
U 1 1 60D3980D
P 5500 1000
F 0 "J2" H 5550 700 50  0000 C CNN
F 1 "AC17V" H 5450 800 50  0000 C CNN
F 2 "TerminalBlock:TerminalBlock_bornier-2_P5.08mm" H 5500 1000 50  0001 C CNN
F 3 "~" H 5500 1000 50  0001 C CNN
	1    5500 1000
	-1   0    0    1   
$EndComp
$Comp
L power:+5V #PWR04
U 1 1 5FF578C6
P 650 5250
F 0 "#PWR04" H 650 5100 50  0001 C CNN
F 1 "+5V" H 665 5423 50  0000 C CNN
F 2 "" H 650 5250 50  0001 C CNN
F 3 "" H 650 5250 50  0001 C CNN
	1    650  5250
	1    0    0    -1  
$EndComp
Text Notes 8050 4150 0    50   ~ 0
ESP8266
Text Notes 650  6250 0    50   ~ 0
Power Supply
$Sheet
S 15050 8200 2600 1600
U 6187C30E
F0 "Sheet6187C30D" 50
F1 "file6187C30D.sch" 50
$EndSheet
Wire Wire Line
	16500 6150 16500 6100
Wire Wire Line
	16950 6150 16500 6150
Wire Wire Line
	16950 6000 16950 6150
Wire Wire Line
	17000 6000 16950 6000
Wire Wire Line
	16500 5700 16500 5650
Wire Wire Line
	16950 5900 17000 5900
Wire Wire Line
	16950 5700 16950 5900
Wire Wire Line
	16500 5700 16950 5700
Connection ~ 16500 5700
Wire Wire Line
	16500 5800 16500 5700
Connection ~ 16500 6150
Wire Wire Line
	16500 6300 16500 6150
$Comp
L power:+12V #PWR082
U 1 1 600F0DB0
P 16500 5650
F 0 "#PWR082" H 16500 5500 50  0001 C CNN
F 1 "+12V" H 16515 5823 50  0000 C CNN
F 2 "" H 16500 5650 50  0001 C CNN
F 3 "" H 16500 5650 50  0001 C CNN
	1    16500 5650
	1    0    0    -1  
$EndComp
$Comp
L Connector:Screw_Terminal_01x02 J16
U 1 1 600F0DAA
P 17200 5900
F 0 "J16" H 17200 6100 50  0000 C CNN
F 1 "RLY3" H 17200 6000 50  0000 C CNN
F 2 "TerminalBlock:TerminalBlock_bornier-2_P5.08mm" H 17200 5900 50  0001 C CNN
F 3 "~" H 17200 5900 50  0001 C CNN
	1    17200 5900
	1    0    0    -1  
$EndComp
$Comp
L Diode:1N4148 D16
U 1 1 600F0DA4
P 16500 5950
F 0 "D16" V 16454 6030 50  0000 L CNN
F 1 "1N4148" V 16545 6030 50  0000 L CNN
F 2 "Diode_THT:D_DO-35_SOD27_P7.62mm_Horizontal" H 16500 5775 50  0001 C CNN
F 3 "https://assets.nexperia.com/documents/data-sheet/1N4148_1N4448.pdf" H 16500 5950 50  0001 C CNN
	1    16500 5950
	0    1    1    0   
$EndComp
$Comp
L Device:Q_NPN_ECB Q5
U 1 1 600F0D9E
P 16400 6500
F 0 "Q5" H 16591 6546 50  0000 L CNN
F 1 "D882" H 16591 6455 50  0000 L CNN
F 2 "Package_TO_SOT_THT:TO-126-3_Vertical" H 16600 6600 50  0001 C CNN
F 3 "~" H 16400 6500 50  0001 C CNN
	1    16400 6500
	1    0    0    -1  
$EndComp
Wire Wire Line
	16500 6950 16500 6700
$Comp
L power:GND #PWR083
U 1 1 600F0D97
P 16500 6950
F 0 "#PWR083" H 16500 6700 50  0001 C CNN
F 1 "GND" H 16505 6777 50  0000 C CNN
F 2 "" H 16500 6950 50  0001 C CNN
F 3 "" H 16500 6950 50  0001 C CNN
	1    16500 6950
	1    0    0    -1  
$EndComp
Wire Wire Line
	16050 6950 16050 6850
$Comp
L power:GND #PWR081
U 1 1 600F0D90
P 16050 6950
F 0 "#PWR081" H 16050 6700 50  0001 C CNN
F 1 "GND" H 16055 6777 50  0000 C CNN
F 2 "" H 16050 6950 50  0001 C CNN
F 3 "" H 16050 6950 50  0001 C CNN
	1    16050 6950
	1    0    0    -1  
$EndComp
Wire Wire Line
	16050 6500 16200 6500
Wire Wire Line
	16050 6550 16050 6500
Connection ~ 16050 6500
Wire Wire Line
	15900 6500 16050 6500
Wire Wire Line
	15300 6500 15600 6500
Text Label 15300 6500 0    50   ~ 0
RLY3
$Comp
L Device:R R53
U 1 1 600F0D84
P 16050 6700
F 0 "R53" H 15850 6750 50  0000 L CNN
F 1 "4.7k" H 15850 6650 50  0000 L CNN
F 2 "Resistor_THT:R_Axial_DIN0207_L6.3mm_D2.5mm_P7.62mm_Horizontal" V 15980 6700 50  0001 C CNN
F 3 "~" H 16050 6700 50  0001 C CNN
	1    16050 6700
	1    0    0    -1  
$EndComp
$Comp
L Device:R R52
U 1 1 600F0D7E
P 15750 6500
F 0 "R52" V 15950 6500 50  0000 L CNN
F 1 "1k" V 15850 6450 50  0000 L CNN
F 2 "Resistor_THT:R_Axial_DIN0207_L6.3mm_D2.5mm_P7.62mm_Horizontal" V 15680 6500 50  0001 C CNN
F 3 "~" H 15750 6500 50  0001 C CNN
	1    15750 6500
	0    -1   -1   0   
$EndComp
Wire Wire Line
	14850 6150 14850 6100
Wire Wire Line
	15300 6150 14850 6150
Wire Wire Line
	15300 6000 15300 6150
Wire Wire Line
	15350 6000 15300 6000
Wire Wire Line
	14850 5700 14850 5650
Wire Wire Line
	15300 5900 15350 5900
Wire Wire Line
	15300 5700 15300 5900
Wire Wire Line
	14850 5700 15300 5700
Connection ~ 14850 5700
Wire Wire Line
	14850 5800 14850 5700
Connection ~ 14850 6150
Wire Wire Line
	14850 6300 14850 6150
$Comp
L power:+12V #PWR079
U 1 1 600B4824
P 14850 5650
F 0 "#PWR079" H 14850 5500 50  0001 C CNN
F 1 "+12V" H 14865 5823 50  0000 C CNN
F 2 "" H 14850 5650 50  0001 C CNN
F 3 "" H 14850 5650 50  0001 C CNN
	1    14850 5650
	1    0    0    -1  
$EndComp
$Comp
L Connector:Screw_Terminal_01x02 J15
U 1 1 600B481E
P 15550 5900
F 0 "J15" H 15550 6100 50  0000 C CNN
F 1 "RLY2" H 15550 6000 50  0000 C CNN
F 2 "TerminalBlock:TerminalBlock_bornier-2_P5.08mm" H 15550 5900 50  0001 C CNN
F 3 "~" H 15550 5900 50  0001 C CNN
	1    15550 5900
	1    0    0    -1  
$EndComp
$Comp
L Diode:1N4148 D15
U 1 1 600B4818
P 14850 5950
F 0 "D15" V 14804 6030 50  0000 L CNN
F 1 "1N4148" V 14895 6030 50  0000 L CNN
F 2 "Diode_THT:D_DO-35_SOD27_P7.62mm_Horizontal" H 14850 5775 50  0001 C CNN
F 3 "https://assets.nexperia.com/documents/data-sheet/1N4148_1N4448.pdf" H 14850 5950 50  0001 C CNN
	1    14850 5950
	0    1    1    0   
$EndComp
$Comp
L Device:Q_NPN_ECB Q4
U 1 1 600B4812
P 14750 6500
F 0 "Q4" H 14941 6546 50  0000 L CNN
F 1 "D882" H 14941 6455 50  0000 L CNN
F 2 "Package_TO_SOT_THT:TO-126-3_Vertical" H 14950 6600 50  0001 C CNN
F 3 "~" H 14750 6500 50  0001 C CNN
	1    14750 6500
	1    0    0    -1  
$EndComp
Wire Wire Line
	14850 6950 14850 6700
$Comp
L power:GND #PWR080
U 1 1 600B480B
P 14850 6950
F 0 "#PWR080" H 14850 6700 50  0001 C CNN
F 1 "GND" H 14855 6777 50  0000 C CNN
F 2 "" H 14850 6950 50  0001 C CNN
F 3 "" H 14850 6950 50  0001 C CNN
	1    14850 6950
	1    0    0    -1  
$EndComp
Wire Wire Line
	14400 6950 14400 6850
$Comp
L power:GND #PWR078
U 1 1 600B4804
P 14400 6950
F 0 "#PWR078" H 14400 6700 50  0001 C CNN
F 1 "GND" H 14405 6777 50  0000 C CNN
F 2 "" H 14400 6950 50  0001 C CNN
F 3 "" H 14400 6950 50  0001 C CNN
	1    14400 6950
	1    0    0    -1  
$EndComp
Wire Wire Line
	14400 6500 14550 6500
Wire Wire Line
	14400 6550 14400 6500
Connection ~ 14400 6500
Wire Wire Line
	14250 6500 14400 6500
Wire Wire Line
	13650 6500 13950 6500
Text Label 13650 6500 0    50   ~ 0
RLY2
$Comp
L Device:R R51
U 1 1 600B47F8
P 14400 6700
F 0 "R51" H 14200 6750 50  0000 L CNN
F 1 "4.7k" H 14200 6650 50  0000 L CNN
F 2 "Resistor_THT:R_Axial_DIN0207_L6.3mm_D2.5mm_P7.62mm_Horizontal" V 14330 6700 50  0001 C CNN
F 3 "~" H 14400 6700 50  0001 C CNN
	1    14400 6700
	1    0    0    -1  
$EndComp
$Comp
L Device:R R50
U 1 1 600B47F2
P 14100 6500
F 0 "R50" V 14300 6500 50  0000 L CNN
F 1 "1k" V 14200 6450 50  0000 L CNN
F 2 "Resistor_THT:R_Axial_DIN0207_L6.3mm_D2.5mm_P7.62mm_Horizontal" V 14030 6500 50  0001 C CNN
F 3 "~" H 14100 6500 50  0001 C CNN
	1    14100 6500
	0    -1   -1   0   
$EndComp
Wire Wire Line
	13200 6150 13200 6100
Wire Wire Line
	13650 6150 13200 6150
Wire Wire Line
	13650 6000 13650 6150
Wire Wire Line
	13700 6000 13650 6000
Wire Wire Line
	13200 5700 13200 5650
Wire Wire Line
	13650 5900 13700 5900
Wire Wire Line
	13650 5700 13650 5900
Wire Wire Line
	13200 5700 13650 5700
Connection ~ 13200 5700
Wire Wire Line
	13200 5800 13200 5700
Connection ~ 13200 6150
Wire Wire Line
	13200 6300 13200 6150
$Comp
L power:+12V #PWR076
U 1 1 617DD085
P 13200 5650
F 0 "#PWR076" H 13200 5500 50  0001 C CNN
F 1 "+12V" H 13215 5823 50  0000 C CNN
F 2 "" H 13200 5650 50  0001 C CNN
F 3 "" H 13200 5650 50  0001 C CNN
	1    13200 5650
	1    0    0    -1  
$EndComp
$Comp
L Connector:Screw_Terminal_01x02 J14
U 1 1 617DB5C1
P 13900 5900
F 0 "J14" H 13900 6100 50  0000 C CNN
F 1 "RLY1" H 13900 6000 50  0000 C CNN
F 2 "TerminalBlock:TerminalBlock_bornier-2_P5.08mm" H 13900 5900 50  0001 C CNN
F 3 "~" H 13900 5900 50  0001 C CNN
	1    13900 5900
	1    0    0    -1  
$EndComp
$Comp
L Diode:1N4148 D13
U 1 1 617D9ADC
P 13200 5950
F 0 "D13" V 13154 6030 50  0000 L CNN
F 1 "1N4148" V 13245 6030 50  0000 L CNN
F 2 "Diode_THT:D_DO-35_SOD27_P7.62mm_Horizontal" H 13200 5775 50  0001 C CNN
F 3 "https://assets.nexperia.com/documents/data-sheet/1N4148_1N4448.pdf" H 13200 5950 50  0001 C CNN
	1    13200 5950
	0    1    1    0   
$EndComp
$Comp
L Device:Q_NPN_ECB Q3
U 1 1 617D81AB
P 13100 6500
F 0 "Q3" H 13291 6546 50  0000 L CNN
F 1 "D882" H 13291 6455 50  0000 L CNN
F 2 "Package_TO_SOT_THT:TO-126-3_Vertical" H 13300 6600 50  0001 C CNN
F 3 "~" H 13100 6500 50  0001 C CNN
	1    13100 6500
	1    0    0    -1  
$EndComp
Wire Wire Line
	13200 6950 13200 6700
$Comp
L power:GND #PWR077
U 1 1 617A41A4
P 13200 6950
F 0 "#PWR077" H 13200 6700 50  0001 C CNN
F 1 "GND" H 13205 6777 50  0000 C CNN
F 2 "" H 13200 6950 50  0001 C CNN
F 3 "" H 13200 6950 50  0001 C CNN
	1    13200 6950
	1    0    0    -1  
$EndComp
Wire Wire Line
	12750 6950 12750 6850
$Comp
L power:GND #PWR075
U 1 1 617A419D
P 12750 6950
F 0 "#PWR075" H 12750 6700 50  0001 C CNN
F 1 "GND" H 12755 6777 50  0000 C CNN
F 2 "" H 12750 6950 50  0001 C CNN
F 3 "" H 12750 6950 50  0001 C CNN
	1    12750 6950
	1    0    0    -1  
$EndComp
Wire Wire Line
	12750 6500 12900 6500
Wire Wire Line
	12750 6550 12750 6500
Connection ~ 12750 6500
Wire Wire Line
	12600 6500 12750 6500
Wire Wire Line
	12000 6500 12300 6500
Text Label 12000 6500 0    50   ~ 0
RLY1
$Comp
L Device:R R49
U 1 1 617A4191
P 12750 6700
F 0 "R49" H 12550 6750 50  0000 L CNN
F 1 "4.7k" H 12550 6650 50  0000 L CNN
F 2 "Resistor_THT:R_Axial_DIN0207_L6.3mm_D2.5mm_P7.62mm_Horizontal" V 12680 6700 50  0001 C CNN
F 3 "~" H 12750 6700 50  0001 C CNN
	1    12750 6700
	1    0    0    -1  
$EndComp
$Comp
L Device:R R48
U 1 1 617A418B
P 12450 6500
F 0 "R48" V 12650 6500 50  0000 L CNN
F 1 "1k" V 12550 6450 50  0000 L CNN
F 2 "Resistor_THT:R_Axial_DIN0207_L6.3mm_D2.5mm_P7.62mm_Horizontal" V 12380 6500 50  0001 C CNN
F 3 "~" H 12450 6500 50  0001 C CNN
	1    12450 6500
	0    -1   -1   0   
$EndComp
Wire Wire Line
	14650 1100 14650 1000
Wire Wire Line
	14550 1100 14650 1100
$Comp
L power:+2V5 #PWR050
U 1 1 6176DE20
P 14650 1000
F 0 "#PWR050" H 14650 850 50  0001 C CNN
F 1 "+2V5" H 14665 1173 50  0000 C CNN
F 2 "" H 14650 1000 50  0001 C CNN
F 3 "" H 14650 1000 50  0001 C CNN
	1    14650 1000
	1    0    0    -1  
$EndComp
Wire Wire Line
	14700 2550 14700 2500
Wire Wire Line
	14600 2550 14700 2550
$Comp
L power:+2V5 #PWR051
U 1 1 6173A1A3
P 14700 2500
F 0 "#PWR051" H 14700 2350 50  0001 C CNN
F 1 "+2V5" H 14715 2673 50  0000 C CNN
F 2 "" H 14700 2500 50  0001 C CNN
F 3 "" H 14700 2500 50  0001 C CNN
	1    14700 2500
	1    0    0    -1  
$EndComp
Wire Wire Line
	14750 3950 14750 3900
Wire Wire Line
	14600 3950 14750 3950
$Comp
L power:+2V5 #PWR052
U 1 1 61706644
P 14750 3900
F 0 "#PWR052" H 14750 3750 50  0001 C CNN
F 1 "+2V5" H 14765 4073 50  0000 C CNN
F 2 "" H 14750 3900 50  0001 C CNN
F 3 "" H 14750 3900 50  0001 C CNN
	1    14750 3900
	1    0    0    -1  
$EndComp
Wire Wire Line
	17550 3450 17550 3600
$Comp
L power:+2V5 #PWR067
U 1 1 616D258A
P 17550 3450
F 0 "#PWR067" H 17550 3300 50  0001 C CNN
F 1 "+2V5" H 17565 3623 50  0000 C CNN
F 2 "" H 17550 3450 50  0001 C CNN
F 3 "" H 17550 3450 50  0001 C CNN
	1    17550 3450
	1    0    0    -1  
$EndComp
Wire Wire Line
	15350 3900 15350 3850
$Comp
L power:+5V #PWR058
U 1 1 6153C883
P 15350 3850
F 0 "#PWR058" H 15350 3700 50  0001 C CNN
F 1 "+5V" H 15365 4023 50  0000 C CNN
F 2 "" H 15350 3850 50  0001 C CNN
F 3 "" H 15350 3850 50  0001 C CNN
	1    15350 3850
	1    0    0    -1  
$EndComp
Wire Wire Line
	15350 2500 15350 2450
$Comp
L power:+5V #PWR056
U 1 1 6150B02C
P 15350 2450
F 0 "#PWR056" H 15350 2300 50  0001 C CNN
F 1 "+5V" H 15365 2623 50  0000 C CNN
F 2 "" H 15350 2450 50  0001 C CNN
F 3 "" H 15350 2450 50  0001 C CNN
	1    15350 2450
	1    0    0    -1  
$EndComp
Wire Wire Line
	15350 1100 15350 1000
$Comp
L power:+5V #PWR054
U 1 1 614D98A4
P 15350 1000
F 0 "#PWR054" H 15350 850 50  0001 C CNN
F 1 "+5V" H 15365 1173 50  0000 C CNN
F 2 "" H 15350 1000 50  0001 C CNN
F 3 "" H 15350 1000 50  0001 C CNN
	1    15350 1000
	1    0    0    -1  
$EndComp
Wire Wire Line
	12250 2200 12250 2100
$Comp
L power:+5V #PWR048
U 1 1 604545E4
P 12250 2100
F 0 "#PWR048" H 12250 1950 50  0001 C CNN
F 1 "+5V" H 12265 2273 50  0000 C CNN
F 2 "" H 12250 2100 50  0001 C CNN
F 3 "" H 12250 2100 50  0001 C CNN
	1    12250 2100
	1    0    0    -1  
$EndComp
Wire Wire Line
	12250 2900 12250 2800
$Comp
L power:GND #PWR049
U 1 1 6043655B
P 12250 2900
F 0 "#PWR049" H 12250 2650 50  0001 C CNN
F 1 "GND" H 12255 2727 50  0000 C CNN
F 2 "" H 12250 2900 50  0001 C CNN
F 3 "" H 12250 2900 50  0001 C CNN
	1    12250 2900
	1    0    0    -1  
$EndComp
Wire Wire Line
	15350 4800 15350 4700
$Comp
L power:GND #PWR059
U 1 1 603D2874
P 15350 4800
F 0 "#PWR059" H 15350 4550 50  0001 C CNN
F 1 "GND" H 15355 4627 50  0000 C CNN
F 2 "" H 15350 4800 50  0001 C CNN
F 3 "" H 15350 4800 50  0001 C CNN
	1    15350 4800
	1    0    0    -1  
$EndComp
Wire Wire Line
	15350 3400 15350 3300
$Comp
L power:GND #PWR057
U 1 1 603B4EE2
P 15350 3400
F 0 "#PWR057" H 15350 3150 50  0001 C CNN
F 1 "GND" H 15355 3227 50  0000 C CNN
F 2 "" H 15350 3400 50  0001 C CNN
F 3 "" H 15350 3400 50  0001 C CNN
	1    15350 3400
	1    0    0    -1  
$EndComp
Wire Wire Line
	14850 4300 14800 4300
Wire Wire Line
	14850 4650 14850 4300
Wire Wire Line
	14600 4650 14850 4650
Wire Wire Line
	14150 4400 14100 4400
Wire Wire Line
	14150 4650 14150 4400
Wire Wire Line
	14300 4650 14150 4650
Wire Wire Line
	14150 4200 14100 4200
Wire Wire Line
	14150 3950 14150 4200
Wire Wire Line
	14300 3950 14150 3950
$Comp
L Device:R R40
U 1 1 6035E534
P 14450 3950
F 0 "R40" V 14500 4050 50  0000 L CNN
F 1 "100k" V 14550 3900 50  0000 L CNN
F 2 "Resistor_THT:R_Axial_DIN0207_L6.3mm_D2.5mm_P7.62mm_Horizontal" V 14380 3950 50  0001 C CNN
F 3 "~" H 14450 3950 50  0001 C CNN
	1    14450 3950
	0    -1   -1   0   
$EndComp
$Comp
L Device:R R41
U 1 1 6035DC17
P 14450 4650
F 0 "R41" V 14500 4750 50  0000 L CNN
F 1 "100k" V 14550 4600 50  0000 L CNN
F 2 "Resistor_THT:R_Axial_DIN0207_L6.3mm_D2.5mm_P7.62mm_Horizontal" V 14380 4650 50  0001 C CNN
F 3 "~" H 14450 4650 50  0001 C CNN
	1    14450 4650
	0    -1   -1   0   
$EndComp
Connection ~ 14850 4300
Wire Wire Line
	14900 4300 14850 4300
Wire Wire Line
	15350 4400 15350 4300
Wire Wire Line
	15350 4300 15750 4300
Wire Wire Line
	15350 4300 15200 4300
Connection ~ 15350 4300
Wire Wire Line
	15350 4200 15350 4300
Text Label 15750 4300 2    50   ~ 0
I1_Sense
$Comp
L Diode:1N4148 D12
U 1 1 60327015
P 15350 4050
F 0 "D12" V 15304 4130 50  0000 L CNN
F 1 "1N4148" V 15395 4130 50  0000 L CNN
F 2 "Diode_THT:D_DO-35_SOD27_P10.16mm_Horizontal" H 15350 3875 50  0001 C CNN
F 3 "https://assets.nexperia.com/documents/data-sheet/1N4148_1N4448.pdf" H 15350 4050 50  0001 C CNN
	1    15350 4050
	0    1    1    0   
$EndComp
$Comp
L Device:C C17
U 1 1 6032700F
P 15350 4550
F 0 "C17" H 15465 4596 50  0000 L CNN
F 1 "103" H 15465 4505 50  0000 L CNN
F 2 "Capacitor_THT:C_Rect_L7.0mm_W3.5mm_P5.00mm" H 15388 4400 50  0001 C CNN
F 3 "~" H 15350 4550 50  0001 C CNN
	1    15350 4550
	1    0    0    -1  
$EndComp
$Comp
L Device:R R44
U 1 1 60327009
P 15050 4300
F 0 "R44" V 15100 4400 50  0000 L CNN
F 1 "15k" V 15150 4250 50  0000 L CNN
F 2 "Resistor_THT:R_Axial_DIN0207_L6.3mm_D2.5mm_P7.62mm_Horizontal" V 14980 4300 50  0001 C CNN
F 3 "~" H 15050 4300 50  0001 C CNN
	1    15050 4300
	0    -1   -1   0   
$EndComp
Connection ~ 14150 4400
Wire Wire Line
	14200 4400 14150 4400
Connection ~ 14150 4200
Wire Wire Line
	14200 4200 14150 4200
Wire Wire Line
	13500 4550 13150 4550
Wire Wire Line
	13500 4450 13500 4550
Wire Wire Line
	13150 4350 13100 4350
Wire Wire Line
	13150 4550 13150 4350
Connection ~ 13500 4550
Wire Wire Line
	13750 4550 13500 4550
Wire Wire Line
	13750 4400 13750 4550
Wire Wire Line
	13800 4400 13750 4400
Wire Wire Line
	13500 4050 13750 4050
Wire Wire Line
	13500 4150 13500 4050
Wire Wire Line
	13750 4200 13800 4200
Wire Wire Line
	13750 4050 13750 4200
Connection ~ 13500 4050
Wire Wire Line
	13150 4050 13500 4050
Wire Wire Line
	13150 4250 13150 4050
Wire Wire Line
	13100 4250 13150 4250
$Comp
L Connector:Screw_Terminal_01x02 J11
U 1 1 602D5A24
P 12900 4350
F 0 "J11" H 12950 4050 50  0000 C CNN
F 1 "I1_Sense" H 12850 4150 50  0000 C CNN
F 2 "TerminalBlock:TerminalBlock_bornier-2_P5.08mm" H 12900 4350 50  0001 C CNN
F 3 "~" H 12900 4350 50  0001 C CNN
	1    12900 4350
	-1   0    0    1   
$EndComp
$Comp
L Device:R R35
U 1 1 602D5A1E
P 13950 4400
F 0 "R35" V 14000 4500 50  0000 L CNN
F 1 "10k" V 14050 4350 50  0000 L CNN
F 2 "Resistor_THT:R_Axial_DIN0207_L6.3mm_D2.5mm_P7.62mm_Horizontal" V 13880 4400 50  0001 C CNN
F 3 "~" H 13950 4400 50  0001 C CNN
	1    13950 4400
	0    -1   -1   0   
$EndComp
$Comp
L Device:R R29
U 1 1 602D5A18
P 13500 4300
F 0 "R29" H 13600 4200 50  0000 L CNN
F 1 "10R" H 13550 4300 50  0000 L CNN
F 2 "Resistor_THT:R_Axial_DIN0309_L9.0mm_D3.2mm_P12.70mm_Horizontal" V 13430 4300 50  0001 C CNN
F 3 "~" H 13500 4300 50  0001 C CNN
	1    13500 4300
	-1   0    0    1   
$EndComp
$Comp
L Device:R R34
U 1 1 602D5A12
P 13950 4200
F 0 "R34" V 14000 4300 50  0000 L CNN
F 1 "10k" V 14050 4150 50  0000 L CNN
F 2 "Resistor_THT:R_Axial_DIN0207_L6.3mm_D2.5mm_P7.62mm_Horizontal" V 13880 4200 50  0001 C CNN
F 3 "~" H 13950 4200 50  0001 C CNN
	1    13950 4200
	0    -1   -1   0   
$EndComp
Wire Wire Line
	14850 2900 14800 2900
Wire Wire Line
	14850 3300 14850 2900
Wire Wire Line
	14600 3300 14850 3300
Wire Wire Line
	15350 3000 15350 2900
Wire Wire Line
	15350 2900 15750 2900
Wire Wire Line
	15350 2900 15200 2900
Connection ~ 15350 2900
Wire Wire Line
	15350 2800 15350 2900
Text Label 15750 2900 2    50   ~ 0
I2_Sense
$Comp
L Diode:1N4148 D11
U 1 1 6027197B
P 15350 2650
F 0 "D11" V 15304 2730 50  0000 L CNN
F 1 "1N4148" V 15395 2730 50  0000 L CNN
F 2 "Diode_THT:D_DO-35_SOD27_P10.16mm_Horizontal" H 15350 2475 50  0001 C CNN
F 3 "https://assets.nexperia.com/documents/data-sheet/1N4148_1N4448.pdf" H 15350 2650 50  0001 C CNN
	1    15350 2650
	0    1    1    0   
$EndComp
$Comp
L Device:C C16
U 1 1 60271544
P 15350 3150
F 0 "C16" H 15465 3196 50  0000 L CNN
F 1 "103" H 15465 3105 50  0000 L CNN
F 2 "Capacitor_THT:C_Rect_L7.0mm_W3.5mm_P5.00mm" H 15388 3000 50  0001 C CNN
F 3 "~" H 15350 3150 50  0001 C CNN
	1    15350 3150
	1    0    0    -1  
$EndComp
Connection ~ 14850 2900
Wire Wire Line
	14900 2900 14850 2900
$Comp
L Device:R R43
U 1 1 602592E5
P 15050 2900
F 0 "R43" V 15100 3000 50  0000 L CNN
F 1 "15k" V 15150 2850 50  0000 L CNN
F 2 "Resistor_THT:R_Axial_DIN0207_L6.3mm_D2.5mm_P7.62mm_Horizontal" V 14980 2900 50  0001 C CNN
F 3 "~" H 15050 2900 50  0001 C CNN
	1    15050 2900
	0    -1   -1   0   
$EndComp
Wire Wire Line
	14150 3000 14200 3000
Wire Wire Line
	14150 3300 14150 3000
Wire Wire Line
	14300 3300 14150 3300
$Comp
L Device:R R39
U 1 1 60241A6B
P 14450 3300
F 0 "R39" V 14500 3400 50  0000 L CNN
F 1 "100k" V 14550 3250 50  0000 L CNN
F 2 "Resistor_THT:R_Axial_DIN0207_L6.3mm_D2.5mm_P7.62mm_Horizontal" V 14380 3300 50  0001 C CNN
F 3 "~" H 14450 3300 50  0001 C CNN
	1    14450 3300
	0    -1   -1   0   
$EndComp
Wire Wire Line
	14150 2800 14200 2800
Wire Wire Line
	14150 2550 14150 2800
Wire Wire Line
	14300 2550 14150 2550
$Comp
L Device:R R38
U 1 1 6022A395
P 14450 2550
F 0 "R38" V 14500 2650 50  0000 L CNN
F 1 "100k" V 14550 2500 50  0000 L CNN
F 2 "Resistor_THT:R_Axial_DIN0207_L6.3mm_D2.5mm_P7.62mm_Horizontal" V 14380 2550 50  0001 C CNN
F 3 "~" H 14450 2550 50  0001 C CNN
	1    14450 2550
	0    -1   -1   0   
$EndComp
Connection ~ 14150 3000
Wire Wire Line
	14100 3000 14150 3000
Connection ~ 14150 2800
Wire Wire Line
	14100 2800 14150 2800
Wire Wire Line
	13500 3150 13150 3150
Wire Wire Line
	13500 3050 13500 3150
Wire Wire Line
	13150 2950 13100 2950
Wire Wire Line
	13150 3150 13150 2950
Connection ~ 13500 3150
Wire Wire Line
	13750 3150 13500 3150
Wire Wire Line
	13750 3000 13750 3150
Wire Wire Line
	13800 3000 13750 3000
Wire Wire Line
	13500 2650 13750 2650
Wire Wire Line
	13500 2750 13500 2650
Wire Wire Line
	13750 2800 13800 2800
Wire Wire Line
	13750 2650 13750 2800
Connection ~ 13500 2650
Wire Wire Line
	13150 2650 13500 2650
Wire Wire Line
	13150 2850 13150 2650
Wire Wire Line
	13100 2850 13150 2850
$Comp
L Connector:Screw_Terminal_01x02 J10
U 1 1 601A5D4A
P 12900 2950
F 0 "J10" H 12950 2650 50  0000 C CNN
F 1 "I2_Sense" H 12850 2750 50  0000 C CNN
F 2 "TerminalBlock:TerminalBlock_bornier-2_P5.08mm" H 12900 2950 50  0001 C CNN
F 3 "~" H 12900 2950 50  0001 C CNN
	1    12900 2950
	-1   0    0    1   
$EndComp
$Comp
L Device:R R33
U 1 1 601A590E
P 13950 3000
F 0 "R33" V 14000 3100 50  0000 L CNN
F 1 "10k" V 14050 2950 50  0000 L CNN
F 2 "Resistor_THT:R_Axial_DIN0207_L6.3mm_D2.5mm_P7.62mm_Horizontal" V 13880 3000 50  0001 C CNN
F 3 "~" H 13950 3000 50  0001 C CNN
	1    13950 3000
	0    -1   -1   0   
$EndComp
$Comp
L Device:R R28
U 1 1 601A5470
P 13500 2900
F 0 "R28" H 13600 2800 50  0000 L CNN
F 1 "10R" H 13550 2900 50  0000 L CNN
F 2 "Resistor_THT:R_Axial_DIN0309_L9.0mm_D3.2mm_P12.70mm_Horizontal" V 13430 2900 50  0001 C CNN
F 3 "~" H 13500 2900 50  0001 C CNN
	1    13500 2900
	-1   0    0    1   
$EndComp
$Comp
L Device:R R32
U 1 1 601A425E
P 13950 2800
F 0 "R32" V 14000 2900 50  0000 L CNN
F 1 "10k" V 14050 2750 50  0000 L CNN
F 2 "Resistor_THT:R_Axial_DIN0207_L6.3mm_D2.5mm_P7.62mm_Horizontal" V 13880 2800 50  0001 C CNN
F 3 "~" H 13950 2800 50  0001 C CNN
	1    13950 2800
	0    -1   -1   0   
$EndComp
Wire Wire Line
	17550 3600 17500 3600
Connection ~ 17550 3600
Wire Wire Line
	17550 3850 17550 3600
Wire Wire Line
	16850 3850 17550 3850
Wire Wire Line
	16850 3700 16850 3850
Wire Wire Line
	16900 3700 16850 3700
Wire Wire Line
	16700 4000 16700 3900
$Comp
L power:GND #PWR065
U 1 1 60162929
P 16700 4000
F 0 "#PWR065" H 16700 3750 50  0001 C CNN
F 1 "GND" H 16705 3827 50  0000 C CNN
F 2 "" H 16700 4000 50  0001 C CNN
F 3 "" H 16700 4000 50  0001 C CNN
	1    16700 4000
	1    0    0    -1  
$EndComp
Wire Wire Line
	16700 3100 16700 3000
$Comp
L power:+5V #PWR064
U 1 1 6013C2D5
P 16700 3000
F 0 "#PWR064" H 16700 2850 50  0001 C CNN
F 1 "+5V" H 16715 3173 50  0000 C CNN
F 2 "" H 16700 3000 50  0001 C CNN
F 3 "" H 16700 3000 50  0001 C CNN
	1    16700 3000
	1    0    0    -1  
$EndComp
Wire Wire Line
	16700 3500 16700 3400
Wire Wire Line
	16900 3500 16700 3500
Connection ~ 16700 3500
Wire Wire Line
	16700 3600 16700 3500
$Comp
L Device:R R47
U 1 1 6011484B
P 16700 3750
F 0 "R47" H 16800 3650 50  0000 L CNN
F 1 "10k" H 16750 3750 50  0000 L CNN
F 2 "Resistor_THT:R_Axial_DIN0207_L6.3mm_D2.5mm_P7.62mm_Horizontal" V 16630 3750 50  0001 C CNN
F 3 "~" H 16700 3750 50  0001 C CNN
	1    16700 3750
	-1   0    0    1   
$EndComp
$Comp
L Device:R R46
U 1 1 60113ABE
P 16700 3250
F 0 "R46" H 16800 3150 50  0000 L CNN
F 1 "15k" H 16750 3250 50  0000 L CNN
F 2 "Resistor_THT:R_Axial_DIN0207_L6.3mm_D2.5mm_P7.62mm_Horizontal" V 16630 3250 50  0001 C CNN
F 3 "~" H 16700 3250 50  0001 C CNN
	1    16700 3250
	-1   0    0    1   
$EndComp
Wire Wire Line
	14850 1500 14900 1500
Wire Wire Line
	14850 1900 14850 1500
Wire Wire Line
	14550 1900 14850 1900
Wire Wire Line
	15350 1600 15350 1500
Wire Wire Line
	15350 1500 15200 1500
Connection ~ 15350 1500
Wire Wire Line
	15350 1400 15350 1500
Wire Wire Line
	15750 1500 15350 1500
Text Label 15750 1500 2    50   ~ 0
V_Sense
$Comp
L Diode:1N4148 D10
U 1 1 600C1CFA
P 15350 1250
F 0 "D10" V 15304 1330 50  0000 L CNN
F 1 "1N4148" V 15395 1330 50  0000 L CNN
F 2 "Diode_THT:D_DO-35_SOD27_P7.62mm_Horizontal" H 15350 1075 50  0001 C CNN
F 3 "https://assets.nexperia.com/documents/data-sheet/1N4148_1N4448.pdf" H 15350 1250 50  0001 C CNN
	1    15350 1250
	0    1    1    0   
$EndComp
Connection ~ 14850 1500
Wire Wire Line
	14800 1500 14850 1500
Wire Wire Line
	14150 1400 14100 1400
Wire Wire Line
	14150 1100 14150 1400
Wire Wire Line
	14250 1100 14150 1100
Wire Wire Line
	12550 1550 12450 1550
Wire Wire Line
	12550 1600 12550 1550
Wire Wire Line
	12900 1600 12550 1600
Wire Wire Line
	12550 1450 12450 1450
Wire Wire Line
	12550 1400 12550 1450
Wire Wire Line
	12900 1400 12550 1400
$Comp
L Connector:Screw_Terminal_01x02 J9
U 1 1 6006661D
P 12250 1550
F 0 "J9" H 12300 1250 50  0000 C CNN
F 1 "AC_Sense" H 12200 1350 50  0000 C CNN
F 2 "TerminalBlock:TerminalBlock_bornier-2_P5.08mm" H 12250 1550 50  0001 C CNN
F 3 "~" H 12250 1550 50  0001 C CNN
	1    12250 1550
	-1   0    0    1   
$EndComp
Wire Wire Line
	13800 1600 13650 1600
Wire Wire Line
	13350 1600 13200 1600
Wire Wire Line
	13350 1400 13200 1400
Wire Wire Line
	13800 1400 13650 1400
Connection ~ 14150 1400
Wire Wire Line
	14200 1400 14150 1400
Wire Wire Line
	14150 1600 14100 1600
Wire Wire Line
	14150 1900 14150 1600
Wire Wire Line
	14250 1900 14150 1900
Connection ~ 14150 1600
Wire Wire Line
	14200 1600 14150 1600
Wire Wire Line
	15350 2000 15350 1900
$Comp
L power:GND #PWR055
U 1 1 5FFE106F
P 15350 2000
F 0 "#PWR055" H 15350 1750 50  0001 C CNN
F 1 "GND" H 15355 1827 50  0000 C CNN
F 2 "" H 15350 2000 50  0001 C CNN
F 3 "" H 15350 2000 50  0001 C CNN
	1    15350 2000
	1    0    0    -1  
$EndComp
$Comp
L Device:C C15
U 1 1 5FFE0228
P 15350 1750
F 0 "C15" H 15465 1796 50  0000 L CNN
F 1 "103" H 15465 1705 50  0000 L CNN
F 2 "Capacitor_THT:C_Rect_L7.0mm_W3.5mm_P5.00mm" H 15388 1600 50  0001 C CNN
F 3 "~" H 15350 1750 50  0001 C CNN
	1    15350 1750
	1    0    0    -1  
$EndComp
$Comp
L Device:R R42
U 1 1 5FFDFF3C
P 15050 1500
F 0 "R42" V 15100 1600 50  0000 L CNN
F 1 "10k" V 15150 1450 50  0000 L CNN
F 2 "Resistor_THT:R_Axial_DIN0207_L6.3mm_D2.5mm_P7.62mm_Horizontal" V 14980 1500 50  0001 C CNN
F 3 "~" H 15050 1500 50  0001 C CNN
	1    15050 1500
	0    -1   -1   0   
$EndComp
$Comp
L Device:R R36
U 1 1 5FFDF67F
P 14400 1100
F 0 "R36" V 14450 1200 50  0000 L CNN
F 1 "10k" V 14500 1050 50  0000 L CNN
F 2 "Resistor_THT:R_Axial_DIN0207_L6.3mm_D2.5mm_P7.62mm_Horizontal" V 14330 1100 50  0001 C CNN
F 3 "~" H 14400 1100 50  0001 C CNN
	1    14400 1100
	0    -1   -1   0   
$EndComp
$Comp
L Device:R R37
U 1 1 5FFDE1D3
P 14400 1900
F 0 "R37" V 14450 2000 50  0000 L CNN
F 1 "10k" V 14500 1850 50  0000 L CNN
F 2 "Resistor_THT:R_Axial_DIN0207_L6.3mm_D2.5mm_P7.62mm_Horizontal" V 14330 1900 50  0001 C CNN
F 3 "~" H 14400 1900 50  0001 C CNN
	1    14400 1900
	0    -1   -1   0   
$EndComp
$Comp
L Device:R R25
U 1 1 5FFDDBBC
P 13050 1600
F 0 "R25" V 13150 1700 50  0000 L CNN
F 1 "2M" V 13150 1550 50  0000 L CNN
F 2 "Resistor_THT:R_Axial_DIN0207_L6.3mm_D2.5mm_P7.62mm_Horizontal" V 12980 1600 50  0001 C CNN
F 3 "~" H 13050 1600 50  0001 C CNN
	1    13050 1600
	0    -1   -1   0   
$EndComp
$Comp
L Device:R R27
U 1 1 5FFDD920
P 13500 1600
F 0 "R27" V 13550 1750 50  0000 L CNN
F 1 "820k" V 13600 1550 50  0000 L CNN
F 2 "Resistor_THT:R_Axial_DIN0207_L6.3mm_D2.5mm_P7.62mm_Horizontal" V 13430 1600 50  0001 C CNN
F 3 "~" H 13500 1600 50  0001 C CNN
	1    13500 1600
	0    -1   -1   0   
$EndComp
$Comp
L Device:R R31
U 1 1 5FFDD626
P 13950 1600
F 0 "R31" V 14000 1800 50  0000 L CNN
F 1 "15k" V 14050 1550 50  0000 L CNN
F 2 "Resistor_THT:R_Axial_DIN0207_L6.3mm_D2.5mm_P7.62mm_Horizontal" V 13880 1600 50  0001 C CNN
F 3 "~" H 13950 1600 50  0001 C CNN
	1    13950 1600
	0    -1   -1   0   
$EndComp
$Comp
L Device:R R24
U 1 1 5FFDD021
P 13050 1400
F 0 "R24" V 13250 1400 50  0000 L CNN
F 1 "2M" V 13150 1350 50  0000 L CNN
F 2 "Resistor_THT:R_Axial_DIN0207_L6.3mm_D2.5mm_P7.62mm_Horizontal" V 12980 1400 50  0001 C CNN
F 3 "~" H 13050 1400 50  0001 C CNN
	1    13050 1400
	0    -1   -1   0   
$EndComp
$Comp
L Device:R R30
U 1 1 5FFDCD44
P 13950 1400
F 0 "R30" V 14150 1400 50  0000 L CNN
F 1 "15k" V 14050 1350 50  0000 L CNN
F 2 "Resistor_THT:R_Axial_DIN0207_L6.3mm_D2.5mm_P7.62mm_Horizontal" V 13880 1400 50  0001 C CNN
F 3 "~" H 13950 1400 50  0001 C CNN
	1    13950 1400
	0    -1   -1   0   
$EndComp
$Comp
L Device:R R26
U 1 1 5FFDB8CD
P 13500 1400
F 0 "R26" V 13700 1400 50  0000 L CNN
F 1 "820k" V 13600 1350 50  0000 L CNN
F 2 "Resistor_THT:R_Axial_DIN0207_L6.3mm_D2.5mm_P7.62mm_Horizontal" V 13430 1400 50  0001 C CNN
F 3 "~" H 13500 1400 50  0001 C CNN
	1    13500 1400
	0    -1   -1   0   
$EndComp
$Comp
L Amplifier_Operational:LM324 U8
U 5 1 5FFDA121
P 12350 2500
F 0 "U8" H 12308 2546 50  0000 L CNN
F 1 "LM324" H 12308 2455 50  0000 L CNN
F 2 "Package_DIP:DIP-14_W7.62mm" H 12300 2600 50  0001 C CNN
F 3 "http://www.ti.com/lit/ds/symlink/lm2902-n.pdf" H 12400 2700 50  0001 C CNN
	5    12350 2500
	1    0    0    -1  
$EndComp
$Comp
L Amplifier_Operational:LM324 U8
U 4 1 5FFD8E36
P 14500 4300
F 0 "U8" H 14550 4550 50  0000 C CNN
F 1 "LM324" H 14600 4450 50  0000 C CNN
F 2 "Package_DIP:DIP-14_W7.62mm" H 14450 4400 50  0001 C CNN
F 3 "http://www.ti.com/lit/ds/symlink/lm2902-n.pdf" H 14550 4500 50  0001 C CNN
	4    14500 4300
	1    0    0    -1  
$EndComp
$Comp
L Amplifier_Operational:LM324 U8
U 3 1 5FFD7C7E
P 14500 2900
F 0 "U8" H 14550 3150 50  0000 C CNN
F 1 "LM324" H 14600 3050 50  0000 C CNN
F 2 "Package_DIP:DIP-14_W7.62mm" H 14450 3000 50  0001 C CNN
F 3 "http://www.ti.com/lit/ds/symlink/lm2902-n.pdf" H 14550 3100 50  0001 C CNN
	3    14500 2900
	1    0    0    -1  
$EndComp
$Comp
L Amplifier_Operational:LM324 U8
U 2 1 5FFD680D
P 17200 3600
F 0 "U8" H 17200 3967 50  0000 C CNN
F 1 "LM324" H 17200 3876 50  0000 C CNN
F 2 "Package_DIP:DIP-14_W7.62mm" H 17150 3700 50  0001 C CNN
F 3 "http://www.ti.com/lit/ds/symlink/lm2902-n.pdf" H 17250 3800 50  0001 C CNN
	2    17200 3600
	1    0    0    -1  
$EndComp
$Comp
L Amplifier_Operational:LM324 U8
U 1 1 5FFD5153
P 14500 1500
F 0 "U8" H 14550 1750 50  0000 C CNN
F 1 "LM324" H 14600 1650 50  0000 C CNN
F 2 "Package_DIP:DIP-14_W7.62mm" H 14450 1600 50  0001 C CNN
F 3 "http://www.ti.com/lit/ds/symlink/lm2902-n.pdf" H 14550 1700 50  0001 C CNN
	1    14500 1500
	1    0    0    -1  
$EndComp
Wire Wire Line
	1800 4500 1500 4500
Text Label 1500 4500 0    50   ~ 0
CLK2
Wire Wire Line
	1500 4400 1800 4400
Text Label 1500 4400 0    50   ~ 0
DATA2
Wire Wire Line
	1650 4600 1650 4700
Wire Wire Line
	1800 4600 1650 4600
$Comp
L power:GND #PWR070
U 1 1 60999B74
P 1650 4700
F 0 "#PWR070" H 1650 4450 50  0001 C CNN
F 1 "GND" H 1655 4527 50  0000 C CNN
F 2 "" H 1650 4700 50  0001 C CNN
F 3 "" H 1650 4700 50  0001 C CNN
	1    1650 4700
	1    0    0    -1  
$EndComp
Wire Wire Line
	1650 4300 1650 4250
Wire Wire Line
	1800 4300 1650 4300
$Comp
L power:+5V #PWR069
U 1 1 6095C00C
P 1650 4250
F 0 "#PWR069" H 1650 4100 50  0001 C CNN
F 1 "+5V" H 1665 4423 50  0000 C CNN
F 2 "" H 1650 4250 50  0001 C CNN
F 3 "" H 1650 4250 50  0001 C CNN
	1    1650 4250
	1    0    0    -1  
$EndComp
$Comp
L Connector_Generic:Conn_01x04 J12
U 1 1 60959CEE
P 2000 4400
F 0 "J12" H 1950 4750 50  0000 L CNN
F 1 "Display(VA)" H 1750 4650 50  0000 L CNN
F 2 "Connector_PinHeader_2.54mm:PinHeader_1x04_P2.54mm_Vertical" H 2000 4400 50  0001 C CNN
F 3 "~" H 2000 4400 50  0001 C CNN
	1    2000 4400
	1    0    0    -1  
$EndComp
Wire Wire Line
	750  4500 1050 4500
Text Label 750  4500 0    50   ~ 0
CLK1
Wire Wire Line
	750  4400 1050 4400
Text Label 750  4400 0    50   ~ 0
DATA1
Wire Wire Line
	900  4600 900  4700
Wire Wire Line
	1050 4600 900  4600
$Comp
L power:GND #PWR072
U 1 1 609B8FF1
P 900 4700
F 0 "#PWR072" H 900 4450 50  0001 C CNN
F 1 "GND" H 905 4527 50  0000 C CNN
F 2 "" H 900 4700 50  0001 C CNN
F 3 "" H 900 4700 50  0001 C CNN
	1    900  4700
	1    0    0    -1  
$EndComp
Wire Wire Line
	900  4300 900  4250
Wire Wire Line
	1050 4300 900  4300
$Comp
L power:+5V #PWR071
U 1 1 6097AF6E
P 900 4250
F 0 "#PWR071" H 900 4100 50  0001 C CNN
F 1 "+5V" H 915 4423 50  0000 C CNN
F 2 "" H 900 4250 50  0001 C CNN
F 3 "" H 900 4250 50  0001 C CNN
	1    900  4250
	1    0    0    -1  
$EndComp
$Comp
L Connector_Generic:Conn_01x04 J13
U 1 1 6095B887
P 1250 4400
F 0 "J13" H 1200 4750 50  0000 L CNN
F 1 "Display(LVL)" H 1000 4650 50  0000 L CNN
F 2 "Connector_PinHeader_2.54mm:PinHeader_1x04_P2.54mm_Vertical" H 1250 4400 50  0001 C CNN
F 3 "~" H 1250 4400 50  0001 C CNN
	1    1250 4400
	1    0    0    -1  
$EndComp
Wire Wire Line
	-250 4650 -250 4550
Wire Wire Line
	-800 4650 -800 4550
$Comp
L power:GND #PWR068
U 1 1 60731588
P -250 4650
F 0 "#PWR068" H -250 4400 50  0001 C CNN
F 1 "GND" H -245 4477 50  0000 C CNN
F 2 "" H -250 4650 50  0001 C CNN
F 3 "" H -250 4650 50  0001 C CNN
	1    -250 4650
	1    0    0    -1  
$EndComp
$Comp
L power:GND #PWR066
U 1 1 60731025
P -800 4650
F 0 "#PWR066" H -800 4400 50  0001 C CNN
F 1 "GND" H -795 4477 50  0000 C CNN
F 2 "" H -800 4650 50  0001 C CNN
F 3 "" H -800 4650 50  0001 C CNN
	1    -800 4650
	1    0    0    -1  
$EndComp
Wire Wire Line
	-250 4150 -350 4150
Connection ~ -250 4150
Wire Wire Line
	-250 4250 -250 4150
Wire Wire Line
	-800 4150 -650 4150
Connection ~ -800 4150
Wire Wire Line
	-800 4250 -800 4150
Wire Wire Line
	50   4150 -250 4150
Wire Wire Line
	-1050 4150 -800 4150
Text Label -1050 4150 0    50   ~ 0
OSC1
Text Label 50   4150 2    50   ~ 0
OSC2
$Comp
L Device:C C20
U 1 1 606A90D9
P -250 4400
F 0 "C20" H -135 4446 50  0000 L CNN
F 1 "22pF" H -135 4355 50  0000 L CNN
F 2 "Capacitor_THT:C_Disc_D3.0mm_W2.0mm_P2.50mm" H -212 4250 50  0001 C CNN
F 3 "~" H -250 4400 50  0001 C CNN
	1    -250 4400
	1    0    0    -1  
$EndComp
$Comp
L Device:C C19
U 1 1 606A80EF
P -800 4400
F 0 "C19" H -685 4446 50  0000 L CNN
F 1 "22pF" H -685 4355 50  0000 L CNN
F 2 "Capacitor_THT:C_Disc_D3.0mm_W2.0mm_P2.50mm" H -762 4250 50  0001 C CNN
F 3 "~" H -800 4400 50  0001 C CNN
	1    -800 4400
	1    0    0    -1  
$EndComp
$Comp
L Device:Crystal Y1
U 1 1 606A5BE2
P -500 4150
F 0 "Y1" H -500 4418 50  0000 C CNN
F 1 "Crystal" H -500 4327 50  0000 C CNN
F 2 "Crystal:Crystal_HC49-4H_Vertical" H -500 4150 50  0001 C CNN
F 3 "~" H -500 4150 50  0001 C CNN
	1    -500 4150
	1    0    0    -1  
$EndComp
Wire Notes Line
	500  500  5250 500 
$EndSCHEMATC
