EESchema Schematic File Version 4
EELAYER 30 0
EELAYER END
$Descr A4 11693 8268
encoding utf-8
Sheet 1 1
Title "TFT Keyestudio 9325 Controller"
Date "2020-12-29"
Rev "0"
Comp ""
Comment1 ""
Comment2 ""
Comment3 ""
Comment4 ""
$EndDescr
Text Label 8950 1450 1    60   ~ 0
Vin
Text Label 9350 1450 1    60   ~ 0
IOREF
Text Label 8900 2500 0    60   ~ 0
A0
Text Label 8900 2600 0    60   ~ 0
A1
Text Label 8900 2700 0    60   ~ 0
A2
Text Label 8900 2800 0    60   ~ 0
A3
Text Label 8900 2900 0    60   ~ 0
A4(SDA)
Text Label 8900 3000 0    60   ~ 0
A5(SCL)
Text Label 10550 2800 0    60   ~ 0
2
Text Label 10550 2700 0    60   ~ 0
3(**)
Text Label 10550 2600 0    60   ~ 0
4
Text Label 10550 2500 0    60   ~ 0
5(**)
Text Label 10550 2400 0    60   ~ 0
6(**)
Text Label 10550 2300 0    60   ~ 0
7
Text Label 10550 2100 0    60   ~ 0
8
Text Label 10550 2000 0    60   ~ 0
9(**)
Text Label 10550 1900 0    60   ~ 0
10(**/SS)
Text Label 10550 1800 0    60   ~ 0
11(**/MOSI)
Text Label 10550 1700 0    60   ~ 0
12(MISO)
Text Label 10550 1600 0    60   ~ 0
13(SCK)
Text Label 10550 1400 0    60   ~ 0
AREF
NoConn ~ 9400 1600
Text Notes 10850 1000 0    60   ~ 0
Holes
Text Notes 8550 750  0    60   ~ 0
Shield for Arduino that uses\nthe same pin disposition\nlike "Uno" board Rev 3.
$Comp
L Connector_Generic:Conn_01x08 P1
U 1 1 56D70129
P 9600 1900
F 0 "P1" H 9600 2350 50  0000 C CNN
F 1 "Power" V 9700 1900 50  0000 C CNN
F 2 "Socket_Arduino_Uno:Socket_Strip_Arduino_1x08" V 9750 1900 20  0000 C CNN
F 3 "" H 9600 1900 50  0000 C CNN
	1    9600 1900
	1    0    0    -1  
$EndComp
Text Label 8650 1800 0    60   ~ 0
Reset
$Comp
L power:+3.3V #PWR01
U 1 1 56D70538
P 9150 1450
F 0 "#PWR01" H 9150 1300 50  0001 C CNN
F 1 "+3.3V" H 9150 1600 50  0000 C CNN
F 2 "" H 9150 1450 50  0000 C CNN
F 3 "" H 9150 1450 50  0000 C CNN
	1    9150 1450
	1    0    0    -1  
$EndComp
$Comp
L power:+5V #PWR02
U 1 1 56D707BB
P 9050 1350
F 0 "#PWR02" H 9050 1200 50  0001 C CNN
F 1 "+5V" H 9050 1500 50  0000 C CNN
F 2 "" H 9050 1350 50  0000 C CNN
F 3 "" H 9050 1350 50  0000 C CNN
	1    9050 1350
	1    0    0    -1  
$EndComp
$Comp
L power:GND #PWR03
U 1 1 56D70CC2
P 9300 3150
F 0 "#PWR03" H 9300 2900 50  0001 C CNN
F 1 "GND" H 9300 3000 50  0000 C CNN
F 2 "" H 9300 3150 50  0000 C CNN
F 3 "" H 9300 3150 50  0000 C CNN
	1    9300 3150
	1    0    0    -1  
$EndComp
$Comp
L Connector_Generic:Conn_01x06 P2
U 1 1 56D70DD8
P 9600 2700
F 0 "P2" H 9600 2300 50  0000 C CNN
F 1 "Analog" V 9700 2700 50  0000 C CNN
F 2 "Socket_Arduino_Uno:Socket_Strip_Arduino_1x06" V 9750 2750 20  0000 C CNN
F 3 "" H 9600 2700 50  0000 C CNN
	1    9600 2700
	1    0    0    -1  
$EndComp
$Comp
L Connector_Generic:Conn_01x01 P5
U 1 1 56D71177
P 10800 650
F 0 "P5" V 10900 650 50  0000 C CNN
F 1 "CONN_01X01" V 10900 650 50  0001 C CNN
F 2 "Socket_Arduino_Uno:Arduino_1pin" H 10721 724 20  0000 C CNN
F 3 "" H 10800 650 50  0000 C CNN
	1    10800 650 
	0    -1   -1   0   
$EndComp
$Comp
L Connector_Generic:Conn_01x01 P6
U 1 1 56D71274
P 10900 650
F 0 "P6" V 11000 650 50  0000 C CNN
F 1 "CONN_01X01" V 11000 650 50  0001 C CNN
F 2 "Socket_Arduino_Uno:Arduino_1pin" H 10900 650 20  0001 C CNN
F 3 "" H 10900 650 50  0000 C CNN
	1    10900 650 
	0    -1   -1   0   
$EndComp
$Comp
L Connector_Generic:Conn_01x01 P7
U 1 1 56D712A8
P 11000 650
F 0 "P7" V 11100 650 50  0000 C CNN
F 1 "CONN_01X01" V 11100 650 50  0001 C CNN
F 2 "Socket_Arduino_Uno:Arduino_1pin" V 11000 650 20  0001 C CNN
F 3 "" H 11000 650 50  0000 C CNN
	1    11000 650 
	0    -1   -1   0   
$EndComp
$Comp
L Connector_Generic:Conn_01x01 P8
U 1 1 56D712DB
P 11100 650
F 0 "P8" V 11200 650 50  0000 C CNN
F 1 "CONN_01X01" V 11200 650 50  0001 C CNN
F 2 "Socket_Arduino_Uno:Arduino_1pin" H 11024 572 20  0000 C CNN
F 3 "" H 11100 650 50  0000 C CNN
	1    11100 650 
	0    -1   -1   0   
$EndComp
NoConn ~ 10800 850 
NoConn ~ 10900 850 
NoConn ~ 11000 850 
NoConn ~ 11100 850 
$Comp
L Connector_Generic:Conn_01x08 P4
U 1 1 56D7164F
P 10000 2600
F 0 "P4" H 10000 2100 50  0000 C CNN
F 1 "Digital" V 10100 2600 50  0000 C CNN
F 2 "Socket_Arduino_Uno:Socket_Strip_Arduino_1x08" V 10150 2550 20  0000 C CNN
F 3 "" H 10000 2600 50  0000 C CNN
	1    10000 2600
	-1   0    0    -1  
$EndComp
Wire Notes Line
	8525 825  9925 825 
Wire Notes Line
	9925 825  9925 475 
Wire Wire Line
	9350 1450 9350 1700
Wire Wire Line
	9350 1700 9400 1700
Wire Wire Line
	9400 1900 9150 1900
Wire Wire Line
	9400 2000 9050 2000
Wire Wire Line
	9400 2300 8950 2300
Wire Wire Line
	9400 2100 9300 2100
Wire Wire Line
	9400 2200 9300 2200
Connection ~ 9300 2200
Wire Wire Line
	8950 2300 8950 1450
Wire Wire Line
	9050 2000 9050 1350
Wire Wire Line
	9150 1900 9150 1450
Wire Wire Line
	9400 2500 8900 2500
Wire Wire Line
	9400 2600 8900 2600
Wire Wire Line
	9400 2700 8900 2700
Wire Wire Line
	9400 2800 8900 2800
Wire Wire Line
	9400 2900 8900 2900
Wire Wire Line
	9400 3000 8900 3000
$Comp
L Connector_Generic:Conn_01x10 P3
U 1 1 56D721E0
P 10000 1600
F 0 "P3" H 10000 2150 50  0000 C CNN
F 1 "Digital" V 10100 1600 50  0000 C CNN
F 2 "Socket_Arduino_Uno:Socket_Strip_Arduino_1x10" V 10150 1600 20  0000 C CNN
F 3 "" H 10000 1600 50  0000 C CNN
	1    10000 1600
	-1   0    0    -1  
$EndComp
Wire Wire Line
	10200 2100 10550 2100
Wire Wire Line
	10200 2000 10550 2000
Wire Wire Line
	10200 1900 10550 1900
Wire Wire Line
	10200 1800 10550 1800
Wire Wire Line
	10200 1700 10550 1700
Wire Wire Line
	10200 1600 10550 1600
Wire Wire Line
	10200 1400 10550 1400
Wire Wire Line
	10200 1300 10550 1300
Wire Wire Line
	10200 1200 10550 1200
Wire Wire Line
	10200 3000 10550 3000
Wire Wire Line
	10200 2900 10550 2900
Wire Wire Line
	10200 2800 10550 2800
Wire Wire Line
	10200 2700 10550 2700
Wire Wire Line
	10200 2600 10550 2600
Wire Wire Line
	10200 2500 10550 2500
Wire Wire Line
	10200 2400 10550 2400
Wire Wire Line
	10200 2300 10550 2300
Wire Wire Line
	10200 1500 10300 1500
Wire Wire Line
	10300 1500 10300 3150
Wire Wire Line
	9300 2100 9300 2200
Wire Wire Line
	9300 2200 9300 3150
Wire Notes Line
	8500 500  8500 3450
Wire Notes Line
	8500 3450 11200 3450
Wire Wire Line
	9400 1800 8650 1800
Text Notes 9700 1600 0    60   ~ 0
1
Wire Notes Line
	11200 1000 10700 1000
Wire Notes Line
	10700 1000 10700 500 
$Comp
L Device:Crystal Y1
U 1 1 601669CA
P 7550 900
F 0 "Y1" H 7550 1168 50  0000 C CNN
F 1 "Crystal" H 7550 1077 50  0000 C CNN
F 2 "Crystal:Crystal_HC49-4H_Vertical" H 7550 900 50  0001 C CNN
F 3 "~" H 7550 900 50  0001 C CNN
	1    7550 900 
	1    0    0    -1  
$EndComp
$Comp
L Device:C C4
U 1 1 60166F19
P 7300 1150
F 0 "C4" H 7415 1196 50  0000 L CNN
F 1 "22pF" H 7415 1105 50  0000 L CNN
F 2 "Capacitor_THT:C_Disc_D3.0mm_W1.6mm_P2.50mm" H 7338 1000 50  0001 C CNN
F 3 "~" H 7300 1150 50  0001 C CNN
	1    7300 1150
	1    0    0    -1  
$EndComp
$Comp
L Device:C C5
U 1 1 6016781B
P 7800 1150
F 0 "C5" H 7915 1196 50  0000 L CNN
F 1 "22pF" H 7915 1105 50  0000 L CNN
F 2 "Capacitor_THT:C_Disc_D3.0mm_W1.6mm_P2.50mm" H 7838 1000 50  0001 C CNN
F 3 "~" H 7800 1150 50  0001 C CNN
	1    7800 1150
	1    0    0    -1  
$EndComp
Text Label 7000 900  0    60   ~ 0
OSC1
Wire Wire Line
	7000 900  7300 900 
Wire Wire Line
	7300 1000 7300 900 
Connection ~ 7300 900 
Wire Wire Line
	7300 900  7400 900 
Text Label 8100 900  2    60   ~ 0
OSC2
Wire Wire Line
	8100 900  7800 900 
Wire Wire Line
	7800 1000 7800 900 
Connection ~ 7800 900 
Wire Wire Line
	7800 900  7700 900 
$Comp
L power:GND #PWR013
U 1 1 60174779
P 7300 1400
F 0 "#PWR013" H 7300 1150 50  0001 C CNN
F 1 "GND" H 7300 1250 50  0000 C CNN
F 2 "" H 7300 1400 50  0000 C CNN
F 3 "" H 7300 1400 50  0000 C CNN
	1    7300 1400
	1    0    0    -1  
$EndComp
$Comp
L power:GND #PWR014
U 1 1 60174B9C
P 7800 1400
F 0 "#PWR014" H 7800 1150 50  0001 C CNN
F 1 "GND" H 7800 1250 50  0000 C CNN
F 2 "" H 7800 1400 50  0000 C CNN
F 3 "" H 7800 1400 50  0000 C CNN
	1    7800 1400
	1    0    0    -1  
$EndComp
Wire Wire Line
	7300 1400 7300 1300
Wire Wire Line
	7800 1400 7800 1300
$Comp
L Device:C C2
U 1 1 6017E13A
P 1200 1700
F 0 "C2" H 1315 1746 50  0000 L CNN
F 1 "104" H 1315 1655 50  0000 L CNN
F 2 "Capacitor_THT:C_Disc_D3.0mm_W1.6mm_P2.50mm" H 1238 1550 50  0001 C CNN
F 3 "~" H 1200 1700 50  0001 C CNN
	1    1200 1700
	1    0    0    -1  
$EndComp
$Comp
L Device:C C1
U 1 1 6017E921
P 800 1700
F 0 "C1" H 915 1746 50  0000 L CNN
F 1 "104" H 915 1655 50  0000 L CNN
F 2 "Capacitor_THT:C_Disc_D3.0mm_W1.6mm_P2.50mm" H 838 1550 50  0001 C CNN
F 3 "~" H 800 1700 50  0001 C CNN
	1    800  1700
	1    0    0    -1  
$EndComp
$Comp
L power:+5V #PWR07
U 1 1 6017ED36
P 1200 1200
F 0 "#PWR07" H 1200 1050 50  0001 C CNN
F 1 "+5V" H 1200 1350 50  0000 C CNN
F 2 "" H 1200 1200 50  0000 C CNN
F 3 "" H 1200 1200 50  0000 C CNN
	1    1200 1200
	1    0    0    -1  
$EndComp
$Comp
L Device:C C3
U 1 1 6017F28A
P 3200 1050
F 0 "C3" H 3315 1096 50  0000 L CNN
F 1 "104" H 3315 1005 50  0000 L CNN
F 2 "Capacitor_THT:C_Disc_D3.0mm_W1.6mm_P2.50mm" H 3238 900 50  0001 C CNN
F 3 "~" H 3200 1050 50  0001 C CNN
	1    3200 1050
	1    0    0    -1  
$EndComp
$Comp
L power:GND #PWR08
U 1 1 60184F9B
P 1200 2000
F 0 "#PWR08" H 1200 1750 50  0001 C CNN
F 1 "GND" H 1200 1850 50  0000 C CNN
F 2 "" H 1200 2000 50  0000 C CNN
F 3 "" H 1200 2000 50  0000 C CNN
	1    1200 2000
	1    0    0    -1  
$EndComp
Wire Wire Line
	1200 2000 1200 1850
$Comp
L power:GND #PWR012
U 1 1 60187DEB
P 3200 1250
F 0 "#PWR012" H 3200 1000 50  0001 C CNN
F 1 "GND" H 3200 1100 50  0000 C CNN
F 2 "" H 3200 1250 50  0000 C CNN
F 3 "" H 3200 1250 50  0000 C CNN
	1    3200 1250
	1    0    0    -1  
$EndComp
Wire Wire Line
	3200 1250 3200 1200
$Comp
L power:+5V #PWR011
U 1 1 6018A91E
P 3200 850
F 0 "#PWR011" H 3200 700 50  0001 C CNN
F 1 "+5V" H 3200 1000 50  0000 C CNN
F 2 "" H 3200 850 50  0000 C CNN
F 3 "" H 3200 850 50  0000 C CNN
	1    3200 850 
	1    0    0    -1  
$EndComp
Wire Wire Line
	3200 900  3200 850 
$Comp
L power:+5V #PWR05
U 1 1 60190112
P 800 1200
F 0 "#PWR05" H 800 1050 50  0001 C CNN
F 1 "+5V" H 800 1350 50  0000 C CNN
F 2 "" H 800 1200 50  0000 C CNN
F 3 "" H 800 1200 50  0000 C CNN
	1    800  1200
	1    0    0    -1  
$EndComp
Wire Wire Line
	800  1200 800  1550
$Comp
L power:GND #PWR06
U 1 1 60192F19
P 800 2000
F 0 "#PWR06" H 800 1750 50  0001 C CNN
F 1 "GND" H 800 1850 50  0000 C CNN
F 2 "" H 800 2000 50  0000 C CNN
F 3 "" H 800 2000 50  0000 C CNN
	1    800  2000
	1    0    0    -1  
$EndComp
Wire Wire Line
	800  2000 800  1850
$Comp
L power:+5V #PWR017
U 1 1 601C694C
P 4250 1000
F 0 "#PWR017" H 4250 850 50  0001 C CNN
F 1 "+5V" H 4250 1150 50  0000 C CNN
F 2 "" H 4250 1000 50  0000 C CNN
F 3 "" H 4250 1000 50  0000 C CNN
	1    4250 1000
	1    0    0    -1  
$EndComp
$Comp
L power:GND #PWR018
U 1 1 601C9A6B
P 4700 1650
F 0 "#PWR018" H 4700 1400 50  0001 C CNN
F 1 "GND" H 4700 1500 50  0000 C CNN
F 2 "" H 4700 1650 50  0000 C CNN
F 3 "" H 4700 1650 50  0000 C CNN
	1    4700 1650
	1    0    0    -1  
$EndComp
Text Label 4350 1100 0    60   ~ 0
0(Rx)
Text Label 4350 1200 0    60   ~ 0
1(Tx)
$Comp
L Device:R R1
U 1 1 5FED1A43
P 6300 1300
F 0 "R1" H 6370 1346 50  0000 L CNN
F 1 "R" H 6370 1255 50  0000 L CNN
F 2 "Resistor_THT:R_Axial_DIN0207_L6.3mm_D2.5mm_P7.62mm_Horizontal" V 6230 1300 50  0001 C CNN
F 3 "~" H 6300 1300 50  0001 C CNN
	1    6300 1300
	1    0    0    -1  
$EndComp
$Comp
L Switch:SW_Push SW1
U 1 1 5FED293F
P 6300 1800
F 0 "SW1" V 6254 1948 50  0000 L CNN
F 1 "SW_Push" V 6345 1948 50  0000 L CNN
F 2 "Button_Switch_THT:SW_PUSH_6mm" H 6300 2000 50  0001 C CNN
F 3 "~" H 6300 2000 50  0001 C CNN
	1    6300 1800
	0    1    1    0   
$EndComp
Wire Wire Line
	6300 1600 6300 1550
$Comp
L power:GND #PWR016
U 1 1 5FEDA95D
P 6300 2150
F 0 "#PWR016" H 6300 1900 50  0001 C CNN
F 1 "GND" H 6300 2000 50  0000 C CNN
F 2 "" H 6300 2150 50  0000 C CNN
F 3 "" H 6300 2150 50  0000 C CNN
	1    6300 2150
	1    0    0    -1  
$EndComp
Wire Wire Line
	6300 2150 6300 2000
Text Label 5950 1550 0    60   ~ 0
Reset
Wire Wire Line
	5950 1550 6300 1550
Connection ~ 6300 1550
Wire Wire Line
	6300 1550 6300 1450
$Comp
L power:+5V #PWR015
U 1 1 5FEE0E1C
P 6300 1100
F 0 "#PWR015" H 6300 950 50  0001 C CNN
F 1 "+5V" H 6300 1250 50  0000 C CNN
F 2 "" H 6300 1100 50  0000 C CNN
F 3 "" H 6300 1100 50  0000 C CNN
	1    6300 1100
	1    0    0    -1  
$EndComp
Wire Wire Line
	6300 1100 6300 1150
$Comp
L Connector:AVR-ISP-6 J2
U 1 1 5FF4549E
P 5450 3400
F 0 "J2" H 5121 3496 50  0000 R CNN
F 1 "AVR-ISP-6" H 5121 3405 50  0000 R CNN
F 2 "Connector_PinHeader_2.54mm:PinHeader_2x03_P2.54mm_Vertical" V 5200 3450 50  0001 C CNN
F 3 " ~" H 4175 2850 50  0001 C CNN
	1    5450 3400
	1    0    0    -1  
$EndComp
$Comp
L power:GND #PWR0101
U 1 1 5FF45B3E
P 5350 4000
F 0 "#PWR0101" H 5350 3750 50  0001 C CNN
F 1 "GND" H 5350 3850 50  0000 C CNN
F 2 "" H 5350 4000 50  0000 C CNN
F 3 "" H 5350 4000 50  0000 C CNN
	1    5350 4000
	1    0    0    -1  
$EndComp
$Comp
L power:+5V #PWR0102
U 1 1 5FF45FED
P 5350 2750
F 0 "#PWR0102" H 5350 2600 50  0001 C CNN
F 1 "+5V" H 5350 2900 50  0000 C CNN
F 2 "" H 5350 2750 50  0000 C CNN
F 3 "" H 5350 2750 50  0000 C CNN
	1    5350 2750
	1    0    0    -1  
$EndComp
Wire Wire Line
	5350 2900 5350 2750
Wire Wire Line
	5350 4000 5350 3800
Text Label 6450 3300 2    60   ~ 0
11(**/MOSI)
Text Label 6450 3200 2    60   ~ 0
12(MISO)
Wire Wire Line
	5850 3200 6450 3200
Wire Wire Line
	5850 3300 6450 3300
Wire Wire Line
	5850 3400 6450 3400
Text Label 6450 3500 2    60   ~ 0
Reset
Wire Wire Line
	6450 3500 5850 3500
$Comp
L Connector_Generic:Conn_01x05 J1
U 1 1 5FF6463F
P 5000 1200
F 0 "J1" H 5080 1242 50  0000 L CNN
F 1 "CON1" H 5080 1151 50  0000 L CNN
F 2 "Connector_PinHeader_2.54mm:PinHeader_1x05_P2.54mm_Vertical" H 5000 1200 50  0001 C CNN
F 3 "~" H 5000 1200 50  0001 C CNN
	1    5000 1200
	1    0    0    -1  
$EndComp
Wire Wire Line
	4350 1100 4800 1100
Wire Wire Line
	4350 1200 4800 1200
Text Label 4350 1000 0    60   ~ 0
Reset
Wire Wire Line
	4800 1000 4350 1000
Wire Wire Line
	3000 3850 3600 3850
Wire Wire Line
	3000 3750 3600 3750
Wire Wire Line
	3000 3650 3600 3650
Wire Wire Line
	3000 3550 3600 3550
Wire Wire Line
	3000 3450 3600 3450
Wire Wire Line
	3000 3350 3600 3350
Wire Wire Line
	3000 3250 3600 3250
Wire Wire Line
	3000 3150 3600 3150
Wire Wire Line
	3000 2950 3600 2950
Wire Wire Line
	3000 2850 3600 2850
Wire Wire Line
	3000 2750 3600 2750
Wire Wire Line
	3000 2650 3600 2650
Wire Wire Line
	3000 2550 3600 2550
Wire Wire Line
	3000 2450 3600 2450
Wire Wire Line
	3000 2350 3600 2350
Wire Wire Line
	3600 2150 3000 2150
Wire Wire Line
	3600 2050 3000 2050
Text Label 3600 2150 2    60   ~ 0
OSC2
Text Label 3600 2050 2    60   ~ 0
OSC1
Wire Wire Line
	3000 1950 3600 1950
Wire Wire Line
	3000 1850 3600 1850
Wire Wire Line
	3000 1750 3600 1750
Wire Wire Line
	3000 1650 3600 1650
Wire Wire Line
	3000 1550 3600 1550
Wire Wire Line
	3000 1450 3600 1450
Text Label 3600 1950 2    60   ~ 0
13(SCK)
Text Label 3600 1850 2    60   ~ 0
12(MISO)
Text Label 3600 1750 2    60   ~ 0
11(**/MOSI)
Text Label 3600 1650 2    60   ~ 0
10(**/SS)
Text Label 3600 1550 2    60   ~ 0
9(**)
Text Label 3600 1450 2    60   ~ 0
8
Text Label 3600 3850 2    60   ~ 0
7
Text Label 3600 3750 2    60   ~ 0
6(**)
Text Label 3600 3650 2    60   ~ 0
5(**)
Text Label 3600 3550 2    60   ~ 0
4
Text Label 3600 3450 2    60   ~ 0
3(**)
Text Label 3600 3250 2    60   ~ 0
1(Tx)
Text Label 3600 3350 2    60   ~ 0
2
Text Label 3600 3150 2    60   ~ 0
0(Rx)
Text Label 3600 2950 2    60   ~ 0
Reset
Text Label 3600 2850 2    60   ~ 0
A5(SCL)
Text Label 3600 2750 2    60   ~ 0
A4(SDA)
Text Label 3600 2650 2    60   ~ 0
A3
Text Label 3600 2550 2    60   ~ 0
A2
Text Label 3600 2450 2    60   ~ 0
A1
Text Label 3600 2350 2    60   ~ 0
A0
Wire Wire Line
	2400 850  2400 1050
Wire Wire Line
	2500 1050 2400 1050
Wire Wire Line
	2500 1150 2500 1050
Wire Wire Line
	1200 1450 1200 1550
Wire Wire Line
	1200 1200 1200 1450
Connection ~ 1200 1450
Wire Wire Line
	1800 1450 1200 1450
Connection ~ 2400 1050
Wire Wire Line
	2400 1150 2400 1050
$Comp
L power:+5V #PWR09
U 1 1 60163619
P 2400 850
F 0 "#PWR09" H 2400 700 50  0001 C CNN
F 1 "+5V" H 2400 1000 50  0000 C CNN
F 2 "" H 2400 850 50  0000 C CNN
F 3 "" H 2400 850 50  0000 C CNN
	1    2400 850 
	1    0    0    -1  
$EndComp
Wire Wire Line
	2400 4250 2400 4150
$Comp
L power:GND #PWR010
U 1 1 6016114E
P 2400 4250
F 0 "#PWR010" H 2400 4000 50  0001 C CNN
F 1 "GND" H 2400 4100 50  0000 C CNN
F 2 "" H 2400 4250 50  0000 C CNN
F 3 "" H 2400 4250 50  0000 C CNN
	1    2400 4250
	1    0    0    -1  
$EndComp
$Comp
L MCU_Microchip_ATmega:ATmega328P-AU U1
U 1 1 6013ACA6
P 2400 2650
F 0 "U1" H 2000 2750 50  0000 C CNN
F 1 "ATmega328P-AU" H 2250 2650 50  0000 C CNN
F 2 "Package_QFP:TQFP-32_7x7mm_P0.8mm" H 2400 2650 50  0001 C CIN
F 3 "http://ww1.microchip.com/downloads/en/DeviceDoc/ATmega328_P%20AVR%20MCU%20with%20picoPower%20Technology%20Data%20Sheet%2040001984A.pdf" H 2400 2650 50  0001 C CNN
	1    2400 2650
	1    0    0    -1  
$EndComp
Wire Wire Line
	4250 1300 4250 1000
Wire Wire Line
	4250 1300 4800 1300
Wire Wire Line
	4800 1400 4700 1400
Wire Wire Line
	4700 1400 4700 1650
Text Label 6450 3400 2    60   ~ 0
13(SCK)
$EndSCHEMATC
