(module 11P-2.54 (layer F.Cu) (tedit 0)
  (fp_text reference J8 (at 0.635 1.905 -270) (layer F.Mask)
    (effects (font (size 1.2065 1.2065) (thickness 0.09652)) (justify left bottom))
  )
  (fp_text value "" (at 0.635 11.43 -270) (layer F.Fab)
    (effects (font (size 1.2065 1.2065) (thickness 0.09652)) (justify left bottom))
  )
  (fp_line (start -1.27 -13.97) (end 1.27 -13.97) (layer F.SilkS) (width 0.127))
  (fp_line (start 1.27 -13.97) (end 1.27 13.97) (layer F.SilkS) (width 0.127))
  (fp_line (start 1.27 13.97) (end -1.27 13.97) (layer F.SilkS) (width 0.127))
  (fp_line (start -1.27 13.97) (end -1.27 -13.97) (layer F.SilkS) (width 0.127))
  (fp_line (start -1.27 -13.97) (end 1.27 -13.97) (layer Dwgs.User) (width 0.1))
  (fp_line (start 1.27 -13.97) (end 1.27 13.97) (layer Dwgs.User) (width 0.1))
  (fp_line (start 1.27 13.97) (end -1.27 13.97) (layer Dwgs.User) (width 0.1))
  (fp_line (start -1.27 13.97) (end -1.27 -13.97) (layer Dwgs.User) (width 0.1))
  (fp_poly (pts (xy -1.27 13.97) (xy 1.27 13.97) (xy 1.27 -13.97) (xy -1.27 -13.97)) (layer Dwgs.User) (width 0))
  (pad 1 thru_hole rect (at 0 -12.7) (size 1.651 1.651) (drill 0.889) (layers *.Cu *.Mask)
    (solder_mask_margin 0.0508))
  (pad 2 thru_hole circle (at 0 -10.16) (size 1.651 1.651) (drill 0.889) (layers *.Cu *.Mask)
    (solder_mask_margin 0.0508))
  (pad 3 thru_hole circle (at 0 -7.62) (size 1.651 1.651) (drill 0.889) (layers *.Cu *.Mask)
    (solder_mask_margin 0.0508))
  (pad 4 thru_hole circle (at 0 -5.08) (size 1.651 1.651) (drill 0.889) (layers *.Cu *.Mask)
    (solder_mask_margin 0.0508))
  (pad 5 thru_hole circle (at 0 -2.54) (size 1.651 1.651) (drill 0.889) (layers *.Cu *.Mask)
    (solder_mask_margin 0.0508))
  (pad 6 thru_hole circle (at 0 0) (size 1.651 1.651) (drill 0.889) (layers *.Cu *.Mask)
    (solder_mask_margin 0.0508))
  (pad 7 thru_hole circle (at 0 2.54) (size 1.651 1.651) (drill 0.889) (layers *.Cu *.Mask)
    (solder_mask_margin 0.0508))
  (pad 8 thru_hole circle (at 0 5.08) (size 1.651 1.651) (drill 0.889) (layers *.Cu *.Mask)
    (solder_mask_margin 0.0508))
  (pad 9 thru_hole circle (at 0 7.62) (size 1.651 1.651) (drill 0.889) (layers *.Cu *.Mask)
    (solder_mask_margin 0.0508))
  (pad 10 thru_hole circle (at 0 10.16) (size 1.651 1.651) (drill 0.889) (layers *.Cu *.Mask)
    (solder_mask_margin 0.0508))
  (pad 11 thru_hole circle (at 0 12.7) (size 1.651 1.651) (drill 0.889) (layers *.Cu *.Mask)
    (solder_mask_margin 0.0508))
)
