(module LED-0603 (layer F.Cu) (tedit 0)
  (fp_text reference PWR (at 3.683 -0.381 -180) (layer F.SilkS)
    (effects (font (size 0.77216 0.77216) (thickness 0.092659)) (justify left bottom))
  )
  (fp_text value RED (at -1.905 1.5875 -180) (layer F.Fab)
    (effects (font (size 0.77216 0.77216) (thickness 0.077216)) (justify left bottom))
  )
  (fp_line (start -1.3335 -0.635) (end 1.3335 -0.635) (layer F.SilkS) (width 0.127))
  (fp_line (start 1.3335 -0.635) (end 1.3335 0.635) (layer F.SilkS) (width 0.127))
  (fp_line (start 1.3335 0.635) (end -1.3335 0.635) (layer F.SilkS) (width 0.127))
  (fp_line (start -1.3335 0.635) (end -1.3335 -0.635) (layer F.SilkS) (width 0.127))
  (fp_line (start -0.1524 -0.4064) (end -0.1524 0.4318) (layer F.SilkS) (width 0.127))
  (fp_line (start -0.1524 0.4318) (end 0.0508 0.1905) (layer F.SilkS) (width 0.127))
  (fp_line (start 0.0508 0.1905) (end 0.2032 0) (layer F.SilkS) (width 0.127))
  (fp_line (start 0.2032 0) (end 0.0762 -0.1397) (layer F.SilkS) (width 0.127))
  (fp_line (start 0.0762 -0.1397) (end -0.1524 -0.4064) (layer F.SilkS) (width 0.127))
  (fp_line (start -0.0381 -0.254) (end -0.0381 0.254) (layer F.SilkS) (width 0.127))
  (fp_line (start 0.0762 -0.1397) (end 0.0508 0.1905) (layer F.SilkS) (width 0.127))
  (fp_poly (pts (xy -1.27 0.5715) (xy 1.27 0.5715) (xy 1.27 -0.5715) (xy -1.27 -0.5715)) (layer Dwgs.User) (width 0))
  (pad + smd roundrect (at -0.762 0) (size 0.889 0.889) (layers F.Cu F.Paste F.Mask) (roundrect_rratio 0.125)
    (solder_mask_margin 0.0508))
  (pad - smd roundrect (at 0.762 0) (size 0.889 0.889) (layers F.Cu F.Paste F.Mask) (roundrect_rratio 0.125)
    (solder_mask_margin 0.0508))
)
