(module MICROSIM (layer F.Cu) (tedit 0)
  (fp_text reference U4 (at 5 -11) (layer F.SilkS)
    (effects (font (size 0.77216 0.77216) (thickness 0.092659)) (justify left bottom))
  )
  (fp_text value MICROSIM (at 5 -8) (layer F.Fab)
    (effects (font (size 0.9652 0.9652) (thickness 0.077216)) (justify left bottom))
  )
  (fp_line (start 0 0) (end 15.8 0) (layer F.SilkS) (width 0.127))
  (fp_line (start 15.8 0) (end 15.8 -15.4) (layer F.SilkS) (width 0.127))
  (fp_line (start 15.8 -15.4) (end -1.4 -15.4) (layer F.SilkS) (width 0.127))
  (fp_line (start -1.4 -15.4) (end -1.4 -11) (layer F.SilkS) (width 0.127))
  (fp_line (start -1.4 -11) (end 0 -11) (layer F.SilkS) (width 0.127))
  (fp_line (start 0 -11) (end 0 0) (layer F.SilkS) (width 0.127))
  (pad P$1 smd rect (at 1.6 0.8) (size 2.61 1.56) (layers F.Cu F.Paste F.Mask)
    (solder_mask_margin 0.0508))
  (pad P$2 smd rect (at 14.2 0.8) (size 2.61 1.56) (layers F.Cu F.Paste F.Mask)
    (solder_mask_margin 0.0508))
  (pad P$3 smd rect (at 14.2 -16.1) (size 2.61 1.56) (layers F.Cu F.Paste F.Mask)
    (solder_mask_margin 0.0508))
  (pad P$4 smd rect (at 1.6 -16.1) (size 2.61 1.56) (layers F.Cu F.Paste F.Mask)
    (solder_mask_margin 0.0508))
  (pad 5 smd rect (at -0.8 -1.23) (size 1.5 0.9) (layers F.Cu F.Paste F.Mask)
    (solder_mask_margin 0.0508))
  (pad 1 smd rect (at -0.8 -2.5) (size 1.5 0.9) (layers F.Cu F.Paste F.Mask)
    (solder_mask_margin 0.0508))
  (pad 6 smd rect (at -0.8 -3.77) (size 1.5 0.9) (layers F.Cu F.Paste F.Mask)
    (solder_mask_margin 0.0508))
  (pad 2 smd rect (at -0.8 -5.04) (size 1.5 0.9) (layers F.Cu F.Paste F.Mask)
    (solder_mask_margin 0.0508))
  (pad 7 smd rect (at -0.8 -6.31) (size 1.5 0.9) (layers F.Cu F.Paste F.Mask)
    (solder_mask_margin 0.0508))
  (pad 3 smd rect (at -0.8 -7.58) (size 1.5 0.9) (layers F.Cu F.Paste F.Mask)
    (solder_mask_margin 0.0508))
)
