(module MICRO-USB-5P (layer F.Cu) (tedit 0)
  (fp_text reference J5 (at 0.381 2.159 -270) (layer F.SilkS)
    (effects (font (size 0.77216 0.77216) (thickness 0.092659)) (justify left bottom))
  )
  (fp_text value USB-MICRO-5P (at -1.905 6.985 -180) (layer F.Fab)
    (effects (font (size 0.84455 0.84455) (thickness 0.0929)) (justify left bottom))
  )
  (fp_line (start -2.8194 3.050006) (end -2.8194 2.150003) (layer Edge.Cuts) (width 0.635))
  (fp_line (start 2.8194 3.050006) (end 2.8194 2.150003) (layer Edge.Cuts) (width 0.635))
  (fp_line (start -3.81 5.08) (end -4.445 5.715) (layer F.SilkS) (width 0.127))
  (fp_line (start -4.445 5.715) (end 4.445 5.715) (layer F.SilkS) (width 0.127))
  (fp_line (start 4.445 5.715) (end 3.81 5.08) (layer F.SilkS) (width 0.127))
  (fp_line (start -3.175 5.08) (end 3.175 5.08) (layer F.SilkS) (width 0.127))
  (fp_poly (pts (xy -3.81 5.08) (xy 3.81 5.08) (xy 3.81 0) (xy -3.81 0)) (layer Dwgs.User) (width 0))
  (fp_line (start -3.81 5.08) (end -3.81 0.635) (layer F.SilkS) (width 0.127))
  (fp_arc (start -3.175 0.635) (end -3.81 0.635) (angle 90) (layer F.SilkS) (width 0.127))
  (fp_line (start -3.175 0) (end 3.175 0) (layer F.SilkS) (width 0.127))
  (fp_arc (start 3.175 0.635) (end 3.175 0) (angle 90) (layer F.SilkS) (width 0.127))
  (fp_line (start 3.81 0.635) (end 3.81 5.08) (layer F.SilkS) (width 0.127))
  (pad 1 smd rect (at -1.3 0 90) (size 1.52 0.38) (layers F.Cu F.Paste F.Mask)
    (solder_mask_margin 0.0508))
  (pad 2 smd rect (at -0.65 0 90) (size 1.52 0.38) (layers F.Cu F.Paste F.Mask)
    (solder_mask_margin 0.0508))
  (pad 3 smd rect (at 0 0 90) (size 1.52 0.38) (layers F.Cu F.Paste F.Mask)
    (solder_mask_margin 0.0508))
  (pad 4 smd rect (at 0.65 0 90) (size 1.52 0.38) (layers F.Cu F.Paste F.Mask)
    (solder_mask_margin 0.0508))
  (pad 5 smd rect (at 1.3 0 90) (size 1.52 0.38) (layers F.Cu F.Paste F.Mask)
    (solder_mask_margin 0.0508))
  (pad P2 thru_hole oval (at 2.8194 2.5908 90) (size 2.286 1.143) (drill 0.635) (layers *.Cu *.Mask)
    (solder_mask_margin 0.0508))
  (pad P1 thru_hole oval (at -2.8194 2.5908 90) (size 2.286 1.143) (drill 0.635) (layers *.Cu *.Mask)
    (solder_mask_margin 0.0508))
  (pad E1 smd roundrect (at -1.016 2.921) (size 1.524 1.524) (layers F.Cu F.Paste F.Mask) (roundrect_rratio 0.15)
    (solder_mask_margin 0.0508))
  (pad E2 smd roundrect (at 1.016 2.921) (size 1.524 1.524) (layers F.Cu F.Paste F.Mask) (roundrect_rratio 0.15)
    (solder_mask_margin 0.0508))
)
