(module PINHEAD_2X05_127 (layer F.Cu) (tedit 0)
  (fp_text reference CN2 (at 0 0) (layer F.SilkS) hide
    (effects (font (size 1.27 1.27) (thickness 0.15)))
  )
  (fp_text value PINHEAD-2x5-P1.27 (at 0 0) (layer F.SilkS) hide
    (effects (font (size 1.27 1.27) (thickness 0.15)))
  )
  (fp_line (start -1.27 -3.175) (end -0.635 -3.175) (layer F.SilkS) (width 0.127))
  (fp_line (start -0.635 -3.175) (end 1.27 -3.175) (layer F.SilkS) (width 0.127))
  (fp_line (start 1.27 -3.175) (end 1.27 3.175) (layer F.SilkS) (width 0.127))
  (fp_line (start 1.27 3.175) (end -1.27 3.175) (layer F.SilkS) (width 0.127))
  (fp_line (start -1.27 3.175) (end -1.27 -2.54) (layer F.SilkS) (width 0.127))
  (fp_line (start -1.27 -2.54) (end -1.27 -3.175) (layer F.SilkS) (width 0.127))
  (fp_line (start -1.27 -2.54) (end -1.397 -2.54) (layer F.SilkS) (width 0.127))
  (fp_line (start -1.397 -2.54) (end -1.397 -3.302) (layer F.SilkS) (width 0.127))
  (fp_line (start -1.397 -3.302) (end -0.635 -3.302) (layer F.SilkS) (width 0.127))
  (fp_line (start -0.635 -3.302) (end -0.635 -3.175) (layer F.SilkS) (width 0.127))
  (fp_line (start -0.635 -3.302) (end -0.635 -3.429) (layer F.SilkS) (width 0.127))
  (fp_line (start -0.635 -3.429) (end -1.524 -3.429) (layer F.SilkS) (width 0.127))
  (fp_line (start -1.524 -3.429) (end -1.524 -2.54) (layer F.SilkS) (width 0.127))
  (fp_line (start -1.524 -2.54) (end -1.397 -2.54) (layer F.SilkS) (width 0.127))
  (fp_line (start -1.27 -3.175) (end 1.27 -3.175) (layer F.Fab) (width 0.127))
  (fp_line (start 1.27 -3.175) (end 1.27 3.175) (layer F.Fab) (width 0.127))
  (fp_line (start 1.27 3.175) (end -1.27 3.175) (layer F.Fab) (width 0.127))
  (fp_line (start -1.27 3.175) (end -1.27 -3.175) (layer F.Fab) (width 0.127))
  (fp_line (start -1.016 -2.921) (end -0.254 -2.921) (layer F.Fab) (width 0.127))
  (fp_line (start -0.254 -2.921) (end -0.254 -2.159) (layer F.Fab) (width 0.127))
  (fp_line (start -0.254 -2.159) (end -1.016 -2.159) (layer F.Fab) (width 0.127))
  (fp_line (start -1.016 -2.159) (end -1.016 -2.921) (layer F.Fab) (width 0.127))
  (fp_line (start -0.889 -2.794) (end -0.889 -2.286) (layer F.Fab) (width 0.127))
  (fp_line (start -0.889 -2.286) (end -0.381 -2.286) (layer F.Fab) (width 0.127))
  (fp_line (start -0.381 -2.286) (end -0.381 -2.794) (layer F.Fab) (width 0.127))
  (fp_line (start -0.381 -2.794) (end -0.889 -2.794) (layer F.Fab) (width 0.127))
  (fp_line (start -0.762 -2.667) (end -0.762 -2.413) (layer F.Fab) (width 0.127))
  (fp_line (start -0.762 -2.413) (end -0.635 -2.413) (layer F.Fab) (width 0.127))
  (fp_line (start -0.635 -2.413) (end -0.508 -2.413) (layer F.Fab) (width 0.127))
  (fp_line (start -0.508 -2.413) (end -0.508 -2.667) (layer F.Fab) (width 0.127))
  (fp_line (start -0.508 -2.667) (end -0.635 -2.667) (layer F.Fab) (width 0.127))
  (fp_line (start -0.635 -2.667) (end -0.635 -2.413) (layer F.Fab) (width 0.127))
  (fp_line (start -1.6 -2.46) (end -1.6 -3.5) (layer Dwgs.User) (width 0.05))
  (fp_line (start -1.6 -3.5) (end -0.55 -3.5) (layer Dwgs.User) (width 0.05))
  (fp_line (start -0.55 -3.5) (end -0.55 -3.26) (layer Dwgs.User) (width 0.05))
  (fp_line (start -0.55 -3.26) (end 1.36 -3.26) (layer Dwgs.User) (width 0.05))
  (fp_line (start 1.36 -3.26) (end 1.35 3.26) (layer Dwgs.User) (width 0.05))
  (fp_line (start 1.35 3.26) (end -1.36 3.26) (layer Dwgs.User) (width 0.05))
  (fp_line (start -1.36 3.26) (end -1.35 -2.46) (layer Dwgs.User) (width 0.05))
  (fp_line (start -1.35 -2.46) (end -1.6 -2.46) (layer Dwgs.User) (width 0.05))
  (pad 1 thru_hole rect (at -0.635 -2.54) (size 1.016 1.016) (drill 0.6) (layers *.Cu *.Mask)
    (solder_mask_margin 0.0508))
  (pad 2 thru_hole circle (at 0.635 -2.54) (size 1.016 1.016) (drill 0.6) (layers *.Cu *.Mask)
    (solder_mask_margin 0.0508))
  (pad 3 thru_hole circle (at -0.635 -1.27) (size 1.016 1.016) (drill 0.6) (layers *.Cu *.Mask)
    (solder_mask_margin 0.0508))
  (pad 4 thru_hole circle (at 0.635 -1.27) (size 1.016 1.016) (drill 0.6) (layers *.Cu *.Mask)
    (solder_mask_margin 0.0508))
  (pad 5 thru_hole circle (at -0.635 0) (size 1.016 1.016) (drill 0.6) (layers *.Cu *.Mask)
    (solder_mask_margin 0.0508))
  (pad 6 thru_hole circle (at 0.635 0) (size 1.016 1.016) (drill 0.6) (layers *.Cu *.Mask)
    (solder_mask_margin 0.0508))
  (pad 7 thru_hole circle (at -0.635 1.27) (size 1.016 1.016) (drill 0.6) (layers *.Cu *.Mask)
    (solder_mask_margin 0.0508))
  (pad 8 thru_hole circle (at 0.635 1.27) (size 1.016 1.016) (drill 0.6) (layers *.Cu *.Mask)
    (solder_mask_margin 0.0508))
  (pad 9 thru_hole circle (at -0.635 2.54) (size 1.016 1.016) (drill 0.6) (layers *.Cu *.Mask)
    (solder_mask_margin 0.0508))
  (pad 10 thru_hole circle (at 0.635 2.54) (size 1.016 1.016) (drill 0.6) (layers *.Cu *.Mask)
    (solder_mask_margin 0.0508))
)
