(module SOT23@1 (layer F.Cu) (tedit 0)
  (descr <b>SOT23</b>)
  (fp_text reference Q1 (at -1.27 0) (layer F.Mask)
    (effects (font (size 0.60325 0.60325) (thickness 0.0635)) (justify left bottom))
  )
  (fp_text value BSN20 (at -2.032 2.54) (layer F.Fab)
    (effects (font (size 0.9652 0.9652) (thickness 0.12192)) (justify left bottom))
  )
  (fp_line (start -0.1905 0.635) (end 0.1905 0.635) (layer F.SilkS) (width 0.127))
  (fp_line (start 1.4605 0.254) (end 1.4605 -0.635) (layer F.SilkS) (width 0.127))
  (fp_line (start 1.4605 -0.635) (end 0.6985 -0.635) (layer F.SilkS) (width 0.127))
  (fp_line (start -0.6985 -0.635) (end -1.4605 -0.635) (layer F.SilkS) (width 0.127))
  (fp_line (start -1.4605 -0.635) (end -1.4605 0.254) (layer F.SilkS) (width 0.127))
  (fp_poly (pts (xy -0.2286 -0.7112) (xy 0.2286 -0.7112) (xy 0.2286 -1.2954) (xy -0.2286 -1.2954)) (layer F.Fab) (width 0))
  (fp_poly (pts (xy 0.7112 1.2954) (xy 1.1684 1.2954) (xy 1.1684 0.7112) (xy 0.7112 0.7112)) (layer F.Fab) (width 0))
  (fp_poly (pts (xy -1.1684 1.2954) (xy -0.7112 1.2954) (xy -0.7112 0.7112) (xy -1.1684 0.7112)) (layer F.Fab) (width 0))
  (fp_poly (pts (xy -1.397 1.651) (xy 1.397 1.651) (xy 1.397 -0.635) (xy -1.397 -0.635)) (layer Dwgs.User) (width 0))
  (pad 3 smd rect (at 0 -1.016) (size 1.016 1.143) (layers F.Cu F.Paste F.Mask)
    (solder_mask_margin 0.0508))
  (pad 2 smd rect (at 0.95 1.016) (size 1.016 1.143) (layers F.Cu F.Paste F.Mask)
    (solder_mask_margin 0.0508))
  (pad 1 smd rect (at -0.95 1.016 180) (size 1.016 1.143) (layers F.Cu F.Paste F.Mask)
    (solder_mask_margin 0.0508))
)
