(module SOT363 (layer F.Cu) (tedit 0)
  (descr "<b>Source:</b> http://www.nxp.com/documents/data_sheet/2N7002PS.pdf")
  (fp_text reference D5 (at 0.653 -0.381) (layer F.SilkS)
    (effects (font (size 0.77216 0.77216) (thickness 0.092659)) (justify left bottom))
  )
  (fp_text value SMF05C (at 1.651 0.508) (layer F.Fab)
    (effects (font (size 0.38608 0.38608) (thickness 0.038608)) (justify left bottom))
  )
  (fp_line (start 1 -0.625) (end 1 0.625) (layer F.Fab) (width 0.2032))
  (fp_line (start 1 0.625) (end -1 0.625) (layer F.Fab) (width 0.2032))
  (fp_line (start -1 0.625) (end -1 -0.625) (layer F.Fab) (width 0.2032))
  (fp_line (start -1 -0.625) (end 1 -0.625) (layer F.Fab) (width 0.2032))
  (fp_line (start -1.1 -0.45) (end -1.1 0.45) (layer F.SilkS) (width 0.2032))
  (fp_line (start 1.1 -0.45) (end 1.1 0.45) (layer F.SilkS) (width 0.2032))
  (fp_circle (center -1.5 0.35) (end -1.4 0.35) (layer F.SilkS) (width 0.2032))
  (fp_poly (pts (xy -0.125 1.05) (xy 0.125 1.05) (xy 0.125 0.7) (xy -0.125 0.7)) (layer F.Fab) (width 0))
  (fp_poly (pts (xy -0.775 1.05) (xy -0.525 1.05) (xy -0.525 0.7) (xy -0.775 0.7)) (layer F.Fab) (width 0))
  (fp_poly (pts (xy 0.525 1.05) (xy 0.775 1.05) (xy 0.775 0.7) (xy 0.525 0.7)) (layer F.Fab) (width 0))
  (fp_poly (pts (xy -0.775 -0.7) (xy -0.525 -0.7) (xy -0.525 -1.05) (xy -0.775 -1.05)) (layer F.Fab) (width 0))
  (fp_poly (pts (xy -0.125 -0.7) (xy 0.125 -0.7) (xy 0.125 -1.05) (xy -0.125 -1.05)) (layer F.Fab) (width 0))
  (fp_poly (pts (xy 0.525 -0.7) (xy 0.775 -0.7) (xy 0.775 -1.05) (xy 0.525 -1.05)) (layer F.Fab) (width 0))
  (pad 1 smd rect (at -0.75 0.9) (size 0.5 0.5) (layers F.Cu F.Paste F.Mask)
    (solder_mask_margin 0.0508))
  (pad 2 smd rect (at 0 0.9) (size 0.4 0.5) (layers F.Cu F.Paste F.Mask)
    (solder_mask_margin 0.0508))
  (pad 3 smd rect (at 0.75 0.9) (size 0.5 0.5) (layers F.Cu F.Paste F.Mask)
    (solder_mask_margin 0.0508))
  (pad 4 smd rect (at 0.75 -0.9) (size 0.5 0.5) (layers F.Cu F.Paste F.Mask)
    (solder_mask_margin 0.0508))
  (pad 5 smd rect (at 0 -0.9) (size 0.4 0.5) (layers F.Cu F.Paste F.Mask)
    (solder_mask_margin 0.0508))
  (pad 6 smd rect (at -0.75 -0.9) (size 0.5 0.5) (layers F.Cu F.Paste F.Mask)
    (solder_mask_margin 0.0508))
)
