%TF.GenerationSoftware,KiCad,Pcbnew,(5.1.7)-1*%
%TF.CreationDate,2020-12-01T21:30:06+06:30*%
%TF.ProjectId,AlarmDCV1.1_TRIAC,416c6172-6d44-4435-9631-2e315f545249,rev?*%
%TF.SameCoordinates,Original*%
%TF.FileFunction,Copper,L1,Top*%
%TF.FilePolarity,Positive*%
%FSLAX46Y46*%
G04 Gerber Fmt 4.6, Leading zero omitted, Abs format (unit mm)*
G04 Created by KiCad (PCBNEW (5.1.7)-1) date 2020-12-01 21:30:06*
%MOMM*%
%LPD*%
G01*
G04 APERTURE LIST*
%TA.AperFunction,ComponentPad*%
%ADD10O,2.200000X2.200000*%
%TD*%
%TA.AperFunction,ComponentPad*%
%ADD11R,2.200000X2.200000*%
%TD*%
%TA.AperFunction,ComponentPad*%
%ADD12O,2.400000X2.400000*%
%TD*%
%TA.AperFunction,ComponentPad*%
%ADD13C,2.400000*%
%TD*%
%TA.AperFunction,ComponentPad*%
%ADD14C,1.600000*%
%TD*%
%TA.AperFunction,ComponentPad*%
%ADD15R,1.600000X1.600000*%
%TD*%
%TA.AperFunction,ComponentPad*%
%ADD16O,1.600000X1.600000*%
%TD*%
%TA.AperFunction,ComponentPad*%
%ADD17O,1.905000X2.000000*%
%TD*%
%TA.AperFunction,ComponentPad*%
%ADD18R,1.905000X2.000000*%
%TD*%
%TA.AperFunction,ComponentPad*%
%ADD19C,3.000000*%
%TD*%
%TA.AperFunction,ComponentPad*%
%ADD20R,3.000000X3.000000*%
%TD*%
%TA.AperFunction,ComponentPad*%
%ADD21O,1.700000X1.700000*%
%TD*%
%TA.AperFunction,ComponentPad*%
%ADD22R,1.700000X1.700000*%
%TD*%
%TA.AperFunction,ComponentPad*%
%ADD23C,2.000000*%
%TD*%
%TA.AperFunction,ComponentPad*%
%ADD24R,2.000000X2.000000*%
%TD*%
%TA.AperFunction,ComponentPad*%
%ADD25C,1.800000*%
%TD*%
%TA.AperFunction,ComponentPad*%
%ADD26R,1.800000X1.800000*%
%TD*%
%TA.AperFunction,ComponentPad*%
%ADD27C,1.440000*%
%TD*%
%TA.AperFunction,ComponentPad*%
%ADD28R,1.500000X1.500000*%
%TD*%
%TA.AperFunction,ComponentPad*%
%ADD29C,1.500000*%
%TD*%
%TA.AperFunction,ComponentPad*%
%ADD30O,3.048000X1.850000*%
%TD*%
%TA.AperFunction,ComponentPad*%
%ADD31O,1.900000X1.900000*%
%TD*%
%TA.AperFunction,ComponentPad*%
%ADD32R,1.900000X1.900000*%
%TD*%
%TA.AperFunction,ComponentPad*%
%ADD33C,6.000000*%
%TD*%
%TA.AperFunction,ComponentPad*%
%ADD34C,0.800000*%
%TD*%
%TA.AperFunction,ViaPad*%
%ADD35C,0.800000*%
%TD*%
%TA.AperFunction,ViaPad*%
%ADD36C,2.000000*%
%TD*%
%TA.AperFunction,Conductor*%
%ADD37C,0.762000*%
%TD*%
G04 APERTURE END LIST*
D10*
%TO.P,D3,2*%
%TO.N,/PowerIN*%
X66497200Y-161391600D03*
D11*
%TO.P,D3,1*%
%TO.N,Net-(D3-Pad1)*%
X66497200Y-169011600D03*
%TD*%
D12*
%TO.P,L1,2*%
%TO.N,+5V*%
X82448400Y-144805400D03*
D13*
%TO.P,L1,1*%
%TO.N,Net-(D2-Pad1)*%
X82448400Y-151155400D03*
%TD*%
D12*
%TO.P,R27,2*%
%TO.N,Net-(D3-Pad1)*%
X66446400Y-176733200D03*
D13*
%TO.P,R27,1*%
%TO.N,Net-(R26-Pad2)*%
X89306400Y-176733200D03*
%TD*%
D12*
%TO.P,R26,2*%
%TO.N,Net-(R26-Pad2)*%
X93040200Y-176758600D03*
D13*
%TO.P,R26,1*%
%TO.N,Net-(R26-Pad1)*%
X115900200Y-176758600D03*
%TD*%
D12*
%TO.P,R6,2*%
%TO.N,Net-(R26-Pad1)*%
X115874800Y-166547800D03*
D13*
%TO.P,R6,1*%
%TO.N,Net-(C8-Pad1)*%
X93014800Y-166547800D03*
%TD*%
D14*
%TO.P,C9,2*%
%TO.N,GND*%
X99542600Y-139975600D03*
%TO.P,C9,1*%
%TO.N,+5V*%
X99542600Y-134975600D03*
%TD*%
%TO.P,C8,2*%
%TO.N,GND*%
X84942800Y-166522400D03*
D15*
%TO.P,C8,1*%
%TO.N,Net-(C8-Pad1)*%
X88442800Y-166522400D03*
%TD*%
D14*
%TO.P,C2,2*%
%TO.N,GND*%
X91567000Y-138475600D03*
D15*
%TO.P,C2,1*%
%TO.N,+5V*%
X91567000Y-134975600D03*
%TD*%
D16*
%TO.P,R30,2*%
%TO.N,Net-(R30-Pad2)*%
X81178400Y-123444000D03*
D14*
%TO.P,R30,1*%
%TO.N,Net-(C3-Pad1)*%
X73558400Y-123444000D03*
%TD*%
D16*
%TO.P,U4,6*%
%TO.N,Net-(R38-Pad1)*%
X148869400Y-116357400D03*
%TO.P,U4,3*%
%TO.N,Net-(U4-Pad3)*%
X143789400Y-108737400D03*
%TO.P,U4,5*%
%TO.N,Net-(U4-Pad5)*%
X146329400Y-116357400D03*
%TO.P,U4,2*%
%TO.N,GND*%
X146329400Y-108737400D03*
%TO.P,U4,4*%
%TO.N,Net-(Q2-Pad3)*%
X143789400Y-116357400D03*
D15*
%TO.P,U4,1*%
%TO.N,Net-(R9-Pad1)*%
X148869400Y-108737400D03*
%TD*%
D16*
%TO.P,U3,6*%
%TO.N,Net-(R37-Pad1)*%
X139471400Y-151485600D03*
%TO.P,U3,3*%
%TO.N,Net-(U3-Pad3)*%
X134391400Y-143865600D03*
%TO.P,U3,5*%
%TO.N,Net-(U3-Pad5)*%
X136931400Y-151485600D03*
%TO.P,U3,2*%
%TO.N,GND*%
X136931400Y-143865600D03*
%TO.P,U3,4*%
%TO.N,Net-(Q1-Pad3)*%
X134391400Y-151485600D03*
D15*
%TO.P,U3,1*%
%TO.N,Net-(R8-Pad1)*%
X139471400Y-143865600D03*
%TD*%
D16*
%TO.P,R38,2*%
%TO.N,Net-(J6-Pad1)*%
X147675600Y-120065800D03*
D14*
%TO.P,R38,1*%
%TO.N,Net-(R38-Pad1)*%
X155295600Y-120065800D03*
%TD*%
D16*
%TO.P,R37,2*%
%TO.N,Net-(J3-Pad1)*%
X131953000Y-155397200D03*
D14*
%TO.P,R37,1*%
%TO.N,Net-(R37-Pad1)*%
X139573000Y-155397200D03*
%TD*%
D16*
%TO.P,R24,2*%
%TO.N,Net-(Q2-Pad3)*%
X143865600Y-126238000D03*
D14*
%TO.P,R24,1*%
%TO.N,Net-(J7-Pad2)*%
X151485600Y-126238000D03*
%TD*%
D16*
%TO.P,R23,2*%
%TO.N,Net-(Q1-Pad3)*%
X126898400Y-159283400D03*
D14*
%TO.P,R23,1*%
%TO.N,Net-(J5-Pad2)*%
X134518400Y-159283400D03*
%TD*%
D17*
%TO.P,Q2,3*%
%TO.N,Net-(Q2-Pad3)*%
X146659600Y-135153400D03*
%TO.P,Q2,2*%
%TO.N,Net-(J6-Pad1)*%
X149199600Y-135153400D03*
D18*
%TO.P,Q2,1*%
%TO.N,Net-(J7-Pad2)*%
X151739600Y-135153400D03*
%TD*%
D17*
%TO.P,Q1,3*%
%TO.N,Net-(Q1-Pad3)*%
X129387600Y-165811200D03*
%TO.P,Q1,2*%
%TO.N,Net-(J3-Pad1)*%
X131927600Y-165811200D03*
D18*
%TO.P,Q1,1*%
%TO.N,Net-(J5-Pad2)*%
X134467600Y-165811200D03*
%TD*%
D19*
%TO.P,J7,2*%
%TO.N,Net-(J7-Pad2)*%
X153111200Y-147726400D03*
D20*
%TO.P,J7,1*%
%TO.N,Net-(J6-Pad2)*%
X153111200Y-152806400D03*
%TD*%
D19*
%TO.P,J6,2*%
%TO.N,Net-(J6-Pad2)*%
X153111200Y-158673800D03*
D20*
%TO.P,J6,1*%
%TO.N,Net-(J6-Pad1)*%
X153111200Y-163753800D03*
%TD*%
D19*
%TO.P,J5,2*%
%TO.N,Net-(J5-Pad2)*%
X140106400Y-178663600D03*
D20*
%TO.P,J5,1*%
%TO.N,Net-(J3-Pad2)*%
X135026400Y-178663600D03*
%TD*%
D19*
%TO.P,J3,2*%
%TO.N,Net-(J3-Pad2)*%
X129209800Y-178663600D03*
D20*
%TO.P,J3,1*%
%TO.N,Net-(J3-Pad1)*%
X124129800Y-178663600D03*
%TD*%
D21*
%TO.P,J2,2*%
%TO.N,GND*%
X134620000Y-88773000D03*
D22*
%TO.P,J2,1*%
%TO.N,/DEBUG*%
X134620000Y-86233000D03*
%TD*%
D23*
%TO.P,BZ1,2*%
%TO.N,Net-(BZ1-Pad2)*%
X150983000Y-98425000D03*
D24*
%TO.P,BZ1,1*%
%TO.N,+5V*%
X143383000Y-98425000D03*
%TD*%
D16*
%TO.P,R36,2*%
%TO.N,Net-(D11-Pad2)*%
X102489000Y-121513600D03*
D14*
%TO.P,R36,1*%
%TO.N,+5V*%
X102489000Y-129133600D03*
%TD*%
D16*
%TO.P,R35,2*%
%TO.N,Net-(D10-Pad2)*%
X98196400Y-121513600D03*
D14*
%TO.P,R35,1*%
%TO.N,+5V*%
X98196400Y-129133600D03*
%TD*%
D25*
%TO.P,D11,2*%
%TO.N,Net-(D11-Pad2)*%
X102654100Y-113371000D03*
D26*
%TO.P,D11,1*%
%TO.N,/AL2_LED*%
X105194100Y-113371000D03*
%TD*%
D25*
%TO.P,D10,2*%
%TO.N,Net-(D10-Pad2)*%
X102654100Y-100671000D03*
D26*
%TO.P,D10,1*%
%TO.N,/AL1_LED*%
X105194100Y-100671000D03*
%TD*%
D27*
%TO.P,RV1,3*%
%TO.N,GND*%
X76073000Y-138887200D03*
%TO.P,RV1,2*%
X78613000Y-138887200D03*
%TO.P,RV1,1*%
%TO.N,Net-(R32-Pad2)*%
X81153000Y-138887200D03*
%TD*%
D16*
%TO.P,F1,2*%
%TO.N,Net-(F1-Pad2)*%
X66548000Y-145465800D03*
D14*
%TO.P,F1,1*%
%TO.N,/PowerIN*%
X66548000Y-158165800D03*
%TD*%
D16*
%TO.P,R32,2*%
%TO.N,Net-(R32-Pad2)*%
X81178400Y-134366000D03*
D14*
%TO.P,R32,1*%
%TO.N,Net-(R30-Pad2)*%
X81178400Y-126746000D03*
%TD*%
D16*
%TO.P,R31,2*%
%TO.N,/ADC2*%
X91490800Y-123444000D03*
D14*
%TO.P,R31,1*%
%TO.N,Net-(R30-Pad2)*%
X83870800Y-123444000D03*
%TD*%
D16*
%TO.P,R29,2*%
%TO.N,Net-(C3-Pad1)*%
X70535800Y-123444000D03*
D14*
%TO.P,R29,1*%
%TO.N,/ADC1*%
X62915800Y-123444000D03*
%TD*%
D16*
%TO.P,R3,2*%
%TO.N,Net-(R2-Pad1)*%
X70535800Y-143002000D03*
D14*
%TO.P,R3,1*%
%TO.N,Net-(C3-Pad1)*%
X70535800Y-135382000D03*
%TD*%
D16*
%TO.P,R2,2*%
%TO.N,/PowerIN*%
X70535800Y-153085800D03*
D14*
%TO.P,R2,1*%
%TO.N,Net-(R2-Pad1)*%
X70535800Y-145465800D03*
%TD*%
D16*
%TO.P,R1,2*%
%TO.N,Net-(D1-Pad2)*%
X70510400Y-163220400D03*
D14*
%TO.P,R1,1*%
%TO.N,/PowerIN*%
X70510400Y-155600400D03*
%TD*%
D19*
%TO.P,J1,2*%
%TO.N,Net-(F1-Pad2)*%
X59969400Y-145465800D03*
D20*
%TO.P,J1,1*%
%TO.N,GND*%
X59969400Y-140385800D03*
%TD*%
D25*
%TO.P,D1,2*%
%TO.N,Net-(D1-Pad2)*%
X72364600Y-166776400D03*
D26*
%TO.P,D1,1*%
%TO.N,GND*%
X72364600Y-169316400D03*
%TD*%
D14*
%TO.P,C6,2*%
%TO.N,GND*%
X86490800Y-127736600D03*
%TO.P,C6,1*%
%TO.N,/ADC2*%
X91490800Y-127736600D03*
%TD*%
%TO.P,C5,2*%
%TO.N,GND*%
X65136400Y-129692400D03*
%TO.P,C5,1*%
%TO.N,/ADC1*%
X62636400Y-129692400D03*
%TD*%
%TO.P,C3,2*%
%TO.N,GND*%
X73035800Y-129743200D03*
%TO.P,C3,1*%
%TO.N,Net-(C3-Pad1)*%
X70535800Y-129743200D03*
%TD*%
%TO.P,C2,2*%
%TO.N,GND*%
X62103000Y-166467800D03*
%TO.P,C2,1*%
%TO.N,/PowerIN*%
X62103000Y-161467800D03*
%TD*%
D28*
%TO.P,Q6,1*%
%TO.N,Net-(BZ1-Pad2)*%
X150957600Y-82943700D03*
D29*
%TO.P,Q6,3*%
%TO.N,GND*%
X150957600Y-77863700D03*
%TO.P,Q6,2*%
%TO.N,Net-(Q6-Pad2)*%
X150957600Y-80403700D03*
%TD*%
D28*
%TO.P,Q5,1*%
%TO.N,Net-(DS1-PadP$12)*%
X142544800Y-64668400D03*
D29*
%TO.P,Q5,3*%
%TO.N,+5V*%
X142544800Y-69748400D03*
%TO.P,Q5,2*%
%TO.N,Net-(Q5-Pad2)*%
X142544800Y-67208400D03*
%TD*%
D28*
%TO.P,Q4,1*%
%TO.N,Net-(DS1-PadP$9)*%
X132588000Y-64668400D03*
D29*
%TO.P,Q4,3*%
%TO.N,+5V*%
X132588000Y-69748400D03*
%TO.P,Q4,2*%
%TO.N,Net-(Q4-Pad2)*%
X132588000Y-67208400D03*
%TD*%
D28*
%TO.P,Q3,1*%
%TO.N,Net-(DS1-PadP$8)*%
X120802400Y-64668400D03*
D29*
%TO.P,Q3,3*%
%TO.N,+5V*%
X120802400Y-69748400D03*
%TO.P,Q3,2*%
%TO.N,Net-(Q3-Pad2)*%
X120802400Y-67208400D03*
%TD*%
D24*
%TO.P,DS1,P$1*%
%TO.N,Net-(DS1-PadP$1)*%
X78689200Y-100671000D03*
D23*
%TO.P,DS1,P$2*%
%TO.N,Net-(DS1-PadP$2)*%
X78689200Y-103211000D03*
%TO.P,DS1,P$3*%
%TO.N,/DAT*%
X78689200Y-105751000D03*
%TO.P,DS1,P$4*%
%TO.N,Net-(DS1-PadP$4)*%
X78689200Y-108291000D03*
%TO.P,DS1,P$5*%
%TO.N,Net-(DS1-PadP$5)*%
X78689200Y-110831000D03*
%TO.P,DS1,P$6*%
%TO.N,N/C*%
X78689200Y-113371000D03*
%TO.P,DS1,P$7*%
%TO.N,Net-(DS1-PadP$7)*%
X63449200Y-113371000D03*
%TO.P,DS1,P$8*%
%TO.N,Net-(DS1-PadP$8)*%
X63449200Y-110831000D03*
%TO.P,DS1,P$9*%
%TO.N,Net-(DS1-PadP$9)*%
X63449200Y-108291000D03*
%TO.P,DS1,P$10*%
%TO.N,Net-(DS1-PadP$10)*%
X63449200Y-105751000D03*
%TO.P,DS1,P$11*%
%TO.N,Net-(DS1-PadP$11)*%
X63449200Y-103211000D03*
%TO.P,DS1,P$12*%
%TO.N,Net-(DS1-PadP$12)*%
X63449200Y-100671000D03*
%TD*%
D16*
%TO.P,R25,2*%
%TO.N,/BUZZER*%
X137268800Y-80403700D03*
D14*
%TO.P,R25,1*%
%TO.N,Net-(Q6-Pad2)*%
X144888800Y-80403700D03*
%TD*%
D30*
%TO.P,SW4,2*%
%TO.N,GND*%
X124900400Y-96313000D03*
%TO.P,SW4,1*%
%TO.N,/SW3*%
X124900400Y-91313000D03*
%TO.P,SW4,2*%
%TO.N,GND*%
X112400400Y-96313000D03*
%TO.P,SW4,1*%
%TO.N,/SW3*%
X112400400Y-91313000D03*
%TD*%
%TO.P,SW3,2*%
%TO.N,GND*%
X112420400Y-104546400D03*
%TO.P,SW3,1*%
%TO.N,/SW2*%
X112420400Y-109546400D03*
%TO.P,SW3,2*%
%TO.N,GND*%
X124920400Y-104546400D03*
%TO.P,SW3,1*%
%TO.N,/SW2*%
X124920400Y-109546400D03*
%TD*%
%TO.P,SW2,2*%
%TO.N,GND*%
X112420400Y-117809000D03*
%TO.P,SW2,1*%
%TO.N,/SW1*%
X112420400Y-122809000D03*
%TO.P,SW2,2*%
%TO.N,GND*%
X124920400Y-117809000D03*
%TO.P,SW2,1*%
%TO.N,/SW1*%
X124920400Y-122809000D03*
%TD*%
D31*
%TO.P,U1,28*%
%TO.N,/DAT*%
X97574100Y-80403700D03*
%TO.P,U1,14*%
%TO.N,/RLY2*%
X130594100Y-88023700D03*
%TO.P,U1,27*%
%TO.N,/CLK*%
X100114100Y-80403700D03*
%TO.P,U1,13*%
%TO.N,/RLY1*%
X128054100Y-88023700D03*
%TO.P,U1,26*%
%TO.N,/f*%
X102654100Y-80403700D03*
%TO.P,U1,12*%
%TO.N,/DEBUG*%
X125514100Y-88023700D03*
%TO.P,U1,25*%
%TO.N,/e*%
X105194100Y-80403700D03*
%TO.P,U1,11*%
%TO.N,Net-(U1-Pad11)*%
X122974100Y-88023700D03*
%TO.P,U1,24*%
%TO.N,/d*%
X107734100Y-80403700D03*
%TO.P,U1,10*%
%TO.N,Net-(U1-Pad10)*%
X120434100Y-88023700D03*
%TO.P,U1,23*%
%TO.N,/c*%
X110274100Y-80403700D03*
%TO.P,U1,9*%
%TO.N,/SW3*%
X117894100Y-88023700D03*
%TO.P,U1,22*%
%TO.N,/b*%
X112814100Y-80403700D03*
%TO.P,U1,8*%
%TO.N,GND*%
X115354100Y-88023700D03*
%TO.P,U1,21*%
%TO.N,/a*%
X115354100Y-80403700D03*
%TO.P,U1,7*%
%TO.N,/SW2*%
X112814100Y-88023700D03*
%TO.P,U1,20*%
%TO.N,+5V*%
X117894100Y-80403700D03*
%TO.P,U1,6*%
%TO.N,/SW1*%
X110274100Y-88023700D03*
%TO.P,U1,19*%
%TO.N,GND*%
X120434100Y-80403700D03*
%TO.P,U1,5*%
%TO.N,/AL2_LED*%
X107734100Y-88023700D03*
%TO.P,U1,18*%
%TO.N,/SEG1*%
X122974100Y-80403700D03*
%TO.P,U1,4*%
%TO.N,/AL1_LED*%
X105194100Y-88023700D03*
%TO.P,U1,17*%
%TO.N,/SEG2*%
X125514100Y-80403700D03*
%TO.P,U1,3*%
%TO.N,/ADC2*%
X102654100Y-88023700D03*
%TO.P,U1,16*%
%TO.N,/SEG3*%
X128054100Y-80403700D03*
%TO.P,U1,2*%
%TO.N,/ADC1*%
X100114100Y-88023700D03*
%TO.P,U1,15*%
%TO.N,/BUZZER*%
X130594100Y-80403700D03*
D32*
%TO.P,U1,1*%
%TO.N,/VPP*%
X97574100Y-88023700D03*
%TD*%
D16*
%TO.P,R18,2*%
%TO.N,Net-(DS1-PadP$5)*%
X95821500Y-67640200D03*
D14*
%TO.P,R18,1*%
%TO.N,/CLK*%
X95821500Y-75260200D03*
%TD*%
D33*
%TO.P,H4,1*%
%TO.N,N/C*%
X153670000Y-179070000D03*
D34*
X155920000Y-179070000D03*
X155260990Y-180660990D03*
X153670000Y-181320000D03*
X152079010Y-180660990D03*
X151420000Y-179070000D03*
X152079010Y-177479010D03*
X153670000Y-176820000D03*
X155260990Y-177479010D03*
%TD*%
D33*
%TO.P,H3,1*%
%TO.N,N/C*%
X59664600Y-179070000D03*
D34*
X61914600Y-179070000D03*
X61255590Y-180660990D03*
X59664600Y-181320000D03*
X58073610Y-180660990D03*
X57414600Y-179070000D03*
X58073610Y-177479010D03*
X59664600Y-176820000D03*
X61255590Y-177479010D03*
%TD*%
D33*
%TO.P,H2,1*%
%TO.N,N/C*%
X59690000Y-54610000D03*
D34*
X61940000Y-54610000D03*
X61280990Y-56200990D03*
X59690000Y-56860000D03*
X58099010Y-56200990D03*
X57440000Y-54610000D03*
X58099010Y-53019010D03*
X59690000Y-52360000D03*
X61280990Y-53019010D03*
%TD*%
D33*
%TO.P,H1,1*%
%TO.N,N/C*%
X153670000Y-54610000D03*
D34*
X155920000Y-54610000D03*
X155260990Y-56200990D03*
X153670000Y-56860000D03*
X152079010Y-56200990D03*
X151420000Y-54610000D03*
X152079010Y-53019010D03*
X153670000Y-52360000D03*
X155260990Y-53019010D03*
%TD*%
D23*
%TO.P,SW1,1*%
%TO.N,/VPP*%
X93495000Y-104771000D03*
%TO.P,SW1,2*%
%TO.N,GND*%
X93495000Y-109271000D03*
%TO.P,SW1,1*%
%TO.N,/VPP*%
X86995000Y-104771000D03*
%TO.P,SW1,2*%
%TO.N,GND*%
X86995000Y-109271000D03*
%TD*%
D16*
%TO.P,R22,2*%
%TO.N,+5V*%
X136779000Y-98425000D03*
D14*
%TO.P,R22,1*%
%TO.N,/SW3*%
X129159000Y-98425000D03*
%TD*%
D16*
%TO.P,R21,2*%
%TO.N,+5V*%
X136779000Y-109550200D03*
D14*
%TO.P,R21,1*%
%TO.N,/SW2*%
X129159000Y-109550200D03*
%TD*%
D16*
%TO.P,R20,2*%
%TO.N,+5V*%
X136779000Y-122809000D03*
D14*
%TO.P,R20,1*%
%TO.N,/SW1*%
X129159000Y-122809000D03*
%TD*%
D16*
%TO.P,R19,2*%
%TO.N,Net-(Q5-Pad2)*%
X148107400Y-66903600D03*
D14*
%TO.P,R19,1*%
%TO.N,/SEG3*%
X148107400Y-74523600D03*
%TD*%
D16*
%TO.P,R17,2*%
%TO.N,Net-(DS1-PadP$10)*%
X98996500Y-67640200D03*
D14*
%TO.P,R17,1*%
%TO.N,/f*%
X98996500Y-75260200D03*
%TD*%
D16*
%TO.P,R16,2*%
%TO.N,Net-(DS1-PadP$1)*%
X102171500Y-67640200D03*
D14*
%TO.P,R16,1*%
%TO.N,/e*%
X102171500Y-75260200D03*
%TD*%
D16*
%TO.P,R15,2*%
%TO.N,Net-(DS1-PadP$2)*%
X105346500Y-67640200D03*
D14*
%TO.P,R15,1*%
%TO.N,/d*%
X105346500Y-75260200D03*
%TD*%
D16*
%TO.P,R14,2*%
%TO.N,Net-(DS1-PadP$4)*%
X110147100Y-67640200D03*
D14*
%TO.P,R14,1*%
%TO.N,/c*%
X110147100Y-75260200D03*
%TD*%
D16*
%TO.P,R13,2*%
%TO.N,Net-(Q4-Pad2)*%
X137718800Y-66903600D03*
D14*
%TO.P,R13,1*%
%TO.N,/SEG2*%
X137718800Y-74523600D03*
%TD*%
D16*
%TO.P,R12,2*%
%TO.N,Net-(DS1-PadP$7)*%
X113322100Y-67640200D03*
D14*
%TO.P,R12,1*%
%TO.N,/b*%
X113322100Y-75260200D03*
%TD*%
D16*
%TO.P,R11,2*%
%TO.N,Net-(DS1-PadP$11)*%
X116497100Y-67640200D03*
D14*
%TO.P,R11,1*%
%TO.N,/a*%
X116497100Y-75260200D03*
%TD*%
D16*
%TO.P,R10,2*%
%TO.N,Net-(Q3-Pad2)*%
X128117600Y-66903600D03*
D14*
%TO.P,R10,1*%
%TO.N,/SEG1*%
X128117600Y-74523600D03*
%TD*%
D16*
%TO.P,R9,2*%
%TO.N,/RLY2*%
X133731000Y-105105200D03*
D14*
%TO.P,R9,1*%
%TO.N,Net-(R9-Pad1)*%
X141351000Y-105105200D03*
%TD*%
D16*
%TO.P,R8,2*%
%TO.N,/RLY1*%
X132740400Y-118922800D03*
D14*
%TO.P,R8,1*%
%TO.N,Net-(R8-Pad1)*%
X140360400Y-118922800D03*
%TD*%
D16*
%TO.P,R7,2*%
%TO.N,+5V*%
X86435000Y-99542600D03*
D14*
%TO.P,R7,1*%
%TO.N,/VPP*%
X94055000Y-99542600D03*
%TD*%
D21*
%TO.P,J4,6*%
%TO.N,Net-(J4-Pad6)*%
X89585800Y-74320400D03*
%TO.P,J4,5*%
%TO.N,/CLK*%
X89585800Y-76860400D03*
%TO.P,J4,4*%
%TO.N,/DAT*%
X89585800Y-79400400D03*
%TO.P,J4,3*%
%TO.N,GND*%
X89585800Y-81940400D03*
%TO.P,J4,2*%
%TO.N,+5V*%
X89585800Y-84480400D03*
D22*
%TO.P,J4,1*%
%TO.N,/VPP*%
X89585800Y-87020400D03*
%TD*%
D14*
%TO.P,C1,2*%
%TO.N,GND*%
X124583200Y-73228200D03*
%TO.P,C1,1*%
%TO.N,+5V*%
X119583200Y-73228200D03*
%TD*%
D35*
%TO.N,GND*%
X104140000Y-144780000D03*
X101600000Y-144780000D03*
X99060000Y-144780000D03*
X104140000Y-152400000D03*
X101600000Y-152400000D03*
X99060000Y-152400000D03*
X99060000Y-149860000D03*
X101600000Y-149860000D03*
X104140000Y-149860000D03*
X104140000Y-147320000D03*
X101600000Y-147320000D03*
X99060000Y-147320000D03*
D36*
X93421200Y-81838800D03*
X93319600Y-89687400D03*
X134493000Y-91186000D03*
X139573000Y-91186000D03*
D35*
X96520000Y-152400000D03*
X96520000Y-149860000D03*
X96520000Y-147320000D03*
X96520000Y-144780000D03*
X106680000Y-144780000D03*
X106680000Y-147320000D03*
X106680000Y-149860000D03*
X106680000Y-152400000D03*
X96520000Y-154940000D03*
X99060000Y-154940000D03*
X101600000Y-154940000D03*
X104140000Y-154940000D03*
X106680000Y-154940000D03*
D36*
%TO.N,Net-(DS1-PadP$11)*%
X85039200Y-78689200D03*
X83997800Y-85496400D03*
%TO.N,Net-(DS1-PadP$5)*%
X73825100Y-71158100D03*
X80759300Y-71107300D03*
%TO.N,Net-(DS1-PadP$4)*%
X80822800Y-80848200D03*
X74269600Y-80848200D03*
%TD*%
D37*
%TO.N,GND*%
X93421200Y-89585800D02*
X93319600Y-89687400D01*
X93421200Y-81838800D02*
X93421200Y-89585800D01*
X134493000Y-91186000D02*
X139573000Y-91186000D01*
%TO.N,Net-(DS1-PadP$11)*%
X85039200Y-78689200D02*
X85039200Y-84455000D01*
X85039200Y-84455000D02*
X83997800Y-85496400D01*
X83997800Y-85496400D02*
X83997800Y-85496400D01*
X83997800Y-85496400D02*
X83997800Y-85496400D01*
X83997800Y-85496400D02*
X83997800Y-85496400D01*
%TO.N,Net-(DS1-PadP$5)*%
X80708500Y-71158100D02*
X80759300Y-71107300D01*
X73825100Y-71158100D02*
X80708500Y-71158100D01*
%TO.N,Net-(DS1-PadP$4)*%
X74269600Y-80848200D02*
X80822800Y-80848200D01*
%TO.N,/VPP*%
X86995000Y-104771000D02*
X93495000Y-104771000D01*
%TO.N,/SW3*%
X112400400Y-91313000D02*
X124900400Y-91313000D01*
%TD*%
M02*
