%TF.GenerationSoftware,KiCad,Pcbnew,(5.1.7)-1*%
%TF.CreationDate,2020-12-01T21:30:06+06:30*%
%TF.ProjectId,AlarmDCV1.1_TRIAC,416c6172-6d44-4435-9631-2e315f545249,rev?*%
%TF.SameCoordinates,Original*%
%TF.FileFunction,Paste,Bot*%
%TF.FilePolarity,Positive*%
%FSLAX46Y46*%
G04 Gerber Fmt 4.6, Leading zero omitted, Abs format (unit mm)*
G04 Created by KiCad (PCBNEW (5.1.7)-1) date 2020-12-01 21:30:06*
%MOMM*%
%LPD*%
G01*
G04 APERTURE LIST*
%ADD10R,1.800000X2.500000*%
%ADD11R,4.550000X5.250000*%
%ADD12R,4.600000X1.100000*%
G04 APERTURE END LIST*
D10*
%TO.C,D2*%
X86334600Y-155155400D03*
X86334600Y-151155400D03*
%TD*%
D11*
%TO.C,U2*%
X98867000Y-146680400D03*
X103717000Y-152230400D03*
X98867000Y-152230400D03*
X103717000Y-146680400D03*
D12*
X92142000Y-146055400D03*
X92142000Y-147755400D03*
X92142000Y-149455400D03*
X92142000Y-151155400D03*
X92142000Y-152855400D03*
%TD*%
M02*
