EESchema Schematic File Version 4
EELAYER 30 0
EELAYER END
$Descr USLegal 14000 8500
encoding utf-8
Sheet 1 1
Title "Alarm DC Voltage V1.3 HV RLY"
Date "2021-01-22"
Rev "3"
Comp "Everything Electronic"
Comment1 ""
Comment2 ""
Comment3 ""
Comment4 ""
$EndDescr
$Comp
L Device:CP C4
U 1 1 5FAF860A
P 9900 5650
F 0 "C4" H 10018 5696 50  0000 L CNN
F 1 "470uF/16V" V 9750 5400 50  0000 L CNN
F 2 "Capacitor_THT:CP_Radial_D8.0mm_P3.50mm" H 9938 5500 50  0001 C CNN
F 3 "~" H 9900 5650 50  0001 C CNN
	1    9900 5650
	1    0    0    -1  
$EndComp
$Comp
L power:GND #PWR018
U 1 1 5FAFE5C4
P 8650 6450
F 0 "#PWR018" H 8650 6200 50  0001 C CNN
F 1 "GND" H 8655 6277 50  0000 C CNN
F 2 "" H 8650 6450 50  0001 C CNN
F 3 "" H 8650 6450 50  0001 C CNN
	1    8650 6450
	1    0    0    -1  
$EndComp
$Comp
L power:+5V #PWR020
U 1 1 5FB0043B
P 10500 5100
F 0 "#PWR020" H 10500 4950 50  0001 C CNN
F 1 "+5V" H 10515 5273 50  0000 C CNN
F 2 "" H 10500 5100 50  0001 C CNN
F 3 "" H 10500 5100 50  0001 C CNN
	1    10500 5100
	1    0    0    -1  
$EndComp
$Comp
L power:GND #PWR0112
U 1 1 5FD6ED8A
P 8000 5900
F 0 "#PWR0112" H 8000 5650 50  0001 C CNN
F 1 "GND" H 8000 5750 50  0000 C CNN
F 2 "" H 8000 5900 50  0001 C CNN
F 3 "" H 8000 5900 50  0001 C CNN
	1    8000 5900
	1    0    0    -1  
$EndComp
$Comp
L Device:CP C8
U 1 1 60142884
P 7500 5650
F 0 "C8" H 7618 5696 50  0000 L CNN
F 1 "220uF/50V" V 7350 5400 50  0000 L CNN
F 2 "Capacitor_THT:CP_Radial_D8.0mm_P3.50mm" H 7538 5500 50  0001 C CNN
F 3 "~" H 7500 5650 50  0001 C CNN
	1    7500 5650
	1    0    0    -1  
$EndComp
$Comp
L Device:C C9
U 1 1 60142885
P 10350 5650
F 0 "C9" H 10465 5696 50  0000 L CNN
F 1 "104" H 10465 5605 50  0000 L CNN
F 2 "Capacitor_THT:C_Rect_L7.0mm_W3.5mm_P5.00mm" H 10388 5500 50  0001 C CNN
F 3 "~" H 10350 5650 50  0001 C CNN
	1    10350 5650
	1    0    0    -1  
$EndComp
$Comp
L Regulator_Linear:LM317_TO-220 U2
U 1 1 60240D67
P 8650 5350
F 0 "U2" H 8650 5592 50  0000 C CNN
F 1 "LM317_TO-220" H 8650 5501 50  0000 C CNN
F 2 "Package_TO_SOT_THT:TO-220-3_Vertical" H 8650 5600 50  0001 C CIN
F 3 "http://www.ti.com/lit/ds/symlink/lm317.pdf" H 8650 5350 50  0001 C CNN
	1    8650 5350
	1    0    0    -1  
$EndComp
$Comp
L Device:R R33
U 1 1 60245594
P 8650 6200
F 0 "R33" V 8550 6200 50  0000 L CNN
F 1 "1k" V 8650 6150 50  0000 L CNN
F 2 "Resistor_THT:R_Axial_DIN0207_L6.3mm_D2.5mm_P7.62mm_Horizontal" V 8580 6200 50  0001 C CNN
F 3 "~" H 8650 6200 50  0001 C CNN
	1    8650 6200
	1    0    0    -1  
$EndComp
$Comp
L Diode:1N4007 D8
U 1 1 60246AEE
P 8650 4950
F 0 "D8" H 8650 5167 50  0000 C CNN
F 1 "1N4007" H 8650 5076 50  0000 C CNN
F 2 "Diode_THT:D_DO-41_SOD81_P10.16mm_Horizontal" H 8650 4775 50  0001 C CNN
F 3 "http://www.vishay.com/docs/88503/1n4001.pdf" H 8650 4950 50  0001 C CNN
	1    8650 4950
	1    0    0    -1  
$EndComp
$Comp
L Device:CP C10
U 1 1 6024AF65
P 9100 6150
F 0 "C10" H 9218 6196 50  0000 L CNN
F 1 "10uF" H 9218 6105 50  0000 L CNN
F 2 "Capacitor_THT:C_Radial_D6.3mm_H11.0mm_P2.50mm" H 9138 6000 50  0001 C CNN
F 3 "~" H 9100 6150 50  0001 C CNN
	1    9100 6150
	1    0    0    -1  
$EndComp
$Comp
L Device:R R34
U 1 1 6024BB0A
P 9550 5650
F 0 "R34" V 9650 5600 50  0000 L CNN
F 1 "330R" V 9550 5600 50  0000 L CNN
F 2 "Resistor_THT:R_Axial_DIN0207_L6.3mm_D2.5mm_P7.62mm_Horizontal" V 9480 5650 50  0001 C CNN
F 3 "~" H 9550 5650 50  0001 C CNN
	1    9550 5650
	1    0    0    -1  
$EndComp
Wire Wire Line
	8350 5350 8300 5350
$Comp
L power:GND #PWR03
U 1 1 6014288B
P 7500 5900
F 0 "#PWR03" H 7500 5650 50  0001 C CNN
F 1 "GND" H 7505 5727 50  0000 C CNN
F 2 "" H 7500 5900 50  0001 C CNN
F 3 "" H 7500 5900 50  0001 C CNN
	1    7500 5900
	1    0    0    -1  
$EndComp
Wire Wire Line
	7500 5900 7500 5800
Wire Wire Line
	8650 5650 8650 5900
Wire Wire Line
	8650 6350 8650 6400
Wire Wire Line
	9100 5800 9100 5900
Wire Wire Line
	9100 6300 9100 6400
Wire Wire Line
	9100 6400 8650 6400
Connection ~ 8650 6400
Wire Wire Line
	8650 6400 8650 6450
Wire Wire Line
	9100 5900 8650 5900
Connection ~ 9100 5900
Wire Wire Line
	9100 5900 9100 6000
Connection ~ 8650 5900
Wire Wire Line
	8650 5900 8650 6050
Wire Wire Line
	8950 5350 9100 5350
Wire Wire Line
	10500 5350 10500 5100
Wire Wire Line
	9100 5500 9100 5350
Connection ~ 9100 5350
Wire Wire Line
	9100 5350 9550 5350
Wire Wire Line
	9550 5800 9550 5900
Wire Wire Line
	9550 5900 9100 5900
Wire Wire Line
	9550 5500 9550 5350
Connection ~ 9550 5350
Wire Wire Line
	9550 5350 9900 5350
Wire Wire Line
	9900 5500 9900 5350
Connection ~ 9900 5350
Wire Wire Line
	9900 5350 10350 5350
Wire Wire Line
	10350 5500 10350 5350
Connection ~ 10350 5350
Wire Wire Line
	10350 5350 10500 5350
$Comp
L power:GND #PWR04
U 1 1 60356CCD
P 9900 5900
F 0 "#PWR04" H 9900 5650 50  0001 C CNN
F 1 "GND" H 9905 5727 50  0000 C CNN
F 2 "" H 9900 5900 50  0001 C CNN
F 3 "" H 9900 5900 50  0001 C CNN
	1    9900 5900
	1    0    0    -1  
$EndComp
$Comp
L power:GND #PWR05
U 1 1 60357162
P 10350 5900
F 0 "#PWR05" H 10350 5650 50  0001 C CNN
F 1 "GND" H 10355 5727 50  0000 C CNN
F 2 "" H 10350 5900 50  0001 C CNN
F 3 "" H 10350 5900 50  0001 C CNN
	1    10350 5900
	1    0    0    -1  
$EndComp
Wire Wire Line
	9900 5900 9900 5800
Wire Wire Line
	10350 5900 10350 5800
Wire Wire Line
	8800 4950 9100 4950
Wire Wire Line
	9100 4950 9100 5350
Wire Wire Line
	8500 4950 8300 4950
Wire Wire Line
	8300 4950 8300 5350
Connection ~ 8300 5350
$Comp
L Diode:1N4007 D9
U 1 1 6024906C
P 9100 5650
F 0 "D9" V 9054 5730 50  0000 L CNN
F 1 "1N4007" V 9145 5730 50  0000 L CNN
F 2 "Diode_THT:D_DO-41_SOD81_P10.16mm_Horizontal" H 9100 5475 50  0001 C CNN
F 3 "http://www.vishay.com/docs/88503/1n4001.pdf" H 9100 5650 50  0001 C CNN
	1    9100 5650
	0    1    1    0   
$EndComp
Wire Wire Line
	8000 5350 8000 5500
Wire Wire Line
	8000 5900 8000 5800
$Comp
L Device:C C2
U 1 1 5FBE4CDE
P 8000 5650
F 0 "C2" H 8150 5700 50  0000 L CNN
F 1 "2A104J" H 8150 5600 50  0000 L CNN
F 2 "Capacitor_THT:C_Rect_L7.0mm_W3.5mm_P5.00mm" H 8038 5500 50  0001 C CNN
F 3 "~" H 8000 5650 50  0001 C CNN
	1    8000 5650
	1    0    0    -1  
$EndComp
$Comp
L power:+12V #PWR021
U 1 1 5FF728E0
P 7300 5150
F 0 "#PWR021" H 7300 5000 50  0001 C CNN
F 1 "+12V" H 7315 5323 50  0000 C CNN
F 2 "" H 7300 5150 50  0001 C CNN
F 3 "" H 7300 5150 50  0001 C CNN
	1    7300 5150
	1    0    0    -1  
$EndComp
$Comp
L MCU_Microchip_PIC16:PIC16F883-IP U1
U 1 1 5FABA539
P 2550 1950
F 0 "U1" H 2550 2050 50  0000 C CNN
F 1 "PIC16F1936" H 2550 1950 50  0000 C CNN
F 2 "Package_DIP:DIP-28_W7.62mm_Socket" H 2550 1950 50  0001 C CIN
F 3 "http://ww1.microchip.com/downloads/en/DeviceDoc/41291D.pdf" H 2550 1750 50  0001 C CNN
	1    2550 1950
	1    0    0    -1  
$EndComp
$Comp
L power:GND #PWR07
U 1 1 60142840
P 2550 3150
F 0 "#PWR07" H 2550 2900 50  0001 C CNN
F 1 "GND" H 2555 2977 50  0000 C CNN
F 2 "" H 2550 3150 50  0001 C CNN
F 3 "" H 2550 3150 50  0001 C CNN
	1    2550 3150
	1    0    0    -1  
$EndComp
Wire Wire Line
	2550 3150 2550 3100
Wire Wire Line
	2650 3050 2650 3100
Wire Wire Line
	2650 3100 2550 3100
Connection ~ 2550 3100
Wire Wire Line
	2550 3100 2550 3050
$Comp
L power:+5V #PWR06
U 1 1 5FAC87DD
P 2550 800
F 0 "#PWR06" H 2550 650 50  0001 C CNN
F 1 "+5V" H 2565 973 50  0000 C CNN
F 2 "" H 2550 800 50  0001 C CNN
F 3 "" H 2550 800 50  0001 C CNN
	1    2550 800 
	1    0    0    -1  
$EndComp
$Comp
L Relay:SANYOU_SRD_Form_C K1
U 1 1 5FAD8B60
P 9100 1350
F 0 "K1" H 9000 1600 50  0000 L CNN
F 1 "12V Relay" V 9600 1150 50  0000 L CNN
F 2 "Relay_THT:Relay_SPDT_SANYOU_SRD_Series_Form_C" H 9550 1300 50  0001 L CNN
F 3 "http://www.sanyourelay.ca/public/products/pdf/SRD.pdf" H 9100 1350 50  0001 C CNN
	1    9100 1350
	1    0    0    -1  
$EndComp
$Comp
L Device:D D2
U 1 1 5FADA3D2
P 8400 1350
F 0 "D2" V 8354 1430 50  0000 L CNN
F 1 "1N4007" V 8445 1430 50  0000 L CNN
F 2 "Diode_THT:D_DO-41_SOD81_P7.62mm_Horizontal" H 8400 1350 50  0001 C CNN
F 3 "~" H 8400 1350 50  0001 C CNN
	1    8400 1350
	0    1    1    0   
$EndComp
$Comp
L Transistor_BJT:BC547 Q1
U 1 1 5FADB203
P 8800 2050
F 0 "Q1" H 8991 2096 50  0000 L CNN
F 1 "BC547" H 8991 2005 50  0000 L CNN
F 2 "Package_TO_SOT_THT:TO-92L_Inline_Wide" H 9000 1975 50  0001 L CIN
F 3 "https://www.onsemi.com/pub/Collateral/BC550-D.pdf" H 8800 2050 50  0001 L CNN
	1    8800 2050
	1    0    0    -1  
$EndComp
$Comp
L Device:R R8
U 1 1 5FADC835
P 8300 2050
F 0 "R8" V 8100 2000 50  0000 L CNN
F 1 "1k" V 8200 1950 50  0000 L CNN
F 2 "Resistor_THT:R_Axial_DIN0207_L6.3mm_D2.5mm_P7.62mm_Horizontal" V 8230 2050 50  0001 C CNN
F 3 "~" H 8300 2050 50  0001 C CNN
	1    8300 2050
	0    1    1    0   
$EndComp
$Comp
L power:GND #PWR024
U 1 1 5FADD126
P 8900 2350
F 0 "#PWR024" H 8900 2100 50  0001 C CNN
F 1 "GND" H 8905 2177 50  0000 C CNN
F 2 "" H 8900 2350 50  0001 C CNN
F 3 "" H 8900 2350 50  0001 C CNN
	1    8900 2350
	1    0    0    -1  
$EndComp
Wire Wire Line
	8900 2350 8900 2250
Wire Wire Line
	8900 1850 8900 1750
Wire Wire Line
	8400 1200 8400 950 
Wire Wire Line
	8400 950  8900 950 
Connection ~ 8900 950 
Wire Wire Line
	8900 950  8900 1050
Wire Wire Line
	8400 1500 8400 1750
Wire Wire Line
	8400 1750 8900 1750
Connection ~ 8900 1750
Wire Wire Line
	8900 1750 8900 1650
Wire Wire Line
	8450 2050 8600 2050
Text Label 7800 2050 0    50   ~ 0
RLY1
Wire Wire Line
	7800 2050 8150 2050
$Comp
L Device:C C1
U 1 1 5FB09333
P 750 1600
F 0 "C1" H 865 1646 50  0000 L CNN
F 1 "104" H 865 1555 50  0000 L CNN
F 2 "Capacitor_THT:C_Rect_L7.0mm_W3.5mm_P5.00mm" H 788 1450 50  0001 C CNN
F 3 "~" H 750 1600 50  0001 C CNN
	1    750  1600
	1    0    0    -1  
$EndComp
$Comp
L power:+5V #PWR01
U 1 1 5FB0A375
P 750 1350
F 0 "#PWR01" H 750 1200 50  0001 C CNN
F 1 "+5V" H 765 1523 50  0000 C CNN
F 2 "" H 750 1350 50  0001 C CNN
F 3 "" H 750 1350 50  0001 C CNN
	1    750  1350
	1    0    0    -1  
$EndComp
$Comp
L power:GND #PWR02
U 1 1 5FB0A6B6
P 750 1800
F 0 "#PWR02" H 750 1550 50  0001 C CNN
F 1 "GND" H 755 1627 50  0000 C CNN
F 2 "" H 750 1800 50  0001 C CNN
F 3 "" H 750 1800 50  0001 C CNN
	1    750  1800
	1    0    0    -1  
$EndComp
Wire Wire Line
	750  1350 750  1450
Wire Wire Line
	750  1750 750  1800
$Comp
L Device:R R7
U 1 1 5FB0E645
P 11150 6000
F 0 "R7" V 10950 5950 50  0000 L CNN
F 1 "10k" V 11050 5900 50  0000 L CNN
F 2 "Resistor_THT:R_Axial_DIN0207_L6.3mm_D2.5mm_P7.62mm_Horizontal" V 11080 6000 50  0001 C CNN
F 3 "~" H 11150 6000 50  0001 C CNN
	1    11150 6000
	-1   0    0    1   
$EndComp
$Comp
L Switch:SW_Push SW1
U 1 1 60142848
P 11500 6350
F 0 "SW1" H 11500 6635 50  0000 C CNN
F 1 "SW_Push" H 11500 6544 50  0000 C CNN
F 2 "Button_Switch_THT:SW_PUSH_6mm" H 11500 6550 50  0001 C CNN
F 3 "~" H 11500 6550 50  0001 C CNN
	1    11500 6350
	1    0    0    -1  
$EndComp
Text Label 10850 6350 0    50   ~ 0
VPP
Wire Wire Line
	10850 6350 11150 6350
Wire Wire Line
	11150 6150 11150 6350
Connection ~ 11150 6350
Wire Wire Line
	11150 6350 11300 6350
$Comp
L power:GND #PWR016
U 1 1 60142849
P 11800 6450
F 0 "#PWR016" H 11800 6200 50  0001 C CNN
F 1 "GND" H 11805 6277 50  0000 C CNN
F 2 "" H 11800 6450 50  0001 C CNN
F 3 "" H 11800 6450 50  0001 C CNN
	1    11800 6450
	1    0    0    -1  
$EndComp
Wire Wire Line
	11700 6350 11800 6350
Wire Wire Line
	11800 6350 11800 6450
$Comp
L power:+5V #PWR011
U 1 1 6014284A
P 11150 5750
F 0 "#PWR011" H 11150 5600 50  0001 C CNN
F 1 "+5V" H 11165 5923 50  0000 C CNN
F 2 "" H 11150 5750 50  0001 C CNN
F 3 "" H 11150 5750 50  0001 C CNN
	1    11150 5750
	1    0    0    -1  
$EndComp
Wire Wire Line
	11150 5750 11150 5850
Text Label 950  1150 0    50   ~ 0
VPP
Wire Wire Line
	950  1150 1250 1150
$Comp
L Connector_Generic:Conn_01x06 J4
U 1 1 5FB3CF1F
P 5000 1100
F 0 "J4" H 4950 1400 50  0000 L CNN
F 1 "Program" H 4850 700 50  0000 L CNN
F 2 "Connector_PinHeader_2.54mm:PinHeader_1x06_P2.54mm_Vertical" H 5000 1100 50  0001 C CNN
F 3 "~" H 5000 1100 50  0001 C CNN
	1    5000 1100
	1    0    0    -1  
$EndComp
Text Label 4550 900  0    50   ~ 0
VPP
Text Label 4550 1200 0    50   ~ 0
DAT
Text Label 4550 1300 0    50   ~ 0
CLK
Wire Wire Line
	4550 900  4800 900 
Wire Wire Line
	4550 1200 4800 1200
Wire Wire Line
	4550 1300 4800 1300
NoConn ~ 4800 1400
$Comp
L power:+5V #PWR012
U 1 1 5FB464EA
P 4750 800
F 0 "#PWR012" H 4750 650 50  0001 C CNN
F 1 "+5V" H 4765 973 50  0000 C CNN
F 2 "" H 4750 800 50  0001 C CNN
F 3 "" H 4750 800 50  0001 C CNN
	1    4750 800 
	1    0    0    -1  
$EndComp
$Comp
L power:GND #PWR013
U 1 1 5FB46C5E
P 4750 1500
F 0 "#PWR013" H 4750 1250 50  0001 C CNN
F 1 "GND" H 4755 1327 50  0000 C CNN
F 2 "" H 4750 1500 50  0001 C CNN
F 3 "" H 4750 1500 50  0001 C CNN
	1    4750 1500
	1    0    0    -1  
$EndComp
Wire Wire Line
	4750 1500 4750 1100
Wire Wire Line
	4750 1100 4800 1100
Wire Wire Line
	4800 1000 4750 1000
Wire Wire Line
	4750 1000 4750 800 
Wire Wire Line
	2550 800  2550 850 
$Comp
L BA56-12EWA:BA56-12EWA DS1
U 1 1 5FB69BF4
P 6450 2400
F 0 "DS1" H 6933 2446 50  0000 L CNN
F 1 "BA56-12EWA" H 6933 2355 50  0000 L CNN
F 2 "BA56-12EWA(3Digit7Segment):BA56-12EWA" H 6450 2400 50  0001 L BNN
F 3 "" H 6450 2400 50  0001 L BNN
	1    6450 2400
	1    0    0    -1  
$EndComp
$Comp
L Device:R R11
U 1 1 5FB723F2
P 6150 3050
F 0 "R11" V 6200 2800 50  0000 L CNN
F 1 "220R" V 6150 2950 50  0000 L CNN
F 2 "Resistor_THT:R_Axial_DIN0207_L6.3mm_D2.5mm_P7.62mm_Horizontal" V 6080 3050 50  0001 C CNN
F 3 "~" H 6150 3050 50  0001 C CNN
	1    6150 3050
	-1   0    0    1   
$EndComp
$Comp
L Device:R R12
U 1 1 5FB72E51
P 6250 3050
F 0 "R12" V 6300 2800 50  0000 L CNN
F 1 "220R" V 6250 2950 50  0000 L CNN
F 2 "Resistor_THT:R_Axial_DIN0207_L6.3mm_D2.5mm_P7.62mm_Horizontal" V 6180 3050 50  0001 C CNN
F 3 "~" H 6250 3050 50  0001 C CNN
	1    6250 3050
	-1   0    0    1   
$EndComp
$Comp
L Device:R R14
U 1 1 60142851
P 6350 3050
F 0 "R14" V 6400 2800 50  0000 L CNN
F 1 "220R" V 6350 2950 50  0000 L CNN
F 2 "Resistor_THT:R_Axial_DIN0207_L6.3mm_D2.5mm_P7.62mm_Horizontal" V 6280 3050 50  0001 C CNN
F 3 "~" H 6350 3050 50  0001 C CNN
	1    6350 3050
	-1   0    0    1   
$EndComp
$Comp
L Device:R R15
U 1 1 60142852
P 6450 3050
F 0 "R15" V 6500 2800 50  0000 L CNN
F 1 "220R" V 6450 2950 50  0000 L CNN
F 2 "Resistor_THT:R_Axial_DIN0207_L6.3mm_D2.5mm_P7.62mm_Horizontal" V 6380 3050 50  0001 C CNN
F 3 "~" H 6450 3050 50  0001 C CNN
	1    6450 3050
	-1   0    0    1   
$EndComp
$Comp
L Device:R R16
U 1 1 5FB733A5
P 6550 3050
F 0 "R16" V 6600 2800 50  0000 L CNN
F 1 "220R" V 6550 2950 50  0000 L CNN
F 2 "Resistor_THT:R_Axial_DIN0207_L6.3mm_D2.5mm_P7.62mm_Horizontal" V 6480 3050 50  0001 C CNN
F 3 "~" H 6550 3050 50  0001 C CNN
	1    6550 3050
	-1   0    0    1   
$EndComp
$Comp
L Device:R R17
U 1 1 5FB734F0
P 6650 3050
F 0 "R17" V 6700 2800 50  0000 L CNN
F 1 "220R" V 6650 2950 50  0000 L CNN
F 2 "Resistor_THT:R_Axial_DIN0207_L6.3mm_D2.5mm_P7.62mm_Horizontal" V 6580 3050 50  0001 C CNN
F 3 "~" H 6650 3050 50  0001 C CNN
	1    6650 3050
	-1   0    0    1   
$EndComp
$Comp
L Device:R R18
U 1 1 60142855
P 6750 3050
F 0 "R18" V 6800 2800 50  0000 L CNN
F 1 "220R" V 6750 2950 50  0000 L CNN
F 2 "Resistor_THT:R_Axial_DIN0207_L6.3mm_D2.5mm_P7.62mm_Horizontal" V 6680 3050 50  0001 C CNN
F 3 "~" H 6750 3050 50  0001 C CNN
	1    6750 3050
	-1   0    0    1   
$EndComp
Text Label 6150 3350 2    50   ~ 0
a
Text Label 6250 3350 2    50   ~ 0
b
Text Label 6350 3350 2    50   ~ 0
c
Text Label 6450 3350 2    50   ~ 0
d
Text Label 6550 3350 2    50   ~ 0
e
Text Label 6650 3350 2    50   ~ 0
f
Text Label 6750 3350 2    50   ~ 0
g
Wire Wire Line
	6150 3350 6150 3200
Wire Wire Line
	6250 3350 6250 3200
Wire Wire Line
	6350 3350 6350 3200
Wire Wire Line
	6450 3350 6450 3200
Wire Wire Line
	6550 3350 6550 3200
Wire Wire Line
	6650 3350 6650 3200
Wire Wire Line
	6750 3350 6750 3200
Wire Wire Line
	6150 2900 6150 2800
Wire Wire Line
	6250 2900 6250 2800
Wire Wire Line
	6350 2900 6350 2800
Wire Wire Line
	6450 2900 6450 2800
Wire Wire Line
	6550 2900 6550 2800
Wire Wire Line
	6650 2900 6650 2800
Wire Wire Line
	6750 2900 6750 2800
Text Label 4300 2750 2    50   ~ 0
dp
Text Label 4300 2650 2    50   ~ 0
g
Text Label 4300 2550 2    50   ~ 0
f
Text Label 4300 2450 2    50   ~ 0
e
Text Label 4300 2350 2    50   ~ 0
d
Text Label 4300 2250 2    50   ~ 0
c
Text Label 4300 2150 2    50   ~ 0
b
Text Label 4300 2050 2    50   ~ 0
a
Wire Wire Line
	4300 2050 3850 2050
Wire Wire Line
	4300 2150 3850 2150
Wire Wire Line
	4300 2250 3850 2250
Wire Wire Line
	4300 2350 3850 2350
Wire Wire Line
	4300 2450 3850 2450
$Comp
L Transistor_BJT:BC557 Q3
U 1 1 6014285B
P 5850 1450
F 0 "Q3" H 6041 1404 50  0000 L CNN
F 1 "BC557" H 6041 1495 50  0000 L CNN
F 2 "Package_TO_SOT_THT:TO-92L_Inline_Wide" H 6050 1375 50  0001 L CIN
F 3 "https://www.onsemi.com/pub/Collateral/BC556BTA-D.pdf" H 5850 1450 50  0001 L CNN
	1    5850 1450
	1    0    0    1   
$EndComp
$Comp
L Transistor_BJT:BC557 Q4
U 1 1 5FBC5DB7
P 6550 1450
F 0 "Q4" H 6741 1404 50  0000 L CNN
F 1 "BC557" H 6741 1495 50  0000 L CNN
F 2 "Package_TO_SOT_THT:TO-92L_Inline_Wide" H 6750 1375 50  0001 L CIN
F 3 "https://www.onsemi.com/pub/Collateral/BC556BTA-D.pdf" H 6550 1450 50  0001 L CNN
	1    6550 1450
	1    0    0    1   
$EndComp
$Comp
L Transistor_BJT:BC557 Q5
U 1 1 6014285D
P 7200 1450
F 0 "Q5" H 7391 1404 50  0000 L CNN
F 1 "BC557" H 7391 1495 50  0000 L CNN
F 2 "Package_TO_SOT_THT:TO-92L_Inline_Wide" H 7400 1375 50  0001 L CIN
F 3 "https://www.onsemi.com/pub/Collateral/BC556BTA-D.pdf" H 7200 1450 50  0001 L CNN
	1    7200 1450
	1    0    0    1   
$EndComp
Wire Wire Line
	6650 2000 6650 1650
Wire Wire Line
	6750 2000 6750 1750
Wire Wire Line
	6750 1750 7300 1750
Wire Wire Line
	7300 1750 7300 1650
Wire Wire Line
	6550 2000 6550 1750
Wire Wire Line
	6550 1750 5950 1750
Wire Wire Line
	5950 1750 5950 1650
$Comp
L Device:R R10
U 1 1 5FBD74F7
P 5600 1200
F 0 "R10" V 5400 1150 50  0000 L CNN
F 1 "1k" V 5500 1100 50  0000 L CNN
F 2 "Resistor_THT:R_Axial_DIN0207_L6.3mm_D2.5mm_P7.62mm_Horizontal" V 5530 1200 50  0001 C CNN
F 3 "~" H 5600 1200 50  0001 C CNN
	1    5600 1200
	1    0    0    -1  
$EndComp
$Comp
L Device:R R13
U 1 1 5FBDBB46
P 6300 1200
F 0 "R13" V 6100 1150 50  0000 L CNN
F 1 "1k" V 6200 1100 50  0000 L CNN
F 2 "Resistor_THT:R_Axial_DIN0207_L6.3mm_D2.5mm_P7.62mm_Horizontal" V 6230 1200 50  0001 C CNN
F 3 "~" H 6300 1200 50  0001 C CNN
	1    6300 1200
	1    0    0    -1  
$EndComp
$Comp
L Device:R R19
U 1 1 5FBDBECD
P 6950 1200
F 0 "R19" V 6750 1150 50  0000 L CNN
F 1 "1k" V 6850 1100 50  0000 L CNN
F 2 "Resistor_THT:R_Axial_DIN0207_L6.3mm_D2.5mm_P7.62mm_Horizontal" V 6880 1200 50  0001 C CNN
F 3 "~" H 6950 1200 50  0001 C CNN
	1    6950 1200
	1    0    0    -1  
$EndComp
$Comp
L power:+5V #PWR027
U 1 1 6014286F
P 5950 900
F 0 "#PWR027" H 5950 750 50  0001 C CNN
F 1 "+5V" H 5965 1073 50  0000 C CNN
F 2 "" H 5950 900 50  0001 C CNN
F 3 "" H 5950 900 50  0001 C CNN
	1    5950 900 
	1    0    0    -1  
$EndComp
$Comp
L power:+5V #PWR028
U 1 1 60142870
P 6650 900
F 0 "#PWR028" H 6650 750 50  0001 C CNN
F 1 "+5V" H 6665 1073 50  0000 C CNN
F 2 "" H 6650 900 50  0001 C CNN
F 3 "" H 6650 900 50  0001 C CNN
	1    6650 900 
	1    0    0    -1  
$EndComp
$Comp
L power:+5V #PWR029
U 1 1 60142871
P 7300 900
F 0 "#PWR029" H 7300 750 50  0001 C CNN
F 1 "+5V" H 7315 1073 50  0000 C CNN
F 2 "" H 7300 900 50  0001 C CNN
F 3 "" H 7300 900 50  0001 C CNN
	1    7300 900 
	1    0    0    -1  
$EndComp
Wire Wire Line
	5950 900  5950 1250
Wire Wire Line
	6650 900  6650 1250
Wire Wire Line
	7300 900  7300 1250
Wire Wire Line
	5600 1350 5600 1450
Wire Wire Line
	5600 1450 5650 1450
Wire Wire Line
	6300 1350 6300 1450
Wire Wire Line
	6300 1450 6350 1450
Wire Wire Line
	6950 1350 6950 1450
Wire Wire Line
	6950 1450 7000 1450
Text Label 5400 800  0    50   ~ 0
SEG1
Text Label 6100 800  0    50   ~ 0
SEG2
Text Label 6750 800  0    50   ~ 0
SEG3
Wire Wire Line
	5600 800  5600 1050
Wire Wire Line
	6300 800  6300 1050
Wire Wire Line
	6950 800  6950 1050
Text Label 1000 2250 0    50   ~ 0
RLY1
Text Label 1000 2350 0    50   ~ 0
RLY2
$Comp
L Connector:Screw_Terminal_01x03 J6
U 1 1 5FC137B1
P 10200 1350
F 0 "J6" H 10280 1392 50  0000 L CNN
F 1 "RLY1_OUT" H 10280 1301 50  0000 L CNN
F 2 "TerminalBlock:TerminalBlock_bornier-3_P5.08mm" H 10200 1350 50  0001 C CNN
F 3 "~" H 10200 1350 50  0001 C CNN
	1    10200 1350
	1    0    0    -1  
$EndComp
Text Label 5950 1950 0    50   ~ 0
dp
Wire Wire Line
	5950 1950 6150 1950
Wire Wire Line
	6150 1950 6150 2000
Wire Wire Line
	4300 2550 3850 2550
Wire Wire Line
	4000 3000 4300 3000
Wire Wire Line
	4100 2900 4300 2900
Text Label 4300 2900 2    50   ~ 0
CLK
Text Label 4300 3000 2    50   ~ 0
DAT
Wire Wire Line
	3850 2750 4000 2750
Wire Wire Line
	3850 2650 4100 2650
Wire Wire Line
	4100 2900 4100 2650
Connection ~ 4100 2650
Wire Wire Line
	4100 2650 4300 2650
Wire Wire Line
	4000 3000 4000 2750
Connection ~ 4000 2750
Wire Wire Line
	4000 2750 4300 2750
Wire Wire Line
	5400 800  5600 800 
Wire Wire Line
	6100 800  6300 800 
Wire Wire Line
	6750 800  6950 800 
Text Label 9600 950  2    50   ~ 0
NO1
Text Label 9600 850  2    50   ~ 0
NC1
Text Label 9600 1750 2    50   ~ 0
COM1
Wire Wire Line
	9600 850  9200 850 
Wire Wire Line
	9200 850  9200 1050
Wire Wire Line
	9600 950  9400 950 
Wire Wire Line
	9400 950  9400 1050
Wire Wire Line
	9600 1750 9300 1750
Wire Wire Line
	9300 1750 9300 1650
Text Label 9750 1350 0    50   ~ 0
COM1
Text Label 9750 1250 0    50   ~ 0
NO1
Text Label 9750 1450 0    50   ~ 0
NC1
Wire Wire Line
	9750 1350 10000 1350
Wire Wire Line
	9750 1250 10000 1250
Wire Wire Line
	9750 1450 10000 1450
$Comp
L Relay:SANYOU_SRD_Form_C K2
U 1 1 5FC85B7F
P 9100 3350
F 0 "K2" H 9000 3650 50  0000 L CNN
F 1 "12V Relay" V 9600 3150 50  0000 L CNN
F 2 "Relay_THT:Relay_SPDT_SANYOU_SRD_Series_Form_C" H 9550 3300 50  0001 L CNN
F 3 "http://www.sanyourelay.ca/public/products/pdf/SRD.pdf" H 9100 3350 50  0001 C CNN
	1    9100 3350
	1    0    0    -1  
$EndComp
$Comp
L Device:D D3
U 1 1 5FC85B85
P 8400 3350
F 0 "D3" V 8354 3430 50  0000 L CNN
F 1 "1N4007" V 8445 3430 50  0000 L CNN
F 2 "Diode_THT:D_DO-41_SOD81_P7.62mm_Horizontal" H 8400 3350 50  0001 C CNN
F 3 "~" H 8400 3350 50  0001 C CNN
	1    8400 3350
	0    1    1    0   
$EndComp
$Comp
L Transistor_BJT:BC547 Q2
U 1 1 5FC85B8B
P 8800 4050
F 0 "Q2" H 8991 4096 50  0000 L CNN
F 1 "BC547" H 8991 4005 50  0000 L CNN
F 2 "Package_TO_SOT_THT:TO-92L_Inline_Wide" H 9000 3975 50  0001 L CIN
F 3 "https://www.onsemi.com/pub/Collateral/BC550-D.pdf" H 8800 4050 50  0001 L CNN
	1    8800 4050
	1    0    0    -1  
$EndComp
$Comp
L Device:R R9
U 1 1 5FC85B91
P 8300 4050
F 0 "R9" V 8100 4000 50  0000 L CNN
F 1 "1k" V 8200 3950 50  0000 L CNN
F 2 "Resistor_THT:R_Axial_DIN0207_L6.3mm_D2.5mm_P7.62mm_Horizontal" V 8230 4050 50  0001 C CNN
F 3 "~" H 8300 4050 50  0001 C CNN
	1    8300 4050
	0    1    1    0   
$EndComp
$Comp
L power:GND #PWR026
U 1 1 5FC85B97
P 8900 4350
F 0 "#PWR026" H 8900 4100 50  0001 C CNN
F 1 "GND" H 8905 4177 50  0000 C CNN
F 2 "" H 8900 4350 50  0001 C CNN
F 3 "" H 8900 4350 50  0001 C CNN
	1    8900 4350
	1    0    0    -1  
$EndComp
Wire Wire Line
	8900 4350 8900 4250
Wire Wire Line
	8900 3850 8900 3750
Wire Wire Line
	8400 3200 8400 2950
Wire Wire Line
	8400 2950 8900 2950
Connection ~ 8900 2950
Wire Wire Line
	8900 2950 8900 3050
Wire Wire Line
	8400 3500 8400 3750
Wire Wire Line
	8400 3750 8900 3750
Connection ~ 8900 3750
Wire Wire Line
	8900 3750 8900 3650
Wire Wire Line
	8450 4050 8600 4050
Text Label 7800 4050 0    50   ~ 0
RLY2
Wire Wire Line
	7800 4050 8150 4050
$Comp
L Connector:Screw_Terminal_01x03 J5
U 1 1 5FC85BB1
P 10200 3350
F 0 "J5" H 10280 3392 50  0000 L CNN
F 1 "RLY2_OUT" H 10280 3301 50  0000 L CNN
F 2 "TerminalBlock:TerminalBlock_bornier-3_P5.08mm" H 10200 3350 50  0001 C CNN
F 3 "~" H 10200 3350 50  0001 C CNN
	1    10200 3350
	1    0    0    -1  
$EndComp
Text Label 9600 2950 2    50   ~ 0
NO2
Text Label 9600 2850 2    50   ~ 0
NC2
Text Label 9600 3750 2    50   ~ 0
COM2
Wire Wire Line
	9600 2850 9200 2850
Wire Wire Line
	9200 2850 9200 3050
Wire Wire Line
	9600 2950 9400 2950
Wire Wire Line
	9400 2950 9400 3050
Wire Wire Line
	9600 3750 9300 3750
Wire Wire Line
	9300 3750 9300 3650
Text Label 9750 3350 0    50   ~ 0
COM2
Text Label 9750 3250 0    50   ~ 0
NO2
Text Label 9750 3450 0    50   ~ 0
NC2
Wire Wire Line
	9750 3350 10000 3350
Wire Wire Line
	9750 3250 10000 3250
Wire Wire Line
	9750 3450 10000 3450
Text Label 1000 2450 0    50   ~ 0
BUZZER
Text Label 1000 2550 0    50   ~ 0
SEG3
Text Label 1000 2750 0    50   ~ 0
SEG1
Wire Wire Line
	1000 2450 1250 2450
Wire Wire Line
	1000 2550 1250 2550
Wire Wire Line
	1000 2750 1250 2750
$Comp
L Device:R R20
U 1 1 5FCE9931
P 11150 3250
F 0 "R20" V 10950 3200 50  0000 L CNN
F 1 "10k" V 11050 3150 50  0000 L CNN
F 2 "Resistor_THT:R_Axial_DIN0207_L6.3mm_D2.5mm_P7.62mm_Horizontal" V 11080 3250 50  0001 C CNN
F 3 "~" H 11150 3250 50  0001 C CNN
	1    11150 3250
	-1   0    0    1   
$EndComp
$Comp
L Switch:SW_Push SW2
U 1 1 60142877
P 11500 3600
F 0 "SW2" H 11500 3885 50  0000 C CNN
F 1 "SW_Push" H 11500 3794 50  0000 C CNN
F 2 "Button_Switch_THT:SW_PUSH-12mm" H 11500 3800 50  0001 C CNN
F 3 "~" H 11500 3800 50  0001 C CNN
	1    11500 3600
	1    0    0    -1  
$EndComp
Text Label 10850 3600 0    50   ~ 0
SW1
Wire Wire Line
	10850 3600 11150 3600
Wire Wire Line
	11150 3400 11150 3600
Connection ~ 11150 3600
Wire Wire Line
	11150 3600 11300 3600
$Comp
L power:GND #PWR0101
U 1 1 60142878
P 11800 3700
F 0 "#PWR0101" H 11800 3450 50  0001 C CNN
F 1 "GND" H 11805 3527 50  0000 C CNN
F 2 "" H 11800 3700 50  0001 C CNN
F 3 "" H 11800 3700 50  0001 C CNN
	1    11800 3700
	1    0    0    -1  
$EndComp
Wire Wire Line
	11700 3600 11800 3600
Wire Wire Line
	11800 3600 11800 3700
$Comp
L power:+5V #PWR0102
U 1 1 60142879
P 11150 3000
F 0 "#PWR0102" H 11150 2850 50  0001 C CNN
F 1 "+5V" H 11250 3100 50  0000 C CNN
F 2 "" H 11150 3000 50  0001 C CNN
F 3 "" H 11150 3000 50  0001 C CNN
	1    11150 3000
	1    0    0    -1  
$EndComp
Wire Wire Line
	11150 3000 11150 3100
$Comp
L Device:R R21
U 1 1 5FCF2405
P 11150 4150
F 0 "R21" V 10950 4100 50  0000 L CNN
F 1 "10k" V 11050 4050 50  0000 L CNN
F 2 "Resistor_THT:R_Axial_DIN0207_L6.3mm_D2.5mm_P7.62mm_Horizontal" V 11080 4150 50  0001 C CNN
F 3 "~" H 11150 4150 50  0001 C CNN
	1    11150 4150
	-1   0    0    1   
$EndComp
$Comp
L Switch:SW_Push SW3
U 1 1 6014287B
P 11500 4500
F 0 "SW3" H 11500 4785 50  0000 C CNN
F 1 "SW_Push" H 11500 4694 50  0000 C CNN
F 2 "Button_Switch_THT:SW_PUSH-12mm" H 11500 4700 50  0001 C CNN
F 3 "~" H 11500 4700 50  0001 C CNN
	1    11500 4500
	1    0    0    -1  
$EndComp
Text Label 10850 4500 0    50   ~ 0
SW2
Wire Wire Line
	10850 4500 11150 4500
Wire Wire Line
	11150 4300 11150 4500
Connection ~ 11150 4500
Wire Wire Line
	11150 4500 11300 4500
$Comp
L power:GND #PWR0103
U 1 1 6014287C
P 11800 4600
F 0 "#PWR0103" H 11800 4350 50  0001 C CNN
F 1 "GND" H 11805 4427 50  0000 C CNN
F 2 "" H 11800 4600 50  0001 C CNN
F 3 "" H 11800 4600 50  0001 C CNN
	1    11800 4600
	1    0    0    -1  
$EndComp
Wire Wire Line
	11700 4500 11800 4500
Wire Wire Line
	11800 4500 11800 4600
$Comp
L power:+5V #PWR0104
U 1 1 6014287D
P 11150 3900
F 0 "#PWR0104" H 11150 3750 50  0001 C CNN
F 1 "+5V" H 11165 4073 50  0000 C CNN
F 2 "" H 11150 3900 50  0001 C CNN
F 3 "" H 11150 3900 50  0001 C CNN
	1    11150 3900
	1    0    0    -1  
$EndComp
Wire Wire Line
	11150 3900 11150 4000
$Comp
L Device:R R22
U 1 1 6014287E
P 11150 5100
F 0 "R22" V 10950 5050 50  0000 L CNN
F 1 "10k" V 11050 5000 50  0000 L CNN
F 2 "Resistor_THT:R_Axial_DIN0207_L6.3mm_D2.5mm_P7.62mm_Horizontal" V 11080 5100 50  0001 C CNN
F 3 "~" H 11150 5100 50  0001 C CNN
	1    11150 5100
	-1   0    0    1   
$EndComp
$Comp
L Switch:SW_Push SW4
U 1 1 6014287F
P 11500 5450
F 0 "SW4" H 11500 5735 50  0000 C CNN
F 1 "SW_Push" H 11500 5644 50  0000 C CNN
F 2 "Button_Switch_THT:SW_PUSH-12mm" H 11500 5650 50  0001 C CNN
F 3 "~" H 11500 5650 50  0001 C CNN
	1    11500 5450
	1    0    0    -1  
$EndComp
Text Label 10850 5450 0    50   ~ 0
SW3
Wire Wire Line
	10850 5450 11150 5450
Wire Wire Line
	11150 5250 11150 5450
Connection ~ 11150 5450
Wire Wire Line
	11150 5450 11300 5450
$Comp
L power:GND #PWR0105
U 1 1 5FCFB873
P 11800 5550
F 0 "#PWR0105" H 11800 5300 50  0001 C CNN
F 1 "GND" H 11805 5377 50  0000 C CNN
F 2 "" H 11800 5550 50  0001 C CNN
F 3 "" H 11800 5550 50  0001 C CNN
	1    11800 5550
	1    0    0    -1  
$EndComp
Wire Wire Line
	11700 5450 11800 5450
Wire Wire Line
	11800 5450 11800 5550
$Comp
L power:+5V #PWR0106
U 1 1 5FCFB87B
P 11150 4850
F 0 "#PWR0106" H 11150 4700 50  0001 C CNN
F 1 "+5V" H 11165 5023 50  0000 C CNN
F 2 "" H 11150 4850 50  0001 C CNN
F 3 "" H 11150 4850 50  0001 C CNN
	1    11150 4850
	1    0    0    -1  
$EndComp
Wire Wire Line
	11150 4850 11150 4950
Text Label 4250 1550 2    50   ~ 0
SW1
Text Label 4250 1650 2    50   ~ 0
SW2
Text Label 4250 1850 2    50   ~ 0
SW3
Wire Wire Line
	4250 1350 3850 1350
Wire Wire Line
	4250 1450 3850 1450
Wire Wire Line
	4250 1550 3850 1550
Wire Wire Line
	8900 2800 8900 2950
Wire Wire Line
	8900 800  8900 950 
Wire Notes Line
	5200 550  5200 3400
Wire Notes Line
	5200 3400 600  3400
Wire Notes Line
	600  3400 600  550 
Wire Notes Line
	600  550  5200 550 
Text Notes 650  650  0    50   ~ 0
MCU
Wire Notes Line
	10650 550  10650 4600
Wire Notes Line
	10650 4600 7750 4600
Wire Notes Line
	7750 4600 7750 550 
Wire Notes Line
	7750 550  10650 550 
Text Notes 7800 650  0    50   ~ 0
Relay
Wire Notes Line
	7650 550  7650 3500
Wire Notes Line
	7650 3500 5300 3500
Wire Notes Line
	5300 3500 5300 550 
Wire Notes Line
	5300 550  7650 550 
Text Notes 5350 650  0    50   ~ 0
7 Segment Display\n
$Comp
L Device:LED D4
U 1 1 6000ED4E
P 8000 1500
F 0 "D4" V 8039 1382 50  0000 R CNN
F 1 "LED" V 7948 1382 50  0000 R CNN
F 2 "LED_THT:LED_D5.0mm" H 8000 1500 50  0001 C CNN
F 3 "~" H 8000 1500 50  0001 C CNN
	1    8000 1500
	0    -1   -1   0   
$EndComp
$Comp
L Device:R R23
U 1 1 600100C9
P 8000 1150
F 0 "R23" V 7800 1100 50  0000 L CNN
F 1 "1k" V 7900 1050 50  0000 L CNN
F 2 "Resistor_THT:R_Axial_DIN0207_L6.3mm_D2.5mm_P7.62mm_Horizontal" V 7930 1150 50  0001 C CNN
F 3 "~" H 8000 1150 50  0001 C CNN
	1    8000 1150
	-1   0    0    1   
$EndComp
Wire Wire Line
	8000 1000 8000 950 
Wire Wire Line
	8000 950  8400 950 
Connection ~ 8400 950 
Wire Wire Line
	8000 1300 8000 1350
Wire Wire Line
	8000 1650 8000 1750
Wire Wire Line
	8000 1750 8400 1750
Connection ~ 8400 1750
$Comp
L Device:R R24
U 1 1 60034C2B
P 8050 3150
F 0 "R24" V 7850 3100 50  0000 L CNN
F 1 "1k" V 7950 3050 50  0000 L CNN
F 2 "Resistor_THT:R_Axial_DIN0207_L6.3mm_D2.5mm_P7.62mm_Horizontal" V 7980 3150 50  0001 C CNN
F 3 "~" H 8050 3150 50  0001 C CNN
	1    8050 3150
	-1   0    0    1   
$EndComp
$Comp
L Device:LED D5
U 1 1 60035521
P 8050 3500
F 0 "D5" V 8089 3382 50  0000 R CNN
F 1 "LED" V 7998 3382 50  0000 R CNN
F 2 "LED_THT:LED_D5.0mm" H 8050 3500 50  0001 C CNN
F 3 "~" H 8050 3500 50  0001 C CNN
	1    8050 3500
	0    -1   -1   0   
$EndComp
Wire Wire Line
	8050 3000 8050 2950
Wire Wire Line
	8050 2950 8400 2950
Connection ~ 8400 2950
Wire Wire Line
	8050 3300 8050 3350
Wire Wire Line
	8050 3650 8050 3750
Wire Wire Line
	8050 3750 8400 3750
Connection ~ 8400 3750
$Comp
L Mechanical:MountingHole H1
U 1 1 60142887
P 10800 650
F 0 "H1" H 10900 696 50  0000 L CNN
F 1 "MountingHole" H 10900 605 50  0000 L CNN
F 2 "MountingHole:MountingHole_3mm_Pad_Via" H 10800 650 50  0001 C CNN
F 3 "~" H 10800 650 50  0001 C CNN
	1    10800 650 
	1    0    0    -1  
$EndComp
$Comp
L Mechanical:MountingHole H2
U 1 1 60142888
P 10800 900
F 0 "H2" H 10900 946 50  0000 L CNN
F 1 "MountingHole" H 10900 855 50  0000 L CNN
F 2 "MountingHole:MountingHole_3mm_Pad_Via" H 10800 900 50  0001 C CNN
F 3 "~" H 10800 900 50  0001 C CNN
	1    10800 900 
	1    0    0    -1  
$EndComp
$Comp
L Mechanical:MountingHole H3
U 1 1 60142889
P 10800 1150
F 0 "H3" H 10900 1196 50  0000 L CNN
F 1 "MountingHole" H 10900 1105 50  0000 L CNN
F 2 "MountingHole:MountingHole_3mm_Pad_Via" H 10800 1150 50  0001 C CNN
F 3 "~" H 10800 1150 50  0001 C CNN
	1    10800 1150
	1    0    0    -1  
$EndComp
$Comp
L Mechanical:MountingHole H4
U 1 1 60072588
P 10800 1400
F 0 "H4" H 10900 1446 50  0000 L CNN
F 1 "MountingHole" H 10900 1355 50  0000 L CNN
F 2 "MountingHole:MountingHole_3mm_Pad_Via" H 10800 1400 50  0001 C CNN
F 3 "~" H 10800 1400 50  0001 C CNN
	1    10800 1400
	1    0    0    -1  
$EndComp
$Comp
L Transistor_BJT:BC547 Q6
U 1 1 60142856
P 5950 7350
F 0 "Q6" H 6141 7396 50  0000 L CNN
F 1 "BC547" H 6141 7305 50  0000 L CNN
F 2 "Package_TO_SOT_THT:TO-92L_Inline_Wide" H 6150 7275 50  0001 L CIN
F 3 "https://www.onsemi.com/pub/Collateral/BC550-D.pdf" H 5950 7350 50  0001 L CNN
	1    5950 7350
	1    0    0    -1  
$EndComp
$Comp
L Device:R R25
U 1 1 60142857
P 5450 7350
F 0 "R25" V 5250 7300 50  0000 L CNN
F 1 "1k" V 5350 7250 50  0000 L CNN
F 2 "Resistor_THT:R_Axial_DIN0207_L6.3mm_D2.5mm_P7.62mm_Horizontal" V 5380 7350 50  0001 C CNN
F 3 "~" H 5450 7350 50  0001 C CNN
	1    5450 7350
	0    1    1    0   
$EndComp
$Comp
L power:GND #PWR025
U 1 1 5FBA2D96
P 6050 7650
F 0 "#PWR025" H 6050 7400 50  0001 C CNN
F 1 "GND" H 6055 7477 50  0000 C CNN
F 2 "" H 6050 7650 50  0001 C CNN
F 3 "" H 6050 7650 50  0001 C CNN
	1    6050 7650
	1    0    0    -1  
$EndComp
Wire Wire Line
	6050 7650 6050 7550
Wire Wire Line
	5600 7350 5750 7350
Text Label 4950 7350 0    50   ~ 0
BUZZER
Wire Wire Line
	4950 7350 5300 7350
$Comp
L Device:Buzzer BZ1
U 1 1 60142859
P 6300 6800
F 0 "BZ1" H 6452 6829 50  0000 L CNN
F 1 "Buzzer" H 6452 6738 50  0000 L CNN
F 2 "Buzzer_Beeper:Buzzer_12x9.5RM7.6" V 6275 6900 50  0001 C CNN
F 3 "~" V 6275 6900 50  0001 C CNN
	1    6300 6800
	1    0    0    -1  
$EndComp
Wire Wire Line
	6200 6900 6050 6900
Wire Wire Line
	6050 6900 6050 7150
$Comp
L power:+5V #PWR023
U 1 1 6014285A
P 6050 6550
F 0 "#PWR023" H 6050 6400 50  0001 C CNN
F 1 "+5V" H 6065 6723 50  0000 C CNN
F 2 "" H 6050 6550 50  0001 C CNN
F 3 "" H 6050 6550 50  0001 C CNN
	1    6050 6550
	1    0    0    -1  
$EndComp
Wire Wire Line
	6050 6550 6050 6700
Wire Wire Line
	6050 6700 6200 6700
Text Label 1000 2650 0    50   ~ 0
SEG2
Wire Wire Line
	1250 2650 1000 2650
$Comp
L Device:R R2
U 1 1 60142861
P 2000 6600
F 0 "R2" V 1800 6550 50  0000 L CNN
F 1 "100k" V 1900 6500 50  0000 L CNN
F 2 "Resistor_THT:R_Axial_DIN0207_L6.3mm_D2.5mm_P7.62mm_Horizontal" V 1930 6600 50  0001 C CNN
F 3 "~" H 2000 6600 50  0001 C CNN
	1    2000 6600
	0    1    1    0   
$EndComp
$Comp
L Device:R R3
U 1 1 60142862
P 2400 6600
F 0 "R3" V 2200 6550 50  0000 L CNN
F 1 "10k" V 2300 6500 50  0000 L CNN
F 2 "Resistor_THT:R_Axial_DIN0207_L6.3mm_D2.5mm_P7.62mm_Horizontal" V 2330 6600 50  0001 C CNN
F 3 "~" H 2400 6600 50  0001 C CNN
	1    2400 6600
	0    1    1    0   
$EndComp
$Comp
L Device:CP C3
U 1 1 60142863
P 2700 6900
F 0 "C3" H 2818 6946 50  0000 L CNN
F 1 "10uF" H 2818 6855 50  0000 L CNN
F 2 "Capacitor_THT:C_Radial_D6.3mm_H11.0mm_P2.50mm" H 2738 6750 50  0001 C CNN
F 3 "~" H 2700 6900 50  0001 C CNN
	1    2700 6900
	1    0    0    -1  
$EndComp
$Comp
L Device:R R29
U 1 1 60142864
P 3100 6850
F 0 "R29" V 3200 6750 50  0000 L CNN
F 1 "10k" V 3000 6750 50  0000 L CNN
F 2 "Resistor_THT:R_Axial_DIN0207_L6.3mm_D2.5mm_P7.62mm_Horizontal" V 3030 6850 50  0001 C CNN
F 3 "~" H 3100 6850 50  0001 C CNN
	1    3100 6850
	-1   0    0    1   
$EndComp
$Comp
L Device:CP C5
U 1 1 60142865
P 3100 7350
F 0 "C5" H 3218 7396 50  0000 L CNN
F 1 "10uF" H 3218 7305 50  0000 L CNN
F 2 "Capacitor_THT:C_Radial_D6.3mm_H11.0mm_P2.50mm" H 3138 7200 50  0001 C CNN
F 3 "~" H 3100 7350 50  0001 C CNN
	1    3100 7350
	1    0    0    -1  
$EndComp
$Comp
L Device:R R30
U 1 1 60142866
P 3450 6600
F 0 "R30" V 3550 6550 50  0000 L CNN
F 1 "4.7k" V 3350 6500 50  0000 L CNN
F 2 "Resistor_THT:R_Axial_DIN0207_L6.3mm_D2.5mm_P7.62mm_Horizontal" V 3380 6600 50  0001 C CNN
F 3 "~" H 3450 6600 50  0001 C CNN
	1    3450 6600
	0    -1   -1   0   
$EndComp
$Comp
L Device:R R32
U 1 1 60142867
P 3950 6600
F 0 "R32" V 4050 6500 50  0000 L CNN
F 1 "4.7k" V 3850 6500 50  0000 L CNN
F 2 "Resistor_THT:R_Axial_DIN0207_L6.3mm_D2.5mm_P7.62mm_Horizontal" V 3880 6600 50  0001 C CNN
F 3 "~" H 3950 6600 50  0001 C CNN
	1    3950 6600
	0    -1   -1   0   
$EndComp
$Comp
L Device:R R31
U 1 1 60142868
P 3700 6850
F 0 "R31" V 3800 6750 50  0000 L CNN
F 1 "10k" V 3600 6750 50  0000 L CNN
F 2 "Resistor_THT:R_Axial_DIN0207_L6.3mm_D2.5mm_P7.62mm_Horizontal" V 3630 6850 50  0001 C CNN
F 3 "~" H 3700 6850 50  0001 C CNN
	1    3700 6850
	1    0    0    -1  
$EndComp
$Comp
L Device:C C6
U 1 1 60142869
P 3700 7350
F 0 "C6" H 3815 7396 50  0000 L CNN
F 1 "104" H 3815 7305 50  0000 L CNN
F 2 "Capacitor_THT:C_Rect_L7.0mm_W3.5mm_P5.00mm" H 3738 7200 50  0001 C CNN
F 3 "~" H 3700 7350 50  0001 C CNN
	1    3700 7350
	1    0    0    -1  
$EndComp
$Comp
L Device:R_POT RV1
U 1 1 6014286A
P 4350 6900
F 0 "RV1" H 4280 6946 50  0000 R CNN
F 1 "500R" H 4280 6855 50  0000 R CNN
F 2 "Potentiometer_THT:Potentiometer_Bourns_3296W_Vertical" H 4350 6900 50  0001 C CNN
F 3 "~" H 4350 6900 50  0001 C CNN
	1    4350 6900
	1    0    0    -1  
$EndComp
Wire Wire Line
	2150 6600 2250 6600
Wire Wire Line
	2550 6600 2700 6600
Wire Wire Line
	3600 6600 3700 6600
Wire Wire Line
	4100 6600 4350 6600
Wire Wire Line
	4350 6600 4350 6750
Wire Wire Line
	3100 6700 3100 6600
Connection ~ 3100 6600
Wire Wire Line
	3100 6600 3300 6600
Wire Wire Line
	2700 6750 2700 6600
Connection ~ 2700 6600
Wire Wire Line
	2700 6600 3100 6600
Wire Wire Line
	3100 7200 3100 7100
Wire Wire Line
	3700 7200 3700 7100
Wire Wire Line
	3700 6700 3700 6600
Connection ~ 3700 6600
Wire Wire Line
	3700 6600 3800 6600
$Comp
L power:GND #PWR0110
U 1 1 5FCBB348
P 3100 7550
F 0 "#PWR0110" H 3100 7300 50  0001 C CNN
F 1 "GND" H 3105 7377 50  0000 C CNN
F 2 "" H 3100 7550 50  0001 C CNN
F 3 "" H 3100 7550 50  0001 C CNN
	1    3100 7550
	1    0    0    -1  
$EndComp
$Comp
L power:GND #PWR0111
U 1 1 5FCBB690
P 3700 7550
F 0 "#PWR0111" H 3700 7300 50  0001 C CNN
F 1 "GND" H 3705 7377 50  0000 C CNN
F 2 "" H 3700 7550 50  0001 C CNN
F 3 "" H 3700 7550 50  0001 C CNN
	1    3700 7550
	1    0    0    -1  
$EndComp
Wire Wire Line
	3100 7550 3100 7500
Wire Wire Line
	3700 7550 3700 7500
$Comp
L power:GND #PWR0113
U 1 1 5FD95DE1
P 2700 7100
F 0 "#PWR0113" H 2700 6850 50  0001 C CNN
F 1 "GND" H 2705 6927 50  0000 C CNN
F 2 "" H 2700 7100 50  0001 C CNN
F 3 "" H 2700 7100 50  0001 C CNN
	1    2700 7100
	1    0    0    -1  
$EndComp
Wire Wire Line
	2700 7100 2700 7050
$Comp
L power:GND #PWR0114
U 1 1 5FDAA110
P 4350 7200
F 0 "#PWR0114" H 4350 6950 50  0001 C CNN
F 1 "GND" H 4355 7027 50  0000 C CNN
F 2 "" H 4350 7200 50  0001 C CNN
F 3 "" H 4350 7200 50  0001 C CNN
	1    4350 7200
	1    0    0    -1  
$EndComp
Wire Wire Line
	4350 7200 4350 7100
Wire Wire Line
	4500 6900 4600 6900
Wire Wire Line
	4600 6900 4600 7100
Wire Wire Line
	4600 7100 4350 7100
Connection ~ 4350 7100
Wire Wire Line
	4350 7100 4350 7050
Text Label 3350 7100 2    50   ~ 0
ADC1
Text Label 3950 7100 2    50   ~ 0
ADC2
Wire Wire Line
	3350 7100 3100 7100
Connection ~ 3100 7100
Wire Wire Line
	3100 7100 3100 7000
Wire Wire Line
	3950 7100 3700 7100
Connection ~ 3700 7100
Wire Wire Line
	3700 7100 3700 7000
Text Label 4250 1250 2    50   ~ 0
ADC2
Wire Wire Line
	4250 1250 3850 1250
Wire Wire Line
	4250 1650 3850 1650
Text Label 4250 1450 2    50   ~ 0
AL2_LED
Text Label 4250 1350 2    50   ~ 0
AL1_LED
$Comp
L Device:R R35
U 1 1 6014288C
P 12650 5950
F 0 "R35" V 12450 5850 50  0000 L CNN
F 1 "330R" V 12550 5850 50  0000 L CNN
F 2 "Resistor_THT:R_Axial_DIN0207_L6.3mm_D2.5mm_P7.62mm_Horizontal" V 12580 5950 50  0001 C CNN
F 3 "~" H 12650 5950 50  0001 C CNN
	1    12650 5950
	1    0    0    -1  
$EndComp
$Comp
L Device:LED D10
U 1 1 6014288D
P 12650 6350
F 0 "D10" V 12700 6550 50  0000 R CNN
F 1 "LED" V 12600 6550 50  0000 R CNN
F 2 "LED_THT:LED_D5.0mm" H 12650 6350 50  0001 C CNN
F 3 "~" H 12650 6350 50  0001 C CNN
	1    12650 6350
	0    -1   -1   0   
$EndComp
$Comp
L Device:R R36
U 1 1 6014288E
P 13150 5950
F 0 "R36" V 12950 5850 50  0000 L CNN
F 1 "330R" V 13050 5850 50  0000 L CNN
F 2 "Resistor_THT:R_Axial_DIN0207_L6.3mm_D2.5mm_P7.62mm_Horizontal" V 13080 5950 50  0001 C CNN
F 3 "~" H 13150 5950 50  0001 C CNN
	1    13150 5950
	1    0    0    -1  
$EndComp
$Comp
L Device:LED D11
U 1 1 6014288F
P 13150 6350
F 0 "D11" V 13200 6550 50  0000 R CNN
F 1 "LED" V 13100 6550 50  0000 R CNN
F 2 "LED_THT:LED_D5.0mm" H 13150 6350 50  0001 C CNN
F 3 "~" H 13150 6350 50  0001 C CNN
	1    13150 6350
	0    -1   -1   0   
$EndComp
Wire Wire Line
	12650 6200 12650 6100
Wire Wire Line
	13150 6200 13150 6100
$Comp
L power:+5V #PWR010
U 1 1 6069FEF3
P 12650 5700
F 0 "#PWR010" H 12650 5550 50  0001 C CNN
F 1 "+5V" H 12665 5873 50  0000 C CNN
F 2 "" H 12650 5700 50  0001 C CNN
F 3 "" H 12650 5700 50  0001 C CNN
	1    12650 5700
	1    0    0    -1  
$EndComp
$Comp
L power:+5V #PWR014
U 1 1 606A0663
P 13150 5700
F 0 "#PWR014" H 13150 5550 50  0001 C CNN
F 1 "+5V" H 13165 5873 50  0000 C CNN
F 2 "" H 13150 5700 50  0001 C CNN
F 3 "" H 13150 5700 50  0001 C CNN
	1    13150 5700
	1    0    0    -1  
$EndComp
Wire Wire Line
	12650 5700 12650 5800
Wire Wire Line
	13150 5700 13150 5800
Text Label 12250 6650 0    50   ~ 0
AL1_LED
Text Label 12800 6650 0    50   ~ 0
AL2_LED
Wire Wire Line
	12250 6650 12650 6650
Wire Wire Line
	12650 6650 12650 6500
Wire Wire Line
	12800 6650 13150 6650
Wire Wire Line
	13150 6650 13150 6500
Wire Wire Line
	1000 2250 1250 2250
Wire Wire Line
	1000 2350 1250 2350
$Comp
L power:GND #PWR0107
U 1 1 608BE8AA
P 12500 4750
F 0 "#PWR0107" H 12500 4500 50  0001 C CNN
F 1 "GND" H 12505 4577 50  0000 C CNN
F 2 "" H 12500 4750 50  0001 C CNN
F 3 "" H 12500 4750 50  0001 C CNN
	1    12500 4750
	1    0    0    -1  
$EndComp
Wire Wire Line
	12500 4750 12500 4650
Wire Wire Line
	12500 4650 12600 4650
Text Label 12350 4550 0    50   ~ 0
TEMP
Wire Wire Line
	12350 4550 12600 4550
Wire Wire Line
	1000 2150 1250 2150
Wire Notes Line
	12200 3950 13200 3950
Wire Notes Line
	13200 3950 13200 5000
Wire Notes Line
	13200 5000 12200 5000
Wire Notes Line
	12200 5000 12200 3950
Wire Notes Line
	600  6300 600  7900
Wire Notes Line
	6750 6300 6750 7900
Wire Notes Line
	6750 7900 4900 7900
Wire Notes Line
	4900 7900 4900 6300
Wire Notes Line
	4900 6300 6750 6300
Wire Notes Line
	12200 6750 13250 6750
Wire Notes Line
	12200 5350 12200 6750
Wire Notes Line
	13250 5350 13250 6750
Wire Notes Line
	12200 5350 13250 5350
Text Notes 650  6400 0    50   ~ 0
ADC
Text Notes 4950 6400 0    50   ~ 0
Buzzer
Text Notes 12250 5450 0    50   ~ 0
AL1 AL2 LEDs
Text Notes 10800 2850 0    50   ~ 0
Buttons
Text Notes 12250 4050 0    50   ~ 0
Debug
Wire Wire Line
	4250 1850 3850 1850
Text Label 4250 1150 2    50   ~ 0
ADC1
Wire Wire Line
	4250 1150 3850 1150
Wire Notes Line
	600  7900 4750 7900
Wire Notes Line
	600  6300 4750 6300
Wire Notes Line
	4750 6300 4750 7900
$Comp
L power:+12V #PWR036
U 1 1 5FF7139B
P 8900 2800
F 0 "#PWR036" H 8900 2650 50  0001 C CNN
F 1 "+12V" H 8915 2973 50  0000 C CNN
F 2 "" H 8900 2800 50  0001 C CNN
F 3 "" H 8900 2800 50  0001 C CNN
	1    8900 2800
	1    0    0    -1  
$EndComp
$Comp
L power:+12V #PWR035
U 1 1 5FF717FA
P 8900 800
F 0 "#PWR035" H 8900 650 50  0001 C CNN
F 1 "+12V" H 8915 973 50  0000 C CNN
F 2 "" H 8900 800 50  0001 C CNN
F 3 "" H 8900 800 50  0001 C CNN
	1    8900 800 
	1    0    0    -1  
$EndComp
Text Label 1200 6600 0    50   ~ 0
PowerIN
$Comp
L Connector:Screw_Terminal_01x02 J1
U 1 1 6035ABCA
P 750 4600
F 0 "J1" H 668 4275 50  0000 C CNN
F 1 "DC IN" H 668 4366 50  0000 C CNN
F 2 "TerminalBlock:TerminalBlock_bornier-2_P5.08mm" H 750 4600 50  0001 C CNN
F 3 "~" H 750 4600 50  0001 C CNN
	1    750  4600
	-1   0    0    1   
$EndComp
$Comp
L Device:Fuse F1
U 1 1 6035ABD0
P 1200 4500
F 0 "F1" V 1003 4500 50  0000 C CNN
F 1 "Fuse" V 1094 4500 50  0000 C CNN
F 2 "Fuse:Fuseholder_Cylinder-5x20mm_Stelvio-Kontek_PTF78_Horizontal_Open" V 1130 4500 50  0001 C CNN
F 3 "~" H 1200 4500 50  0001 C CNN
	1    1200 4500
	0    1    1    0   
$EndComp
$Comp
L Device:R R1
U 1 1 6035ABD6
P 1400 4800
F 0 "R1" V 1350 4900 50  0000 L CNN
F 1 "47k" V 1300 4750 50  0000 L CNN
F 2 "Resistor_THT:R_Axial_DIN0207_L6.3mm_D2.5mm_P7.62mm_Horizontal" V 1330 4800 50  0001 C CNN
F 3 "~" H 1400 4800 50  0001 C CNN
	1    1400 4800
	1    0    0    -1  
$EndComp
$Comp
L Device:LED D1
U 1 1 6035ABDC
P 1400 5200
F 0 "D1" V 1450 5350 50  0000 R CNN
F 1 "LED" V 1350 5400 50  0000 R CNN
F 2 "LED_THT:LED_D5.0mm" H 1400 5200 50  0001 C CNN
F 3 "~" H 1400 5200 50  0001 C CNN
	1    1400 5200
	0    -1   -1   0   
$EndComp
Wire Wire Line
	950  4500 1050 4500
Wire Wire Line
	1400 4650 1400 4500
Wire Wire Line
	1400 5050 1400 4950
$Comp
L power:GND #PWR09
U 1 1 6035ABEB
P 1400 5400
F 0 "#PWR09" H 1400 5150 50  0001 C CNN
F 1 "GND" H 1405 5227 50  0000 C CNN
F 2 "" H 1400 5400 50  0001 C CNN
F 3 "" H 1400 5400 50  0001 C CNN
	1    1400 5400
	1    0    0    -1  
$EndComp
Wire Wire Line
	1400 5400 1400 5350
$Comp
L Device:C C13
U 1 1 6035ABF8
P 5200 4950
F 0 "C13" H 5315 4996 50  0000 L CNN
F 1 "104" H 5315 4905 50  0000 L CNN
F 2 "Capacitor_THT:C_Rect_L7.0mm_W3.5mm_P5.00mm" H 5238 4800 50  0001 C CNN
F 3 "~" H 5200 4950 50  0001 C CNN
	1    5200 4950
	1    0    0    -1  
$EndComp
$Comp
L power:GND #PWR08
U 1 1 6035ABFE
P 1050 4700
F 0 "#PWR08" H 1050 4450 50  0001 C CNN
F 1 "GND" H 1050 4550 50  0000 C CNN
F 2 "" H 1050 4700 50  0001 C CNN
F 3 "" H 1050 4700 50  0001 C CNN
	1    1050 4700
	1    0    0    -1  
$EndComp
Wire Wire Line
	950  4600 1050 4600
Wire Wire Line
	1050 4600 1050 4700
$Comp
L power:GND #PWR015
U 1 1 6035AC06
P 1850 5050
F 0 "#PWR015" H 1850 4800 50  0001 C CNN
F 1 "GND" H 1855 4877 50  0000 C CNN
F 2 "" H 1850 5050 50  0001 C CNN
F 3 "" H 1850 5050 50  0001 C CNN
	1    1850 5050
	1    0    0    -1  
$EndComp
Wire Wire Line
	1850 5050 1850 4950
Text Notes 650  3700 0    50   ~ 0
DC  High Voltage (<60V) Input
Wire Wire Line
	1350 4500 1400 4500
$Comp
L Regulator_Switching:LM2596S-5 U3
U 1 1 6035AC15
P 3250 4600
F 0 "U3" H 3250 4967 50  0000 C CNN
F 1 "LM2596HV-adj" H 3250 4876 50  0000 C CNN
F 2 "Package_TO_SOT_SMD:TO-263-5_TabPin3" H 3300 4350 50  0001 L CIN
F 3 "http://www.ti.com/lit/ds/symlink/lm2596.pdf" H 3250 4600 50  0001 C CNN
	1    3250 4600
	1    0    0    -1  
$EndComp
$Comp
L Diode:1N5822 D6
U 1 1 6035AC1B
P 3950 4950
F 0 "D6" V 3904 5030 50  0000 L CNN
F 1 "1N5824" V 3995 5030 50  0000 L CNN
F 2 "Diode_SMD:D_SMA" H 3950 4775 50  0001 C CNN
F 3 "http://www.vishay.com/docs/88526/1n5820.pdf" H 3950 4950 50  0001 C CNN
	1    3950 4950
	0    1    1    0   
$EndComp
$Comp
L pspice:INDUCTOR L1
U 1 1 6035AC21
P 4400 4700
F 0 "L1" H 4400 4915 50  0000 C CNN
F 1 "33uH" H 4400 4824 50  0000 C CNN
F 2 "Inductor_THT:L_Axial_L26.7mm_D14.0mm_P7.62mm_Vertical_Vishay_IHA-104" H 4400 4700 50  0001 C CNN
F 3 "~" H 4400 4700 50  0001 C CNN
	1    4400 4700
	1    0    0    -1  
$EndComp
Connection ~ 1400 4500
$Comp
L power:GND #PWR019
U 1 1 6035AC2A
P 2650 4800
F 0 "#PWR019" H 2650 4550 50  0001 C CNN
F 1 "GND" H 2655 4627 50  0000 C CNN
F 2 "" H 2650 4800 50  0001 C CNN
F 3 "" H 2650 4800 50  0001 C CNN
	1    2650 4800
	1    0    0    -1  
$EndComp
Wire Wire Line
	2750 4700 2650 4700
Wire Wire Line
	2650 4700 2650 4800
$Comp
L power:GND #PWR022
U 1 1 6035AC32
P 3250 5000
F 0 "#PWR022" H 3250 4750 50  0001 C CNN
F 1 "GND" H 3255 4827 50  0000 C CNN
F 2 "" H 3250 5000 50  0001 C CNN
F 3 "" H 3250 5000 50  0001 C CNN
	1    3250 5000
	1    0    0    -1  
$EndComp
Wire Wire Line
	3250 5000 3250 4900
$Comp
L power:GND #PWR030
U 1 1 6035AC39
P 3950 5200
F 0 "#PWR030" H 3950 4950 50  0001 C CNN
F 1 "GND" H 3955 5027 50  0000 C CNN
F 2 "" H 3950 5200 50  0001 C CNN
F 3 "" H 3950 5200 50  0001 C CNN
	1    3950 5200
	1    0    0    -1  
$EndComp
Wire Wire Line
	3950 5200 3950 5100
Wire Wire Line
	3750 4700 3950 4700
Wire Wire Line
	3950 4800 3950 4700
Connection ~ 3950 4700
Wire Wire Line
	3950 4700 4150 4700
$Comp
L Device:CP C12
U 1 1 6035AC44
P 4900 4950
F 0 "C12" H 4950 5050 50  0000 L CNN
F 1 "470uF/50V" V 4750 4650 50  0000 L CNN
F 2 "Capacitor_THT:CP_Radial_D8.0mm_P3.50mm" H 4938 4800 50  0001 C CNN
F 3 "~" H 4900 4950 50  0001 C CNN
	1    4900 4950
	1    0    0    -1  
$EndComp
Wire Wire Line
	4650 4700 4900 4700
Connection ~ 4900 4700
Wire Wire Line
	4900 4700 5200 4700
$Comp
L power:GND #PWR031
U 1 1 6035AC50
P 4900 5200
F 0 "#PWR031" H 4900 4950 50  0001 C CNN
F 1 "GND" H 4905 5027 50  0000 C CNN
F 2 "" H 4900 5200 50  0001 C CNN
F 3 "" H 4900 5200 50  0001 C CNN
	1    4900 5200
	1    0    0    -1  
$EndComp
$Comp
L power:GND #PWR032
U 1 1 6035AC56
P 5200 5200
F 0 "#PWR032" H 5200 4950 50  0001 C CNN
F 1 "GND" H 5205 5027 50  0000 C CNN
F 2 "" H 5200 5200 50  0001 C CNN
F 3 "" H 5200 5200 50  0001 C CNN
	1    5200 5200
	1    0    0    -1  
$EndComp
Wire Wire Line
	4900 4700 4900 4800
Wire Wire Line
	5200 4700 5200 4800
Wire Wire Line
	4900 5200 4900 5100
Wire Wire Line
	5200 5200 5200 5100
Text Label 1700 4300 2    50   ~ 0
PowerIN
Wire Wire Line
	1700 4300 1400 4300
Wire Wire Line
	1400 4300 1400 4500
Wire Wire Line
	1850 4650 1850 4500
$Comp
L power:+12V #PWR034
U 1 1 6035AC71
P 6350 3900
F 0 "#PWR034" H 6350 3750 50  0001 C CNN
F 1 "+12V" H 6365 4073 50  0000 C CNN
F 2 "" H 6350 3900 50  0001 C CNN
F 3 "" H 6350 3900 50  0001 C CNN
	1    6350 3900
	1    0    0    -1  
$EndComp
Wire Wire Line
	1200 6600 1850 6600
$Comp
L Device:CP C7
U 1 1 603B5322
P 1850 4800
F 0 "C7" H 1900 4950 50  0000 L CNN
F 1 "100uF/60V" V 1700 4550 50  0000 L CNN
F 2 "Capacitor_THT:CP_Radial_D8.0mm_P3.50mm" H 1888 4650 50  0001 C CNN
F 3 "~" H 1850 4800 50  0001 C CNN
	1    1850 4800
	1    0    0    -1  
$EndComp
$Comp
L Device:C C11
U 1 1 604118CD
P 2300 4800
F 0 "C11" H 2415 4846 50  0000 L CNN
F 1 "104" H 2415 4755 50  0000 L CNN
F 2 "Capacitor_THT:C_Rect_L7.0mm_W3.5mm_P5.00mm" H 2338 4650 50  0001 C CNN
F 3 "~" H 2300 4800 50  0001 C CNN
	1    2300 4800
	1    0    0    -1  
$EndComp
$Comp
L power:GND #PWR017
U 1 1 6043B535
P 2300 5050
F 0 "#PWR017" H 2300 4800 50  0001 C CNN
F 1 "GND" H 2305 4877 50  0000 C CNN
F 2 "" H 2300 5050 50  0001 C CNN
F 3 "" H 2300 5050 50  0001 C CNN
	1    2300 5050
	1    0    0    -1  
$EndComp
Wire Wire Line
	2300 5050 2300 4950
Wire Wire Line
	2300 4650 2300 4500
$Comp
L Device:R R5
U 1 1 604943A8
P 5700 5150
F 0 "R5" H 5550 5150 50  0000 L CNN
F 1 "1k" V 5700 5100 50  0000 L CNN
F 2 "Resistor_THT:R_Axial_DIN0207_L6.3mm_D2.5mm_P7.62mm_Horizontal" V 5630 5150 50  0001 C CNN
F 3 "~" H 5700 5150 50  0001 C CNN
	1    5700 5150
	1    0    0    -1  
$EndComp
Wire Wire Line
	5700 4500 5700 5000
Wire Wire Line
	3750 4500 5700 4500
$Comp
L power:GND #PWR033
U 1 1 604A9D82
P 5700 5400
F 0 "#PWR033" H 5700 5150 50  0001 C CNN
F 1 "GND" H 5705 5227 50  0000 C CNN
F 2 "" H 5700 5400 50  0001 C CNN
F 3 "" H 5700 5400 50  0001 C CNN
	1    5700 5400
	1    0    0    -1  
$EndComp
Wire Wire Line
	5700 5400 5700 5300
$Comp
L Device:R R4
U 1 1 604BF6CE
P 5700 4200
F 0 "R4" H 5550 4200 50  0000 L CNN
F 1 "10k" V 5700 4150 50  0000 L CNN
F 2 "Resistor_THT:R_Axial_DIN0207_L6.3mm_D2.5mm_P7.62mm_Horizontal" V 5630 4200 50  0001 C CNN
F 3 "~" H 5700 4200 50  0001 C CNN
	1    5700 4200
	1    0    0    -1  
$EndComp
Wire Wire Line
	5700 4350 5700 4500
Connection ~ 5700 4500
Wire Wire Line
	5700 4050 5700 3950
Wire Wire Line
	5700 3950 5200 3950
Wire Wire Line
	5200 3950 5200 4700
Connection ~ 5200 4700
$Comp
L Device:C C14
U 1 1 604EC5F2
P 5950 4200
F 0 "C14" H 6065 4246 50  0000 L CNN
F 1 "15nF" H 6065 4155 50  0000 L CNN
F 2 "Capacitor_THT:C_Rect_L4.0mm_W2.5mm_P2.50mm" H 5988 4050 50  0001 C CNN
F 3 "~" H 5950 4200 50  0001 C CNN
	1    5950 4200
	1    0    0    -1  
$EndComp
Wire Wire Line
	5700 3950 5950 3950
Wire Wire Line
	5950 3950 5950 4050
Connection ~ 5700 3950
Wire Wire Line
	5700 4500 5950 4500
Wire Wire Line
	5950 4500 5950 4350
Wire Wire Line
	5950 3950 6350 3950
Wire Wire Line
	6350 3950 6350 3900
Connection ~ 5950 3950
Wire Wire Line
	1400 4500 1850 4500
Connection ~ 2300 4500
Wire Wire Line
	2300 4500 2750 4500
Connection ~ 1850 4500
Wire Wire Line
	1850 4500 2300 4500
Connection ~ 8000 5350
Wire Wire Line
	8000 5350 8300 5350
Wire Wire Line
	7500 5350 7500 5500
Wire Wire Line
	7500 5350 8000 5350
Wire Notes Line
	6550 3600 6550 5700
Wire Notes Line
	6550 5700 600  5700
Wire Notes Line
	600  5700 600  3600
Wire Notes Line
	600  3600 6550 3600
Wire Notes Line
	10650 4650 10650 6700
Wire Notes Line
	10650 6700 7050 6700
Wire Notes Line
	7050 6700 7050 4650
Wire Notes Line
	7050 4650 10650 4650
Wire Wire Line
	7300 5150 7300 5350
Wire Wire Line
	7300 5350 7500 5350
Connection ~ 7500 5350
Wire Notes Line
	12000 2750 12000 6700
Wire Notes Line
	12000 6700 10750 6700
Wire Notes Line
	10750 6700 10750 2750
Wire Notes Line
	10750 2750 12000 2750
$Comp
L Connector_Generic:Conn_01x03 J2
U 1 1 60A5C876
P 12800 4550
F 0 "J2" H 12700 4850 50  0000 L CNN
F 1 "TEMP" H 12700 4750 50  0000 L CNN
F 2 "Connector_PinHeader_2.54mm:PinHeader_1x03_P2.54mm_Vertical" H 12800 4550 50  0001 C CNN
F 3 "~" H 12800 4550 50  0001 C CNN
	1    12800 4550
	1    0    0    -1  
$EndComp
$Comp
L power:+5V #PWR037
U 1 1 60A8BFEA
P 12500 4250
F 0 "#PWR037" H 12500 4100 50  0001 C CNN
F 1 "+5V" H 12600 4350 50  0000 C CNN
F 2 "" H 12500 4250 50  0001 C CNN
F 3 "" H 12500 4250 50  0001 C CNN
	1    12500 4250
	1    0    0    -1  
$EndComp
Wire Wire Line
	12600 4450 12500 4450
Wire Wire Line
	12500 4450 12500 4250
Text Label 12700 4900 0    50   ~ 0
TEMP
$Comp
L Device:R R6
U 1 1 60AA4FDA
P 12950 4600
F 0 "R6" V 12750 4550 50  0000 L CNN
F 1 "4.7k" V 12850 4500 50  0000 L CNN
F 2 "Resistor_THT:R_Axial_DIN0207_L6.3mm_D2.5mm_P7.62mm_Horizontal" V 12880 4600 50  0001 C CNN
F 3 "~" H 12950 4600 50  0001 C CNN
	1    12950 4600
	-1   0    0    1   
$EndComp
Wire Wire Line
	12700 4900 12950 4900
Wire Wire Line
	12950 4900 12950 4750
$Comp
L power:+5V #PWR038
U 1 1 60ABD4BA
P 12950 4250
F 0 "#PWR038" H 12950 4100 50  0001 C CNN
F 1 "+5V" H 13050 4350 50  0000 C CNN
F 2 "" H 12950 4250 50  0001 C CNN
F 3 "" H 12950 4250 50  0001 C CNN
	1    12950 4250
	1    0    0    -1  
$EndComp
Wire Wire Line
	12950 4450 12950 4250
Text Label 1000 2150 0    50   ~ 0
TEMP
$EndSCHEMATC
