EESchema Schematic File Version 4
EELAYER 30 0
EELAYER END
$Descr A3 16535 11693
encoding utf-8
Sheet 2 2
Title "ESP32 Smart Power Meter SMD v0.1"
Date "2022-06-13"
Rev "8"
Comp ""
Comment1 ""
Comment2 ""
Comment3 ""
Comment4 ""
$EndDescr
$Comp
L MCU_ST_STM32F0:STM32F030K6Tx U?
U 1 1 73A029F1
P 1950 2000
AR Path="/73A029F1" Ref="U?"  Part="1" 
AR Path="/737A216F/73A029F1" Ref="U13"  Part="1" 
F 0 "U13" H 1500 3000 50  0000 C CNN
F 1 "STM32F030K6Tx" H 1450 2900 50  0000 C CNN
F 2 "Package_QFP:LQFP-32_7x7mm_P0.8mm" H 1450 1100 50  0001 R CNN
F 3 "http://www.st.com/st-web-ui/static/active/en/resource/technical/document/datasheet/DM00088500.pdf" H 1950 2000 50  0001 C CNN
	1    1950 2000
	1    0    0    -1  
$EndComp
$Comp
L HLS6-4100H:SANYOU_SRD_Form_C K?
U 1 1 73A029F7
P 7400 1600
AR Path="/73A029F7" Ref="K?"  Part="1" 
AR Path="/737A216F/73A029F7" Ref="K1"  Part="1" 
F 0 "K1" H 7830 1646 50  0000 L CNN
F 1 "RLY1" H 7830 1555 50  0000 L CNN
F 2 "Relay_THT:Relay_SPDT_SANYOU_SRD_Series_Form_C" H 7850 1550 50  0001 L CNN
F 3 "http://www.sanyourelay.ca/public/products/pdf/SRD.pdf" H 7400 1600 50  0001 C CNN
	1    7400 1600
	1    0    0    -1  
$EndComp
$Comp
L Device:Q_NPN_BEC Q?
U 1 1 73A029FD
P 7100 2250
AR Path="/73A029FD" Ref="Q?"  Part="1" 
AR Path="/737A216F/73A029FD" Ref="Q6"  Part="1" 
F 0 "Q6" H 7290 2296 50  0000 L CNN
F 1 "C945_SMD" H 7290 2205 50  0000 L CNN
F 2 "Package_TO_SOT_SMD:SOT-23" H 7300 2350 50  0001 C CNN
F 3 "~" H 7100 2250 50  0001 C CNN
	1    7100 2250
	1    0    0    -1  
$EndComp
$Comp
L Device:R R?
U 1 1 73A02A03
P 6800 2500
AR Path="/73A02A03" Ref="R?"  Part="1" 
AR Path="/737A216F/73A02A03" Ref="R68"  Part="1" 
F 0 "R68" H 6850 2500 50  0000 L CNN
F 1 "4k7" V 6700 2450 50  0000 L CNN
F 2 "Resistor_SMD:R_0603_1608Metric" V 6730 2500 50  0001 C CNN
F 3 "~" H 6800 2500 50  0001 C CNN
	1    6800 2500
	1    0    0    -1  
$EndComp
$Comp
L Device:R R?
U 1 1 73A02A09
P 6550 2250
AR Path="/73A02A09" Ref="R?"  Part="1" 
AR Path="/737A216F/73A02A09" Ref="R67"  Part="1" 
F 0 "R67" V 6650 2200 50  0000 L CNN
F 1 "100R" V 6450 2150 50  0000 L CNN
F 2 "Resistor_SMD:R_0603_1608Metric" V 6480 2250 50  0001 C CNN
F 3 "~" H 6550 2250 50  0001 C CNN
	1    6550 2250
	0    -1   -1   0   
$EndComp
Wire Wire Line
	6700 2250 6800 2250
Wire Wire Line
	6800 2350 6800 2250
Connection ~ 6800 2250
Wire Wire Line
	6800 2250 6900 2250
Wire Wire Line
	7200 2050 7200 1950
$Comp
L Diode:1N4007 D?
U 1 1 73A02A14
P 6800 1600
AR Path="/73A02A14" Ref="D?"  Part="1" 
AR Path="/737A216F/73A02A14" Ref="D18"  Part="1" 
F 0 "D18" H 6900 1550 50  0000 L CNN
F 1 "1N4007" H 6650 1700 50  0000 L CNN
F 2 "Diode_SMD:D_SMA" H 6800 1425 50  0001 C CNN
F 3 "http://www.vishay.com/docs/88503/1n4001.pdf" H 6800 1600 50  0001 C CNN
	1    6800 1600
	0    1    1    0   
$EndComp
Wire Wire Line
	7200 1300 7200 1250
Wire Wire Line
	6800 1450 6800 1250
Wire Wire Line
	6800 1250 7200 1250
Connection ~ 7200 1250
Wire Wire Line
	7200 1250 7200 1100
Wire Wire Line
	6800 1750 6800 1950
Wire Wire Line
	6800 1950 7200 1950
Connection ~ 7200 1950
Wire Wire Line
	7200 1950 7200 1900
$Comp
L power:GND #PWR?
U 1 1 73A02A29
P 7200 2750
AR Path="/73A02A29" Ref="#PWR?"  Part="1" 
AR Path="/737A216F/73A02A29" Ref="#PWR0109"  Part="1" 
F 0 "#PWR0109" H 7200 2500 50  0001 C CNN
F 1 "GND" H 7205 2577 50  0000 C CNN
F 2 "" H 7200 2750 50  0001 C CNN
F 3 "" H 7200 2750 50  0001 C CNN
	1    7200 2750
	1    0    0    -1  
$EndComp
Wire Wire Line
	7200 2750 7200 2700
Wire Wire Line
	6800 2650 6800 2700
Wire Wire Line
	6800 2700 7200 2700
Connection ~ 7200 2700
Wire Wire Line
	7200 2700 7200 2450
$Comp
L Connector:Screw_Terminal_01x02 J?
U 1 1 73A02A34
P 8350 1550
AR Path="/73A02A34" Ref="J?"  Part="1" 
AR Path="/737A216F/73A02A34" Ref="J13"  Part="1" 
F 0 "J13" H 8300 1800 50  0000 L CNN
F 1 "RLY_OUT1" H 8150 1700 50  0000 L CNN
F 2 "TerminalBlock:TerminalBlock_bornier-2_P5.08mm" H 8350 1550 50  0001 C CNN
F 3 "~" H 8350 1550 50  0001 C CNN
	1    8350 1550
	1    0    0    -1  
$EndComp
Wire Wire Line
	8150 1550 8050 1550
Wire Wire Line
	8050 1550 8050 1200
Wire Wire Line
	8050 1200 7700 1200
Wire Wire Line
	7700 1200 7700 1300
Wire Wire Line
	7600 1900 7600 2000
Wire Wire Line
	7600 2000 8050 2000
Wire Wire Line
	8050 2000 8050 1650
Wire Wire Line
	8050 1650 8150 1650
Text Label 6000 2250 0    50   ~ 0
RLY_TRIG1
Wire Wire Line
	6000 2250 6400 2250
$Comp
L HLS6-4100H:SANYOU_SRD_Form_C K?
U 1 1 73A02A44
P 11800 1600
AR Path="/73A02A44" Ref="K?"  Part="1" 
AR Path="/737A216F/73A02A44" Ref="K3"  Part="1" 
F 0 "K3" H 12230 1646 50  0000 L CNN
F 1 "RLY3" H 12230 1555 50  0000 L CNN
F 2 "Relay_THT:Relay_SPDT_SANYOU_SRD_Series_Form_C" H 12250 1550 50  0001 L CNN
F 3 "http://www.sanyourelay.ca/public/products/pdf/SRD.pdf" H 11800 1600 50  0001 C CNN
	1    11800 1600
	1    0    0    -1  
$EndComp
$Comp
L Device:Q_NPN_BEC Q?
U 1 1 73A02A4A
P 11500 2250
AR Path="/73A02A4A" Ref="Q?"  Part="1" 
AR Path="/737A216F/73A02A4A" Ref="Q8"  Part="1" 
F 0 "Q8" H 11690 2296 50  0000 L CNN
F 1 "C945_SMD" H 11690 2205 50  0000 L CNN
F 2 "Package_TO_SOT_SMD:SOT-23" H 11700 2350 50  0001 C CNN
F 3 "~" H 11500 2250 50  0001 C CNN
	1    11500 2250
	1    0    0    -1  
$EndComp
$Comp
L Device:R R?
U 1 1 73A02A50
P 11200 2500
AR Path="/73A02A50" Ref="R?"  Part="1" 
AR Path="/737A216F/73A02A50" Ref="R72"  Part="1" 
F 0 "R72" H 11250 2500 50  0000 L CNN
F 1 "4k7" V 11100 2450 50  0000 L CNN
F 2 "Resistor_SMD:R_0603_1608Metric" V 11130 2500 50  0001 C CNN
F 3 "~" H 11200 2500 50  0001 C CNN
	1    11200 2500
	1    0    0    -1  
$EndComp
$Comp
L Device:R R?
U 1 1 73A02A56
P 10950 2250
AR Path="/73A02A56" Ref="R?"  Part="1" 
AR Path="/737A216F/73A02A56" Ref="R71"  Part="1" 
F 0 "R71" V 11050 2200 50  0000 L CNN
F 1 "100R" V 10850 2150 50  0000 L CNN
F 2 "Resistor_SMD:R_0603_1608Metric" V 10880 2250 50  0001 C CNN
F 3 "~" H 10950 2250 50  0001 C CNN
	1    10950 2250
	0    -1   -1   0   
$EndComp
Wire Wire Line
	11100 2250 11200 2250
Wire Wire Line
	11200 2350 11200 2250
Connection ~ 11200 2250
Wire Wire Line
	11200 2250 11300 2250
Wire Wire Line
	11600 2050 11600 1950
$Comp
L Diode:1N4007 D?
U 1 1 73A02A61
P 11200 1600
AR Path="/73A02A61" Ref="D?"  Part="1" 
AR Path="/737A216F/73A02A61" Ref="D20"  Part="1" 
F 0 "D20" H 11300 1550 50  0000 L CNN
F 1 "1N4007" H 11050 1700 50  0000 L CNN
F 2 "Diode_SMD:D_SMA" H 11200 1425 50  0001 C CNN
F 3 "http://www.vishay.com/docs/88503/1n4001.pdf" H 11200 1600 50  0001 C CNN
	1    11200 1600
	0    1    1    0   
$EndComp
Wire Wire Line
	11600 1300 11600 1250
Wire Wire Line
	11200 1450 11200 1250
Wire Wire Line
	11200 1250 11600 1250
Connection ~ 11600 1250
Wire Wire Line
	11600 1250 11600 1100
Wire Wire Line
	11200 1750 11200 1950
Wire Wire Line
	11200 1950 11600 1950
Connection ~ 11600 1950
Wire Wire Line
	11600 1950 11600 1900
$Comp
L power:GND #PWR?
U 1 1 73A02A76
P 11600 2750
AR Path="/73A02A76" Ref="#PWR?"  Part="1" 
AR Path="/737A216F/73A02A76" Ref="#PWR0113"  Part="1" 
F 0 "#PWR0113" H 11600 2500 50  0001 C CNN
F 1 "GND" H 11605 2577 50  0000 C CNN
F 2 "" H 11600 2750 50  0001 C CNN
F 3 "" H 11600 2750 50  0001 C CNN
	1    11600 2750
	1    0    0    -1  
$EndComp
Wire Wire Line
	11600 2750 11600 2700
Wire Wire Line
	11200 2650 11200 2700
Wire Wire Line
	11200 2700 11600 2700
Connection ~ 11600 2700
Wire Wire Line
	11600 2700 11600 2450
$Comp
L Connector:Screw_Terminal_01x02 J?
U 1 1 73A02A81
P 12750 1550
AR Path="/73A02A81" Ref="J?"  Part="1" 
AR Path="/737A216F/73A02A81" Ref="J15"  Part="1" 
F 0 "J15" H 12700 1800 50  0000 L CNN
F 1 "RLY_OUT1" H 12550 1700 50  0000 L CNN
F 2 "TerminalBlock:TerminalBlock_bornier-2_P5.08mm" H 12750 1550 50  0001 C CNN
F 3 "~" H 12750 1550 50  0001 C CNN
	1    12750 1550
	1    0    0    -1  
$EndComp
Wire Wire Line
	12550 1550 12450 1550
Wire Wire Line
	12450 1550 12450 1200
Wire Wire Line
	12450 1200 12100 1200
Wire Wire Line
	12100 1200 12100 1300
Wire Wire Line
	12000 1900 12000 2000
Wire Wire Line
	12000 2000 12450 2000
Wire Wire Line
	12450 2000 12450 1650
Wire Wire Line
	12450 1650 12550 1650
Text Label 10400 2250 0    50   ~ 0
RLY_TRIG3
Wire Wire Line
	10400 2250 10800 2250
$Comp
L HLS6-4100H:SANYOU_SRD_Form_C K?
U 1 1 73A02A91
P 9600 1600
AR Path="/73A02A91" Ref="K?"  Part="1" 
AR Path="/737A216F/73A02A91" Ref="K2"  Part="1" 
F 0 "K2" H 10030 1646 50  0000 L CNN
F 1 "RLY2" H 10030 1555 50  0000 L CNN
F 2 "Relay_THT:Relay_SPDT_SANYOU_SRD_Series_Form_C" H 10050 1550 50  0001 L CNN
F 3 "http://www.sanyourelay.ca/public/products/pdf/SRD.pdf" H 9600 1600 50  0001 C CNN
	1    9600 1600
	1    0    0    -1  
$EndComp
$Comp
L Device:Q_NPN_BEC Q?
U 1 1 73A02A97
P 9300 2250
AR Path="/73A02A97" Ref="Q?"  Part="1" 
AR Path="/737A216F/73A02A97" Ref="Q7"  Part="1" 
F 0 "Q7" H 9490 2296 50  0000 L CNN
F 1 "C945_SMD" H 9490 2205 50  0000 L CNN
F 2 "Package_TO_SOT_SMD:SOT-23" H 9500 2350 50  0001 C CNN
F 3 "~" H 9300 2250 50  0001 C CNN
	1    9300 2250
	1    0    0    -1  
$EndComp
$Comp
L Device:R R?
U 1 1 73A02A9D
P 9000 2500
AR Path="/73A02A9D" Ref="R?"  Part="1" 
AR Path="/737A216F/73A02A9D" Ref="R70"  Part="1" 
F 0 "R70" H 9050 2500 50  0000 L CNN
F 1 "4k7" V 8900 2450 50  0000 L CNN
F 2 "Resistor_SMD:R_0603_1608Metric" V 8930 2500 50  0001 C CNN
F 3 "~" H 9000 2500 50  0001 C CNN
	1    9000 2500
	1    0    0    -1  
$EndComp
$Comp
L Device:R R?
U 1 1 73A02AA3
P 8750 2250
AR Path="/73A02AA3" Ref="R?"  Part="1" 
AR Path="/737A216F/73A02AA3" Ref="R69"  Part="1" 
F 0 "R69" V 8850 2200 50  0000 L CNN
F 1 "100R" V 8650 2150 50  0000 L CNN
F 2 "Resistor_SMD:R_0603_1608Metric" V 8680 2250 50  0001 C CNN
F 3 "~" H 8750 2250 50  0001 C CNN
	1    8750 2250
	0    -1   -1   0   
$EndComp
Wire Wire Line
	8900 2250 9000 2250
Wire Wire Line
	9000 2350 9000 2250
Connection ~ 9000 2250
Wire Wire Line
	9000 2250 9100 2250
Wire Wire Line
	9400 2050 9400 1950
$Comp
L Diode:1N4007 D?
U 1 1 73A02AAE
P 9000 1600
AR Path="/73A02AAE" Ref="D?"  Part="1" 
AR Path="/737A216F/73A02AAE" Ref="D19"  Part="1" 
F 0 "D19" H 9100 1550 50  0000 L CNN
F 1 "1N4007" H 8850 1700 50  0000 L CNN
F 2 "Diode_SMD:D_SMA" H 9000 1425 50  0001 C CNN
F 3 "http://www.vishay.com/docs/88503/1n4001.pdf" H 9000 1600 50  0001 C CNN
	1    9000 1600
	0    1    1    0   
$EndComp
Wire Wire Line
	9400 1300 9400 1250
Wire Wire Line
	9000 1450 9000 1250
Wire Wire Line
	9000 1250 9400 1250
Connection ~ 9400 1250
Wire Wire Line
	9400 1250 9400 1100
Wire Wire Line
	9000 1750 9000 1950
Wire Wire Line
	9000 1950 9400 1950
Connection ~ 9400 1950
Wire Wire Line
	9400 1950 9400 1900
$Comp
L power:GND #PWR?
U 1 1 73A02AC3
P 9400 2750
AR Path="/73A02AC3" Ref="#PWR?"  Part="1" 
AR Path="/737A216F/73A02AC3" Ref="#PWR0111"  Part="1" 
F 0 "#PWR0111" H 9400 2500 50  0001 C CNN
F 1 "GND" H 9405 2577 50  0000 C CNN
F 2 "" H 9400 2750 50  0001 C CNN
F 3 "" H 9400 2750 50  0001 C CNN
	1    9400 2750
	1    0    0    -1  
$EndComp
Wire Wire Line
	9400 2750 9400 2700
Wire Wire Line
	9000 2650 9000 2700
Wire Wire Line
	9000 2700 9400 2700
Connection ~ 9400 2700
Wire Wire Line
	9400 2700 9400 2450
$Comp
L Connector:Screw_Terminal_01x02 J?
U 1 1 73A02ACE
P 10550 1550
AR Path="/73A02ACE" Ref="J?"  Part="1" 
AR Path="/737A216F/73A02ACE" Ref="J14"  Part="1" 
F 0 "J14" H 10500 1800 50  0000 L CNN
F 1 "RLY_OUT1" H 10350 1700 50  0000 L CNN
F 2 "TerminalBlock:TerminalBlock_bornier-2_P5.08mm" H 10550 1550 50  0001 C CNN
F 3 "~" H 10550 1550 50  0001 C CNN
	1    10550 1550
	1    0    0    -1  
$EndComp
Wire Wire Line
	10350 1550 10250 1550
Wire Wire Line
	10250 1550 10250 1200
Wire Wire Line
	10250 1200 9900 1200
Wire Wire Line
	9900 1200 9900 1300
Wire Wire Line
	9800 1900 9800 2000
Wire Wire Line
	9800 2000 10250 2000
Wire Wire Line
	10250 2000 10250 1650
Wire Wire Line
	10250 1650 10350 1650
Text Label 8200 2250 0    50   ~ 0
RLY_TRIG2
Wire Wire Line
	8200 2250 8600 2250
$Comp
L Maduino_Zero_A9G_GPS_Tracker_v3.3-eagle-import:+3V3 #+3V?
U 1 1 73A02ADE
P 1950 850
AR Path="/73A02ADE" Ref="#+3V?"  Part="1" 
AR Path="/737A216F/73A02ADE" Ref="#+3V015"  Part="1" 
F 0 "#+3V015" H 1950 850 50  0001 C CNN
F 1 "+3V3" H 1950 972 59  0000 C CNN
F 2 "" H 1950 850 50  0001 C CNN
F 3 "" H 1950 850 50  0001 C CNN
	1    1950 850 
	1    0    0    -1  
$EndComp
Wire Wire Line
	1950 1100 1950 1000
Wire Wire Line
	1850 1100 1850 1000
Wire Wire Line
	1850 1000 1950 1000
Connection ~ 1950 1000
Wire Wire Line
	1950 1000 1950 950 
$Comp
L power:GND #PWR?
U 1 1 73A02AE9
P 1850 3100
AR Path="/73A02AE9" Ref="#PWR?"  Part="1" 
AR Path="/737A216F/73A02AE9" Ref="#PWR0101"  Part="1" 
F 0 "#PWR0101" H 1850 2850 50  0001 C CNN
F 1 "GND" H 1855 2927 50  0000 C CNN
F 2 "" H 1850 3100 50  0001 C CNN
F 3 "" H 1850 3100 50  0001 C CNN
	1    1850 3100
	1    0    0    -1  
$EndComp
Wire Wire Line
	1850 3000 1850 3050
Wire Wire Line
	1950 3000 1950 3050
Wire Wire Line
	1950 3050 1850 3050
Connection ~ 1850 3050
Wire Wire Line
	1850 3050 1850 3100
Wire Wire Line
	2050 1100 2050 1000
Wire Wire Line
	2050 1000 1950 1000
Text Label 800  2600 0    50   ~ 0
RLY_TRIG1
Text Label 800  2700 0    50   ~ 0
RLY_TRIG2
Text Label 800  2800 0    50   ~ 0
RLY_TRIG3
Text Label 800  1500 0    50   ~ 0
BOOT0
Wire Wire Line
	800  1500 1350 1500
Text Label 800  1300 0    50   ~ 0
NRST
Wire Wire Line
	800  1300 1350 1300
$Comp
L Connector_Generic:Conn_01x03 J?
U 1 1 73A02AFD
P 4500 1250
AR Path="/73A02AFD" Ref="J?"  Part="1" 
AR Path="/737A216F/73A02AFD" Ref="J12"  Part="1" 
F 0 "J12" H 4500 900 50  0000 C CNN
F 1 "BOOT_Mode" H 4500 1000 50  0000 C CNN
F 2 "Connector_PinHeader_2.54mm:PinHeader_1x03_P2.54mm_Vertical" H 4500 1250 50  0001 C CNN
F 3 "~" H 4500 1250 50  0001 C CNN
	1    4500 1250
	-1   0    0    1   
$EndComp
Text Label 5400 1250 2    50   ~ 0
BOOT0
$Comp
L Device:R R?
U 1 1 73A02B04
P 4950 1250
AR Path="/73A02B04" Ref="R?"  Part="1" 
AR Path="/737A216F/73A02B04" Ref="R66"  Part="1" 
F 0 "R66" V 4850 1200 50  0000 L CNN
F 1 "100k" V 5050 1150 50  0000 L CNN
F 2 "Resistor_SMD:R_0603_1608Metric" V 4880 1250 50  0001 C CNN
F 3 "~" H 4950 1250 50  0001 C CNN
	1    4950 1250
	0    1    1    0   
$EndComp
Wire Wire Line
	4800 1250 4700 1250
Wire Wire Line
	5400 1250 5100 1250
$Comp
L Maduino_Zero_A9G_GPS_Tracker_v3.3-eagle-import:+3V3 #+3V?
U 1 1 73A02B0C
P 4800 850
AR Path="/73A02B0C" Ref="#+3V?"  Part="1" 
AR Path="/737A216F/73A02B0C" Ref="#+3V019"  Part="1" 
F 0 "#+3V019" H 4800 850 50  0001 C CNN
F 1 "+3V3" H 4800 972 59  0000 C CNN
F 2 "" H 4800 850 50  0001 C CNN
F 3 "" H 4800 850 50  0001 C CNN
	1    4800 850 
	1    0    0    -1  
$EndComp
Wire Wire Line
	4700 1150 4800 1150
Wire Wire Line
	4800 1150 4800 950 
$Comp
L power:GND #PWR?
U 1 1 73A02B14
P 4800 1450
AR Path="/73A02B14" Ref="#PWR?"  Part="1" 
AR Path="/737A216F/73A02B14" Ref="#PWR0106"  Part="1" 
F 0 "#PWR0106" H 4800 1200 50  0001 C CNN
F 1 "GND" H 4805 1277 50  0000 C CNN
F 2 "" H 4800 1450 50  0001 C CNN
F 3 "" H 4800 1450 50  0001 C CNN
	1    4800 1450
	1    0    0    -1  
$EndComp
Wire Wire Line
	4700 1350 4800 1350
Wire Wire Line
	4800 1350 4800 1450
$Comp
L Device:R R?
U 1 1 73A02B1C
P 3850 1150
AR Path="/73A02B1C" Ref="R?"  Part="1" 
AR Path="/737A216F/73A02B1C" Ref="R65"  Part="1" 
F 0 "R65" H 3900 1250 50  0000 L CNN
F 1 "10k" H 3900 1150 50  0000 L CNN
F 2 "Resistor_SMD:R_0603_1608Metric" V 3780 1150 50  0001 C CNN
F 3 "~" H 3850 1150 50  0001 C CNN
	1    3850 1150
	1    0    0    -1  
$EndComp
Text Label 4200 1350 2    50   ~ 0
NRST
$Comp
L Switch:SW_Push SW?
U 1 1 73A02B23
P 3850 1600
AR Path="/73A02B23" Ref="SW?"  Part="1" 
AR Path="/737A216F/73A02B23" Ref="SW4"  Part="1" 
F 0 "SW4" V 3804 1748 50  0000 L CNN
F 1 "SW_Push" V 3895 1748 50  0000 L CNN
F 2 "Button_Switch_SMD:SW_SPST_TL3342" H 3850 1800 50  0001 C CNN
F 3 "~" H 3850 1800 50  0001 C CNN
	1    3850 1600
	0    1    1    0   
$EndComp
Wire Wire Line
	3850 1300 3850 1350
$Comp
L Device:C C?
U 1 1 73A02B2A
P 3550 1600
AR Path="/73A02B2A" Ref="C?"  Part="1" 
AR Path="/737A216F/73A02B2A" Ref="C46"  Part="1" 
F 0 "C46" H 3665 1646 50  0000 L CNN
F 1 "104" H 3665 1555 50  0000 L CNN
F 2 "Capacitor_SMD:C_0603_1608Metric" H 3588 1450 50  0001 C CNN
F 3 "~" H 3550 1600 50  0001 C CNN
	1    3550 1600
	1    0    0    -1  
$EndComp
Wire Wire Line
	4200 1350 3850 1350
Connection ~ 3850 1350
Wire Wire Line
	3850 1350 3850 1400
Wire Wire Line
	3550 1450 3550 1350
Wire Wire Line
	3550 1350 3850 1350
$Comp
L power:GND #PWR?
U 1 1 73A02B35
P 3850 1900
AR Path="/73A02B35" Ref="#PWR?"  Part="1" 
AR Path="/737A216F/73A02B35" Ref="#PWR0104"  Part="1" 
F 0 "#PWR0104" H 3850 1650 50  0001 C CNN
F 1 "GND" H 3855 1727 50  0000 C CNN
F 2 "" H 3850 1900 50  0001 C CNN
F 3 "" H 3850 1900 50  0001 C CNN
	1    3850 1900
	1    0    0    -1  
$EndComp
Wire Wire Line
	3850 1900 3850 1850
Wire Wire Line
	3550 1750 3550 1850
Wire Wire Line
	3550 1850 3850 1850
Connection ~ 3850 1850
Wire Wire Line
	3850 1850 3850 1800
$Comp
L Maduino_Zero_A9G_GPS_Tracker_v3.3-eagle-import:+3V3 #+3V?
U 1 1 73A02B40
P 3850 850
AR Path="/73A02B40" Ref="#+3V?"  Part="1" 
AR Path="/737A216F/73A02B40" Ref="#+3V018"  Part="1" 
F 0 "#+3V018" H 3850 850 50  0001 C CNN
F 1 "+3V3" H 3850 972 59  0000 C CNN
F 2 "" H 3850 850 50  0001 C CNN
F 3 "" H 3850 850 50  0001 C CNN
	1    3850 850 
	1    0    0    -1  
$EndComp
Wire Wire Line
	3850 950  3850 1000
$Comp
L Device:Crystal Y?
U 1 1 73A02B47
P 4900 2200
AR Path="/73A02B47" Ref="Y?"  Part="1" 
AR Path="/737A216F/73A02B47" Ref="Y2"  Part="1" 
F 0 "Y2" H 4900 1932 50  0000 C CNN
F 1 "8MHz" H 4900 2023 50  0000 C CNN
F 2 "Crystal:Crystal_HC49-4H_Vertical" H 4900 2200 50  0001 C CNN
F 3 "~" H 4900 2200 50  0001 C CNN
	1    4900 2200
	-1   0    0    1   
$EndComp
$Comp
L Device:C C?
U 1 1 73A02B4D
P 4650 2450
AR Path="/73A02B4D" Ref="C?"  Part="1" 
AR Path="/737A216F/73A02B4D" Ref="C47"  Part="1" 
F 0 "C47" H 4765 2496 50  0000 L CNN
F 1 "22pF" H 4765 2405 50  0000 L CNN
F 2 "Capacitor_SMD:C_0402_1005Metric" H 4688 2300 50  0001 C CNN
F 3 "~" H 4650 2450 50  0001 C CNN
	1    4650 2450
	1    0    0    -1  
$EndComp
$Comp
L Device:C C?
U 1 1 73A02B53
P 5150 2450
AR Path="/73A02B53" Ref="C?"  Part="1" 
AR Path="/737A216F/73A02B53" Ref="C48"  Part="1" 
F 0 "C48" H 5265 2496 50  0000 L CNN
F 1 "22pF" H 5265 2405 50  0000 L CNN
F 2 "Capacitor_SMD:C_0402_1005Metric" H 5188 2300 50  0001 C CNN
F 3 "~" H 5150 2450 50  0001 C CNN
	1    5150 2450
	1    0    0    -1  
$EndComp
Text Label 800  1900 0    50   ~ 0
OSC_IN
Text Label 800  2000 0    50   ~ 0
OSC_OUT
Wire Wire Line
	800  1900 1350 1900
Wire Wire Line
	800  2000 1350 2000
Text Label 4300 2200 0    50   ~ 0
OSC_IN
Text Label 5550 2200 2    50   ~ 0
OSC_OUT
Wire Wire Line
	5550 2200 5150 2200
Wire Wire Line
	4300 2200 4650 2200
Wire Wire Line
	4650 2300 4650 2200
Connection ~ 4650 2200
Wire Wire Line
	4650 2200 4750 2200
Wire Wire Line
	5150 2300 5150 2200
Connection ~ 5150 2200
Wire Wire Line
	5150 2200 5050 2200
$Comp
L power:GND #PWR?
U 1 1 73A02B67
P 4650 2650
AR Path="/73A02B67" Ref="#PWR?"  Part="1" 
AR Path="/737A216F/73A02B67" Ref="#PWR0105"  Part="1" 
F 0 "#PWR0105" H 4650 2400 50  0001 C CNN
F 1 "GND" H 4655 2477 50  0000 C CNN
F 2 "" H 4650 2650 50  0001 C CNN
F 3 "" H 4650 2650 50  0001 C CNN
	1    4650 2650
	1    0    0    -1  
$EndComp
Wire Wire Line
	4650 2650 4650 2600
$Comp
L power:GND #PWR?
U 1 1 73A02B6E
P 5150 2650
AR Path="/73A02B6E" Ref="#PWR?"  Part="1" 
AR Path="/737A216F/73A02B6E" Ref="#PWR0107"  Part="1" 
F 0 "#PWR0107" H 5150 2400 50  0001 C CNN
F 1 "GND" H 5155 2477 50  0000 C CNN
F 2 "" H 5150 2650 50  0001 C CNN
F 3 "" H 5150 2650 50  0001 C CNN
	1    5150 2650
	1    0    0    -1  
$EndComp
Wire Wire Line
	5150 2650 5150 2600
$Comp
L Device:C C?
U 1 1 73A02B75
P 3250 1150
AR Path="/73A02B75" Ref="C?"  Part="1" 
AR Path="/737A216F/73A02B75" Ref="C45"  Part="1" 
F 0 "C45" H 3365 1196 50  0000 L CNN
F 1 "104" H 3365 1105 50  0000 L CNN
F 2 "Capacitor_SMD:C_0603_1608Metric" H 3288 1000 50  0001 C CNN
F 3 "~" H 3250 1150 50  0001 C CNN
	1    3250 1150
	1    0    0    -1  
$EndComp
$Comp
L Maduino_Zero_A9G_GPS_Tracker_v3.3-eagle-import:+3V3 #+3V?
U 1 1 73A02B7B
P 3250 850
AR Path="/73A02B7B" Ref="#+3V?"  Part="1" 
AR Path="/737A216F/73A02B7B" Ref="#+3V016"  Part="1" 
F 0 "#+3V016" H 3250 850 50  0001 C CNN
F 1 "+3V3" H 3250 972 59  0000 C CNN
F 2 "" H 3250 850 50  0001 C CNN
F 3 "" H 3250 850 50  0001 C CNN
	1    3250 850 
	1    0    0    -1  
$EndComp
$Comp
L power:GND #PWR?
U 1 1 73A02B81
P 3250 1350
AR Path="/73A02B81" Ref="#PWR?"  Part="1" 
AR Path="/737A216F/73A02B81" Ref="#PWR0102"  Part="1" 
F 0 "#PWR0102" H 3250 1100 50  0001 C CNN
F 1 "GND" H 3255 1177 50  0000 C CNN
F 2 "" H 3250 1350 50  0001 C CNN
F 3 "" H 3250 1350 50  0001 C CNN
	1    3250 1350
	1    0    0    -1  
$EndComp
Wire Wire Line
	3250 1300 3250 1350
Wire Wire Line
	3250 950  3250 1000
$Comp
L Connector_Generic:Conn_01x04 J?
U 1 1 73A02B89
P 3900 2600
AR Path="/73A02B89" Ref="J?"  Part="1" 
AR Path="/737A216F/73A02B89" Ref="J11"  Part="1" 
F 0 "J11" H 3980 2592 50  0000 L CNN
F 1 "STM32_PG" H 3980 2501 50  0000 L CNN
F 2 "Connector_PinHeader_2.54mm:PinHeader_1x04_P2.54mm_Vertical" H 3900 2600 50  0001 C CNN
F 3 "~" H 3900 2600 50  0001 C CNN
	1    3900 2600
	1    0    0    -1  
$EndComp
Text Label 3000 2600 2    50   ~ 0
SWDIO
Wire Wire Line
	3000 2600 2450 2600
Text Label 3000 2700 2    50   ~ 0
SWCLK
Wire Wire Line
	3000 2700 2450 2700
Text Label 3350 2600 0    50   ~ 0
SWDIO
Text Label 3350 2700 0    50   ~ 0
SWCLK
$Comp
L Maduino_Zero_A9G_GPS_Tracker_v3.3-eagle-import:+3V3 #+3V?
U 1 1 73A02B95
P 3600 2300
AR Path="/73A02B95" Ref="#+3V?"  Part="1" 
AR Path="/737A216F/73A02B95" Ref="#+3V017"  Part="1" 
F 0 "#+3V017" H 3600 2300 50  0001 C CNN
F 1 "+3V3" H 3600 2422 59  0000 C CNN
F 2 "" H 3600 2300 50  0001 C CNN
F 3 "" H 3600 2300 50  0001 C CNN
	1    3600 2300
	1    0    0    -1  
$EndComp
$Comp
L power:GND #PWR?
U 1 1 73A02B9B
P 3600 2900
AR Path="/73A02B9B" Ref="#PWR?"  Part="1" 
AR Path="/737A216F/73A02B9B" Ref="#PWR0103"  Part="1" 
F 0 "#PWR0103" H 3600 2650 50  0001 C CNN
F 1 "GND" H 3605 2727 50  0000 C CNN
F 2 "" H 3600 2900 50  0001 C CNN
F 3 "" H 3600 2900 50  0001 C CNN
	1    3600 2900
	1    0    0    -1  
$EndComp
Wire Wire Line
	3600 2900 3600 2800
Wire Wire Line
	3600 2800 3700 2800
Wire Wire Line
	3600 2400 3600 2500
Wire Wire Line
	3600 2500 3700 2500
Wire Wire Line
	3350 2600 3700 2600
Wire Wire Line
	3350 2700 3700 2700
Text Notes 650  700  0    50   ~ 0
STM32 MCU
Wire Notes Line
	600  600  5650 600 
Wire Notes Line
	13000 600  13000 3450
Wire Notes Line
	13000 3450 5800 3450
Wire Notes Line
	5800 3450 5800 600 
Wire Notes Line
	5800 600  13000 600 
Text Notes 5850 700  0    50   ~ 0
Relay Outputs
Wire Wire Line
	800  2600 1350 2600
Wire Wire Line
	800  2700 1350 2700
Wire Wire Line
	800  2800 1350 2800
Text HLabel 2650 1500 2    50   Input ~ 0
USART1_TX
Text HLabel 2650 1600 2    50   Input ~ 0
USART1_RX
Wire Wire Line
	2650 1500 2450 1500
Wire Wire Line
	2650 1600 2450 1600
Text Label 3000 1700 2    50   ~ 0
SPI1_NSS
Wire Wire Line
	3000 1700 2450 1700
Text Label 3000 1800 2    50   ~ 0
SPI1_SCK
Text Label 3000 1900 2    50   ~ 0
SPI1_MISO
Text Label 3000 2000 2    50   ~ 0
SPI1_MOSI
Wire Wire Line
	3000 1800 2450 1800
Wire Wire Line
	3000 1900 2450 1900
Wire Wire Line
	3000 2000 2450 2000
Text Label 3000 2200 2    50   ~ 0
I2C1_SCL
Text Label 3000 2300 2    50   ~ 0
I2C1_SDA
Wire Wire Line
	3000 2200 2450 2200
Wire Wire Line
	3000 2300 2450 2300
Text Label 2050 3950 0    50   ~ 0
SPI1_NSS
Wire Wire Line
	2050 3950 2600 3950
Text Label 2050 3850 0    50   ~ 0
SPI1_SCK
Text Label 2050 3750 0    50   ~ 0
SPI1_MISO
Text Label 2050 3650 0    50   ~ 0
SPI1_MOSI
Wire Wire Line
	2050 3850 2600 3850
Wire Wire Line
	2050 3750 2600 3750
Wire Wire Line
	2050 3650 2600 3650
$Comp
L Connector_Generic:Conn_01x06 J17
U 1 1 74912775
P 2800 3750
F 0 "J17" H 2880 3742 50  0000 L CNN
F 1 "STM32_SPI1" H 2880 3651 50  0000 L CNN
F 2 "Connector_PinHeader_2.54mm:PinHeader_1x06_P2.54mm_Vertical" H 2800 3750 50  0001 C CNN
F 3 "~" H 2800 3750 50  0001 C CNN
	1    2800 3750
	1    0    0    -1  
$EndComp
$Comp
L Maduino_Zero_A9G_GPS_Tracker_v3.3-eagle-import:+3V3 #+3V?
U 1 1 74920530
P 2500 3400
AR Path="/74920530" Ref="#+3V?"  Part="1" 
AR Path="/737A216F/74920530" Ref="#+3V021"  Part="1" 
F 0 "#+3V021" H 2500 3400 50  0001 C CNN
F 1 "+3V3" H 2500 3522 59  0000 C CNN
F 2 "" H 2500 3400 50  0001 C CNN
F 3 "" H 2500 3400 50  0001 C CNN
	1    2500 3400
	1    0    0    -1  
$EndComp
$Comp
L power:GND #PWR?
U 1 1 74920869
P 2500 4100
AR Path="/74920869" Ref="#PWR?"  Part="1" 
AR Path="/737A216F/74920869" Ref="#PWR0115"  Part="1" 
F 0 "#PWR0115" H 2500 3850 50  0001 C CNN
F 1 "GND" H 2505 3927 50  0000 C CNN
F 2 "" H 2500 4100 50  0001 C CNN
F 3 "" H 2500 4100 50  0001 C CNN
	1    2500 4100
	1    0    0    -1  
$EndComp
Wire Wire Line
	2600 4050 2500 4050
Wire Wire Line
	2500 4050 2500 4100
Wire Wire Line
	2500 3500 2500 3550
Wire Wire Line
	2500 3550 2600 3550
$Comp
L Connector_Generic:Conn_01x04 J?
U 1 1 74937A18
P 4950 3650
AR Path="/74937A18" Ref="J?"  Part="1" 
AR Path="/737A216F/74937A18" Ref="J18"  Part="1" 
F 0 "J18" H 5030 3642 50  0000 L CNN
F 1 "STM32_I2C1" H 5030 3551 50  0000 L CNN
F 2 "Connector_PinHeader_2.54mm:PinHeader_1x04_P2.54mm_Vertical" H 4950 3650 50  0001 C CNN
F 3 "~" H 4950 3650 50  0001 C CNN
	1    4950 3650
	1    0    0    -1  
$EndComp
$Comp
L Maduino_Zero_A9G_GPS_Tracker_v3.3-eagle-import:+3V3 #+3V?
U 1 1 749567B5
P 4700 3400
AR Path="/749567B5" Ref="#+3V?"  Part="1" 
AR Path="/737A216F/749567B5" Ref="#+3V022"  Part="1" 
F 0 "#+3V022" H 4700 3400 50  0001 C CNN
F 1 "+3V3" H 4700 3522 59  0000 C CNN
F 2 "" H 4700 3400 50  0001 C CNN
F 3 "" H 4700 3400 50  0001 C CNN
	1    4700 3400
	1    0    0    -1  
$EndComp
$Comp
L power:GND #PWR?
U 1 1 7495DA27
P 4700 3900
AR Path="/7495DA27" Ref="#PWR?"  Part="1" 
AR Path="/737A216F/7495DA27" Ref="#PWR0116"  Part="1" 
F 0 "#PWR0116" H 4700 3650 50  0001 C CNN
F 1 "GND" H 4705 3727 50  0000 C CNN
F 2 "" H 4700 3900 50  0001 C CNN
F 3 "" H 4700 3900 50  0001 C CNN
	1    4700 3900
	1    0    0    -1  
$EndComp
Wire Wire Line
	4750 3850 4700 3850
Wire Wire Line
	4700 3850 4700 3900
Wire Wire Line
	4750 3550 4700 3550
Wire Wire Line
	4700 3550 4700 3500
Text Label 3000 1300 2    50   ~ 0
PA0
Text Label 3000 1400 2    50   ~ 0
PA1
Wire Wire Line
	3000 1300 2450 1300
Wire Wire Line
	3000 1400 2450 1400
Text Label 800  2200 0    50   ~ 0
PB0
Text Label 800  2300 0    50   ~ 0
PB1
Wire Wire Line
	800  2200 1350 2200
Wire Wire Line
	800  2300 1350 2300
Text Label 3000 2100 2    50   ~ 0
PA8
Wire Wire Line
	3000 2100 2450 2100
Text Label 3000 2400 2    50   ~ 0
PA11
Text Label 3000 2500 2    50   ~ 0
PA12
Wire Wire Line
	3000 2400 2450 2400
Wire Wire Line
	3000 2500 2450 2500
Text Label 800  3500 0    50   ~ 0
PA0
Text Label 800  3600 0    50   ~ 0
PA1
Text Label 800  3700 0    50   ~ 0
PB0
Text Label 800  3800 0    50   ~ 0
PB1
Text Label 800  4000 0    50   ~ 0
PA11
Text Label 800  4100 0    50   ~ 0
PA12
Text Label 800  3900 0    50   ~ 0
PA8
$Comp
L Connector_Generic:Conn_01x11 J16
U 1 1 749B0DE3
P 1350 3800
F 0 "J16" H 1430 3842 50  0000 L CNN
F 1 "STM32_IOs" H 1430 3751 50  0000 L CNN
F 2 "Connector_PinHeader_2.54mm:PinHeader_1x11_P2.54mm_Vertical" H 1350 3800 50  0001 C CNN
F 3 "~" H 1350 3800 50  0001 C CNN
	1    1350 3800
	1    0    0    -1  
$EndComp
$Comp
L power:GND #PWR?
U 1 1 749BAA24
P 1050 4350
AR Path="/749BAA24" Ref="#PWR?"  Part="1" 
AR Path="/737A216F/749BAA24" Ref="#PWR0114"  Part="1" 
F 0 "#PWR0114" H 1050 4100 50  0001 C CNN
F 1 "GND" H 1055 4177 50  0000 C CNN
F 2 "" H 1050 4350 50  0001 C CNN
F 3 "" H 1050 4350 50  0001 C CNN
	1    1050 4350
	1    0    0    -1  
$EndComp
$Comp
L Maduino_Zero_A9G_GPS_Tracker_v3.3-eagle-import:+3V3 #+3V?
U 1 1 749BAD07
P 1050 3150
AR Path="/749BAD07" Ref="#+3V?"  Part="1" 
AR Path="/737A216F/749BAD07" Ref="#+3V020"  Part="1" 
F 0 "#+3V020" H 1050 3150 50  0001 C CNN
F 1 "+3V3" H 1050 3272 59  0000 C CNN
F 2 "" H 1050 3150 50  0001 C CNN
F 3 "" H 1050 3150 50  0001 C CNN
	1    1050 3150
	1    0    0    -1  
$EndComp
Wire Wire Line
	800  3500 1150 3500
Wire Wire Line
	800  3600 1150 3600
Wire Wire Line
	800  3900 1150 3900
Wire Wire Line
	800  4000 1150 4000
Wire Wire Line
	800  4100 1150 4100
Wire Wire Line
	800  3700 1150 3700
Wire Wire Line
	800  3800 1150 3800
Wire Wire Line
	1150 4200 1050 4200
Wire Wire Line
	1050 4200 1050 4300
Wire Wire Line
	1150 4300 1050 4300
Connection ~ 1050 4300
Wire Wire Line
	1050 4300 1050 4350
Wire Wire Line
	1050 3250 1050 3300
Wire Wire Line
	1050 3400 1150 3400
Wire Wire Line
	1150 3300 1050 3300
Connection ~ 1050 3300
Wire Wire Line
	1050 3300 1050 3400
Wire Notes Line
	5650 4650 600  4650
Wire Notes Line
	600  600  600  4650
Wire Notes Line
	5650 600  5650 4650
$Comp
L power:+5V #PWR018
U 1 1 7540BD60
P 7200 1100
F 0 "#PWR018" H 7200 950 50  0001 C CNN
F 1 "+5V" H 7215 1273 50  0000 C CNN
F 2 "" H 7200 1100 50  0001 C CNN
F 3 "" H 7200 1100 50  0001 C CNN
	1    7200 1100
	1    0    0    -1  
$EndComp
$Comp
L power:+5V #PWR027
U 1 1 7540C639
P 9400 1100
F 0 "#PWR027" H 9400 950 50  0001 C CNN
F 1 "+5V" H 9415 1273 50  0000 C CNN
F 2 "" H 9400 1100 50  0001 C CNN
F 3 "" H 9400 1100 50  0001 C CNN
	1    9400 1100
	1    0    0    -1  
$EndComp
$Comp
L power:+5V #PWR028
U 1 1 7540CC56
P 11600 1100
F 0 "#PWR028" H 11600 950 50  0001 C CNN
F 1 "+5V" H 11615 1273 50  0000 C CNN
F 2 "" H 11600 1100 50  0001 C CNN
F 3 "" H 11600 1100 50  0001 C CNN
	1    11600 1100
	1    0    0    -1  
$EndComp
$Comp
L My_Lib_KiCAD:A9_GSM_Module U1
U 1 1 643786BF
P 3000 5950
F 0 "U1" H 3000 6915 50  0000 C CNN
F 1 "A9_GSM_Module" H 3000 6824 50  0000 C CNN
F 2 "BA56-12EWA(3Digit7Segment):A9_GSM_Module" H 2200 6950 50  0001 C CNN
F 3 "" H 2400 6950 50  0001 C CNN
	1    3000 5950
	1    0    0    -1  
$EndComp
Wire Wire Line
	4000 6650 4250 6650
Wire Wire Line
	4250 6650 4250 6600
$Comp
L power:GND #PWR?
U 1 1 6438AA83
P 4250 6800
AR Path="/6438AA83" Ref="#PWR?"  Part="1" 
AR Path="/737A216F/6438AA83" Ref="#PWR054"  Part="1" 
F 0 "#PWR054" H 4250 6550 50  0001 C CNN
F 1 "GND" H 4255 6627 50  0000 C CNN
F 2 "" H 4250 6800 50  0001 C CNN
F 3 "" H 4250 6800 50  0001 C CNN
	1    4250 6800
	1    0    0    -1  
$EndComp
Wire Wire Line
	4000 6750 4250 6750
Wire Wire Line
	4250 6750 4250 6800
Wire Wire Line
	1750 5350 2000 5350
$Comp
L power:GND #PWR?
U 1 1 643A5AEA
P 1800 4900
AR Path="/643A5AEA" Ref="#PWR?"  Part="1" 
AR Path="/737A216F/643A5AEA" Ref="#PWR048"  Part="1" 
F 0 "#PWR048" H 1800 4650 50  0001 C CNN
F 1 "GND" H 1805 4727 50  0000 C CNN
F 2 "" H 1800 4900 50  0001 C CNN
F 3 "" H 1800 4900 50  0001 C CNN
	1    1800 4900
	1    0    0    -1  
$EndComp
Wire Wire Line
	2000 5250 1950 5250
Wire Wire Line
	1950 5250 1950 4850
Wire Wire Line
	1950 4850 1800 4850
Wire Wire Line
	1800 4850 1800 4900
Text HLabel 4150 5250 2    50   Input ~ 0
A9_TXD
Wire Wire Line
	4150 5250 4000 5250
Text HLabel 4150 5350 2    50   Input ~ 0
A9_RXD
Wire Wire Line
	4150 5350 4000 5350
Wire Notes Line
	5650 4750 5650 7100
Wire Notes Line
	5650 7100 600  7100
Wire Notes Line
	600  7100 600  4750
Wire Notes Line
	600  4750 5650 4750
$Comp
L Connector_Generic:Conn_01x04 J?
U 1 1 6465BAB8
P 4800 6250
AR Path="/6465BAB8" Ref="J?"  Part="1" 
AR Path="/737A216F/6465BAB8" Ref="J6"  Part="1" 
F 0 "J6" H 4880 6242 50  0000 L CNN
F 1 "A9_PG" H 4880 6151 50  0000 L CNN
F 2 "Connector_PinHeader_2.54mm:PinHeader_1x04_P2.54mm_Vertical" H 4800 6250 50  0001 C CNN
F 3 "~" H 4800 6250 50  0001 C CNN
	1    4800 6250
	1    0    0    -1  
$EndComp
$Comp
L power:+5VA #PWR050
U 1 1 6437E492
P 4250 6600
F 0 "#PWR050" H 4250 6450 50  0001 C CNN
F 1 "+5VA" H 4265 6773 50  0000 C CNN
F 2 "" H 4250 6600 50  0001 C CNN
F 3 "" H 4250 6600 50  0001 C CNN
	1    4250 6600
	1    0    0    -1  
$EndComp
$Comp
L power:+5VA #PWR058
U 1 1 6465CEC3
P 4550 6100
F 0 "#PWR058" H 4550 5950 50  0001 C CNN
F 1 "+5VA" H 4565 6273 50  0000 C CNN
F 2 "" H 4550 6100 50  0001 C CNN
F 3 "" H 4550 6100 50  0001 C CNN
	1    4550 6100
	1    0    0    -1  
$EndComp
$Comp
L power:GND #PWR?
U 1 1 6465D0EC
P 4550 6500
AR Path="/6465D0EC" Ref="#PWR?"  Part="1" 
AR Path="/737A216F/6465D0EC" Ref="#PWR059"  Part="1" 
F 0 "#PWR059" H 4550 6250 50  0001 C CNN
F 1 "GND" H 4555 6327 50  0000 C CNN
F 2 "" H 4550 6500 50  0001 C CNN
F 3 "" H 4550 6500 50  0001 C CNN
	1    4550 6500
	1    0    0    -1  
$EndComp
Wire Wire Line
	4000 6250 4600 6250
Wire Wire Line
	4000 6350 4600 6350
Wire Wire Line
	4550 6500 4550 6450
Wire Wire Line
	4550 6450 4600 6450
Wire Wire Line
	4600 6150 4550 6150
Wire Wire Line
	4550 6150 4550 6100
Text HLabel 1750 5350 0    50   Input ~ 0
VIN_5V
$Comp
L Device:C C?
U 1 1 64797ADE
P 4900 5500
AR Path="/64797ADE" Ref="C?"  Part="1" 
AR Path="/737A216F/64797ADE" Ref="C17"  Part="1" 
F 0 "C17" H 5015 5546 50  0000 L CNN
F 1 "104" H 5015 5455 50  0000 L CNN
F 2 "Capacitor_SMD:C_0603_1608Metric" H 4938 5350 50  0001 C CNN
F 3 "~" H 4900 5500 50  0001 C CNN
	1    4900 5500
	1    0    0    -1  
$EndComp
$Comp
L power:+5VA #PWR060
U 1 1 647986D5
P 4900 5300
F 0 "#PWR060" H 4900 5150 50  0001 C CNN
F 1 "+5VA" H 4915 5473 50  0000 C CNN
F 2 "" H 4900 5300 50  0001 C CNN
F 3 "" H 4900 5300 50  0001 C CNN
	1    4900 5300
	1    0    0    -1  
$EndComp
$Comp
L power:GND #PWR?
U 1 1 647988E4
P 4900 5700
AR Path="/647988E4" Ref="#PWR?"  Part="1" 
AR Path="/737A216F/647988E4" Ref="#PWR063"  Part="1" 
F 0 "#PWR063" H 4900 5450 50  0001 C CNN
F 1 "GND" H 4905 5527 50  0000 C CNN
F 2 "" H 4900 5700 50  0001 C CNN
F 3 "" H 4900 5700 50  0001 C CNN
	1    4900 5700
	1    0    0    -1  
$EndComp
Wire Wire Line
	4900 5700 4900 5650
Wire Wire Line
	4900 5350 4900 5300
Text Notes 650  4900 0    50   ~ 0
A9 Pudding Board
$Comp
L Device:R R?
U 1 1 652EDA2C
P 4350 3400
AR Path="/652EDA2C" Ref="R?"  Part="1" 
AR Path="/737A216F/652EDA2C" Ref="R73"  Part="1" 
F 0 "R73" H 4400 3500 50  0000 L CNN
F 1 "4k7" H 4400 3400 50  0000 L CNN
F 2 "Resistor_SMD:R_0603_1608Metric" V 4280 3400 50  0001 C CNN
F 3 "~" H 4350 3400 50  0001 C CNN
	1    4350 3400
	1    0    0    -1  
$EndComp
$Comp
L Device:R R?
U 1 1 65308796
P 4000 3400
AR Path="/65308796" Ref="R?"  Part="1" 
AR Path="/737A216F/65308796" Ref="R11"  Part="1" 
F 0 "R11" H 4050 3500 50  0000 L CNN
F 1 "4k7" H 4050 3400 50  0000 L CNN
F 2 "Resistor_SMD:R_0603_1608Metric" V 3930 3400 50  0001 C CNN
F 3 "~" H 4000 3400 50  0001 C CNN
	1    4000 3400
	1    0    0    -1  
$EndComp
$Comp
L Device:C C?
U 1 1 653151F0
P 4350 4050
AR Path="/653151F0" Ref="C?"  Part="1" 
AR Path="/737A216F/653151F0" Ref="C21"  Part="1" 
F 0 "C21" H 4465 4096 50  0000 L CNN
F 1 "104" H 4465 4005 50  0000 L CNN
F 2 "Capacitor_SMD:C_0603_1608Metric" H 4388 3900 50  0001 C CNN
F 3 "~" H 4350 4050 50  0001 C CNN
	1    4350 4050
	1    0    0    -1  
$EndComp
$Comp
L Device:C C?
U 1 1 65315E5B
P 4000 4050
AR Path="/65315E5B" Ref="C?"  Part="1" 
AR Path="/737A216F/65315E5B" Ref="C19"  Part="1" 
F 0 "C19" H 4115 4096 50  0000 L CNN
F 1 "104" H 4115 4005 50  0000 L CNN
F 2 "Capacitor_SMD:C_0603_1608Metric" H 4038 3900 50  0001 C CNN
F 3 "~" H 4000 4050 50  0001 C CNN
	1    4000 4050
	1    0    0    -1  
$EndComp
Text Label 3450 3750 0    50   ~ 0
I2C1_SDA
Text Label 3450 3650 0    50   ~ 0
I2C1_SCL
Wire Wire Line
	3450 3650 4000 3650
Wire Wire Line
	3450 3750 4350 3750
Wire Wire Line
	4000 3550 4000 3650
Connection ~ 4000 3650
Wire Wire Line
	4000 3650 4750 3650
Wire Wire Line
	4000 3900 4000 3650
Wire Wire Line
	4350 3900 4350 3750
Connection ~ 4350 3750
Wire Wire Line
	4350 3750 4750 3750
Wire Wire Line
	4350 3550 4350 3750
$Comp
L Maduino_Zero_A9G_GPS_Tracker_v3.3-eagle-import:+3V3 #+3V?
U 1 1 653DFE5D
P 4000 3100
AR Path="/653DFE5D" Ref="#+3V?"  Part="1" 
AR Path="/737A216F/653DFE5D" Ref="#+3V08"  Part="1" 
F 0 "#+3V08" H 4000 3100 50  0001 C CNN
F 1 "+3V3" H 4000 3222 59  0000 C CNN
F 2 "" H 4000 3100 50  0001 C CNN
F 3 "" H 4000 3100 50  0001 C CNN
	1    4000 3100
	1    0    0    -1  
$EndComp
$Comp
L Maduino_Zero_A9G_GPS_Tracker_v3.3-eagle-import:+3V3 #+3V?
U 1 1 653E0182
P 4350 3100
AR Path="/653E0182" Ref="#+3V?"  Part="1" 
AR Path="/737A216F/653E0182" Ref="#+3V024"  Part="1" 
F 0 "#+3V024" H 4350 3100 50  0001 C CNN
F 1 "+3V3" H 4350 3222 59  0000 C CNN
F 2 "" H 4350 3100 50  0001 C CNN
F 3 "" H 4350 3100 50  0001 C CNN
	1    4350 3100
	1    0    0    -1  
$EndComp
Wire Wire Line
	4000 3200 4000 3250
Wire Wire Line
	4350 3200 4350 3250
$Comp
L power:GND #PWR?
U 1 1 653FA05F
P 4000 4250
AR Path="/653FA05F" Ref="#PWR?"  Part="1" 
AR Path="/737A216F/653FA05F" Ref="#PWR0108"  Part="1" 
F 0 "#PWR0108" H 4000 4000 50  0001 C CNN
F 1 "GND" H 4005 4077 50  0000 C CNN
F 2 "" H 4000 4250 50  0001 C CNN
F 3 "" H 4000 4250 50  0001 C CNN
	1    4000 4250
	1    0    0    -1  
$EndComp
$Comp
L power:GND #PWR?
U 1 1 653FA39E
P 4350 4250
AR Path="/653FA39E" Ref="#PWR?"  Part="1" 
AR Path="/737A216F/653FA39E" Ref="#PWR0110"  Part="1" 
F 0 "#PWR0110" H 4350 4000 50  0001 C CNN
F 1 "GND" H 4355 4077 50  0000 C CNN
F 2 "" H 4350 4250 50  0001 C CNN
F 3 "" H 4350 4250 50  0001 C CNN
	1    4350 4250
	1    0    0    -1  
$EndComp
Wire Wire Line
	4000 4250 4000 4200
Wire Wire Line
	4350 4250 4350 4200
Text Label 7350 4650 2    50   ~ 0
DI0
Text Label 7350 4750 2    50   ~ 0
DI1
Text Label 7350 4850 2    50   ~ 0
DI2
$Comp
L Device:D_Zener D?
U 1 1 66DD239B
P 8550 4800
AR Path="/66DD239B" Ref="D?"  Part="1" 
AR Path="/737A216F/66DD239B" Ref="D22"  Part="1" 
F 0 "D22" V 8504 4880 50  0000 L CNN
F 1 "3V3" V 8595 4880 50  0000 L CNN
F 2 "Diode_SMD:D_SMA" H 8550 4800 50  0001 C CNN
F 3 "~" H 8550 4800 50  0001 C CNN
	1    8550 4800
	0    1    1    0   
$EndComp
$Comp
L Device:R R?
U 1 1 66DD23A1
P 7950 4550
AR Path="/66DD23A1" Ref="R?"  Part="1" 
AR Path="/737A216F/66DD23A1" Ref="R74"  Part="1" 
F 0 "R74" V 7850 4500 50  0000 L CNN
F 1 "56R" V 8050 4450 50  0000 L CNN
F 2 "Resistor_SMD:R_2512_6332Metric" V 7880 4550 50  0001 C CNN
F 3 "~" H 7950 4550 50  0001 C CNN
	1    7950 4550
	0    -1   -1   0   
$EndComp
$Comp
L Device:C C?
U 1 1 66DD23A7
P 8200 4800
AR Path="/66DD23A7" Ref="C?"  Part="1" 
AR Path="/737A216F/66DD23A7" Ref="C25"  Part="1" 
F 0 "C25" H 8315 4846 50  0000 L CNN
F 1 "104" H 8315 4755 50  0000 L CNN
F 2 "Capacitor_SMD:C_0603_1608Metric" H 8238 4650 50  0001 C CNN
F 3 "~" H 8200 4800 50  0001 C CNN
	1    8200 4800
	1    0    0    -1  
$EndComp
$Comp
L Device:R R?
U 1 1 66DD23AD
P 8850 4800
AR Path="/66DD23AD" Ref="R?"  Part="1" 
AR Path="/737A216F/66DD23AD" Ref="R77"  Part="1" 
F 0 "R77" H 8900 4900 50  0000 L CNN
F 1 "15R" H 8900 4800 50  0000 L CNN
F 2 "Resistor_SMD:R_0603_1608Metric" V 8780 4800 50  0001 C CNN
F 3 "~" H 8850 4800 50  0001 C CNN
	1    8850 4800
	1    0    0    -1  
$EndComp
$Comp
L Device:LED D?
U 1 1 66DD23B3
P 8850 5200
AR Path="/66DD23B3" Ref="D?"  Part="1" 
AR Path="/737A216F/66DD23B3" Ref="D25"  Part="1" 
F 0 "D25" V 8950 5350 50  0000 R CNN
F 1 "Green" H 9000 5100 50  0000 R CNN
F 2 "LED_SMD:LED_0603_1608Metric" H 8850 5200 50  0001 C CNN
F 3 "~" H 8850 5200 50  0001 C CNN
	1    8850 5200
	0    -1   -1   0   
$EndComp
$Comp
L Isolator:PC817 U?
U 1 1 66DD23B9
P 9500 4650
AR Path="/66DD23B9" Ref="U?"  Part="1" 
AR Path="/737A216F/66DD23B9" Ref="U6"  Part="1" 
F 0 "U6" H 9500 4975 50  0000 C CNN
F 1 "PC817" H 9500 4884 50  0000 C CNN
F 2 "Package_DIP:SMDIP-4_W7.62mm" H 9300 4450 50  0001 L CIN
F 3 "http://www.soselectronic.cz/a_info/resource/d/pc817.pdf" H 9500 4650 50  0001 L CNN
	1    9500 4650
	1    0    0    -1  
$EndComp
Wire Wire Line
	9200 4550 8850 4550
Wire Wire Line
	8200 4650 8200 4550
Connection ~ 8200 4550
Wire Wire Line
	8200 4550 8100 4550
Wire Wire Line
	8550 4650 8550 4550
Connection ~ 8550 4550
Wire Wire Line
	8550 4550 8200 4550
Wire Wire Line
	8850 4650 8850 4550
Connection ~ 8850 4550
Wire Wire Line
	8850 4550 8550 4550
Wire Wire Line
	8850 5050 8850 4950
$Comp
L power:+5V #PWR?
U 1 1 66DD23CA
P 7350 4150
AR Path="/66DD23CA" Ref="#PWR?"  Part="1" 
AR Path="/737A216F/66DD23CA" Ref="#PWR0119"  Part="1" 
F 0 "#PWR0119" H 7350 4000 50  0001 C CNN
F 1 "+5V" H 7365 4323 50  0000 C CNN
F 2 "" H 7350 4150 50  0001 C CNN
F 3 "" H 7350 4150 50  0001 C CNN
	1    7350 4150
	1    0    0    -1  
$EndComp
$Comp
L power:GNDREF #PWR?
U 1 1 66DD23D0
P 8850 5400
AR Path="/66DD23D0" Ref="#PWR?"  Part="1" 
AR Path="/737A216F/66DD23D0" Ref="#PWR0126"  Part="1" 
F 0 "#PWR0126" H 8850 5150 50  0001 C CNN
F 1 "GNDREF" H 8855 5227 50  0000 C CNN
F 2 "" H 8850 5400 50  0001 C CNN
F 3 "" H 8850 5400 50  0001 C CNN
	1    8850 5400
	1    0    0    -1  
$EndComp
Wire Wire Line
	8850 5400 8850 5350
$Comp
L power:GNDREF #PWR?
U 1 1 66DD23D7
P 8550 5200
AR Path="/66DD23D7" Ref="#PWR?"  Part="1" 
AR Path="/737A216F/66DD23D7" Ref="#PWR0123"  Part="1" 
F 0 "#PWR0123" H 8550 4950 50  0001 C CNN
F 1 "GNDREF" H 8555 5027 50  0000 C CNN
F 2 "" H 8550 5200 50  0001 C CNN
F 3 "" H 8550 5200 50  0001 C CNN
	1    8550 5200
	1    0    0    -1  
$EndComp
$Comp
L power:GNDREF #PWR?
U 1 1 66DD23DD
P 8200 5200
AR Path="/66DD23DD" Ref="#PWR?"  Part="1" 
AR Path="/737A216F/66DD23DD" Ref="#PWR0120"  Part="1" 
F 0 "#PWR0120" H 8200 4950 50  0001 C CNN
F 1 "GNDREF" H 8205 5027 50  0000 C CNN
F 2 "" H 8200 5200 50  0001 C CNN
F 3 "" H 8200 5200 50  0001 C CNN
	1    8200 5200
	1    0    0    -1  
$EndComp
Wire Wire Line
	8200 5200 8200 4950
Wire Wire Line
	8550 5200 8550 4950
$Comp
L power:GND #PWR?
U 1 1 66DD23E5
P 6900 4950
AR Path="/66DD23E5" Ref="#PWR?"  Part="1" 
AR Path="/737A216F/66DD23E5" Ref="#PWR069"  Part="1" 
F 0 "#PWR069" H 6900 4700 50  0001 C CNN
F 1 "GND" H 6905 4777 50  0000 C CNN
F 2 "" H 6900 4950 50  0001 C CNN
F 3 "" H 6900 4950 50  0001 C CNN
	1    6900 4950
	1    0    0    -1  
$EndComp
$Comp
L power:GNDREF #PWR?
U 1 1 66DD23EB
P 9150 5150
AR Path="/66DD23EB" Ref="#PWR?"  Part="1" 
AR Path="/737A216F/66DD23EB" Ref="#PWR0129"  Part="1" 
F 0 "#PWR0129" H 9150 4900 50  0001 C CNN
F 1 "GNDREF" H 9155 4977 50  0000 C CNN
F 2 "" H 9150 5150 50  0001 C CNN
F 3 "" H 9150 5150 50  0001 C CNN
	1    9150 5150
	1    0    0    -1  
$EndComp
Wire Wire Line
	9150 5150 9150 4750
Wire Wire Line
	9150 4750 9200 4750
$Comp
L power:GNDREF #PWR?
U 1 1 66DD23F3
P 7150 4950
AR Path="/66DD23F3" Ref="#PWR?"  Part="1" 
AR Path="/737A216F/66DD23F3" Ref="#PWR0118"  Part="1" 
F 0 "#PWR0118" H 7150 4700 50  0001 C CNN
F 1 "GNDREF" H 7155 4777 50  0000 C CNN
F 2 "" H 7150 4950 50  0001 C CNN
F 3 "" H 7150 4950 50  0001 C CNN
	1    7150 4950
	1    0    0    -1  
$EndComp
$Comp
L Connector:Screw_Terminal_01x07 J?
U 1 1 66DD23F9
P 6600 4550
AR Path="/66DD23F9" Ref="J?"  Part="1" 
AR Path="/737A216F/66DD23F9" Ref="J20"  Part="1" 
F 0 "J20" H 6518 4025 50  0000 C CNN
F 1 "Digital Inputs" H 6518 4116 50  0000 C CNN
F 2 "TerminalBlock_Phoenix:TerminalBlock_Phoenix_MKDS-1,5-7_1x07_P5.00mm_Horizontal" H 6600 4550 50  0001 C CNN
F 3 "~" H 6600 4550 50  0001 C CNN
	1    6600 4550
	-1   0    0    1   
$EndComp
Wire Wire Line
	6800 4550 7350 4550
Wire Wire Line
	7350 4550 7350 4150
Wire Wire Line
	6900 4950 6900 4450
Wire Wire Line
	6900 4450 6800 4450
Wire Wire Line
	6800 4850 7350 4850
Wire Wire Line
	6800 4750 7350 4750
Wire Wire Line
	6800 4650 7350 4650
Wire Wire Line
	7150 4950 7150 4350
Wire Wire Line
	7150 4350 6800 4350
Wire Wire Line
	7150 4250 7150 4150
Wire Wire Line
	6800 4250 7150 4250
Text Label 7550 4550 0    50   ~ 0
DI0
Wire Wire Line
	7550 4550 7800 4550
$Comp
L 74xx:74HC14 U14
U 1 1 66E04CC2
P 10900 4550
F 0 "U14" H 10900 4867 50  0000 C CNN
F 1 "74HC14" H 10900 4776 50  0000 C CNN
F 2 "Package_SO:SOIC-14_3.9x8.7mm_P1.27mm" H 10900 4550 50  0001 C CNN
F 3 "http://www.ti.com/lit/gpn/sn74HC14" H 10900 4550 50  0001 C CNN
	1    10900 4550
	1    0    0    -1  
$EndComp
$Comp
L 74xx:74HC14 U14
U 2 1 66E05EBF
P 10900 5750
F 0 "U14" H 10900 6067 50  0000 C CNN
F 1 "74HC14" H 10900 5976 50  0000 C CNN
F 2 "Package_SO:SOIC-14_3.9x8.7mm_P1.27mm" H 10900 5750 50  0001 C CNN
F 3 "http://www.ti.com/lit/gpn/sn74HC14" H 10900 5750 50  0001 C CNN
	2    10900 5750
	1    0    0    -1  
$EndComp
$Comp
L 74xx:74HC14 U14
U 3 1 66E07469
P 10900 7000
F 0 "U14" H 10900 7317 50  0000 C CNN
F 1 "74HC14" H 10900 7226 50  0000 C CNN
F 2 "Package_SO:SOIC-14_3.9x8.7mm_P1.27mm" H 10900 7000 50  0001 C CNN
F 3 "http://www.ti.com/lit/gpn/sn74HC14" H 10900 7000 50  0001 C CNN
	3    10900 7000
	1    0    0    -1  
$EndComp
$Comp
L 74xx:74HC14 U14
U 4 1 66E08334
P 10900 7700
F 0 "U14" H 10900 8017 50  0000 C CNN
F 1 "74HC14" H 10900 7926 50  0000 C CNN
F 2 "Package_SO:SOIC-14_3.9x8.7mm_P1.27mm" H 10900 7700 50  0001 C CNN
F 3 "http://www.ti.com/lit/gpn/sn74HC14" H 10900 7700 50  0001 C CNN
	4    10900 7700
	1    0    0    -1  
$EndComp
$Comp
L 74xx:74HC14 U14
U 5 1 66E09007
P 10900 8250
F 0 "U14" H 10900 8567 50  0000 C CNN
F 1 "74HC14" H 10900 8476 50  0000 C CNN
F 2 "Package_SO:SOIC-14_3.9x8.7mm_P1.27mm" H 10900 8250 50  0001 C CNN
F 3 "http://www.ti.com/lit/gpn/sn74HC14" H 10900 8250 50  0001 C CNN
	5    10900 8250
	1    0    0    -1  
$EndComp
$Comp
L 74xx:74HC14 U14
U 6 1 66E09F47
P 10900 8750
F 0 "U14" H 10900 9067 50  0000 C CNN
F 1 "74HC14" H 10900 8976 50  0000 C CNN
F 2 "Package_SO:SOIC-14_3.9x8.7mm_P1.27mm" H 10900 8750 50  0001 C CNN
F 3 "http://www.ti.com/lit/gpn/sn74HC14" H 10900 8750 50  0001 C CNN
	6    10900 8750
	1    0    0    -1  
$EndComp
$Comp
L 74xx:74HC14 U14
U 7 1 66E0B02E
P 9600 8350
F 0 "U14" H 9830 8396 50  0000 L CNN
F 1 "74HC14" H 9830 8305 50  0000 L CNN
F 2 "Package_SO:SOIC-14_3.9x8.7mm_P1.27mm" H 9600 8350 50  0001 C CNN
F 3 "http://www.ti.com/lit/gpn/sn74HC14" H 9600 8350 50  0001 C CNN
	7    9600 8350
	1    0    0    -1  
$EndComp
$Comp
L Device:R R?
U 1 1 66E0DF6D
P 10000 4200
AR Path="/66E0DF6D" Ref="R?"  Part="1" 
AR Path="/737A216F/66E0DF6D" Ref="R80"  Part="1" 
F 0 "R80" H 10000 4050 50  0000 L CNN
F 1 "1k" H 10050 4200 50  0000 L CNN
F 2 "Resistor_SMD:R_0603_1608Metric" V 9930 4200 50  0001 C CNN
F 3 "~" H 10000 4200 50  0001 C CNN
	1    10000 4200
	1    0    0    -1  
$EndComp
$Comp
L Device:R R?
U 1 1 66E26AF3
P 10200 4200
AR Path="/66E26AF3" Ref="R?"  Part="1" 
AR Path="/737A216F/66E26AF3" Ref="R81"  Part="1" 
F 0 "R81" H 10200 4050 50  0000 L CNN
F 1 "1k" H 10250 4200 50  0000 L CNN
F 2 "Resistor_SMD:R_0603_1608Metric" V 10130 4200 50  0001 C CNN
F 3 "~" H 10200 4200 50  0001 C CNN
	1    10200 4200
	1    0    0    -1  
$EndComp
$Comp
L Device:R R?
U 1 1 66E26C86
P 10400 4200
AR Path="/66E26C86" Ref="R?"  Part="1" 
AR Path="/737A216F/66E26C86" Ref="R82"  Part="1" 
F 0 "R82" H 10450 4050 50  0000 L CNN
F 1 "1k" H 10450 4200 50  0000 L CNN
F 2 "Resistor_SMD:R_0603_1608Metric" V 10330 4200 50  0001 C CNN
F 3 "~" H 10400 4200 50  0001 C CNN
	1    10400 4200
	1    0    0    -1  
$EndComp
$Comp
L Device:D_Zener D?
U 1 1 66E29640
P 8550 6000
AR Path="/66E29640" Ref="D?"  Part="1" 
AR Path="/737A216F/66E29640" Ref="D23"  Part="1" 
F 0 "D23" V 8504 6080 50  0000 L CNN
F 1 "3V3" V 8595 6080 50  0000 L CNN
F 2 "Diode_SMD:D_SMA" H 8550 6000 50  0001 C CNN
F 3 "~" H 8550 6000 50  0001 C CNN
	1    8550 6000
	0    1    1    0   
$EndComp
$Comp
L Device:R R?
U 1 1 66E29646
P 7950 5750
AR Path="/66E29646" Ref="R?"  Part="1" 
AR Path="/737A216F/66E29646" Ref="R75"  Part="1" 
F 0 "R75" V 7850 5700 50  0000 L CNN
F 1 "56R" V 8050 5650 50  0000 L CNN
F 2 "Resistor_SMD:R_2512_6332Metric" V 7880 5750 50  0001 C CNN
F 3 "~" H 7950 5750 50  0001 C CNN
	1    7950 5750
	0    -1   -1   0   
$EndComp
$Comp
L Device:C C?
U 1 1 66E2964C
P 8200 6000
AR Path="/66E2964C" Ref="C?"  Part="1" 
AR Path="/737A216F/66E2964C" Ref="C49"  Part="1" 
F 0 "C49" H 8315 6046 50  0000 L CNN
F 1 "104" H 8315 5955 50  0000 L CNN
F 2 "Capacitor_SMD:C_0603_1608Metric" H 8238 5850 50  0001 C CNN
F 3 "~" H 8200 6000 50  0001 C CNN
	1    8200 6000
	1    0    0    -1  
$EndComp
$Comp
L Device:R R?
U 1 1 66E29652
P 8850 6000
AR Path="/66E29652" Ref="R?"  Part="1" 
AR Path="/737A216F/66E29652" Ref="R78"  Part="1" 
F 0 "R78" H 8900 6100 50  0000 L CNN
F 1 "15R" H 8900 6000 50  0000 L CNN
F 2 "Resistor_SMD:R_0603_1608Metric" V 8780 6000 50  0001 C CNN
F 3 "~" H 8850 6000 50  0001 C CNN
	1    8850 6000
	1    0    0    -1  
$EndComp
$Comp
L Device:LED D?
U 1 1 66E29658
P 8850 6400
AR Path="/66E29658" Ref="D?"  Part="1" 
AR Path="/737A216F/66E29658" Ref="D26"  Part="1" 
F 0 "D26" V 8950 6550 50  0000 R CNN
F 1 "Green" H 9000 6300 50  0000 R CNN
F 2 "LED_SMD:LED_0603_1608Metric" H 8850 6400 50  0001 C CNN
F 3 "~" H 8850 6400 50  0001 C CNN
	1    8850 6400
	0    -1   -1   0   
$EndComp
$Comp
L Isolator:PC817 U?
U 1 1 66E2965E
P 9500 5850
AR Path="/66E2965E" Ref="U?"  Part="1" 
AR Path="/737A216F/66E2965E" Ref="U7"  Part="1" 
F 0 "U7" H 9500 6175 50  0000 C CNN
F 1 "PC817" H 9500 6084 50  0000 C CNN
F 2 "Package_DIP:SMDIP-4_W7.62mm" H 9300 5650 50  0001 L CIN
F 3 "http://www.soselectronic.cz/a_info/resource/d/pc817.pdf" H 9500 5850 50  0001 L CNN
	1    9500 5850
	1    0    0    -1  
$EndComp
Wire Wire Line
	9200 5750 8850 5750
Wire Wire Line
	8200 5850 8200 5750
Connection ~ 8200 5750
Wire Wire Line
	8200 5750 8100 5750
Wire Wire Line
	8550 5850 8550 5750
Connection ~ 8550 5750
Wire Wire Line
	8550 5750 8200 5750
Wire Wire Line
	8850 5850 8850 5750
Connection ~ 8850 5750
Wire Wire Line
	8850 5750 8550 5750
Wire Wire Line
	8850 6250 8850 6150
$Comp
L power:GNDREF #PWR?
U 1 1 66E2966F
P 8850 6600
AR Path="/66E2966F" Ref="#PWR?"  Part="1" 
AR Path="/737A216F/66E2966F" Ref="#PWR0127"  Part="1" 
F 0 "#PWR0127" H 8850 6350 50  0001 C CNN
F 1 "GNDREF" H 8855 6427 50  0000 C CNN
F 2 "" H 8850 6600 50  0001 C CNN
F 3 "" H 8850 6600 50  0001 C CNN
	1    8850 6600
	1    0    0    -1  
$EndComp
Wire Wire Line
	8850 6600 8850 6550
$Comp
L power:GNDREF #PWR?
U 1 1 66E29676
P 8550 6400
AR Path="/66E29676" Ref="#PWR?"  Part="1" 
AR Path="/737A216F/66E29676" Ref="#PWR0124"  Part="1" 
F 0 "#PWR0124" H 8550 6150 50  0001 C CNN
F 1 "GNDREF" H 8555 6227 50  0000 C CNN
F 2 "" H 8550 6400 50  0001 C CNN
F 3 "" H 8550 6400 50  0001 C CNN
	1    8550 6400
	1    0    0    -1  
$EndComp
$Comp
L power:GNDREF #PWR?
U 1 1 66E2967C
P 8200 6400
AR Path="/66E2967C" Ref="#PWR?"  Part="1" 
AR Path="/737A216F/66E2967C" Ref="#PWR0121"  Part="1" 
F 0 "#PWR0121" H 8200 6150 50  0001 C CNN
F 1 "GNDREF" H 8205 6227 50  0000 C CNN
F 2 "" H 8200 6400 50  0001 C CNN
F 3 "" H 8200 6400 50  0001 C CNN
	1    8200 6400
	1    0    0    -1  
$EndComp
Wire Wire Line
	8200 6400 8200 6150
Wire Wire Line
	8550 6400 8550 6150
$Comp
L power:GNDREF #PWR?
U 1 1 66E29684
P 9150 6350
AR Path="/66E29684" Ref="#PWR?"  Part="1" 
AR Path="/737A216F/66E29684" Ref="#PWR0130"  Part="1" 
F 0 "#PWR0130" H 9150 6100 50  0001 C CNN
F 1 "GNDREF" H 9155 6177 50  0000 C CNN
F 2 "" H 9150 6350 50  0001 C CNN
F 3 "" H 9150 6350 50  0001 C CNN
	1    9150 6350
	1    0    0    -1  
$EndComp
Wire Wire Line
	9150 6350 9150 5950
Wire Wire Line
	9150 5950 9200 5950
Text Label 7550 5750 0    50   ~ 0
DI1
Wire Wire Line
	7550 5750 7800 5750
$Comp
L Device:D_Zener D?
U 1 1 66E3E7B2
P 8550 7250
AR Path="/66E3E7B2" Ref="D?"  Part="1" 
AR Path="/737A216F/66E3E7B2" Ref="D24"  Part="1" 
F 0 "D24" V 8504 7330 50  0000 L CNN
F 1 "3V3" V 8595 7330 50  0000 L CNN
F 2 "Diode_SMD:D_SMA" H 8550 7250 50  0001 C CNN
F 3 "~" H 8550 7250 50  0001 C CNN
	1    8550 7250
	0    1    1    0   
$EndComp
$Comp
L Device:R R?
U 1 1 66E3E7B8
P 7950 7000
AR Path="/66E3E7B8" Ref="R?"  Part="1" 
AR Path="/737A216F/66E3E7B8" Ref="R76"  Part="1" 
F 0 "R76" V 7850 6950 50  0000 L CNN
F 1 "56R" V 8050 6900 50  0000 L CNN
F 2 "Resistor_SMD:R_2512_6332Metric" V 7880 7000 50  0001 C CNN
F 3 "~" H 7950 7000 50  0001 C CNN
	1    7950 7000
	0    -1   -1   0   
$EndComp
$Comp
L Device:C C?
U 1 1 66E3E7BE
P 8200 7250
AR Path="/66E3E7BE" Ref="C?"  Part="1" 
AR Path="/737A216F/66E3E7BE" Ref="C50"  Part="1" 
F 0 "C50" H 8315 7296 50  0000 L CNN
F 1 "104" H 8315 7205 50  0000 L CNN
F 2 "Capacitor_SMD:C_0603_1608Metric" H 8238 7100 50  0001 C CNN
F 3 "~" H 8200 7250 50  0001 C CNN
	1    8200 7250
	1    0    0    -1  
$EndComp
$Comp
L Device:R R?
U 1 1 66E3E7C4
P 8850 7250
AR Path="/66E3E7C4" Ref="R?"  Part="1" 
AR Path="/737A216F/66E3E7C4" Ref="R79"  Part="1" 
F 0 "R79" H 8900 7350 50  0000 L CNN
F 1 "15R" H 8900 7250 50  0000 L CNN
F 2 "Resistor_SMD:R_0603_1608Metric" V 8780 7250 50  0001 C CNN
F 3 "~" H 8850 7250 50  0001 C CNN
	1    8850 7250
	1    0    0    -1  
$EndComp
$Comp
L Device:LED D?
U 1 1 66E3E7CA
P 8850 7650
AR Path="/66E3E7CA" Ref="D?"  Part="1" 
AR Path="/737A216F/66E3E7CA" Ref="D27"  Part="1" 
F 0 "D27" V 8950 7800 50  0000 R CNN
F 1 "Green" H 9000 7550 50  0000 R CNN
F 2 "LED_SMD:LED_0603_1608Metric" H 8850 7650 50  0001 C CNN
F 3 "~" H 8850 7650 50  0001 C CNN
	1    8850 7650
	0    -1   -1   0   
$EndComp
$Comp
L Isolator:PC817 U?
U 1 1 66E3E7D0
P 9500 7100
AR Path="/66E3E7D0" Ref="U?"  Part="1" 
AR Path="/737A216F/66E3E7D0" Ref="U8"  Part="1" 
F 0 "U8" H 9500 7425 50  0000 C CNN
F 1 "PC817" H 9500 7334 50  0000 C CNN
F 2 "Package_DIP:SMDIP-4_W7.62mm" H 9300 6900 50  0001 L CIN
F 3 "http://www.soselectronic.cz/a_info/resource/d/pc817.pdf" H 9500 7100 50  0001 L CNN
	1    9500 7100
	1    0    0    -1  
$EndComp
Wire Wire Line
	9200 7000 8850 7000
Wire Wire Line
	8200 7100 8200 7000
Connection ~ 8200 7000
Wire Wire Line
	8200 7000 8100 7000
Wire Wire Line
	8550 7100 8550 7000
Connection ~ 8550 7000
Wire Wire Line
	8550 7000 8200 7000
Wire Wire Line
	8850 7100 8850 7000
Connection ~ 8850 7000
Wire Wire Line
	8850 7000 8550 7000
Wire Wire Line
	8850 7500 8850 7400
$Comp
L power:GNDREF #PWR?
U 1 1 66E3E7E1
P 8850 7850
AR Path="/66E3E7E1" Ref="#PWR?"  Part="1" 
AR Path="/737A216F/66E3E7E1" Ref="#PWR0128"  Part="1" 
F 0 "#PWR0128" H 8850 7600 50  0001 C CNN
F 1 "GNDREF" H 8855 7677 50  0000 C CNN
F 2 "" H 8850 7850 50  0001 C CNN
F 3 "" H 8850 7850 50  0001 C CNN
	1    8850 7850
	1    0    0    -1  
$EndComp
Wire Wire Line
	8850 7850 8850 7800
$Comp
L power:GNDREF #PWR?
U 1 1 66E3E7E8
P 8550 7650
AR Path="/66E3E7E8" Ref="#PWR?"  Part="1" 
AR Path="/737A216F/66E3E7E8" Ref="#PWR0125"  Part="1" 
F 0 "#PWR0125" H 8550 7400 50  0001 C CNN
F 1 "GNDREF" H 8555 7477 50  0000 C CNN
F 2 "" H 8550 7650 50  0001 C CNN
F 3 "" H 8550 7650 50  0001 C CNN
	1    8550 7650
	1    0    0    -1  
$EndComp
$Comp
L power:GNDREF #PWR?
U 1 1 66E3E7EE
P 8200 7650
AR Path="/66E3E7EE" Ref="#PWR?"  Part="1" 
AR Path="/737A216F/66E3E7EE" Ref="#PWR0122"  Part="1" 
F 0 "#PWR0122" H 8200 7400 50  0001 C CNN
F 1 "GNDREF" H 8205 7477 50  0000 C CNN
F 2 "" H 8200 7650 50  0001 C CNN
F 3 "" H 8200 7650 50  0001 C CNN
	1    8200 7650
	1    0    0    -1  
$EndComp
Wire Wire Line
	8200 7650 8200 7400
Wire Wire Line
	8550 7650 8550 7400
$Comp
L power:GNDREF #PWR?
U 1 1 66E3E7F6
P 9150 7600
AR Path="/66E3E7F6" Ref="#PWR?"  Part="1" 
AR Path="/737A216F/66E3E7F6" Ref="#PWR0131"  Part="1" 
F 0 "#PWR0131" H 9150 7350 50  0001 C CNN
F 1 "GNDREF" H 9155 7427 50  0000 C CNN
F 2 "" H 9150 7600 50  0001 C CNN
F 3 "" H 9150 7600 50  0001 C CNN
	1    9150 7600
	1    0    0    -1  
$EndComp
Wire Wire Line
	9150 7600 9150 7200
Wire Wire Line
	9150 7200 9200 7200
Text Label 7550 7000 0    50   ~ 0
DI2
Wire Wire Line
	7550 7000 7800 7000
Wire Wire Line
	9800 4550 10000 4550
Wire Wire Line
	10600 5750 10200 5750
Wire Wire Line
	9800 7000 10400 7000
Wire Wire Line
	10000 4350 10000 4550
Connection ~ 10000 4550
Wire Wire Line
	10000 4550 10600 4550
Wire Wire Line
	10200 4350 10200 5750
Connection ~ 10200 5750
Wire Wire Line
	10200 5750 9800 5750
Wire Wire Line
	10400 4350 10400 7000
Connection ~ 10400 7000
Wire Wire Line
	10400 7000 10600 7000
$Comp
L power:GND #PWR?
U 1 1 66EDFE83
P 10000 4800
AR Path="/66EDFE83" Ref="#PWR?"  Part="1" 
AR Path="/737A216F/66EDFE83" Ref="#PWR0133"  Part="1" 
F 0 "#PWR0133" H 10000 4550 50  0001 C CNN
F 1 "GND" H 10005 4627 50  0000 C CNN
F 2 "" H 10000 4800 50  0001 C CNN
F 3 "" H 10000 4800 50  0001 C CNN
	1    10000 4800
	1    0    0    -1  
$EndComp
$Comp
L power:GND #PWR?
U 1 1 66EE0269
P 10000 6000
AR Path="/66EE0269" Ref="#PWR?"  Part="1" 
AR Path="/737A216F/66EE0269" Ref="#PWR0134"  Part="1" 
F 0 "#PWR0134" H 10000 5750 50  0001 C CNN
F 1 "GND" H 10005 5827 50  0000 C CNN
F 2 "" H 10000 6000 50  0001 C CNN
F 3 "" H 10000 6000 50  0001 C CNN
	1    10000 6000
	1    0    0    -1  
$EndComp
$Comp
L power:GND #PWR?
U 1 1 66EE0498
P 10000 7250
AR Path="/66EE0498" Ref="#PWR?"  Part="1" 
AR Path="/737A216F/66EE0498" Ref="#PWR0135"  Part="1" 
F 0 "#PWR0135" H 10000 7000 50  0001 C CNN
F 1 "GND" H 10005 7077 50  0000 C CNN
F 2 "" H 10000 7250 50  0001 C CNN
F 3 "" H 10000 7250 50  0001 C CNN
	1    10000 7250
	1    0    0    -1  
$EndComp
Wire Wire Line
	10000 7250 10000 7200
Wire Wire Line
	10000 7200 9800 7200
Wire Wire Line
	10000 6000 10000 5950
Wire Wire Line
	10000 5950 9800 5950
Wire Wire Line
	10000 4800 10000 4750
Wire Wire Line
	10000 4750 9800 4750
$Comp
L Maduino_Zero_A9G_GPS_Tracker_v3.3-eagle-import:+3V3 #+3V?
U 1 1 66F1C29D
P 10200 3800
AR Path="/66F1C29D" Ref="#+3V?"  Part="1" 
AR Path="/737A216F/66F1C29D" Ref="#+3V026"  Part="1" 
F 0 "#+3V026" H 10200 3800 50  0001 C CNN
F 1 "+3V3" H 10200 3922 59  0000 C CNN
F 2 "" H 10200 3800 50  0001 C CNN
F 3 "" H 10200 3800 50  0001 C CNN
	1    10200 3800
	1    0    0    -1  
$EndComp
Wire Wire Line
	10000 4050 10000 4000
Wire Wire Line
	10000 4000 10200 4000
Wire Wire Line
	10400 4000 10400 4050
Wire Wire Line
	10200 4050 10200 4000
Connection ~ 10200 4000
Wire Wire Line
	10200 4000 10400 4000
Wire Wire Line
	10200 3900 10200 4000
$Comp
L Maduino_Zero_A9G_GPS_Tracker_v3.3-eagle-import:+3V3 #+3V?
U 1 1 66F76055
P 9600 7650
AR Path="/66F76055" Ref="#+3V?"  Part="1" 
AR Path="/737A216F/66F76055" Ref="#+3V025"  Part="1" 
F 0 "#+3V025" H 9600 7650 50  0001 C CNN
F 1 "+3V3" H 9600 7772 59  0000 C CNN
F 2 "" H 9600 7650 50  0001 C CNN
F 3 "" H 9600 7650 50  0001 C CNN
	1    9600 7650
	1    0    0    -1  
$EndComp
$Comp
L power:GND #PWR?
U 1 1 66F7711C
P 9600 8950
AR Path="/66F7711C" Ref="#PWR?"  Part="1" 
AR Path="/737A216F/66F7711C" Ref="#PWR0132"  Part="1" 
F 0 "#PWR0132" H 9600 8700 50  0001 C CNN
F 1 "GND" H 9605 8777 50  0000 C CNN
F 2 "" H 9600 8950 50  0001 C CNN
F 3 "" H 9600 8950 50  0001 C CNN
	1    9600 8950
	1    0    0    -1  
$EndComp
Wire Wire Line
	9600 8950 9600 8850
Wire Wire Line
	9600 7850 9600 7750
Text Label 11650 4550 2    50   ~ 0
Digi_IN0
Wire Wire Line
	11650 4550 11200 4550
Text Label 11650 5750 2    50   ~ 0
Digi_IN1
Text Label 11650 7000 2    50   ~ 0
Digi_IN2
Wire Wire Line
	11650 7000 11200 7000
Wire Wire Line
	11650 5750 11200 5750
Text Label 3000 2800 2    50   ~ 0
Digi_IN0
Wire Wire Line
	2450 2800 3000 2800
Text Label 800  2400 0    50   ~ 0
Digi_IN1
Wire Wire Line
	800  2400 1350 2400
Text Label 800  2500 0    50   ~ 0
Digi_IN2
Wire Wire Line
	800  2500 1350 2500
Wire Notes Line
	13000 3550 13000 9250
Wire Notes Line
	13000 9250 5800 9250
Wire Notes Line
	5800 9250 5800 3550
Wire Notes Line
	5800 3550 13000 3550
Text Notes 5850 3700 0    50   ~ 0
Digital Inputs
Text Notes 5900 4300 0    50   ~ 0
5V to 12V Input
Text Notes 6200 4400 0    50   ~ 0
GNDREF
Text Notes 6350 4500 0    50   ~ 0
GND
Text Notes 6400 4600 0    50   ~ 0
5V
Text Notes 6400 4700 0    50   ~ 0
DI0
Text Notes 6400 4800 0    50   ~ 0
DI1
Text Notes 6400 4900 0    50   ~ 0
DI2
$Comp
L Device:LED D?
U 1 1 6739F375
P 6500 1750
AR Path="/6739F375" Ref="D?"  Part="1" 
AR Path="/737A216F/6739F375" Ref="D28"  Part="1" 
F 0 "D28" V 6600 1900 50  0000 R CNN
F 1 "Green" H 6650 1650 50  0000 R CNN
F 2 "LED_SMD:LED_0603_1608Metric" H 6500 1750 50  0001 C CNN
F 3 "~" H 6500 1750 50  0001 C CNN
	1    6500 1750
	0    -1   -1   0   
$EndComp
$Comp
L Device:R R?
U 1 1 673B5ACB
P 6500 1400
AR Path="/673B5ACB" Ref="R?"  Part="1" 
AR Path="/737A216F/673B5ACB" Ref="R6"  Part="1" 
F 0 "R6" H 6550 1400 50  0000 L CNN
F 1 "220R" V 6400 1350 50  0000 L CNN
F 2 "Resistor_SMD:R_0603_1608Metric" V 6430 1400 50  0001 C CNN
F 3 "~" H 6500 1400 50  0001 C CNN
	1    6500 1400
	1    0    0    -1  
$EndComp
Wire Wire Line
	6500 1550 6500 1600
Wire Wire Line
	6500 1900 6500 1950
Wire Wire Line
	6500 1950 6800 1950
Connection ~ 6800 1950
Wire Wire Line
	6500 1250 6800 1250
Connection ~ 6800 1250
$Comp
L Device:LED D?
U 1 1 673FA62C
P 8750 1750
AR Path="/673FA62C" Ref="D?"  Part="1" 
AR Path="/737A216F/673FA62C" Ref="D29"  Part="1" 
F 0 "D29" V 8850 1900 50  0000 R CNN
F 1 "Green" H 8900 1650 50  0000 R CNN
F 2 "LED_SMD:LED_0603_1608Metric" H 8750 1750 50  0001 C CNN
F 3 "~" H 8750 1750 50  0001 C CNN
	1    8750 1750
	0    -1   -1   0   
$EndComp
$Comp
L Device:R R?
U 1 1 673FA632
P 8750 1400
AR Path="/673FA632" Ref="R?"  Part="1" 
AR Path="/737A216F/673FA632" Ref="R7"  Part="1" 
F 0 "R7" H 8800 1400 50  0000 L CNN
F 1 "220R" V 8650 1350 50  0000 L CNN
F 2 "Resistor_SMD:R_0603_1608Metric" V 8680 1400 50  0001 C CNN
F 3 "~" H 8750 1400 50  0001 C CNN
	1    8750 1400
	1    0    0    -1  
$EndComp
Wire Wire Line
	8750 1550 8750 1600
$Comp
L Device:LED D?
U 1 1 67410408
P 10950 1750
AR Path="/67410408" Ref="D?"  Part="1" 
AR Path="/737A216F/67410408" Ref="D30"  Part="1" 
F 0 "D30" V 11050 1900 50  0000 R CNN
F 1 "Green" H 11100 1650 50  0000 R CNN
F 2 "LED_SMD:LED_0603_1608Metric" H 10950 1750 50  0001 C CNN
F 3 "~" H 10950 1750 50  0001 C CNN
	1    10950 1750
	0    -1   -1   0   
$EndComp
$Comp
L Device:R R?
U 1 1 6741040E
P 10950 1400
AR Path="/6741040E" Ref="R?"  Part="1" 
AR Path="/737A216F/6741040E" Ref="R15"  Part="1" 
F 0 "R15" H 11000 1400 50  0000 L CNN
F 1 "220R" V 10850 1350 50  0000 L CNN
F 2 "Resistor_SMD:R_0603_1608Metric" V 10880 1400 50  0001 C CNN
F 3 "~" H 10950 1400 50  0001 C CNN
	1    10950 1400
	1    0    0    -1  
$EndComp
Wire Wire Line
	10950 1550 10950 1600
Wire Wire Line
	10950 1250 11200 1250
Connection ~ 11200 1250
Wire Wire Line
	10950 1900 10950 1950
Wire Wire Line
	10950 1950 11200 1950
Connection ~ 11200 1950
Wire Wire Line
	8750 1250 9000 1250
Connection ~ 9000 1250
Wire Wire Line
	8750 1900 8750 1950
Wire Wire Line
	8750 1950 9000 1950
Connection ~ 9000 1950
$Comp
L power:VCC #PWR0117
U 1 1 67517294
P 7150 4150
F 0 "#PWR0117" H 7150 4000 50  0001 C CNN
F 1 "VCC" H 7165 4323 50  0000 C CNN
F 2 "" H 7150 4150 50  0001 C CNN
F 3 "" H 7150 4150 50  0001 C CNN
	1    7150 4150
	1    0    0    -1  
$EndComp
Text Notes 7900 4400 0    50   ~ 0
2W
Text Notes 7900 5600 0    50   ~ 0
2W
Text Notes 7900 6850 0    50   ~ 0
2W
$EndSCHEMATC
