(module 4P-U-FL (layer F.Cu) (tedit 0)
  (fp_text reference GPS (at 0.127 0.508 90) (layer F.Mask)
    (effects (font (size 0.2413 0.2413) (thickness 0.02413)) (justify left bottom))
  )
  (fp_text value "" (at 0.508 2.159 90) (layer F.SilkS)
    (effects (font (size 0.77216 0.77216) (thickness 0.077216)) (justify left bottom))
  )
  (fp_line (start -1.397 -2.032) (end 1.397 -2.032) (layer F.SilkS) (width 0.127))
  (fp_line (start 1.397 -2.032) (end 1.397 -0.762) (layer F.SilkS) (width 0.127))
  (fp_line (start 1.397 0.762) (end 1.397 2.032) (layer F.SilkS) (width 0.127))
  (fp_line (start 1.397 2.032) (end -1.397 2.032) (layer F.SilkS) (width 0.127))
  (fp_line (start -1.397 -2.032) (end -1.397 -0.762) (layer F.SilkS) (width 0.127))
  (fp_line (start -1.397 2.032) (end -1.397 0.762) (layer F.SilkS) (width 0.127))
  (fp_poly (pts (xy -2.159 1.016) (xy -1.397 1.016) (xy -1.397 -1.016) (xy -2.159 -1.016)) (layer F.SilkS) (width 0))
  (fp_poly (pts (xy -1.397 2.032) (xy 1.397 2.032) (xy 1.397 -2.032) (xy -1.397 -2.032)) (layer Dwgs.User) (width 0))
  (pad GND1 smd roundrect (at 0 -1.397) (size 2.286 0.762) (layers F.Cu F.Paste F.Mask) (roundrect_rratio 0.25)
    (solder_mask_margin 0.0508))
  (pad GND2 smd roundrect (at 0 1.397) (size 2.286 0.762) (layers F.Cu F.Paste F.Mask) (roundrect_rratio 0.25)
    (solder_mask_margin 0.0508))
  (pad GND3 smd roundrect (at 1.524 0 180) (size 1.016 1.016) (layers F.Cu F.Paste F.Mask) (roundrect_rratio 0.25)
    (solder_mask_margin 0.0508))
  (pad D smd roundrect (at -1.524 0 180) (size 1.016 1.016) (layers F.Cu F.Paste F.Mask) (roundrect_rratio 0.25)
    (solder_mask_margin 0.0508))
)
