(module 6P-2CH-2.54-7.6X3.0 (layer F.Cu) (tedit 0)
  (fp_text reference SW1 (at 0.381 2.54 -270) (layer F.Mask)
    (effects (font (size 1.2065 1.2065) (thickness 0.09652)) (justify left bottom))
  )
  (fp_text value "" (at 3.81 2.54 -270) (layer F.Fab)
    (effects (font (size 0.9652 0.9652) (thickness 0.09652)) (justify left bottom))
  )
  (fp_line (start -1.524 -3.81) (end 1.524 -3.81) (layer F.SilkS) (width 0.127))
  (fp_line (start 1.524 -3.81) (end 1.524 3.81) (layer F.SilkS) (width 0.127))
  (fp_line (start 1.524 3.81) (end -1.524 3.81) (layer F.SilkS) (width 0.127))
  (fp_line (start -1.524 3.81) (end -1.524 -3.81) (layer F.SilkS) (width 0.127))
  (fp_poly (pts (xy -1.397 3.81) (xy 1.524 3.81) (xy 1.524 -3.81) (xy -1.397 -3.81)) (layer Dwgs.User) (width 0))
  (pad COM1 thru_hole circle (at -1.524 0) (size 1.27 1.27) (drill 0.8128) (layers *.Cu *.Mask)
    (solder_mask_margin 0.0508))
  (pad COM2 thru_hole circle (at 1.524 0) (size 1.27 1.27) (drill 0.8128) (layers *.Cu *.Mask)
    (solder_mask_margin 0.0508))
  (pad CH1A thru_hole circle (at -1.524 -2.54) (size 1.27 1.27) (drill 0.8128) (layers *.Cu *.Mask)
    (solder_mask_margin 0.0508))
  (pad CH1B thru_hole circle (at -1.524 2.54) (size 1.27 1.27) (drill 0.8128) (layers *.Cu *.Mask)
    (solder_mask_margin 0.0508))
  (pad CH2B thru_hole circle (at 1.524 2.54) (size 1.27 1.27) (drill 0.8128) (layers *.Cu *.Mask)
    (solder_mask_margin 0.0508))
  (pad CH2A thru_hole circle (at 1.524 -2.54) (size 1.27 1.27) (drill 0.8128) (layers *.Cu *.Mask)
    (solder_mask_margin 0.0508))
)
