(module 8-UDFN (layer F.Cu) (tedit 0)
  (fp_text reference U5 (at -1.651 -1.954) (layer F.SilkS) hide
    (effects (font (size 0.77216 0.77216) (thickness 0.092659)))
  )
  (fp_text value AP7361C-33FGE (at 1.7 0 90) (layer F.SilkS) hide
    (effects (font (size 0.57912 0.57912) (thickness 0.115824)))
  )
  (fp_line (start -1.5 1.5) (end -1.5 -1.5) (layer F.Fab) (width 0.0254))
  (fp_line (start -1.5 -1.5) (end 1.5 -1.5) (layer F.Fab) (width 0.0254))
  (fp_line (start 1.5 -1.5) (end 1.5 1.5) (layer F.Fab) (width 0.0254))
  (fp_line (start 1.5 1.5) (end -1.5 1.5) (layer F.Fab) (width 0.0254))
  (fp_poly (pts (xy -0.45 1.5) (xy -0.2 1.5) (xy -0.2 1.05) (xy -0.45 1.05)) (layer F.Fab) (width 0))
  (fp_poly (pts (xy 0.2 1.5) (xy 0.45 1.5) (xy 0.45 1.05) (xy 0.2 1.05)) (layer F.Fab) (width 0))
  (fp_poly (pts (xy 0.85 1.5) (xy 1.1 1.5) (xy 1.1 1.05) (xy 0.85 1.05)) (layer F.Fab) (width 0))
  (fp_poly (pts (xy -1.1 1.5) (xy -0.85 1.5) (xy -0.85 1.05) (xy -1.1 1.05)) (layer F.Fab) (width 0))
  (fp_poly (pts (xy 0.45 -1.5) (xy 0.2 -1.5) (xy 0.2 -1.05) (xy 0.45 -1.05)) (layer F.Fab) (width 0))
  (fp_poly (pts (xy -0.2 -1.5) (xy -0.45 -1.5) (xy -0.45 -1.05) (xy -0.2 -1.05)) (layer F.Fab) (width 0))
  (fp_poly (pts (xy -0.85 -1.5) (xy -1.1 -1.5) (xy -1.1 -1.05) (xy -0.85 -1.05)) (layer F.Fab) (width 0))
  (fp_poly (pts (xy 1.1 -1.5) (xy 0.85 -1.5) (xy 0.85 -1.05) (xy 1.1 -1.05)) (layer F.Fab) (width 0))
  (fp_poly (pts (xy -1.125 0.75) (xy 1.125 0.75) (xy 1.125 -0.75) (xy -1.125 -0.75)) (layer F.Fab) (width 0))
  (fp_line (start -1.6 1.6) (end -1.6 -1.6) (layer F.SilkS) (width 0.2032))
  (fp_line (start -1.6 -1.6) (end -1.3 -1.6) (layer F.SilkS) (width 0.2032))
  (fp_line (start 1.6 -1.6) (end 1.6 1.6) (layer F.SilkS) (width 0.2032))
  (fp_line (start 1.6 1.6) (end 1.3 1.6) (layer F.SilkS) (width 0.2032))
  (fp_line (start -1.6 1.6) (end -1.3 1.6) (layer F.SilkS) (width 0.2032))
  (fp_line (start 1.6 -1.6) (end 1.3 -1.6) (layer F.SilkS) (width 0.2032))
  (fp_circle (center -1.8 1.8) (end -1.65 1.8) (layer F.SilkS) (width 0.3))
  (fp_text user >Name (at -1.7 0 90) (layer F.SilkS)
    (effects (font (size 0.57912 0.57912) (thickness 0.12192)) (justify bottom))
  )
  (fp_text user >Value (at 1.7 0 90) (layer F.Fab)
    (effects (font (size 0.57912 0.57912) (thickness 0.12192)) (justify right top))
  )
  (fp_poly (pts (xy -0.6875 0.4) (xy 0.6875 0.4) (xy 0.6875 -0.4) (xy -0.6875 -0.4)) (layer F.Paste) (width 0))
  (pad 1 smd rect (at -0.975 1.375) (size 0.3 0.65) (layers F.Cu F.Paste F.Mask)
    (solder_mask_margin 0.0508))
  (pad 2 smd rect (at -0.325 1.375) (size 0.3 0.65) (layers F.Cu F.Paste F.Mask)
    (solder_mask_margin 0.0508))
  (pad 3 smd rect (at 0.325 1.375) (size 0.3 0.65) (layers F.Cu F.Paste F.Mask)
    (solder_mask_margin 0.0508))
  (pad 4 smd rect (at 0.975 1.375) (size 0.3 0.65) (layers F.Cu F.Paste F.Mask)
    (solder_mask_margin 0.0508))
  (pad 5 smd rect (at 0.975 -1.375 180) (size 0.3 0.65) (layers F.Cu F.Paste F.Mask)
    (solder_mask_margin 0.0508))
  (pad 6 smd rect (at 0.325 -1.375 180) (size 0.3 0.65) (layers F.Cu F.Paste F.Mask)
    (solder_mask_margin 0.0508))
  (pad 7 smd rect (at -0.325 -1.375 180) (size 0.3 0.65) (layers F.Cu F.Paste F.Mask)
    (solder_mask_margin 0.0508))
  (pad 8 smd rect (at -0.975 -1.375 180) (size 0.3 0.65) (layers F.Cu F.Paste F.Mask)
    (solder_mask_margin 0.0508))
  (pad EP smd rect (at 0 0) (size 2.35 1.6) (layers F.Cu F.Mask)
    (solder_mask_margin 0.0508))
)
