(module A9G (layer F.Cu) (tedit 0)
  (fp_text reference U2 (at -9.525 11.43) (layer F.SilkS)
    (effects (font (size 0.77216 0.77216) (thickness 0.092659)) (justify left bottom))
  )
  (fp_text value "" (at -0.254 -2.413) (layer F.Fab)
    (effects (font (size 0.77216 0.77216) (thickness 0.092659)) (justify left bottom))
  )
  (fp_line (start -9.4 -9.6) (end 9.4 -9.6) (layer F.SilkS) (width 0.127))
  (fp_line (start 9.4 -9.6) (end 9.4 9.6) (layer F.SilkS) (width 0.127))
  (fp_line (start 9.4 9.6) (end -9.4 9.6) (layer F.SilkS) (width 0.127))
  (fp_line (start -9.4 9.6) (end -9.4 -9.6) (layer F.SilkS) (width 0.127))
  (fp_circle (center -9.017 -9.144) (end -8.733022 -9.144) (layer F.SilkS) (width 0.127))
  (pad 1 smd rect (at -9.4 -7.8) (size 1.6 0.8) (layers F.Cu F.Paste F.Mask)
    (solder_mask_margin 0.0508))
  (pad 2 smd rect (at -9.4 -6.6) (size 1.6 0.8) (layers F.Cu F.Paste F.Mask)
    (solder_mask_margin 0.0508))
  (pad 3 smd rect (at -9.4 -5.4) (size 1.6 0.8) (layers F.Cu F.Paste F.Mask)
    (solder_mask_margin 0.0508))
  (pad 4 smd rect (at -9.4 -4.2) (size 1.6 0.8) (layers F.Cu F.Paste F.Mask)
    (solder_mask_margin 0.0508))
  (pad 5 smd rect (at -9.4 -3) (size 1.6 0.8) (layers F.Cu F.Paste F.Mask)
    (solder_mask_margin 0.0508))
  (pad 6 smd rect (at -9.4 -1.8) (size 1.6 0.8) (layers F.Cu F.Paste F.Mask)
    (solder_mask_margin 0.0508))
  (pad 7 smd rect (at -9.4 -0.6) (size 1.6 0.8) (layers F.Cu F.Paste F.Mask)
    (solder_mask_margin 0.0508))
  (pad 8 smd rect (at -9.4 0.6) (size 1.6 0.8) (layers F.Cu F.Paste F.Mask)
    (solder_mask_margin 0.0508))
  (pad 9 smd rect (at -9.4 1.8) (size 1.6 0.8) (layers F.Cu F.Paste F.Mask)
    (solder_mask_margin 0.0508))
  (pad 10 smd rect (at -9.4 3) (size 1.6 0.8) (layers F.Cu F.Paste F.Mask)
    (solder_mask_margin 0.0508))
  (pad 11 smd rect (at -9.4 4.2) (size 1.6 0.8) (layers F.Cu F.Paste F.Mask)
    (solder_mask_margin 0.0508))
  (pad 12 smd rect (at -9.4 5.4) (size 1.6 0.8) (layers F.Cu F.Paste F.Mask)
    (solder_mask_margin 0.0508))
  (pad 13 smd rect (at -9.4 6.6) (size 1.6 0.8) (layers F.Cu F.Paste F.Mask)
    (solder_mask_margin 0.0508))
  (pad 14 smd rect (at -9.4 7.8) (size 1.6 0.8) (layers F.Cu F.Paste F.Mask)
    (solder_mask_margin 0.0508))
  (pad 15 smd rect (at -7.2 9.5 90) (size 1.6 0.8) (layers F.Cu F.Paste F.Mask)
    (solder_mask_margin 0.0508))
  (pad 16 smd rect (at -6 9.5 90) (size 1.6 0.8) (layers F.Cu F.Paste F.Mask)
    (solder_mask_margin 0.0508))
  (pad 17 smd rect (at -4.8 9.5 90) (size 1.6 0.8) (layers F.Cu F.Paste F.Mask)
    (solder_mask_margin 0.0508))
  (pad 18 smd rect (at -3.6 9.5 90) (size 1.6 0.8) (layers F.Cu F.Paste F.Mask)
    (solder_mask_margin 0.0508))
  (pad 19 smd rect (at -2.4 9.5 90) (size 1.6 0.8) (layers F.Cu F.Paste F.Mask)
    (solder_mask_margin 0.0508))
  (pad 20 smd rect (at -1.2 9.5 90) (size 1.6 0.8) (layers F.Cu F.Paste F.Mask)
    (solder_mask_margin 0.0508))
  (pad 21 smd rect (at 0 9.5 90) (size 1.6 0.8) (layers F.Cu F.Paste F.Mask)
    (solder_mask_margin 0.0508))
  (pad 22 smd rect (at 1.2 9.5 90) (size 1.6 0.8) (layers F.Cu F.Paste F.Mask)
    (solder_mask_margin 0.0508))
  (pad 23 smd rect (at 2.4 9.5 90) (size 1.6 0.8) (layers F.Cu F.Paste F.Mask)
    (solder_mask_margin 0.0508))
  (pad 24 smd rect (at 3.6 9.5 90) (size 1.6 0.8) (layers F.Cu F.Paste F.Mask)
    (solder_mask_margin 0.0508))
  (pad 25 smd rect (at 4.8 9.5 90) (size 1.6 0.8) (layers F.Cu F.Paste F.Mask)
    (solder_mask_margin 0.0508))
  (pad 26 smd rect (at 6 9.5 90) (size 1.6 0.8) (layers F.Cu F.Paste F.Mask)
    (solder_mask_margin 0.0508))
  (pad 27 smd rect (at 7.2 9.5 90) (size 1.6 0.8) (layers F.Cu F.Paste F.Mask)
    (solder_mask_margin 0.0508))
  (pad 28 smd rect (at 9.4 7.8) (size 1.6 0.8) (layers F.Cu F.Paste F.Mask)
    (solder_mask_margin 0.0508))
  (pad 29 smd rect (at 9.4 6.6) (size 1.6 0.8) (layers F.Cu F.Paste F.Mask)
    (solder_mask_margin 0.0508))
  (pad 30 smd rect (at 9.4 5.4) (size 1.6 0.8) (layers F.Cu F.Paste F.Mask)
    (solder_mask_margin 0.0508))
  (pad 31 smd rect (at 9.4 4.2) (size 1.6 0.8) (layers F.Cu F.Paste F.Mask)
    (solder_mask_margin 0.0508))
  (pad 32 smd rect (at 9.4 3) (size 1.6 0.8) (layers F.Cu F.Paste F.Mask)
    (solder_mask_margin 0.0508))
  (pad 33 smd rect (at 9.4 1.8) (size 1.6 0.8) (layers F.Cu F.Paste F.Mask)
    (solder_mask_margin 0.0508))
  (pad 34 smd rect (at 9.4 0.6) (size 1.6 0.8) (layers F.Cu F.Paste F.Mask)
    (solder_mask_margin 0.0508))
  (pad 35 smd rect (at 9.4 -0.6) (size 1.6 0.8) (layers F.Cu F.Paste F.Mask)
    (solder_mask_margin 0.0508))
  (pad 36 smd rect (at 9.4 -1.8) (size 1.6 0.8) (layers F.Cu F.Paste F.Mask)
    (solder_mask_margin 0.0508))
  (pad 37 smd rect (at 9.4 -3) (size 1.6 0.8) (layers F.Cu F.Paste F.Mask)
    (solder_mask_margin 0.0508))
  (pad 38 smd rect (at 9.4 -4.2) (size 1.6 0.8) (layers F.Cu F.Paste F.Mask)
    (solder_mask_margin 0.0508))
  (pad 39 smd rect (at 9.4 -5.4) (size 1.6 0.8) (layers F.Cu F.Paste F.Mask)
    (solder_mask_margin 0.0508))
  (pad 40 smd rect (at 9.4 -6.6) (size 1.6 0.8) (layers F.Cu F.Paste F.Mask)
    (solder_mask_margin 0.0508))
  (pad 41 smd rect (at 9.4 -7.8) (size 1.6 0.8) (layers F.Cu F.Paste F.Mask)
    (solder_mask_margin 0.0508))
  (pad 42 smd rect (at 7.2 -9.5 90) (size 1.6 0.8) (layers F.Cu F.Paste F.Mask)
    (solder_mask_margin 0.0508))
  (pad 43 smd rect (at 6 -9.5 90) (size 1.6 0.8) (layers F.Cu F.Paste F.Mask)
    (solder_mask_margin 0.0508))
  (pad 44 smd rect (at 4.8 -9.5 90) (size 1.6 0.8) (layers F.Cu F.Paste F.Mask)
    (solder_mask_margin 0.0508))
  (pad 45 smd rect (at 3.6 -9.5 90) (size 1.6 0.8) (layers F.Cu F.Paste F.Mask)
    (solder_mask_margin 0.0508))
  (pad 46 smd rect (at 2.4 -9.5 90) (size 1.6 0.8) (layers F.Cu F.Paste F.Mask)
    (solder_mask_margin 0.0508))
  (pad 47 smd rect (at 1.2 -9.5 90) (size 1.6 0.8) (layers F.Cu F.Paste F.Mask)
    (solder_mask_margin 0.0508))
  (pad 48 smd rect (at 0 -9.5 90) (size 1.6 0.8) (layers F.Cu F.Paste F.Mask)
    (solder_mask_margin 0.0508))
  (pad 49 smd rect (at -1.2 -9.5 90) (size 1.6 0.8) (layers F.Cu F.Paste F.Mask)
    (solder_mask_margin 0.0508))
  (pad 50 smd rect (at -2.4 -9.5 90) (size 1.6 0.8) (layers F.Cu F.Paste F.Mask)
    (solder_mask_margin 0.0508))
  (pad 51 smd rect (at -3.6 -9.5 90) (size 1.6 0.8) (layers F.Cu F.Paste F.Mask)
    (solder_mask_margin 0.0508))
  (pad 52 smd rect (at -4.8 -9.5 90) (size 1.6 0.8) (layers F.Cu F.Paste F.Mask)
    (solder_mask_margin 0.0508))
  (pad 53 smd rect (at -6 -9.5 90) (size 1.6 0.8) (layers F.Cu F.Paste F.Mask)
    (solder_mask_margin 0.0508))
  (pad 54 smd rect (at -7.2 -9.5 90) (size 1.6 0.8) (layers F.Cu F.Paste F.Mask)
    (solder_mask_margin 0.0508))
  (pad 56 smd rect (at -1.9 1.9) (size 1.5 1.5) (layers F.Cu F.Paste F.Mask)
    (solder_mask_margin 0.0508))
  (pad 55 smd rect (at -4.2 -4.7) (size 3 3) (layers F.Cu F.Paste F.Mask)
    (solder_mask_margin 0.0508))
)
