(module C0402 (layer F.Cu) (tedit 0)
  (descr <b>0402<b><p>)
  (fp_text reference C14 (at -3.1242 0.2794) (layer F.SilkS)
    (effects (font (size 0.77216 0.77216) (thickness 0.092659)) (justify left bottom))
  )
  (fp_text value NC (at -1.27 1.27) (layer F.Fab)
    (effects (font (size 0.60325 0.60325) (thickness 0.060325)) (justify left bottom))
  )
  (fp_arc (start -0.762 0.3175) (end -0.762 0.4445) (angle 90) (layer F.SilkS) (width 0.0762))
  (fp_line (start -0.889 0.3175) (end -0.889 -0.3175) (layer F.SilkS) (width 0.0762))
  (fp_arc (start -0.762 -0.3175) (end -0.889 -0.3175) (angle 90) (layer F.SilkS) (width 0.0762))
  (fp_line (start -0.762 -0.4445) (end 0.762 -0.4445) (layer F.SilkS) (width 0.0762))
  (fp_arc (start 0.762 -0.3175) (end 0.762 -0.4445) (angle 90) (layer F.SilkS) (width 0.0762))
  (fp_line (start 0.889 -0.3175) (end 0.889 0.3175) (layer F.SilkS) (width 0.0762))
  (fp_arc (start 0.762 0.3175) (end 0.889 0.3175) (angle 90) (layer F.SilkS) (width 0.0762))
  (fp_line (start 0.762 0.4445) (end -0.762 0.4445) (layer F.SilkS) (width 0.0762))
  (fp_poly (pts (xy -0.508 -0.254) (xy 0.508 -0.254) (xy 0.508 0.254) (xy -0.508 0.254)) (layer F.Fab) (width 0))
  (pad 1 smd roundrect (at -0.4445 0) (size 0.635 0.635) (layers F.Cu F.Paste F.Mask) (roundrect_rratio 0.25)
    (solder_mask_margin 0.0508))
  (pad 2 smd roundrect (at 0.4445 0) (size 0.635 0.635) (layers F.Cu F.Paste F.Mask) (roundrect_rratio 0.25)
    (solder_mask_margin 0.0508))
)
