(module EIA3528 (layer F.Cu) (tedit 0)
  (descr "Generic EIA 3528 polarized tantalum capacitor")
  (fp_text reference C16 (at -1.016 2.286) (layer F.SilkS)
    (effects (font (size 0.77216 0.77216) (thickness 0.154432)) (justify bottom))
  )
  (fp_text value 100uF (at 0 1.778) (layer F.Fab)
    (effects (font (size 0.57912 0.57912) (thickness 0.115824)) (justify top))
  )
  (fp_line (start -0.9 1.6) (end -2.6 1.6) (layer F.Fab) (width 0.2032))
  (fp_line (start -2.6 1.6) (end -2.6 -1.55) (layer F.Fab) (width 0.2032))
  (fp_line (start -2.6 -1.55) (end -0.9 -1.55) (layer F.Fab) (width 0.2032))
  (fp_line (start 1 1.55) (end 2.2 1.55) (layer F.Fab) (width 0.2032))
  (fp_line (start 2.2 1.55) (end 2.6 1.2) (layer F.Fab) (width 0.2032))
  (fp_line (start 2.6 1.2) (end 2.6 -1.25) (layer F.Fab) (width 0.2032))
  (fp_line (start 2.6 -1.25) (end 2.2 -1.55) (layer F.Fab) (width 0.2032))
  (fp_line (start 2.2 -1.55) (end 1 -1.55) (layer F.Fab) (width 0.2032))
  (fp_line (start 2.641 -1.311) (end 2.641 1.286) (layer F.SilkS) (width 0.2032))
  (pad C smd rect (at -1.65 0 90) (size 2.5 1.2) (layers F.Cu F.Paste F.Mask)
    (solder_mask_margin 0.0508))
  (pad A smd rect (at 1.65 0 90) (size 2.5 1.2) (layers F.Cu F.Paste F.Mask)
    (solder_mask_margin 0.0508))
)
