(module XTAL3215 (layer F.Cu) (tedit 0)
  (fp_text reference X1 (at -0.649 -0.975) (layer F.SilkS)
    (effects (font (size 0.77216 0.77216) (thickness 0.092659)) (justify left bottom))
  )
  (fp_text value 32.768 (at -2.6 -1.2) (layer F.Fab)
    (effects (font (size 0.9652 0.9652) (thickness 0.077216)) (justify left bottom))
  )
  (fp_arc (start 1.3172 0.4172) (end 1.6 0.4172) (angle 90) (layer F.SilkS) (width 0.127))
  (fp_line (start 1.3172 0.7) (end -1.3172 0.7) (layer F.SilkS) (width 0.127))
  (fp_arc (start -1.3172 0.4172) (end -1.3172 0.7) (angle 90) (layer F.SilkS) (width 0.127))
  (fp_line (start -1.6 0.4172) (end -1.6 -0.4764) (layer F.SilkS) (width 0.127))
  (fp_arc (start -1.3764 -0.4764) (end -1.6 -0.4764) (angle 90) (layer F.SilkS) (width 0.127))
  (fp_line (start -1.3764 -0.7) (end 1.2838 -0.7) (layer F.SilkS) (width 0.127))
  (fp_arc (start 1.2838 -0.3838) (end 1.2838 -0.7) (angle 90) (layer F.SilkS) (width 0.127))
  (fp_line (start 1.6 -0.3838) (end 1.6 0.4172) (layer F.SilkS) (width 0.127))
  (fp_line (start -1.1 -0.4) (end 1 -0.4) (layer F.SilkS) (width 0.127))
  (fp_arc (start 0.9999 -0.0999) (end 1 -0.4) (angle 89.961816) (layer F.SilkS) (width 0.127))
  (fp_line (start 1.3 -0.1) (end 1.3 0.1) (layer F.SilkS) (width 0.127))
  (fp_arc (start 1 0.099999) (end 1.3 0.1) (angle 90) (layer F.SilkS) (width 0.127))
  (fp_line (start 1 0.4) (end -1 0.4) (layer F.SilkS) (width 0.127))
  (fp_arc (start -1.05 0.149999) (end -1 0.4) (angle 90) (layer F.SilkS) (width 0.127))
  (fp_line (start -1.3 0.2) (end -1.3 -0.1) (layer F.SilkS) (width 0.127))
  (fp_arc (start -1.0501 -0.150066) (end -1.3 -0.1) (angle 90.03821) (layer F.SilkS) (width 0.127))
  (pad P$1 smd rect (at 1.2 0) (size 1.1 1.9) (layers F.Cu F.Paste F.Mask)
    (solder_mask_margin 0.0508))
  (pad P$2 smd rect (at -1.2 0 180) (size 1.1 1.9) (layers F.Cu F.Paste F.Mask)
    (solder_mask_margin 0.0508))
)
