EESchema Schematic File Version 4
EELAYER 30 0
EELAYER END
$Descr A4 11693 8268
encoding utf-8
Sheet 1 1
Title "Alarm DC Voltage V1.0"
Date "2020-11-19"
Rev "0"
Comp "Everything Electronic"
Comment1 ""
Comment2 ""
Comment3 ""
Comment4 ""
$EndDescr
$Comp
L MCU_Microchip_PIC16:PIC16F883-IP U1
U 1 1 5FABA539
P 2550 1950
F 0 "U1" H 2550 2050 50  0000 C CNN
F 1 "PIC16F1936" H 2550 1950 50  0000 C CNN
F 2 "Package_DIP:DIP-28_W7.62mm_Socket" H 2550 1950 50  0001 C CIN
F 3 "http://ww1.microchip.com/downloads/en/DeviceDoc/41291D.pdf" H 2550 1750 50  0001 C CNN
	1    2550 1950
	1    0    0    -1  
$EndComp
$Comp
L power:GND #PWR07
U 1 1 5FAC77EA
P 2550 3150
F 0 "#PWR07" H 2550 2900 50  0001 C CNN
F 1 "GND" H 2555 2977 50  0000 C CNN
F 2 "" H 2550 3150 50  0001 C CNN
F 3 "" H 2550 3150 50  0001 C CNN
	1    2550 3150
	1    0    0    -1  
$EndComp
Wire Wire Line
	2550 3150 2550 3100
Wire Wire Line
	2650 3050 2650 3100
Wire Wire Line
	2650 3100 2550 3100
Connection ~ 2550 3100
Wire Wire Line
	2550 3100 2550 3050
$Comp
L power:+5V #PWR06
U 1 1 5FAC87DD
P 2550 800
F 0 "#PWR06" H 2550 650 50  0001 C CNN
F 1 "+5V" H 2565 973 50  0000 C CNN
F 2 "" H 2550 800 50  0001 C CNN
F 3 "" H 2550 800 50  0001 C CNN
	1    2550 800 
	1    0    0    -1  
$EndComp
$Comp
L Relay:SANYOU_SRD_Form_C K1
U 1 1 5FAD8B60
P 9100 1350
F 0 "K1" H 9530 1396 50  0000 L CNN
F 1 "RLY1" H 9530 1305 50  0000 L CNN
F 2 "Relay_THT:Relay_SPDT_SANYOU_SRD_Series_Form_C" H 9550 1300 50  0001 L CNN
F 3 "http://www.sanyourelay.ca/public/products/pdf/SRD.pdf" H 9100 1350 50  0001 C CNN
	1    9100 1350
	1    0    0    -1  
$EndComp
$Comp
L Device:D D2
U 1 1 5FADA3D2
P 8400 1350
F 0 "D2" V 8354 1430 50  0000 L CNN
F 1 "D" V 8445 1430 50  0000 L CNN
F 2 "Diode_THT:D_DO-41_SOD81_P7.62mm_Horizontal" H 8400 1350 50  0001 C CNN
F 3 "~" H 8400 1350 50  0001 C CNN
	1    8400 1350
	0    1    1    0   
$EndComp
$Comp
L Transistor_BJT:BC547 Q1
U 1 1 5FADB203
P 8800 2050
F 0 "Q1" H 8991 2096 50  0000 L CNN
F 1 "BC547" H 8991 2005 50  0000 L CNN
F 2 "Package_TO_SOT_THT:TO-92L_Inline_Wide" H 9000 1975 50  0001 L CIN
F 3 "https://www.onsemi.com/pub/Collateral/BC550-D.pdf" H 8800 2050 50  0001 L CNN
	1    8800 2050
	1    0    0    -1  
$EndComp
$Comp
L Device:R R8
U 1 1 5FADC835
P 8300 2050
F 0 "R8" V 8100 2000 50  0000 L CNN
F 1 "1k" V 8200 1950 50  0000 L CNN
F 2 "Resistor_THT:R_Axial_DIN0207_L6.3mm_D2.5mm_P7.62mm_Horizontal" V 8230 2050 50  0001 C CNN
F 3 "~" H 8300 2050 50  0001 C CNN
	1    8300 2050
	0    1    1    0   
$EndComp
$Comp
L power:GND #PWR024
U 1 1 5FADD126
P 8900 2350
F 0 "#PWR024" H 8900 2100 50  0001 C CNN
F 1 "GND" H 8905 2177 50  0000 C CNN
F 2 "" H 8900 2350 50  0001 C CNN
F 3 "" H 8900 2350 50  0001 C CNN
	1    8900 2350
	1    0    0    -1  
$EndComp
Wire Wire Line
	8900 2350 8900 2250
Wire Wire Line
	8900 1850 8900 1750
Wire Wire Line
	8400 1200 8400 950 
Wire Wire Line
	8400 950  8900 950 
Connection ~ 8900 950 
Wire Wire Line
	8900 950  8900 1050
Wire Wire Line
	8400 1500 8400 1750
Wire Wire Line
	8400 1750 8900 1750
Connection ~ 8900 1750
Wire Wire Line
	8900 1750 8900 1650
Wire Wire Line
	8450 2050 8600 2050
Text Label 7800 2050 0    50   ~ 0
RLY1
Wire Wire Line
	7800 2050 8150 2050
$Comp
L Device:CP C4
U 1 1 5FAF860A
P 5900 4900
F 0 "C4" H 6018 4946 50  0000 L CNN
F 1 "470uF" H 6018 4855 50  0000 L CNN
F 2 "Capacitor_THT:CP_Radial_D8.0mm_P3.50mm" H 5938 4750 50  0001 C CNN
F 3 "~" H 5900 4900 50  0001 C CNN
	1    5900 4900
	1    0    0    -1  
$EndComp
$Comp
L power:GND #PWR018
U 1 1 5FAFE5C4
P 4650 5700
F 0 "#PWR018" H 4650 5450 50  0001 C CNN
F 1 "GND" H 4655 5527 50  0000 C CNN
F 2 "" H 4650 5700 50  0001 C CNN
F 3 "" H 4650 5700 50  0001 C CNN
	1    4650 5700
	1    0    0    -1  
$EndComp
$Comp
L power:+5V #PWR020
U 1 1 5FB0043B
P 6500 4350
F 0 "#PWR020" H 6500 4200 50  0001 C CNN
F 1 "+5V" H 6515 4523 50  0000 C CNN
F 2 "" H 6500 4350 50  0001 C CNN
F 3 "" H 6500 4350 50  0001 C CNN
	1    6500 4350
	1    0    0    -1  
$EndComp
$Comp
L Device:C C1
U 1 1 5FB09333
P 750 1600
F 0 "C1" H 865 1646 50  0000 L CNN
F 1 "104" H 865 1555 50  0000 L CNN
F 2 "Capacitor_THT:C_Rect_L7.0mm_W3.5mm_P5.00mm" H 788 1450 50  0001 C CNN
F 3 "~" H 750 1600 50  0001 C CNN
	1    750  1600
	1    0    0    -1  
$EndComp
$Comp
L power:+5V #PWR01
U 1 1 5FB0A375
P 750 1350
F 0 "#PWR01" H 750 1200 50  0001 C CNN
F 1 "+5V" H 765 1523 50  0000 C CNN
F 2 "" H 750 1350 50  0001 C CNN
F 3 "" H 750 1350 50  0001 C CNN
	1    750  1350
	1    0    0    -1  
$EndComp
$Comp
L power:GND #PWR02
U 1 1 5FB0A6B6
P 750 1800
F 0 "#PWR02" H 750 1550 50  0001 C CNN
F 1 "GND" H 755 1627 50  0000 C CNN
F 2 "" H 750 1800 50  0001 C CNN
F 3 "" H 750 1800 50  0001 C CNN
	1    750  1800
	1    0    0    -1  
$EndComp
Wire Wire Line
	750  1350 750  1450
Wire Wire Line
	750  1750 750  1800
$Comp
L Device:R R7
U 1 1 5FB0E645
P 10450 5450
F 0 "R7" V 10250 5400 50  0000 L CNN
F 1 "10k" V 10350 5350 50  0000 L CNN
F 2 "Resistor_THT:R_Axial_DIN0207_L6.3mm_D2.5mm_P7.62mm_Horizontal" V 10380 5450 50  0001 C CNN
F 3 "~" H 10450 5450 50  0001 C CNN
	1    10450 5450
	-1   0    0    1   
$EndComp
$Comp
L Switch:SW_Push SW1
U 1 1 5FB0FB05
P 10800 5800
F 0 "SW1" H 10800 6085 50  0000 C CNN
F 1 "SW_Push" H 10800 5994 50  0000 C CNN
F 2 "Button_Switch_THT:SW_PUSH_6mm" H 10800 6000 50  0001 C CNN
F 3 "~" H 10800 6000 50  0001 C CNN
	1    10800 5800
	1    0    0    -1  
$EndComp
Text Label 10150 5800 0    50   ~ 0
VPP
Wire Wire Line
	10150 5800 10450 5800
Wire Wire Line
	10450 5600 10450 5800
Connection ~ 10450 5800
Wire Wire Line
	10450 5800 10600 5800
$Comp
L power:GND #PWR016
U 1 1 5FB148DD
P 11100 5900
F 0 "#PWR016" H 11100 5650 50  0001 C CNN
F 1 "GND" H 11105 5727 50  0000 C CNN
F 2 "" H 11100 5900 50  0001 C CNN
F 3 "" H 11100 5900 50  0001 C CNN
	1    11100 5900
	1    0    0    -1  
$EndComp
Wire Wire Line
	11000 5800 11100 5800
Wire Wire Line
	11100 5800 11100 5900
$Comp
L power:+5V #PWR011
U 1 1 5FB16BC2
P 10450 5200
F 0 "#PWR011" H 10450 5050 50  0001 C CNN
F 1 "+5V" H 10465 5373 50  0000 C CNN
F 2 "" H 10450 5200 50  0001 C CNN
F 3 "" H 10450 5200 50  0001 C CNN
	1    10450 5200
	1    0    0    -1  
$EndComp
Wire Wire Line
	10450 5200 10450 5300
Text Label 950  1150 0    50   ~ 0
VPP
Wire Wire Line
	950  1150 1250 1150
$Comp
L Connector_Generic:Conn_01x06 J4
U 1 1 5FB3CF1F
P 5000 1100
F 0 "J4" H 4950 1400 50  0000 L CNN
F 1 "Program" H 4850 700 50  0000 L CNN
F 2 "Connector_PinHeader_2.54mm:PinHeader_1x06_P2.54mm_Vertical" H 5000 1100 50  0001 C CNN
F 3 "~" H 5000 1100 50  0001 C CNN
	1    5000 1100
	1    0    0    -1  
$EndComp
Text Label 4550 900  0    50   ~ 0
VPP
Text Label 4550 1200 0    50   ~ 0
DAT
Text Label 4550 1300 0    50   ~ 0
CLK
Wire Wire Line
	4550 900  4800 900 
Wire Wire Line
	4550 1200 4800 1200
Wire Wire Line
	4550 1300 4800 1300
NoConn ~ 4800 1400
$Comp
L power:+5V #PWR012
U 1 1 5FB464EA
P 4750 800
F 0 "#PWR012" H 4750 650 50  0001 C CNN
F 1 "+5V" H 4765 973 50  0000 C CNN
F 2 "" H 4750 800 50  0001 C CNN
F 3 "" H 4750 800 50  0001 C CNN
	1    4750 800 
	1    0    0    -1  
$EndComp
$Comp
L power:GND #PWR013
U 1 1 5FB46C5E
P 4750 1500
F 0 "#PWR013" H 4750 1250 50  0001 C CNN
F 1 "GND" H 4755 1327 50  0000 C CNN
F 2 "" H 4750 1500 50  0001 C CNN
F 3 "" H 4750 1500 50  0001 C CNN
	1    4750 1500
	1    0    0    -1  
$EndComp
Wire Wire Line
	4750 1500 4750 1100
Wire Wire Line
	4750 1100 4800 1100
Wire Wire Line
	4800 1000 4750 1000
Wire Wire Line
	4750 1000 4750 800 
Wire Wire Line
	2550 800  2550 850 
$Comp
L BA56-12EWA:BA56-12EWA DS1
U 1 1 5FB69BF4
P 6450 2400
F 0 "DS1" H 6933 2446 50  0000 L CNN
F 1 "BA56-12EWA" H 6933 2355 50  0000 L CNN
F 2 "BA56-12EWA(3Digit7Segment):BA56-12EWA" H 6450 2400 50  0001 L BNN
F 3 "" H 6450 2400 50  0001 L BNN
	1    6450 2400
	1    0    0    -1  
$EndComp
$Comp
L Device:R R11
U 1 1 5FB723F2
P 6150 3050
F 0 "R11" V 6200 2800 50  0000 L CNN
F 1 "220R" V 6150 2950 50  0000 L CNN
F 2 "Resistor_THT:R_Axial_DIN0207_L6.3mm_D2.5mm_P7.62mm_Horizontal" V 6080 3050 50  0001 C CNN
F 3 "~" H 6150 3050 50  0001 C CNN
	1    6150 3050
	-1   0    0    1   
$EndComp
$Comp
L Device:R R12
U 1 1 5FB72E51
P 6250 3050
F 0 "R12" V 6300 2800 50  0000 L CNN
F 1 "220R" V 6250 2950 50  0000 L CNN
F 2 "Resistor_THT:R_Axial_DIN0207_L6.3mm_D2.5mm_P7.62mm_Horizontal" V 6180 3050 50  0001 C CNN
F 3 "~" H 6250 3050 50  0001 C CNN
	1    6250 3050
	-1   0    0    1   
$EndComp
$Comp
L Device:R R14
U 1 1 5FB72FDC
P 6350 3050
F 0 "R14" V 6400 2800 50  0000 L CNN
F 1 "220R" V 6350 2950 50  0000 L CNN
F 2 "Resistor_THT:R_Axial_DIN0207_L6.3mm_D2.5mm_P7.62mm_Horizontal" V 6280 3050 50  0001 C CNN
F 3 "~" H 6350 3050 50  0001 C CNN
	1    6350 3050
	-1   0    0    1   
$EndComp
$Comp
L Device:R R15
U 1 1 5FB731F0
P 6450 3050
F 0 "R15" V 6500 2800 50  0000 L CNN
F 1 "220R" V 6450 2950 50  0000 L CNN
F 2 "Resistor_THT:R_Axial_DIN0207_L6.3mm_D2.5mm_P7.62mm_Horizontal" V 6380 3050 50  0001 C CNN
F 3 "~" H 6450 3050 50  0001 C CNN
	1    6450 3050
	-1   0    0    1   
$EndComp
$Comp
L Device:R R16
U 1 1 5FB733A5
P 6550 3050
F 0 "R16" V 6600 2800 50  0000 L CNN
F 1 "220R" V 6550 2950 50  0000 L CNN
F 2 "Resistor_THT:R_Axial_DIN0207_L6.3mm_D2.5mm_P7.62mm_Horizontal" V 6480 3050 50  0001 C CNN
F 3 "~" H 6550 3050 50  0001 C CNN
	1    6550 3050
	-1   0    0    1   
$EndComp
$Comp
L Device:R R17
U 1 1 5FB734F0
P 6650 3050
F 0 "R17" V 6700 2800 50  0000 L CNN
F 1 "220R" V 6650 2950 50  0000 L CNN
F 2 "Resistor_THT:R_Axial_DIN0207_L6.3mm_D2.5mm_P7.62mm_Horizontal" V 6580 3050 50  0001 C CNN
F 3 "~" H 6650 3050 50  0001 C CNN
	1    6650 3050
	-1   0    0    1   
$EndComp
$Comp
L Device:R R18
U 1 1 5FB73661
P 6750 3050
F 0 "R18" V 6800 2800 50  0000 L CNN
F 1 "220R" V 6750 2950 50  0000 L CNN
F 2 "Resistor_THT:R_Axial_DIN0207_L6.3mm_D2.5mm_P7.62mm_Horizontal" V 6680 3050 50  0001 C CNN
F 3 "~" H 6750 3050 50  0001 C CNN
	1    6750 3050
	-1   0    0    1   
$EndComp
Text Label 6150 3350 2    50   ~ 0
a
Text Label 6250 3350 2    50   ~ 0
b
Text Label 6350 3350 2    50   ~ 0
c
Text Label 6450 3350 2    50   ~ 0
d
Text Label 6550 3350 2    50   ~ 0
e
Text Label 6650 3350 2    50   ~ 0
f
Text Label 6750 3350 2    50   ~ 0
g
Wire Wire Line
	6150 3350 6150 3200
Wire Wire Line
	6250 3350 6250 3200
Wire Wire Line
	6350 3350 6350 3200
Wire Wire Line
	6450 3350 6450 3200
Wire Wire Line
	6550 3350 6550 3200
Wire Wire Line
	6650 3350 6650 3200
Wire Wire Line
	6750 3350 6750 3200
Wire Wire Line
	6150 2900 6150 2800
Wire Wire Line
	6250 2900 6250 2800
Wire Wire Line
	6350 2900 6350 2800
Wire Wire Line
	6450 2900 6450 2800
Wire Wire Line
	6550 2900 6550 2800
Wire Wire Line
	6650 2900 6650 2800
Wire Wire Line
	6750 2900 6750 2800
Text Label 4300 2750 2    50   ~ 0
dp
Text Label 4300 2650 2    50   ~ 0
g
Text Label 4300 2550 2    50   ~ 0
f
Text Label 4300 2450 2    50   ~ 0
e
Text Label 4300 2350 2    50   ~ 0
d
Text Label 4300 2250 2    50   ~ 0
c
Text Label 4300 2150 2    50   ~ 0
b
Text Label 4300 2050 2    50   ~ 0
a
Wire Wire Line
	4300 2050 3850 2050
Wire Wire Line
	4300 2150 3850 2150
Wire Wire Line
	4300 2250 3850 2250
Wire Wire Line
	4300 2350 3850 2350
Wire Wire Line
	4300 2450 3850 2450
$Comp
L Transistor_BJT:BC557 Q3
U 1 1 5FBC2D59
P 5850 1450
F 0 "Q3" H 6041 1404 50  0000 L CNN
F 1 "BC557" H 6041 1495 50  0000 L CNN
F 2 "Package_TO_SOT_THT:TO-92L_Inline_Wide" H 6050 1375 50  0001 L CIN
F 3 "https://www.onsemi.com/pub/Collateral/BC556BTA-D.pdf" H 5850 1450 50  0001 L CNN
	1    5850 1450
	1    0    0    1   
$EndComp
$Comp
L Transistor_BJT:BC557 Q4
U 1 1 5FBC5DB7
P 6550 1450
F 0 "Q4" H 6741 1404 50  0000 L CNN
F 1 "BC557" H 6741 1495 50  0000 L CNN
F 2 "Package_TO_SOT_THT:TO-92L_Inline_Wide" H 6750 1375 50  0001 L CIN
F 3 "https://www.onsemi.com/pub/Collateral/BC556BTA-D.pdf" H 6550 1450 50  0001 L CNN
	1    6550 1450
	1    0    0    1   
$EndComp
$Comp
L Transistor_BJT:BC557 Q5
U 1 1 5FBC6610
P 7200 1450
F 0 "Q5" H 7391 1404 50  0000 L CNN
F 1 "BC557" H 7391 1495 50  0000 L CNN
F 2 "Package_TO_SOT_THT:TO-92L_Inline_Wide" H 7400 1375 50  0001 L CIN
F 3 "https://www.onsemi.com/pub/Collateral/BC556BTA-D.pdf" H 7200 1450 50  0001 L CNN
	1    7200 1450
	1    0    0    1   
$EndComp
Wire Wire Line
	6650 2000 6650 1650
Wire Wire Line
	6750 2000 6750 1750
Wire Wire Line
	6750 1750 7300 1750
Wire Wire Line
	7300 1750 7300 1650
Wire Wire Line
	6550 2000 6550 1750
Wire Wire Line
	6550 1750 5950 1750
Wire Wire Line
	5950 1750 5950 1650
$Comp
L Device:R R10
U 1 1 5FBD74F7
P 5600 1200
F 0 "R10" V 5400 1150 50  0000 L CNN
F 1 "1k" V 5500 1100 50  0000 L CNN
F 2 "Resistor_THT:R_Axial_DIN0207_L6.3mm_D2.5mm_P7.62mm_Horizontal" V 5530 1200 50  0001 C CNN
F 3 "~" H 5600 1200 50  0001 C CNN
	1    5600 1200
	1    0    0    -1  
$EndComp
$Comp
L Device:R R13
U 1 1 5FBDBB46
P 6300 1200
F 0 "R13" V 6100 1150 50  0000 L CNN
F 1 "1k" V 6200 1100 50  0000 L CNN
F 2 "Resistor_THT:R_Axial_DIN0207_L6.3mm_D2.5mm_P7.62mm_Horizontal" V 6230 1200 50  0001 C CNN
F 3 "~" H 6300 1200 50  0001 C CNN
	1    6300 1200
	1    0    0    -1  
$EndComp
$Comp
L Device:R R19
U 1 1 5FBDBECD
P 6950 1200
F 0 "R19" V 6750 1150 50  0000 L CNN
F 1 "1k" V 6850 1100 50  0000 L CNN
F 2 "Resistor_THT:R_Axial_DIN0207_L6.3mm_D2.5mm_P7.62mm_Horizontal" V 6880 1200 50  0001 C CNN
F 3 "~" H 6950 1200 50  0001 C CNN
	1    6950 1200
	1    0    0    -1  
$EndComp
$Comp
L power:+5V #PWR027
U 1 1 5FBDC405
P 5950 900
F 0 "#PWR027" H 5950 750 50  0001 C CNN
F 1 "+5V" H 5965 1073 50  0000 C CNN
F 2 "" H 5950 900 50  0001 C CNN
F 3 "" H 5950 900 50  0001 C CNN
	1    5950 900 
	1    0    0    -1  
$EndComp
$Comp
L power:+5V #PWR028
U 1 1 5FBDCC96
P 6650 900
F 0 "#PWR028" H 6650 750 50  0001 C CNN
F 1 "+5V" H 6665 1073 50  0000 C CNN
F 2 "" H 6650 900 50  0001 C CNN
F 3 "" H 6650 900 50  0001 C CNN
	1    6650 900 
	1    0    0    -1  
$EndComp
$Comp
L power:+5V #PWR029
U 1 1 5FBDD101
P 7300 900
F 0 "#PWR029" H 7300 750 50  0001 C CNN
F 1 "+5V" H 7315 1073 50  0000 C CNN
F 2 "" H 7300 900 50  0001 C CNN
F 3 "" H 7300 900 50  0001 C CNN
	1    7300 900 
	1    0    0    -1  
$EndComp
Wire Wire Line
	5950 900  5950 1250
Wire Wire Line
	6650 900  6650 1250
Wire Wire Line
	7300 900  7300 1250
Wire Wire Line
	5600 1350 5600 1450
Wire Wire Line
	5600 1450 5650 1450
Wire Wire Line
	6300 1350 6300 1450
Wire Wire Line
	6300 1450 6350 1450
Wire Wire Line
	6950 1350 6950 1450
Wire Wire Line
	6950 1450 7000 1450
Text Label 5400 800  0    50   ~ 0
SEG1
Text Label 6100 800  0    50   ~ 0
SEG2
Text Label 6750 800  0    50   ~ 0
SEG3
Wire Wire Line
	5600 800  5600 1050
Wire Wire Line
	6300 800  6300 1050
Wire Wire Line
	6950 800  6950 1050
Text Label 1000 2250 0    50   ~ 0
RLY1
Text Label 1000 2350 0    50   ~ 0
RLY2
$Comp
L Connector:Screw_Terminal_01x03 J6
U 1 1 5FC137B1
P 10200 1350
F 0 "J6" H 10280 1392 50  0000 L CNN
F 1 "RLY1_OUT" H 10280 1301 50  0000 L CNN
F 2 "TerminalBlock:TerminalBlock_bornier-3_P5.08mm" H 10200 1350 50  0001 C CNN
F 3 "~" H 10200 1350 50  0001 C CNN
	1    10200 1350
	1    0    0    -1  
$EndComp
Text Label 5950 1950 0    50   ~ 0
dp
Wire Wire Line
	5950 1950 6150 1950
Wire Wire Line
	6150 1950 6150 2000
Wire Wire Line
	4300 2550 3850 2550
Wire Wire Line
	4000 3000 4300 3000
Wire Wire Line
	4100 2900 4300 2900
Text Label 4300 2900 2    50   ~ 0
CLK
Text Label 4300 3000 2    50   ~ 0
DAT
Wire Wire Line
	3850 2750 4000 2750
Wire Wire Line
	3850 2650 4100 2650
Wire Wire Line
	4100 2900 4100 2650
Connection ~ 4100 2650
Wire Wire Line
	4100 2650 4300 2650
Wire Wire Line
	4000 3000 4000 2750
Connection ~ 4000 2750
Wire Wire Line
	4000 2750 4300 2750
Wire Wire Line
	5400 800  5600 800 
Wire Wire Line
	6100 800  6300 800 
Wire Wire Line
	6750 800  6950 800 
Text Label 9600 950  2    50   ~ 0
NO1
Text Label 9600 850  2    50   ~ 0
NC1
Text Label 9600 1750 2    50   ~ 0
COM1
Wire Wire Line
	9600 850  9200 850 
Wire Wire Line
	9200 850  9200 1050
Wire Wire Line
	9600 950  9400 950 
Wire Wire Line
	9400 950  9400 1050
Wire Wire Line
	9600 1750 9300 1750
Wire Wire Line
	9300 1750 9300 1650
Text Label 9750 1350 0    50   ~ 0
COM1
Text Label 9750 1250 0    50   ~ 0
NO1
Text Label 9750 1450 0    50   ~ 0
NC1
Wire Wire Line
	9750 1350 10000 1350
Wire Wire Line
	9750 1250 10000 1250
Wire Wire Line
	9750 1450 10000 1450
$Comp
L Relay:SANYOU_SRD_Form_C K2
U 1 1 5FC85B7F
P 9100 3350
F 0 "K2" H 9530 3396 50  0000 L CNN
F 1 "RLY1" H 9530 3305 50  0000 L CNN
F 2 "Relay_THT:Relay_SPDT_SANYOU_SRD_Series_Form_C" H 9550 3300 50  0001 L CNN
F 3 "http://www.sanyourelay.ca/public/products/pdf/SRD.pdf" H 9100 3350 50  0001 C CNN
	1    9100 3350
	1    0    0    -1  
$EndComp
$Comp
L Device:D D3
U 1 1 5FC85B85
P 8400 3350
F 0 "D3" V 8354 3430 50  0000 L CNN
F 1 "D" V 8445 3430 50  0000 L CNN
F 2 "Diode_THT:D_DO-41_SOD81_P7.62mm_Horizontal" H 8400 3350 50  0001 C CNN
F 3 "~" H 8400 3350 50  0001 C CNN
	1    8400 3350
	0    1    1    0   
$EndComp
$Comp
L Transistor_BJT:BC547 Q2
U 1 1 5FC85B8B
P 8800 4050
F 0 "Q2" H 8991 4096 50  0000 L CNN
F 1 "BC547" H 8991 4005 50  0000 L CNN
F 2 "Package_TO_SOT_THT:TO-92L_Inline_Wide" H 9000 3975 50  0001 L CIN
F 3 "https://www.onsemi.com/pub/Collateral/BC550-D.pdf" H 8800 4050 50  0001 L CNN
	1    8800 4050
	1    0    0    -1  
$EndComp
$Comp
L Device:R R9
U 1 1 5FC85B91
P 8300 4050
F 0 "R9" V 8100 4000 50  0000 L CNN
F 1 "1k" V 8200 3950 50  0000 L CNN
F 2 "Resistor_THT:R_Axial_DIN0207_L6.3mm_D2.5mm_P7.62mm_Horizontal" V 8230 4050 50  0001 C CNN
F 3 "~" H 8300 4050 50  0001 C CNN
	1    8300 4050
	0    1    1    0   
$EndComp
$Comp
L power:GND #PWR026
U 1 1 5FC85B97
P 8900 4350
F 0 "#PWR026" H 8900 4100 50  0001 C CNN
F 1 "GND" H 8905 4177 50  0000 C CNN
F 2 "" H 8900 4350 50  0001 C CNN
F 3 "" H 8900 4350 50  0001 C CNN
	1    8900 4350
	1    0    0    -1  
$EndComp
Wire Wire Line
	8900 4350 8900 4250
Wire Wire Line
	8900 3850 8900 3750
Wire Wire Line
	8400 3200 8400 2950
Wire Wire Line
	8400 2950 8900 2950
Connection ~ 8900 2950
Wire Wire Line
	8900 2950 8900 3050
Wire Wire Line
	8400 3500 8400 3750
Wire Wire Line
	8400 3750 8900 3750
Connection ~ 8900 3750
Wire Wire Line
	8900 3750 8900 3650
Wire Wire Line
	8450 4050 8600 4050
Text Label 7800 4050 0    50   ~ 0
RLY2
Wire Wire Line
	7800 4050 8150 4050
$Comp
L Connector:Screw_Terminal_01x03 J5
U 1 1 5FC85BB1
P 10200 3350
F 0 "J5" H 10280 3392 50  0000 L CNN
F 1 "RLY2_OUT" H 10280 3301 50  0000 L CNN
F 2 "TerminalBlock:TerminalBlock_bornier-3_P5.08mm" H 10200 3350 50  0001 C CNN
F 3 "~" H 10200 3350 50  0001 C CNN
	1    10200 3350
	1    0    0    -1  
$EndComp
Text Label 9600 2950 2    50   ~ 0
NO2
Text Label 9600 2850 2    50   ~ 0
NC2
Text Label 9600 3750 2    50   ~ 0
COM2
Wire Wire Line
	9600 2850 9200 2850
Wire Wire Line
	9200 2850 9200 3050
Wire Wire Line
	9600 2950 9400 2950
Wire Wire Line
	9400 2950 9400 3050
Wire Wire Line
	9600 3750 9300 3750
Wire Wire Line
	9300 3750 9300 3650
Text Label 9750 3350 0    50   ~ 0
COM2
Text Label 9750 3250 0    50   ~ 0
NO2
Text Label 9750 3450 0    50   ~ 0
NC2
Wire Wire Line
	9750 3350 10000 3350
Wire Wire Line
	9750 3250 10000 3250
Wire Wire Line
	9750 3450 10000 3450
Text Label 1000 2450 0    50   ~ 0
BUZZER
Text Label 1000 2550 0    50   ~ 0
SEG3
Text Label 1000 2750 0    50   ~ 0
SEG1
Wire Wire Line
	1000 2450 1250 2450
Wire Wire Line
	1000 2550 1250 2550
Wire Wire Line
	1000 2750 1250 2750
$Comp
L Device:R R20
U 1 1 5FCE9931
P 7050 5450
F 0 "R20" V 6850 5400 50  0000 L CNN
F 1 "10k" V 6950 5350 50  0000 L CNN
F 2 "Resistor_THT:R_Axial_DIN0207_L6.3mm_D2.5mm_P7.62mm_Horizontal" V 6980 5450 50  0001 C CNN
F 3 "~" H 7050 5450 50  0001 C CNN
	1    7050 5450
	-1   0    0    1   
$EndComp
$Comp
L Switch:SW_Push SW2
U 1 1 5FCE9937
P 7400 5800
F 0 "SW2" H 7400 6085 50  0000 C CNN
F 1 "SW_Push" H 7400 5994 50  0000 C CNN
F 2 "Button_Switch_THT:SW_PUSH-12mm" H 7400 6000 50  0001 C CNN
F 3 "~" H 7400 6000 50  0001 C CNN
	1    7400 5800
	1    0    0    -1  
$EndComp
Text Label 6750 5800 0    50   ~ 0
SW1
Wire Wire Line
	6750 5800 7050 5800
Wire Wire Line
	7050 5600 7050 5800
Connection ~ 7050 5800
Wire Wire Line
	7050 5800 7200 5800
$Comp
L power:GND #PWR0101
U 1 1 5FCE9942
P 7700 5900
F 0 "#PWR0101" H 7700 5650 50  0001 C CNN
F 1 "GND" H 7705 5727 50  0000 C CNN
F 2 "" H 7700 5900 50  0001 C CNN
F 3 "" H 7700 5900 50  0001 C CNN
	1    7700 5900
	1    0    0    -1  
$EndComp
Wire Wire Line
	7600 5800 7700 5800
Wire Wire Line
	7700 5800 7700 5900
$Comp
L power:+5V #PWR0102
U 1 1 5FCE994A
P 7050 5200
F 0 "#PWR0102" H 7050 5050 50  0001 C CNN
F 1 "+5V" H 7065 5373 50  0000 C CNN
F 2 "" H 7050 5200 50  0001 C CNN
F 3 "" H 7050 5200 50  0001 C CNN
	1    7050 5200
	1    0    0    -1  
$EndComp
Wire Wire Line
	7050 5200 7050 5300
$Comp
L Device:R R21
U 1 1 5FCF2405
P 8200 5450
F 0 "R21" V 8000 5400 50  0000 L CNN
F 1 "10k" V 8100 5350 50  0000 L CNN
F 2 "Resistor_THT:R_Axial_DIN0207_L6.3mm_D2.5mm_P7.62mm_Horizontal" V 8130 5450 50  0001 C CNN
F 3 "~" H 8200 5450 50  0001 C CNN
	1    8200 5450
	-1   0    0    1   
$EndComp
$Comp
L Switch:SW_Push SW3
U 1 1 5FCF240B
P 8550 5800
F 0 "SW3" H 8550 6085 50  0000 C CNN
F 1 "SW_Push" H 8550 5994 50  0000 C CNN
F 2 "Button_Switch_THT:SW_PUSH-12mm" H 8550 6000 50  0001 C CNN
F 3 "~" H 8550 6000 50  0001 C CNN
	1    8550 5800
	1    0    0    -1  
$EndComp
Text Label 7900 5800 0    50   ~ 0
SW2
Wire Wire Line
	7900 5800 8200 5800
Wire Wire Line
	8200 5600 8200 5800
Connection ~ 8200 5800
Wire Wire Line
	8200 5800 8350 5800
$Comp
L power:GND #PWR0103
U 1 1 5FCF2416
P 8850 5900
F 0 "#PWR0103" H 8850 5650 50  0001 C CNN
F 1 "GND" H 8855 5727 50  0000 C CNN
F 2 "" H 8850 5900 50  0001 C CNN
F 3 "" H 8850 5900 50  0001 C CNN
	1    8850 5900
	1    0    0    -1  
$EndComp
Wire Wire Line
	8750 5800 8850 5800
Wire Wire Line
	8850 5800 8850 5900
$Comp
L power:+5V #PWR0104
U 1 1 5FCF241E
P 8200 5200
F 0 "#PWR0104" H 8200 5050 50  0001 C CNN
F 1 "+5V" H 8215 5373 50  0000 C CNN
F 2 "" H 8200 5200 50  0001 C CNN
F 3 "" H 8200 5200 50  0001 C CNN
	1    8200 5200
	1    0    0    -1  
$EndComp
Wire Wire Line
	8200 5200 8200 5300
$Comp
L Device:R R22
U 1 1 5FCFB862
P 9300 5450
F 0 "R22" V 9100 5400 50  0000 L CNN
F 1 "10k" V 9200 5350 50  0000 L CNN
F 2 "Resistor_THT:R_Axial_DIN0207_L6.3mm_D2.5mm_P7.62mm_Horizontal" V 9230 5450 50  0001 C CNN
F 3 "~" H 9300 5450 50  0001 C CNN
	1    9300 5450
	-1   0    0    1   
$EndComp
$Comp
L Switch:SW_Push SW4
U 1 1 5FCFB868
P 9650 5800
F 0 "SW4" H 9650 6085 50  0000 C CNN
F 1 "SW_Push" H 9650 5994 50  0000 C CNN
F 2 "Button_Switch_THT:SW_PUSH-12mm" H 9650 6000 50  0001 C CNN
F 3 "~" H 9650 6000 50  0001 C CNN
	1    9650 5800
	1    0    0    -1  
$EndComp
Text Label 9000 5800 0    50   ~ 0
SW3
Wire Wire Line
	9000 5800 9300 5800
Wire Wire Line
	9300 5600 9300 5800
Connection ~ 9300 5800
Wire Wire Line
	9300 5800 9450 5800
$Comp
L power:GND #PWR0105
U 1 1 5FCFB873
P 9950 5900
F 0 "#PWR0105" H 9950 5650 50  0001 C CNN
F 1 "GND" H 9955 5727 50  0000 C CNN
F 2 "" H 9950 5900 50  0001 C CNN
F 3 "" H 9950 5900 50  0001 C CNN
	1    9950 5900
	1    0    0    -1  
$EndComp
Wire Wire Line
	9850 5800 9950 5800
Wire Wire Line
	9950 5800 9950 5900
$Comp
L power:+5V #PWR0106
U 1 1 5FCFB87B
P 9300 5200
F 0 "#PWR0106" H 9300 5050 50  0001 C CNN
F 1 "+5V" H 9315 5373 50  0000 C CNN
F 2 "" H 9300 5200 50  0001 C CNN
F 3 "" H 9300 5200 50  0001 C CNN
	1    9300 5200
	1    0    0    -1  
$EndComp
Wire Wire Line
	9300 5200 9300 5300
Text Label 4250 1450 2    50   ~ 0
SW1
Text Label 4250 1550 2    50   ~ 0
SW2
Text Label 4250 1650 2    50   ~ 0
SW3
Wire Wire Line
	4250 1250 3850 1250
Wire Wire Line
	4250 1350 3850 1350
Wire Wire Line
	4250 1450 3850 1450
Wire Wire Line
	8900 2800 8900 2950
Wire Wire Line
	8900 800  8900 950 
Wire Notes Line
	5200 550  5200 3400
Wire Notes Line
	5200 3400 600  3400
Wire Notes Line
	600  3400 600  550 
Wire Notes Line
	600  550  5200 550 
Text Notes 650  650  0    50   ~ 0
MCU
Wire Notes Line
	10650 550  10650 4600
Wire Notes Line
	10650 4600 7750 4600
Wire Notes Line
	7750 4600 7750 550 
Wire Notes Line
	7750 550  10650 550 
Text Notes 7800 650  0    50   ~ 0
Relay
Wire Notes Line
	7650 550  7650 3500
Wire Notes Line
	7650 3500 5300 3500
Wire Notes Line
	5300 3500 5300 550 
Wire Notes Line
	5300 550  7650 550 
Text Notes 5350 650  0    50   ~ 0
7 Segment Display\n
$Comp
L Device:LED D4
U 1 1 6000ED4E
P 8000 1500
F 0 "D4" V 8039 1382 50  0000 R CNN
F 1 "LED" V 7948 1382 50  0000 R CNN
F 2 "LED_THT:LED_D5.0mm" H 8000 1500 50  0001 C CNN
F 3 "~" H 8000 1500 50  0001 C CNN
	1    8000 1500
	0    -1   -1   0   
$EndComp
$Comp
L Device:R R23
U 1 1 600100C9
P 8000 1150
F 0 "R23" V 7800 1100 50  0000 L CNN
F 1 "1k" V 7900 1050 50  0000 L CNN
F 2 "Resistor_THT:R_Axial_DIN0207_L6.3mm_D2.5mm_P7.62mm_Horizontal" V 7930 1150 50  0001 C CNN
F 3 "~" H 8000 1150 50  0001 C CNN
	1    8000 1150
	-1   0    0    1   
$EndComp
Wire Wire Line
	8000 1000 8000 950 
Wire Wire Line
	8000 950  8400 950 
Connection ~ 8400 950 
Wire Wire Line
	8000 1300 8000 1350
Wire Wire Line
	8000 1650 8000 1750
Wire Wire Line
	8000 1750 8400 1750
Connection ~ 8400 1750
$Comp
L Device:R R24
U 1 1 60034C2B
P 8050 3150
F 0 "R24" V 7850 3100 50  0000 L CNN
F 1 "1k" V 7950 3050 50  0000 L CNN
F 2 "Resistor_THT:R_Axial_DIN0207_L6.3mm_D2.5mm_P7.62mm_Horizontal" V 7980 3150 50  0001 C CNN
F 3 "~" H 8050 3150 50  0001 C CNN
	1    8050 3150
	-1   0    0    1   
$EndComp
$Comp
L Device:LED D5
U 1 1 60035521
P 8050 3500
F 0 "D5" V 8089 3382 50  0000 R CNN
F 1 "LED" V 7998 3382 50  0000 R CNN
F 2 "LED_THT:LED_D5.0mm" H 8050 3500 50  0001 C CNN
F 3 "~" H 8050 3500 50  0001 C CNN
	1    8050 3500
	0    -1   -1   0   
$EndComp
Wire Wire Line
	8050 3000 8050 2950
Wire Wire Line
	8050 2950 8400 2950
Connection ~ 8400 2950
Wire Wire Line
	8050 3300 8050 3350
Wire Wire Line
	8050 3650 8050 3750
Wire Wire Line
	8050 3750 8400 3750
Connection ~ 8400 3750
$Comp
L Mechanical:MountingHole H1
U 1 1 60071B76
P 10800 650
F 0 "H1" H 10900 696 50  0000 L CNN
F 1 "MountingHole" H 10900 605 50  0000 L CNN
F 2 "MountingHole:MountingHole_3mm_Pad_Via" H 10800 650 50  0001 C CNN
F 3 "~" H 10800 650 50  0001 C CNN
	1    10800 650 
	1    0    0    -1  
$EndComp
$Comp
L Mechanical:MountingHole H2
U 1 1 600722EB
P 10800 900
F 0 "H2" H 10900 946 50  0000 L CNN
F 1 "MountingHole" H 10900 855 50  0000 L CNN
F 2 "MountingHole:MountingHole_3mm_Pad_Via" H 10800 900 50  0001 C CNN
F 3 "~" H 10800 900 50  0001 C CNN
	1    10800 900 
	1    0    0    -1  
$EndComp
$Comp
L Mechanical:MountingHole H3
U 1 1 600723F7
P 10800 1150
F 0 "H3" H 10900 1196 50  0000 L CNN
F 1 "MountingHole" H 10900 1105 50  0000 L CNN
F 2 "MountingHole:MountingHole_3mm_Pad_Via" H 10800 1150 50  0001 C CNN
F 3 "~" H 10800 1150 50  0001 C CNN
	1    10800 1150
	1    0    0    -1  
$EndComp
$Comp
L Mechanical:MountingHole H4
U 1 1 60072588
P 10800 1400
F 0 "H4" H 10900 1446 50  0000 L CNN
F 1 "MountingHole" H 10900 1355 50  0000 L CNN
F 2 "MountingHole:MountingHole_3mm_Pad_Via" H 10800 1400 50  0001 C CNN
F 3 "~" H 10800 1400 50  0001 C CNN
	1    10800 1400
	1    0    0    -1  
$EndComp
$Comp
L Transistor_BJT:BC547 Q6
U 1 1 5FBA2D8A
P 4950 7100
F 0 "Q6" H 5141 7146 50  0000 L CNN
F 1 "BC547" H 5141 7055 50  0000 L CNN
F 2 "Package_TO_SOT_THT:TO-92L_Inline_Wide" H 5150 7025 50  0001 L CIN
F 3 "https://www.onsemi.com/pub/Collateral/BC550-D.pdf" H 4950 7100 50  0001 L CNN
	1    4950 7100
	1    0    0    -1  
$EndComp
$Comp
L Device:R R25
U 1 1 5FBA2D90
P 4450 7100
F 0 "R25" V 4250 7050 50  0000 L CNN
F 1 "1k" V 4350 7000 50  0000 L CNN
F 2 "Resistor_THT:R_Axial_DIN0207_L6.3mm_D2.5mm_P7.62mm_Horizontal" V 4380 7100 50  0001 C CNN
F 3 "~" H 4450 7100 50  0001 C CNN
	1    4450 7100
	0    1    1    0   
$EndComp
$Comp
L power:GND #PWR025
U 1 1 5FBA2D96
P 5050 7400
F 0 "#PWR025" H 5050 7150 50  0001 C CNN
F 1 "GND" H 5055 7227 50  0000 C CNN
F 2 "" H 5050 7400 50  0001 C CNN
F 3 "" H 5050 7400 50  0001 C CNN
	1    5050 7400
	1    0    0    -1  
$EndComp
Wire Wire Line
	5050 7400 5050 7300
Wire Wire Line
	4600 7100 4750 7100
Text Label 3950 7100 0    50   ~ 0
BUZZER
Wire Wire Line
	3950 7100 4300 7100
$Comp
L Device:Buzzer BZ1
U 1 1 5FBB0CAE
P 5300 6550
F 0 "BZ1" H 5452 6579 50  0000 L CNN
F 1 "Buzzer" H 5452 6488 50  0000 L CNN
F 2 "Buzzer_Beeper:Buzzer_12x9.5RM7.6" V 5275 6650 50  0001 C CNN
F 3 "~" V 5275 6650 50  0001 C CNN
	1    5300 6550
	1    0    0    -1  
$EndComp
Wire Wire Line
	5200 6650 5050 6650
Wire Wire Line
	5050 6650 5050 6900
$Comp
L power:+5V #PWR023
U 1 1 5FBBF0BF
P 5050 6300
F 0 "#PWR023" H 5050 6150 50  0001 C CNN
F 1 "+5V" H 5065 6473 50  0000 C CNN
F 2 "" H 5050 6300 50  0001 C CNN
F 3 "" H 5050 6300 50  0001 C CNN
	1    5050 6300
	1    0    0    -1  
$EndComp
Wire Wire Line
	5050 6300 5050 6450
Wire Wire Line
	5050 6450 5200 6450
Text Label 1000 2650 0    50   ~ 0
SEG2
Wire Wire Line
	1250 2650 1000 2650
$Comp
L Connector:Screw_Terminal_01x02 J1
U 1 1 5FBC8EAC
P 600 4100
F 0 "J1" H 518 3775 50  0000 C CNN
F 1 "PowerIN" H 518 3866 50  0000 C CNN
F 2 "TerminalBlock:TerminalBlock_bornier-2_P5.08mm" H 600 4100 50  0001 C CNN
F 3 "~" H 600 4100 50  0001 C CNN
	1    600  4100
	-1   0    0    1   
$EndComp
$Comp
L Device:Fuse F1
U 1 1 5FBCA782
P 1050 4000
F 0 "F1" V 853 4000 50  0000 C CNN
F 1 "Fuse" V 944 4000 50  0000 C CNN
F 2 "Resistor_THT:R_Axial_DIN0309_L9.0mm_D3.2mm_P12.70mm_Horizontal" V 980 4000 50  0001 C CNN
F 3 "~" H 1050 4000 50  0001 C CNN
	1    1050 4000
	0    1    1    0   
$EndComp
$Comp
L Device:R R1
U 1 1 5FBCAE95
P 1250 4300
F 0 "R1" V 1200 4400 50  0000 L CNN
F 1 "33k" V 1150 4250 50  0000 L CNN
F 2 "Resistor_THT:R_Axial_DIN0207_L6.3mm_D2.5mm_P7.62mm_Horizontal" V 1180 4300 50  0001 C CNN
F 3 "~" H 1250 4300 50  0001 C CNN
	1    1250 4300
	1    0    0    -1  
$EndComp
$Comp
L Device:R R2
U 1 1 5FBCB62D
P 1200 6350
F 0 "R2" V 1000 6300 50  0000 L CNN
F 1 "100k" V 1100 6250 50  0000 L CNN
F 2 "Resistor_THT:R_Axial_DIN0207_L6.3mm_D2.5mm_P7.62mm_Horizontal" V 1130 6350 50  0001 C CNN
F 3 "~" H 1200 6350 50  0001 C CNN
	1    1200 6350
	0    1    1    0   
$EndComp
$Comp
L Device:R R3
U 1 1 5FBCBD83
P 1600 6350
F 0 "R3" V 1400 6300 50  0000 L CNN
F 1 "10k" V 1500 6250 50  0000 L CNN
F 2 "Resistor_THT:R_Axial_DIN0207_L6.3mm_D2.5mm_P7.62mm_Horizontal" V 1530 6350 50  0001 C CNN
F 3 "~" H 1600 6350 50  0001 C CNN
	1    1600 6350
	0    1    1    0   
$EndComp
$Comp
L Device:CP C3
U 1 1 5FBCC0FB
P 1900 6650
F 0 "C3" H 2018 6696 50  0000 L CNN
F 1 "10uF" H 2018 6605 50  0000 L CNN
F 2 "Capacitor_THT:C_Radial_D6.3mm_H11.0mm_P2.50mm" H 1938 6500 50  0001 C CNN
F 3 "~" H 1900 6650 50  0001 C CNN
	1    1900 6650
	1    0    0    -1  
$EndComp
$Comp
L Device:R R29
U 1 1 5FBCCE53
P 2300 6600
F 0 "R29" V 2400 6500 50  0000 L CNN
F 1 "10k" V 2200 6500 50  0000 L CNN
F 2 "Resistor_THT:R_Axial_DIN0207_L6.3mm_D2.5mm_P7.62mm_Horizontal" V 2230 6600 50  0001 C CNN
F 3 "~" H 2300 6600 50  0001 C CNN
	1    2300 6600
	-1   0    0    1   
$EndComp
$Comp
L Device:CP C5
U 1 1 5FBCDEEB
P 2300 7100
F 0 "C5" H 2418 7146 50  0000 L CNN
F 1 "10uF" H 2418 7055 50  0000 L CNN
F 2 "Capacitor_THT:C_Radial_D6.3mm_H11.0mm_P2.50mm" H 2338 6950 50  0001 C CNN
F 3 "~" H 2300 7100 50  0001 C CNN
	1    2300 7100
	1    0    0    -1  
$EndComp
$Comp
L Device:R R30
U 1 1 5FBCE9A4
P 2650 6350
F 0 "R30" V 2750 6300 50  0000 L CNN
F 1 "4.7k" V 2550 6250 50  0000 L CNN
F 2 "Resistor_THT:R_Axial_DIN0207_L6.3mm_D2.5mm_P7.62mm_Horizontal" V 2580 6350 50  0001 C CNN
F 3 "~" H 2650 6350 50  0001 C CNN
	1    2650 6350
	0    -1   -1   0   
$EndComp
$Comp
L Device:R R32
U 1 1 5FBCF031
P 3150 6350
F 0 "R32" V 3250 6250 50  0000 L CNN
F 1 "4.7k" V 3050 6250 50  0000 L CNN
F 2 "Resistor_THT:R_Axial_DIN0207_L6.3mm_D2.5mm_P7.62mm_Horizontal" V 3080 6350 50  0001 C CNN
F 3 "~" H 3150 6350 50  0001 C CNN
	1    3150 6350
	0    -1   -1   0   
$EndComp
$Comp
L Device:R R31
U 1 1 5FBCF6D0
P 2900 6600
F 0 "R31" V 3000 6500 50  0000 L CNN
F 1 "10k" V 2800 6500 50  0000 L CNN
F 2 "Resistor_THT:R_Axial_DIN0207_L6.3mm_D2.5mm_P7.62mm_Horizontal" V 2830 6600 50  0001 C CNN
F 3 "~" H 2900 6600 50  0001 C CNN
	1    2900 6600
	1    0    0    -1  
$EndComp
$Comp
L Device:C C6
U 1 1 5FBD0331
P 2900 7100
F 0 "C6" H 3015 7146 50  0000 L CNN
F 1 "104" H 3015 7055 50  0000 L CNN
F 2 "Capacitor_THT:C_Rect_L7.0mm_W3.5mm_P5.00mm" H 2938 6950 50  0001 C CNN
F 3 "~" H 2900 7100 50  0001 C CNN
	1    2900 7100
	1    0    0    -1  
$EndComp
$Comp
L Device:R_POT RV1
U 1 1 5FBD219C
P 3550 6650
F 0 "RV1" H 3480 6696 50  0000 R CNN
F 1 "10k" H 3480 6605 50  0000 R CNN
F 2 "Potentiometer_THT:Potentiometer_Bourns_3296W_Vertical" H 3550 6650 50  0001 C CNN
F 3 "~" H 3550 6650 50  0001 C CNN
	1    3550 6650
	1    0    0    -1  
$EndComp
$Comp
L Device:LED D1
U 1 1 5FBD3FD7
P 1250 4700
F 0 "D1" V 1300 4850 50  0000 R CNN
F 1 "LED" V 1200 4900 50  0000 R CNN
F 2 "LED_THT:LED_D5.0mm" H 1250 4700 50  0001 C CNN
F 3 "~" H 1250 4700 50  0001 C CNN
	1    1250 4700
	0    -1   -1   0   
$EndComp
$Comp
L Device:R R4
U 1 1 5FBE39A4
P 2250 4000
F 0 "R4" V 2300 4100 50  0000 L CNN
F 1 "10k" V 2250 3950 50  0000 L CNN
F 2 "Resistor_THT:R_Axial_DIN0207_L6.3mm_D2.5mm_P7.62mm_Horizontal" V 2180 4000 50  0001 C CNN
F 3 "~" H 2250 4000 50  0001 C CNN
	1    2250 4000
	0    -1   -1   0   
$EndComp
$Comp
L Device:R R5
U 1 1 5FBE425C
P 2250 4150
F 0 "R5" V 2300 4250 50  0000 L CNN
F 1 "10k" V 2250 4100 50  0000 L CNN
F 2 "Resistor_THT:R_Axial_DIN0207_L6.3mm_D2.5mm_P7.62mm_Horizontal" V 2180 4150 50  0001 C CNN
F 3 "~" H 2250 4150 50  0001 C CNN
	1    2250 4150
	0    -1   -1   0   
$EndComp
$Comp
L Device:R R6
U 1 1 5FBE4554
P 2250 4300
F 0 "R6" V 2300 4400 50  0000 L CNN
F 1 "10k" V 2250 4250 50  0000 L CNN
F 2 "Resistor_THT:R_Axial_DIN0207_L6.3mm_D2.5mm_P7.62mm_Horizontal" V 2180 4300 50  0001 C CNN
F 3 "~" H 2250 4300 50  0001 C CNN
	1    2250 4300
	0    -1   -1   0   
$EndComp
$Comp
L Device:R R26
U 1 1 5FBE47E5
P 2250 4450
F 0 "R26" V 2300 4550 50  0000 L CNN
F 1 "10k" V 2250 4400 50  0000 L CNN
F 2 "Resistor_THT:R_Axial_DIN0207_L6.3mm_D2.5mm_P7.62mm_Horizontal" V 2180 4450 50  0001 C CNN
F 3 "~" H 2250 4450 50  0001 C CNN
	1    2250 4450
	0    -1   -1   0   
$EndComp
$Comp
L Device:C C2
U 1 1 5FBE4CDE
P 1500 4300
F 0 "C2" H 1650 4350 50  0000 L CNN
F 1 "104" H 1650 4250 50  0000 L CNN
F 2 "Capacitor_THT:C_Rect_L7.0mm_W3.5mm_P5.00mm" H 1538 4150 50  0001 C CNN
F 3 "~" H 1500 4300 50  0001 C CNN
	1    1500 4300
	1    0    0    -1  
$EndComp
$Comp
L Device:R R28
U 1 1 5FBF4204
P 2750 4300
F 0 "R28" V 2550 4250 50  0000 L CNN
F 1 "10k" V 2650 4200 50  0000 L CNN
F 2 "Resistor_THT:R_Axial_DIN0207_L6.3mm_D2.5mm_P7.62mm_Horizontal" V 2680 4300 50  0001 C CNN
F 3 "~" H 2750 4300 50  0001 C CNN
	1    2750 4300
	0    -1   -1   0   
$EndComp
Wire Wire Line
	800  4000 900  4000
Wire Wire Line
	1250 4150 1250 4000
Wire Wire Line
	1350 6350 1450 6350
Wire Wire Line
	1750 6350 1900 6350
Wire Wire Line
	2800 6350 2900 6350
Wire Wire Line
	3300 6350 3550 6350
Wire Wire Line
	3550 6350 3550 6500
Wire Wire Line
	2300 6450 2300 6350
Connection ~ 2300 6350
Wire Wire Line
	2300 6350 2500 6350
Wire Wire Line
	1900 6500 1900 6350
Connection ~ 1900 6350
Wire Wire Line
	1900 6350 2300 6350
Wire Wire Line
	2300 6950 2300 6850
Wire Wire Line
	2900 6950 2900 6850
Wire Wire Line
	2900 6450 2900 6350
Connection ~ 2900 6350
Wire Wire Line
	2900 6350 3000 6350
Wire Wire Line
	1250 4550 1250 4450
$Comp
L power:GND #PWR0109
U 1 1 5FCBAACD
P 1250 4900
F 0 "#PWR0109" H 1250 4650 50  0001 C CNN
F 1 "GND" H 1255 4727 50  0000 C CNN
F 2 "" H 1250 4900 50  0001 C CNN
F 3 "" H 1250 4900 50  0001 C CNN
	1    1250 4900
	1    0    0    -1  
$EndComp
$Comp
L power:GND #PWR0110
U 1 1 5FCBB348
P 2300 7300
F 0 "#PWR0110" H 2300 7050 50  0001 C CNN
F 1 "GND" H 2305 7127 50  0000 C CNN
F 2 "" H 2300 7300 50  0001 C CNN
F 3 "" H 2300 7300 50  0001 C CNN
	1    2300 7300
	1    0    0    -1  
$EndComp
$Comp
L power:GND #PWR0111
U 1 1 5FCBB690
P 2900 7300
F 0 "#PWR0111" H 2900 7050 50  0001 C CNN
F 1 "GND" H 2905 7127 50  0000 C CNN
F 2 "" H 2900 7300 50  0001 C CNN
F 3 "" H 2900 7300 50  0001 C CNN
	1    2900 7300
	1    0    0    -1  
$EndComp
Wire Wire Line
	1250 4900 1250 4850
Wire Wire Line
	2300 7300 2300 7250
Wire Wire Line
	2900 7300 2900 7250
Wire Wire Line
	2100 4600 1950 4600
Wire Wire Line
	1950 4600 1950 4450
Wire Wire Line
	2100 4150 1950 4150
Wire Wire Line
	2100 4300 1950 4300
Connection ~ 1950 4300
Wire Wire Line
	1950 4300 1950 4150
Wire Wire Line
	2100 4450 1950 4450
Connection ~ 1950 4450
Wire Wire Line
	1950 4450 1950 4300
$Comp
L power:GND #PWR0112
U 1 1 5FD6ED8A
P 1500 4550
F 0 "#PWR0112" H 1500 4300 50  0001 C CNN
F 1 "GND" H 1500 4400 50  0000 C CNN
F 2 "" H 1500 4550 50  0001 C CNN
F 3 "" H 1500 4550 50  0001 C CNN
	1    1500 4550
	1    0    0    -1  
$EndComp
Wire Wire Line
	1500 4550 1500 4450
Wire Wire Line
	2600 4300 2500 4300
$Comp
L power:GND #PWR0113
U 1 1 5FD95DE1
P 1900 6850
F 0 "#PWR0113" H 1900 6600 50  0001 C CNN
F 1 "GND" H 1905 6677 50  0000 C CNN
F 2 "" H 1900 6850 50  0001 C CNN
F 3 "" H 1900 6850 50  0001 C CNN
	1    1900 6850
	1    0    0    -1  
$EndComp
Wire Wire Line
	1900 6850 1900 6800
$Comp
L power:GND #PWR0114
U 1 1 5FDAA110
P 3550 6950
F 0 "#PWR0114" H 3550 6700 50  0001 C CNN
F 1 "GND" H 3555 6777 50  0000 C CNN
F 2 "" H 3550 6950 50  0001 C CNN
F 3 "" H 3550 6950 50  0001 C CNN
	1    3550 6950
	1    0    0    -1  
$EndComp
Wire Wire Line
	3550 6950 3550 6850
Wire Wire Line
	3700 6650 3800 6650
Wire Wire Line
	3800 6650 3800 6850
Wire Wire Line
	3800 6850 3550 6850
Connection ~ 3550 6850
Wire Wire Line
	3550 6850 3550 6800
$Comp
L Device:D_Zener D6
U 1 1 5FDD2A8F
P 3000 4600
F 0 "D6" V 2954 4680 50  0000 L CNN
F 1 "9.1V" V 3045 4680 50  0000 L CNN
F 2 "Diode_THT:D_A-405_P7.62mm_Horizontal" H 3000 4600 50  0001 C CNN
F 3 "~" H 3000 4600 50  0001 C CNN
	1    3000 4600
	0    1    1    0   
$EndComp
$Comp
L Device:CP C7
U 1 1 5FDD3CBE
P 3450 4600
F 0 "C7" H 3568 4646 50  0000 L CNN
F 1 "10uF" H 3568 4555 50  0000 L CNN
F 2 "Capacitor_THT:C_Radial_D6.3mm_H11.0mm_P2.50mm" H 3488 4450 50  0001 C CNN
F 3 "~" H 3450 4600 50  0001 C CNN
	1    3450 4600
	1    0    0    -1  
$EndComp
$Comp
L Transistor_BJT:TIP122 Q7
U 1 1 5FDD46DD
P 3850 4300
F 0 "Q7" H 4000 4550 50  0000 L CNN
F 1 "TIP142" H 4000 4450 50  0000 L CNN
F 2 "Package_TO_SOT_THT:TO-220-3_Vertical" H 4050 4225 50  0001 L CIN
F 3 "https://www.onsemi.com/pub/Collateral/TIP120-D.PDF" H 3850 4300 50  0001 L CNN
	1    3850 4300
	1    0    0    -1  
$EndComp
Wire Wire Line
	2400 4000 2500 4000
Wire Wire Line
	2500 4600 2500 4450
Wire Wire Line
	2500 4600 2400 4600
Connection ~ 2500 4000
Wire Wire Line
	2500 4000 3950 4000
Wire Wire Line
	2400 4150 2500 4150
Connection ~ 2500 4150
Wire Wire Line
	2500 4150 2500 4000
Wire Wire Line
	2400 4300 2500 4300
Connection ~ 2500 4300
Wire Wire Line
	2500 4300 2500 4150
Wire Wire Line
	2400 4450 2500 4450
Connection ~ 2500 4450
Wire Wire Line
	2500 4450 2500 4300
Wire Wire Line
	3000 4450 3000 4300
Wire Wire Line
	3450 4450 3450 4300
Connection ~ 3450 4300
Wire Wire Line
	3450 4300 3650 4300
$Comp
L power:GND #PWR0115
U 1 1 5FE84BB1
P 3000 4850
F 0 "#PWR0115" H 3000 4600 50  0001 C CNN
F 1 "GND" H 3005 4677 50  0000 C CNN
F 2 "" H 3000 4850 50  0001 C CNN
F 3 "" H 3000 4850 50  0001 C CNN
	1    3000 4850
	1    0    0    -1  
$EndComp
$Comp
L power:GND #PWR0116
U 1 1 5FE8509A
P 3450 4850
F 0 "#PWR0116" H 3450 4600 50  0001 C CNN
F 1 "GND" H 3455 4677 50  0000 C CNN
F 2 "" H 3450 4850 50  0001 C CNN
F 3 "" H 3450 4850 50  0001 C CNN
	1    3450 4850
	1    0    0    -1  
$EndComp
Wire Wire Line
	3000 4850 3000 4750
Wire Wire Line
	3450 4850 3450 4750
$Comp
L Device:CP C8
U 1 1 5FF57414
P 3950 4850
F 0 "C8" H 4068 4896 50  0000 L CNN
F 1 "220uF" H 4068 4805 50  0000 L CNN
F 2 "Capacitor_THT:CP_Radial_D8.0mm_P3.50mm" H 3988 4700 50  0001 C CNN
F 3 "~" H 3950 4850 50  0001 C CNN
	1    3950 4850
	1    0    0    -1  
$EndComp
$Comp
L Device:C C9
U 1 1 5FF821FC
P 6350 4900
F 0 "C9" H 6465 4946 50  0000 L CNN
F 1 "104" H 6465 4855 50  0000 L CNN
F 2 "Capacitor_THT:C_Rect_L7.0mm_W3.5mm_P5.00mm" H 6388 4750 50  0001 C CNN
F 3 "~" H 6350 4900 50  0001 C CNN
	1    6350 4900
	1    0    0    -1  
$EndComp
Text Label 2550 6850 2    50   ~ 0
ADC1
Text Label 3150 6850 2    50   ~ 0
ADC2
Wire Wire Line
	2550 6850 2300 6850
Connection ~ 2300 6850
Wire Wire Line
	2300 6850 2300 6750
Wire Wire Line
	3150 6850 2900 6850
Connection ~ 2900 6850
Wire Wire Line
	2900 6850 2900 6750
$Comp
L power:GND #PWR0117
U 1 1 60006FD8
P 900 4200
F 0 "#PWR0117" H 900 3950 50  0001 C CNN
F 1 "GND" H 900 4050 50  0000 C CNN
F 2 "" H 900 4200 50  0001 C CNN
F 3 "" H 900 4200 50  0001 C CNN
	1    900  4200
	1    0    0    -1  
$EndComp
Wire Wire Line
	800  4100 900  4100
Wire Wire Line
	900  4100 900  4200
Connection ~ 1500 4000
Text Label 1800 3700 2    50   ~ 0
PowerIN
Text Label 600  6350 0    50   ~ 0
PowerIN
Wire Wire Line
	3950 4000 3950 4100
Wire Wire Line
	1500 4000 1500 4150
Text Label 4250 1150 2    50   ~ 0
ADC2
Wire Wire Line
	4250 1150 3850 1150
$Comp
L Diode:1N4007 D7
U 1 1 601D1299
P 1750 4000
F 0 "D7" H 1750 3783 50  0000 C CNN
F 1 "1N4007" H 1750 3874 50  0000 C CNN
F 2 "Diode_THT:D_DO-41_SOD81_P10.16mm_Horizontal" H 1750 3825 50  0001 C CNN
F 3 "http://www.vishay.com/docs/88503/1n4001.pdf" H 1750 4000 50  0001 C CNN
	1    1750 4000
	-1   0    0    1   
$EndComp
Wire Wire Line
	1600 4000 1500 4000
Wire Wire Line
	1500 3700 1800 3700
Wire Wire Line
	1500 3700 1500 4000
$Comp
L Regulator_Linear:LM317_TO-220 U2
U 1 1 60240D67
P 4650 4600
F 0 "U2" H 4650 4842 50  0000 C CNN
F 1 "LM317_TO-220" H 4650 4751 50  0000 C CNN
F 2 "Package_TO_SOT_THT:TO-220-3_Vertical" H 4650 4850 50  0001 C CIN
F 3 "http://www.ti.com/lit/ds/symlink/lm317.pdf" H 4650 4600 50  0001 C CNN
	1    4650 4600
	1    0    0    -1  
$EndComp
$Comp
L Device:R R33
U 1 1 60245594
P 4650 5450
F 0 "R33" V 4550 5450 50  0000 L CNN
F 1 "1k" V 4650 5400 50  0000 L CNN
F 2 "Resistor_THT:R_Axial_DIN0207_L6.3mm_D2.5mm_P7.62mm_Horizontal" V 4580 5450 50  0001 C CNN
F 3 "~" H 4650 5450 50  0001 C CNN
	1    4650 5450
	1    0    0    -1  
$EndComp
$Comp
L Diode:1N4007 D8
U 1 1 60246AEE
P 4650 4200
F 0 "D8" H 4650 4417 50  0000 C CNN
F 1 "1N4007" H 4650 4326 50  0000 C CNN
F 2 "Diode_THT:D_DO-41_SOD81_P10.16mm_Horizontal" H 4650 4025 50  0001 C CNN
F 3 "http://www.vishay.com/docs/88503/1n4001.pdf" H 4650 4200 50  0001 C CNN
	1    4650 4200
	1    0    0    -1  
$EndComp
$Comp
L Device:CP C10
U 1 1 6024AF65
P 5100 5400
F 0 "C10" H 5218 5446 50  0000 L CNN
F 1 "10uF" H 5218 5355 50  0000 L CNN
F 2 "Capacitor_THT:C_Radial_D6.3mm_H11.0mm_P2.50mm" H 5138 5250 50  0001 C CNN
F 3 "~" H 5100 5400 50  0001 C CNN
	1    5100 5400
	1    0    0    -1  
$EndComp
$Comp
L Device:R R34
U 1 1 6024BB0A
P 5550 4900
F 0 "R34" V 5650 4850 50  0000 L CNN
F 1 "330" V 5550 4850 50  0000 L CNN
F 2 "Resistor_THT:R_Axial_DIN0207_L6.3mm_D2.5mm_P7.62mm_Horizontal" V 5480 4900 50  0001 C CNN
F 3 "~" H 5550 4900 50  0001 C CNN
	1    5550 4900
	1    0    0    -1  
$EndComp
Wire Wire Line
	3950 4500 3950 4600
Wire Wire Line
	4350 4600 4300 4600
Connection ~ 3950 4600
Wire Wire Line
	3950 4600 3950 4700
$Comp
L power:GND #PWR03
U 1 1 6026F84B
P 3950 5100
F 0 "#PWR03" H 3950 4850 50  0001 C CNN
F 1 "GND" H 3955 4927 50  0000 C CNN
F 2 "" H 3950 5100 50  0001 C CNN
F 3 "" H 3950 5100 50  0001 C CNN
	1    3950 5100
	1    0    0    -1  
$EndComp
Wire Wire Line
	3950 5100 3950 5000
Wire Wire Line
	4650 4900 4650 5150
Wire Wire Line
	4650 5600 4650 5650
Wire Wire Line
	5100 5050 5100 5150
Wire Wire Line
	5100 5550 5100 5650
Wire Wire Line
	5100 5650 4650 5650
Connection ~ 4650 5650
Wire Wire Line
	4650 5650 4650 5700
Wire Wire Line
	5100 5150 4650 5150
Connection ~ 5100 5150
Wire Wire Line
	5100 5150 5100 5250
Connection ~ 4650 5150
Wire Wire Line
	4650 5150 4650 5300
Wire Wire Line
	4950 4600 5100 4600
Wire Wire Line
	6500 4600 6500 4350
Wire Wire Line
	5100 4750 5100 4600
Connection ~ 5100 4600
Wire Wire Line
	5100 4600 5550 4600
Wire Wire Line
	5550 5050 5550 5150
Wire Wire Line
	5550 5150 5100 5150
Wire Wire Line
	5550 4750 5550 4600
Connection ~ 5550 4600
Wire Wire Line
	5550 4600 5900 4600
Wire Wire Line
	5900 4750 5900 4600
Connection ~ 5900 4600
Wire Wire Line
	5900 4600 6350 4600
Wire Wire Line
	6350 4750 6350 4600
Connection ~ 6350 4600
Wire Wire Line
	6350 4600 6500 4600
$Comp
L power:GND #PWR04
U 1 1 60356CCD
P 5900 5150
F 0 "#PWR04" H 5900 4900 50  0001 C CNN
F 1 "GND" H 5905 4977 50  0000 C CNN
F 2 "" H 5900 5150 50  0001 C CNN
F 3 "" H 5900 5150 50  0001 C CNN
	1    5900 5150
	1    0    0    -1  
$EndComp
$Comp
L power:GND #PWR05
U 1 1 60357162
P 6350 5150
F 0 "#PWR05" H 6350 4900 50  0001 C CNN
F 1 "GND" H 6355 4977 50  0000 C CNN
F 2 "" H 6350 5150 50  0001 C CNN
F 3 "" H 6350 5150 50  0001 C CNN
	1    6350 5150
	1    0    0    -1  
$EndComp
Wire Wire Line
	5900 5150 5900 5050
Wire Wire Line
	6350 5150 6350 5050
Wire Wire Line
	4800 4200 5100 4200
Wire Wire Line
	5100 4200 5100 4600
Wire Wire Line
	4500 4200 4300 4200
Wire Wire Line
	4300 4200 4300 4600
Connection ~ 4300 4600
Wire Wire Line
	4300 4600 3950 4600
$Comp
L power:+5V #PWR08
U 1 1 603A7FF0
P 8900 800
F 0 "#PWR08" H 8900 650 50  0001 C CNN
F 1 "+5V" H 8915 973 50  0000 C CNN
F 2 "" H 8900 800 50  0001 C CNN
F 3 "" H 8900 800 50  0001 C CNN
	1    8900 800 
	1    0    0    -1  
$EndComp
$Comp
L power:+5V #PWR09
U 1 1 603A8ADD
P 8900 2800
F 0 "#PWR09" H 8900 2650 50  0001 C CNN
F 1 "+5V" H 8915 2973 50  0000 C CNN
F 2 "" H 8900 2800 50  0001 C CNN
F 3 "" H 8900 2800 50  0001 C CNN
	1    8900 2800
	1    0    0    -1  
$EndComp
$Comp
L Diode:1N4007 D9
U 1 1 6024906C
P 5100 4900
F 0 "D9" V 5054 4980 50  0000 L CNN
F 1 "1N4007" V 5145 4980 50  0000 L CNN
F 2 "Diode_THT:D_DO-41_SOD81_P10.16mm_Horizontal" H 5100 4725 50  0001 C CNN
F 3 "http://www.vishay.com/docs/88503/1n4001.pdf" H 5100 4900 50  0001 C CNN
	1    5100 4900
	0    1    1    0   
$EndComp
$Comp
L Device:R R27
U 1 1 5FBE4A67
P 2250 4600
F 0 "R27" V 2300 4700 50  0000 L CNN
F 1 "10k" V 2250 4550 50  0000 L CNN
F 2 "Resistor_THT:R_Axial_DIN0207_L6.3mm_D2.5mm_P7.62mm_Horizontal" V 2180 4600 50  0001 C CNN
F 3 "~" H 2250 4600 50  0001 C CNN
	1    2250 4600
	0    -1   -1   0   
$EndComp
Wire Wire Line
	4250 1550 3850 1550
Wire Wire Line
	4250 1650 3850 1650
Text Label 4250 1350 2    50   ~ 0
AL2_LED
Text Label 4250 1250 2    50   ~ 0
AL1_LED
$Comp
L Device:R R35
U 1 1 6065AADE
P 6250 6850
F 0 "R35" V 6050 6750 50  0000 L CNN
F 1 "330" V 6150 6750 50  0000 L CNN
F 2 "Resistor_THT:R_Axial_DIN0207_L6.3mm_D2.5mm_P7.62mm_Horizontal" V 6180 6850 50  0001 C CNN
F 3 "~" H 6250 6850 50  0001 C CNN
	1    6250 6850
	1    0    0    -1  
$EndComp
$Comp
L Device:LED D10
U 1 1 6065B048
P 6250 7250
F 0 "D10" V 6300 7450 50  0000 R CNN
F 1 "LED" V 6200 7450 50  0000 R CNN
F 2 "LED_THT:LED_D5.0mm" H 6250 7250 50  0001 C CNN
F 3 "~" H 6250 7250 50  0001 C CNN
	1    6250 7250
	0    -1   -1   0   
$EndComp
$Comp
L Device:R R36
U 1 1 6065B797
P 6750 6850
F 0 "R36" V 6550 6750 50  0000 L CNN
F 1 "330" V 6650 6750 50  0000 L CNN
F 2 "Resistor_THT:R_Axial_DIN0207_L6.3mm_D2.5mm_P7.62mm_Horizontal" V 6680 6850 50  0001 C CNN
F 3 "~" H 6750 6850 50  0001 C CNN
	1    6750 6850
	1    0    0    -1  
$EndComp
$Comp
L Device:LED D11
U 1 1 6065BC56
P 6750 7250
F 0 "D11" V 6800 7450 50  0000 R CNN
F 1 "LED" V 6700 7450 50  0000 R CNN
F 2 "LED_THT:LED_D5.0mm" H 6750 7250 50  0001 C CNN
F 3 "~" H 6750 7250 50  0001 C CNN
	1    6750 7250
	0    -1   -1   0   
$EndComp
Wire Wire Line
	6250 7100 6250 7000
Wire Wire Line
	6750 7100 6750 7000
$Comp
L power:+5V #PWR010
U 1 1 6069FEF3
P 6250 6600
F 0 "#PWR010" H 6250 6450 50  0001 C CNN
F 1 "+5V" H 6265 6773 50  0000 C CNN
F 2 "" H 6250 6600 50  0001 C CNN
F 3 "" H 6250 6600 50  0001 C CNN
	1    6250 6600
	1    0    0    -1  
$EndComp
$Comp
L power:+5V #PWR014
U 1 1 606A0663
P 6750 6600
F 0 "#PWR014" H 6750 6450 50  0001 C CNN
F 1 "+5V" H 6765 6773 50  0000 C CNN
F 2 "" H 6750 6600 50  0001 C CNN
F 3 "" H 6750 6600 50  0001 C CNN
	1    6750 6600
	1    0    0    -1  
$EndComp
Wire Wire Line
	6250 6600 6250 6700
Wire Wire Line
	6750 6600 6750 6700
Text Label 5850 7550 0    50   ~ 0
AL1_LED
Text Label 6400 7550 0    50   ~ 0
AL2_LED
Wire Wire Line
	5850 7550 6250 7550
Wire Wire Line
	6250 7550 6250 7400
Wire Wire Line
	6400 7550 6750 7550
Wire Wire Line
	6750 7550 6750 7400
Wire Wire Line
	1000 2250 1250 2250
Wire Wire Line
	1000 2350 1250 2350
$Comp
L Connector_Generic:Conn_01x02 J2
U 1 1 608BCD3A
P 7300 3950
F 0 "J2" H 7380 3942 50  0000 L CNN
F 1 "DEBUG" H 7380 3851 50  0000 L CNN
F 2 "Connector_PinHeader_2.54mm:PinHeader_1x02_P2.54mm_Vertical" H 7300 3950 50  0001 C CNN
F 3 "~" H 7300 3950 50  0001 C CNN
	1    7300 3950
	1    0    0    -1  
$EndComp
$Comp
L power:GND #PWR0107
U 1 1 608BE8AA
P 7000 4150
F 0 "#PWR0107" H 7000 3900 50  0001 C CNN
F 1 "GND" H 7005 3977 50  0000 C CNN
F 2 "" H 7000 4150 50  0001 C CNN
F 3 "" H 7000 4150 50  0001 C CNN
	1    7000 4150
	1    0    0    -1  
$EndComp
Wire Wire Line
	7000 4150 7000 4050
Wire Wire Line
	7000 4050 7100 4050
Text Label 6850 3950 0    50   ~ 0
DEBUG
Wire Wire Line
	6850 3950 7100 3950
Text Label 1000 2150 0    50   ~ 0
DEBUG
Wire Wire Line
	1000 2150 1250 2150
Wire Notes Line
	500  3550 6650 3550
Wire Notes Line
	6650 3550 6650 5950
Wire Notes Line
	6650 5950 500  5950
Wire Notes Line
	500  5950 500  3550
Wire Notes Line
	6700 3550 7700 3550
Wire Notes Line
	7700 3550 7700 4600
Wire Notes Line
	7700 4600 6700 4600
Wire Notes Line
	6700 4600 6700 3550
Wire Notes Line
	11200 4750 11200 6200
Wire Notes Line
	11200 6200 6700 6200
Wire Notes Line
	6700 6200 6700 4750
Wire Notes Line
	6700 4750 11200 4750
Wire Notes Line
	500  6050 3850 6050
Wire Notes Line
	3850 7650 500  7650
Wire Notes Line
	3850 6050 3850 7650
Wire Notes Line
	500  6050 500  7650
Wire Notes Line
	5750 6050 5750 7650
Wire Notes Line
	5750 7650 3900 7650
Wire Notes Line
	3900 7650 3900 6050
Wire Notes Line
	3900 6050 5750 6050
Wire Notes Line
	5800 7650 6850 7650
Wire Notes Line
	5800 6250 5800 7650
Wire Notes Line
	6850 6250 6850 7650
Wire Notes Line
	5800 6250 6850 6250
Text Notes 550  3650 0    50   ~ 0
Power Supply
Text Notes 550  6150 0    50   ~ 0
ADC
Text Notes 3950 6150 0    50   ~ 0
Buzzer
Text Notes 5850 6350 0    50   ~ 0
AL1 AL2 LEDs
Text Notes 6750 4850 0    50   ~ 0
Buttons
Text Notes 6750 3650 0    50   ~ 0
Debug
Wire Wire Line
	600  6350 1050 6350
Wire Wire Line
	3000 4300 3450 4300
Wire Wire Line
	1200 4000 1250 4000
Wire Wire Line
	2900 4300 3000 4300
Connection ~ 3000 4300
Wire Wire Line
	1250 4000 1500 4000
Connection ~ 1250 4000
Wire Wire Line
	1900 4000 1950 4000
Wire Wire Line
	1950 4150 1950 4000
Connection ~ 1950 4150
Connection ~ 1950 4000
Wire Wire Line
	1950 4000 2100 4000
$EndSCHEMATC
