M48
; DRILL file {KiCad (5.1.7)-1} date 11/20/21 18:59:54
; FORMAT={3:3/ absolute / metric / suppress leading zeros}
; #@! TF.CreationDate,2021-11-20T18:59:54+06:30
; #@! TF.GenerationSoftware,Kicad,Pcbnew,(5.1.7)-1
FMAT,2
METRIC,TZ
T1C0.400
T2C1.000
T3C1.100
T4C1.300
T5C1.380
T6C1.500
T7C1.520
T8C0.900
T9C3.200
%
G90
G05
T1
X75982Y-52853
X75982Y-59853
X75982Y-66852
X75982Y-73852
X75982Y-109852
X78982Y-77852
X79982Y-55853
X79982Y-62853
X79982Y-69852
X79982Y-83852
X83982Y-52853
X83982Y-59853
X83982Y-66852
X83982Y-79852
X83982Y-86852
X84982Y-72852
X88982Y-54853
X88982Y-68852
X89982Y-93852
X89982Y-100852
X91982Y-62853
X91982Y-72852
X91982Y-88852
X94982Y-81852
X95250Y-103861
X95250Y-110084
X95982Y-94852
X96982Y-60853
X98982Y-52853
X98982Y-65852
X98982Y-88852
X98982Y-98852
X100711Y-74346
X100711Y-86792
X101982Y-93852
X102982Y-61853
X102982Y-68852
X102982Y-83852
X103982Y-54853
X105982Y-72852
X106375Y-106070
X106982Y-80852
X106982Y-97852
X107721Y-102972
X108982Y-60853
X109550Y-109169
X109982Y-68852
X109982Y-75852
X109982Y-88852
X110982Y-52853
X110982Y-94852
X111982Y-82852
X113792Y-110490
X113982Y-71852
X114982Y-86852
X115982Y-54853
X116982Y-66852
X117982Y-81852
X117982Y-102852
X118982Y-60853
X119456Y-108814
X119982Y-70852
X120982Y-52853
X120982Y-93852
X121920Y-85725
X121920Y-86995
X121920Y-88265
X121982Y-99852
X122982Y-65852
X123190Y-85725
X123982Y-104852
X123982Y-111852
X124460Y-85725
X125730Y-85725
X125730Y-89535
X125982Y-54853
X125982Y-61853
X125982Y-69852
X125982Y-91852
X126390Y-77724
X127000Y-85725
X127000Y-89535
X127982Y-74852
X127982Y-83852
X127982Y-100852
X128270Y-85725
X128270Y-89535
X129982Y-64852
X130982Y-52853
X130982Y-89852
X131982Y-70852
X132080Y-102311
X132982Y-60853
X133982Y-84852
X133982Y-93852
X134982Y-66852
X135982Y-54853
X136804Y-107239
X136982Y-72852
X137982Y-62853
X137982Y-87852
X138455Y-100559
X138982Y-106852
X139982Y-68852
X139982Y-92852
X140982Y-52853
X140982Y-79852
X142982Y-57853
X143982Y-88852
X143982Y-100852
X143982Y-108852
X146982Y-53853
X146982Y-60853
X147982Y-66852
X147982Y-76852
X147982Y-111852
X148982Y-96852
T2
X127305Y-87528
X129845Y-87528
X109469Y-78765
X117069Y-78765
X82601Y-75336
X85141Y-75336
X87681Y-75336
X90221Y-75336
X95317Y-53765
X95317Y-65765
X123459Y-87528
T3
X96653Y-74189
X96653Y-78689
X103153Y-74189
X103153Y-78689
T4
X93367Y-59715
X107517Y-65765
X107567Y-53715
T6
X140691Y-74193
X127559Y-112116
X149733Y-74193
X142469Y-112116
T7
X115773Y-63665
X120853Y-63665
T8
X132318Y-75513
X135318Y-75513
T9
X84860Y-83477
X140470Y-83477
X140470Y-102977
T5
G00X76580Y-82968
M15
G01X76580Y-83988
M16
G05
G00X76580Y-102468
M15
G01X76580Y-103488
M16
G05
G00X149480Y-82968
M15
G01X149480Y-83988
M16
G05
G00X149480Y-102468
M15
G01X149480Y-103488
M16
G05
T0
M30
