G04 #@! TF.GenerationSoftware,KiCad,Pcbnew,(5.1.7)-1*
G04 #@! TF.CreationDate,2021-11-20T18:59:47+06:30*
G04 #@! TF.ProjectId,WirelessTrigger(TX)_SMD_v0.2,57697265-6c65-4737-9354-726967676572,0*
G04 #@! TF.SameCoordinates,Original*
G04 #@! TF.FileFunction,Legend,Bot*
G04 #@! TF.FilePolarity,Positive*
%FSLAX46Y46*%
G04 Gerber Fmt 4.6, Leading zero omitted, Abs format (unit mm)*
G04 Created by KiCad (PCBNEW (5.1.7)-1) date 2021-11-20 18:59:47*
%MOMM*%
%LPD*%
G01*
G04 APERTURE LIST*
%ADD10C,0.120000*%
%ADD11C,0.127000*%
%ADD12C,0.015000*%
G04 APERTURE END LIST*
D10*
G04 #@! TO.C,BT1*
X151880000Y-113627500D02*
X151880000Y-93927500D01*
X74180000Y-113627500D02*
X74180000Y-93927500D01*
D11*
X151880000Y-113627500D02*
X74180000Y-113627500D01*
X151880000Y-73027500D02*
X151880000Y-93927500D01*
X74180000Y-73027500D02*
X151880000Y-73027500D01*
X74180000Y-93927500D02*
X74180000Y-73027500D01*
D12*
X78589200Y-92245000D02*
X78655866Y-92445000D01*
X78722533Y-92511666D01*
X78855866Y-92578333D01*
X79055866Y-92578333D01*
X79189200Y-92511666D01*
X79255866Y-92445000D01*
X79322533Y-92311666D01*
X79322533Y-91778333D01*
X77922533Y-91778333D01*
X77922533Y-92245000D01*
X77989200Y-92378333D01*
X78055866Y-92445000D01*
X78189200Y-92511666D01*
X78322533Y-92511666D01*
X78455866Y-92445000D01*
X78522533Y-92378333D01*
X78589200Y-92245000D01*
X78589200Y-91778333D01*
X77922533Y-92978333D02*
X77922533Y-93778333D01*
X79322533Y-93378333D02*
X77922533Y-93378333D01*
X79322533Y-94978333D02*
X79322533Y-94178333D01*
X79322533Y-94578333D02*
X77922533Y-94578333D01*
X78122533Y-94445000D01*
X78255866Y-94311666D01*
X78322533Y-94178333D01*
X150068333Y-88815500D02*
X149001666Y-88815500D01*
X149535000Y-89348833D02*
X149535000Y-88282166D01*
X76788333Y-88942500D02*
X75721666Y-88942500D01*
X76888333Y-108142500D02*
X75821666Y-108142500D01*
G04 #@! TD*
M02*
