"Source:","D:\KiCAD_Work_Projects\kicadpcbs\A9_SSC_V0.2\A9_SSC_V0.1\A9_SSC_V0.1.sch"
"Date:","2/8/2021 10:22:58 AM"
"Tool:","Eeschema (5.1.7)-1"
"Generator:","C:\Program Files\KiCad\bin\scripting\plugins/bom_csv_grouped_by_value_with_fp.py"
"Component Count:","108"
"Ref","Qnty","Value","Cmp name","Footprint","Description","Vendor"
"BT1, ","1","BH-18650-PC","BH-18650-PC","BAT_BH-18650-PC","",""
"C1, C6, C11, C14, C21, C23, ","6","104","C","Capacitor_SMD:C_0805_2012Metric","Unpolarized capacitor",""
"C2, C4, C7, C15, C16, C22, ","6","10uF","CP","Capacitor_Tantalum_SMD:CP_EIA-3216-10_Kemet-I","Polarized capacitor",""
"C3, ","1","2.2uF","CP","Capacitor_SMD:C_0805_2012Metric","Polarized capacitor",""
"C5, ","1","104/630V","C","Capacitor_THT:C_Rect_L19.0mm_W6.0mm_P15.00mm_MKS4","Unpolarized capacitor",""
"C8, C13, ","2","220uF","CP","Capacitor_SMD:CP_Elec_6.3x7.7","Polarized capacitor",""
"C9, ","1","8.2pF","C","Capacitor_SMD:C_0805_2012Metric","Unpolarized capacitor",""
"C10, ","1","100nF","C","Capacitor_SMD:C_0805_2012Metric","Unpolarized capacitor",""
"C12, ","1","22uF","CP","Capacitor_SMD:CP_Elec_5x5.3","Polarized capacitor",""
"C17, ","1","1uF","CP","Capacitor_SMD:C_0805_2012Metric","Polarized capacitor",""
"C18, ","1","220uF","CP","Capacitor_SMD:C_Elec_10x10.2","Polarized capacitor",""
"C19, ","1","10uF","CP","Capacitor_SMD:C_1812_4532Metric","Polarized capacitor",""
"D1, D2, D3, D4, D5, D6, ","6","LED","LED","LED_SMD:LED_1206_3216Metric","Light emitting diode",""
"D7, ","1","SMF05C","TVSARRAY_5LANE","Maduino Zero A9G GPS Tracker v3.3:SOT363","",""
"F1, ","1","Fuse","Fuse","Fuse:Fuseholder_Cylinder-5x20mm_Stelvio-Kontek_PTF78_Horizontal_Open","Fuse",""
"FL1, ","1","EMI_Filter_CommonMode","EMI_Filter_CommonMode","My_Lib_KiCAD:Common Mode Choke My","EMI 2-inductor common mode filter",""
"H1, H2, H3, H4, ","4","MountingHole","MountingHole","MountingHole:MountingHole_3mm_Pad_Via","Mounting Hole without connection",""
"J1, ","1","Modbus_OUT","Screw_Terminal_01x02","Connector_Phoenix_MSTB:PhoenixContact_MSTBA_2,5_2-G-5,08_1x02_P5.08mm_Horizontal","Generic screw terminal, single row, 01x02, script generated (kicad-library-utils/schlib/autogen/connector/)",""
"J2, ","1","L123OUT","Screw_Terminal_01x06","Connector_Phoenix_MSTB:PhoenixContact_MSTBA_2,5_6-G-5,08_1x06_P5.08mm_Horizontal","Generic screw terminal, single row, 01x06, script generated (kicad-library-utils/schlib/autogen/connector/)",""
"J3, ","1","DC_IN","Screw_Terminal_01x02","Connector_Phoenix_MSTB:PhoenixContact_MSTBA_2,5_2-G-5,08_1x02_P5.08mm_Horizontal","Generic screw terminal, single row, 01x02, script generated (kicad-library-utils/schlib/autogen/connector/)",""
"J5, ","1","PowerIN","Screw_Terminal_01x02","Connector_Phoenix_MSTB:PhoenixContact_MSTBA_2,5_2-G-5,08_1x02_P5.08mm_Horizontal","Generic screw terminal, single row, 01x02, script generated (kicad-library-utils/schlib/autogen/connector/)",""
"J6, ","1","DI_INPUTs","Screw_Terminal_01x04","Connector_Phoenix_MSTB:PhoenixContact_MSTBA_2,5_4-G-5,08_1x04_P5.08mm_Horizontal","Generic screw terminal, single row, 01x04, script generated (kicad-library-utils/schlib/autogen/connector/)",""
"J7, ","1","SIM_Card","SIM_Card","Maduino Zero A9G v1.0:MICROSIM","SIM Card",""
"J9, ","1","ESP_PG","Conn_01x03","Connector_PinHeader_2.54mm:PinHeader_1x03_P2.54mm_Vertical","Generic connector, single row, 01x03, script generated (kicad-library-utils/schlib/autogen/connector/)",""
"J10, ","1","RESET","Conn_01x02","Connector_PinHeader_2.54mm:PinHeader_1x02_P2.54mm_Vertical","Generic connector, single row, 01x02, script generated (kicad-library-utils/schlib/autogen/connector/)",""
"J11, ","1","PWR_KEY","Conn_01x02","Connector_PinHeader_2.54mm:PinHeader_1x02_P2.54mm_Vertical","Generic connector, single row, 01x02, script generated (kicad-library-utils/schlib/autogen/connector/)",""
"J12, ","1","TEMP2","Conn_01x03","Connector_PinHeader_2.54mm:PinHeader_1x03_P2.54mm_Vertical","Generic connector, single row, 01x03, script generated (kicad-library-utils/schlib/autogen/connector/)",""
"J13, ","1","TEMP1","Conn_01x03","Connector_PinHeader_2.54mm:PinHeader_1x03_P2.54mm_Vertical","Generic connector, single row, 01x03, script generated (kicad-library-utils/schlib/autogen/connector/)",""
"J14, ","1","Program","Conn_01x04","Connector_PinHeader_2.54mm:PinHeader_1x04_P2.54mm_Vertical","Generic connector, single row, 01x04, script generated (kicad-library-utils/schlib/autogen/connector/)",""
"L1, ","1","82nH","INDUCTOR","Inductor_SMD:L_0805_2012Metric","Inductor symbol for simulation only",""
"L2, ","1","2.2uH","L_Core_Iron","Inductor_SMD:L_Wuerth_MAPI-3020","Inductor with iron core",""
"PS1, ","1","HLK-PM12","HLK-PM12","Converter_ACDC:Converter_ACDC_HiLink_HLK-PMxx","Compact AC/DC board mount power module 3W 12V",""
"Q2, Q3, Q4, ","3","BTA16-600B","BTA16-600B","Package_TO_SOT_THT:TO-220-3_Vertical","16A RMS, 600V Off-State Voltage, 50mA Sensitivity, Insulated, Triac, TO-220",""
"R1, R2, R3, ","3","330R","R","Resistor_SMD:R_0805_2012Metric","Resistor",""
"R4, R5, R6, ","3","470R","R","Resistor_SMD:R_0805_2012Metric","Resistor",""
"R7, R10, R11, R12, R13, R14, R21, R37, ","8","10k","R","Resistor_SMD:R_0805_2012Metric","Resistor",""
"R8, R15, R17, ","3","4.7k","R","Resistor_SMD:R_0805_2012Metric","Resistor",""
"R9, R16, R18, ","3","3.3k","R","Resistor_SMD:R_0805_2012Metric","Resistor",""
"R19, R20, R23, R35, R36, R38, ","6","1k","R","Resistor_SMD:R_0805_2012Metric","Resistor",""
"R22, ","1","220R","R","Resistor_SMD:R_0805_2012Metric","Resistor",""
"R24, R25, R26, R30, ","4","120R","R","Resistor_SMD:R_0805_2012Metric","Resistor",""
"R31, ","1","330k","R","Resistor_SMD:R_0805_2012Metric","Resistor",""
"R32, ","1","56k","R","Resistor_SMD:R_0805_2012Metric","Resistor",""
"R33, ","1","200k","R","Resistor_SMD:R_0805_2012Metric","Resistor",""
"R34, ","1","100k","R","Resistor_SMD:R_0805_2012Metric","Resistor",""
"RV1, ","1","10D561","Varistor","Varistor:RV_Disc_D21.5mm_W4.3mm_P10mm","Voltage dependent resistor",""
"SW1, ","1","BUTTON","SW_Push","Button_Switch_THT:SW_PUSH_6mm","Push button switch, generic, two pins",""
"SW2, ","1","RESET","SW_Push","Button_Switch_THT:SW_PUSH_6mm","Push button switch, generic, two pins",""
"SW3, ","1","PG","SW_Push","Button_Switch_THT:SW_PUSH_6mm","Push button switch, generic, two pins",""
"U1, ","1","RSM3485CHT","RSM3485CHT","My_Lib_KiCAD:RSM3-485CHT","",""
"U2, ","1","GPS","RF_Antenna","Maduino Zero A9G GPS Tracker v3.3:4P-U-FL","",""
"U3, ","1","ESP12E_My","ESP12E_My","RF_Module:ESP-12E","",""
"U4, U5, U6, ","3","MOC3041SM","MOC3041M","MOC3041SM:OPTO_MOC3041SM","Zero Cross Opto-Triac, Vdrm 400V, Ift 15mA, DIP6",""
"U7, ","1","AMS1117-3.3","AMS1117-3.3","Package_TO_SOT_SMD:SOT-223-3_TabPin2","1A Low Dropout regulator, positive, 3.3V fixed output, SOT-223",""
"U8, ","1","L7812","L7812","Package_TO_SOT_SMD:TO-252-2","Positive 1.5A 35V Linear Regulator, Fixed Output 12V, TO-220/TO-263/TO-252",""
"U10, U11, U12, ","3","PC817","PC817","PC81713NIP0X:SOT254P1025X400-4N","DC Optocoupler, Vce 35V, CTR 50-300%, DIP-4",""
"U13, ","1","A9G_Chip","A9G_Chip","Maduino Zero A9G GPS Tracker v3.3:A9G","",""
"U14, ","1","SY8089","SY8089","Package_TO_SOT_SMD:SOT-23-5","",""
"U15, ","1","GSM","RF_Antenna","Maduino Zero A9G GPS Tracker v3.3:4P-U-FL","",""
"U16, ","1","EVISUN","EVISUN","My_Lib_KiCAD:EVISUN_2W","",""
