EESchema Schematic File Version 4
EELAYER 30 0
EELAYER END
$Descr A4 11693 8268
encoding utf-8
Sheet 1 2
Title "A9 SSC V0.1"
Date "2021-02-02"
Rev "0"
Comp ""
Comment1 ""
Comment2 ""
Comment3 ""
Comment4 ""
$EndDescr
$Comp
L Mechanical:MountingHole H1
U 1 1 60062701
P 6350 6900
F 0 "H1" H 6450 6946 50  0000 L CNN
F 1 "MountingHole" H 6450 6855 50  0000 L CNN
F 2 "MountingHole:MountingHole_3mm_Pad_Via" H 6350 6900 50  0001 C CNN
F 3 "~" H 6350 6900 50  0001 C CNN
	1    6350 6900
	1    0    0    -1  
$EndComp
$Comp
L Mechanical:MountingHole H2
U 1 1 600722EB
P 6350 7150
F 0 "H2" H 6450 7196 50  0000 L CNN
F 1 "MountingHole" H 6450 7105 50  0000 L CNN
F 2 "MountingHole:MountingHole_3mm_Pad_Via" H 6350 7150 50  0001 C CNN
F 3 "~" H 6350 7150 50  0001 C CNN
	1    6350 7150
	1    0    0    -1  
$EndComp
$Comp
L Mechanical:MountingHole H3
U 1 1 60062703
P 6350 7400
F 0 "H3" H 6450 7446 50  0000 L CNN
F 1 "MountingHole" H 6450 7355 50  0000 L CNN
F 2 "MountingHole:MountingHole_3mm_Pad_Via" H 6350 7400 50  0001 C CNN
F 3 "~" H 6350 7400 50  0001 C CNN
	1    6350 7400
	1    0    0    -1  
$EndComp
$Comp
L Mechanical:MountingHole H4
U 1 1 60072588
P 6350 7650
F 0 "H4" H 6450 7696 50  0000 L CNN
F 1 "MountingHole" H 6450 7605 50  0000 L CNN
F 2 "MountingHole:MountingHole_3mm_Pad_Via" H 6350 7650 50  0001 C CNN
F 3 "~" H 6350 7650 50  0001 C CNN
	1    6350 7650
	1    0    0    -1  
$EndComp
$Comp
L Device:C C11
U 1 1 601DA68B
P 1000 4550
F 0 "C11" H 1000 4650 50  0000 L CNN
F 1 "104" H 1000 4450 50  0000 L CNN
F 2 "Capacitor_SMD:C_0805_2012Metric" H 1038 4400 50  0001 C CNN
F 3 "~" H 1000 4550 50  0001 C CNN
	1    1000 4550
	1    0    0    -1  
$EndComp
Wire Wire Line
	1000 4400 1000 4300
Wire Wire Line
	1000 4700 1000 4800
Text Label 1250 4500 0    50   ~ 0
TX1
Text Label 1250 4300 0    50   ~ 0
CON
Text Label 1250 4400 0    50   ~ 0
RX1
$Comp
L Device:R R30
U 1 1 604A58F5
P 2850 4550
F 0 "R30" H 2950 4450 50  0000 L CNN
F 1 "120R" H 2900 4550 50  0000 L CNN
F 2 "Resistor_SMD:R_0805_2012Metric" V 2780 4550 50  0001 C CNN
F 3 "~" H 2850 4550 50  0001 C CNN
	1    2850 4550
	-1   0    0    1   
$EndComp
$Comp
L Relay_SolidState:MOC3041M U5
U 1 1 60BC76A0
P 9050 900
F 0 "U5" H 9050 1225 50  0000 C CNN
F 1 "MOC3041SM" H 9050 1134 50  0000 C CNN
F 2 "MOC3041SM:OPTO_MOC3041SM" H 8850 700 50  0001 L CIN
F 3 "https://www.onsemi.com/pub/Collateral/MOC3043M-D.pdf" H 9050 900 50  0001 L CNN
	1    9050 900 
	1    0    0    -1  
$EndComp
$Comp
L Triac_Thyristor:BTA16-600B Q2
U 1 1 60BC94F4
P 10050 1050
F 0 "Q2" H 10100 1200 50  0000 L CNN
F 1 "BTA16-600B" H 9850 800 50  0000 L CNN
F 2 "Package_TO_SOT_THT:TO-220-3_Vertical" H 10250 975 50  0001 L CIN
F 3 "https://www.st.com/resource/en/datasheet/bta16.pdf" H 10050 1050 50  0001 L CNN
	1    10050 1050
	1    0    0    -1  
$EndComp
$Comp
L Device:R R1
U 1 1 60C7A3BA
P 9650 1400
F 0 "R1" H 9750 1300 50  0000 L CNN
F 1 "330R" H 9700 1400 50  0000 L CNN
F 2 "Resistor_SMD:R_0805_2012Metric" V 9580 1400 50  0001 C CNN
F 3 "~" H 9650 1400 50  0001 C CNN
	1    9650 1400
	-1   0    0    1   
$EndComp
$Comp
L Device:R R4
U 1 1 60C7B629
P 9750 800
F 0 "R4" V 9950 800 50  0000 L CNN
F 1 "470R" V 9850 750 50  0000 L CNN
F 2 "Resistor_SMD:R_0805_2012Metric" V 9680 800 50  0001 C CNN
F 3 "~" H 9750 800 50  0001 C CNN
	1    9750 800 
	0    -1   -1   0   
$EndComp
Text Label 8350 800  0    50   ~ 0
TRIAC_1
Wire Wire Line
	8350 800  8750 800 
$Comp
L power:GND #PWR022
U 1 1 60CAEB64
P 8650 1100
F 0 "#PWR022" H 8650 850 50  0001 C CNN
F 1 "GND" H 8655 927 50  0000 C CNN
F 2 "" H 8650 1100 50  0001 C CNN
F 3 "" H 8650 1100 50  0001 C CNN
	1    8650 1100
	1    0    0    -1  
$EndComp
Wire Wire Line
	8650 1100 8650 1000
Wire Wire Line
	8650 1000 8750 1000
Wire Wire Line
	9900 1150 9650 1150
Wire Wire Line
	9450 1150 9450 1000
Wire Wire Line
	9450 1000 9350 1000
Wire Wire Line
	9350 800  9600 800 
Wire Wire Line
	9650 1250 9650 1150
Connection ~ 9650 1150
Wire Wire Line
	9650 1150 9450 1150
Wire Wire Line
	9900 800  10050 800 
Wire Wire Line
	9650 1650 9650 1550
Wire Wire Line
	10050 900  10050 800 
Wire Wire Line
	10050 1200 10050 1650
Wire Wire Line
	10050 1650 9650 1650
$Comp
L Relay_SolidState:MOC3041M U4
U 1 1 60D14CB8
P 9050 2100
F 0 "U4" H 9050 2425 50  0000 C CNN
F 1 "MOC3041SM" H 9050 2334 50  0000 C CNN
F 2 "MOC3041SM:OPTO_MOC3041SM" H 8850 1900 50  0001 L CIN
F 3 "https://www.onsemi.com/pub/Collateral/MOC3043M-D.pdf" H 9050 2100 50  0001 L CNN
	1    9050 2100
	1    0    0    -1  
$EndComp
$Comp
L Triac_Thyristor:BTA16-600B Q3
U 1 1 60D14CBE
P 10050 2250
F 0 "Q3" H 10179 2296 50  0000 L CNN
F 1 "BTA16-600B" H 10179 2205 50  0000 L CNN
F 2 "Package_TO_SOT_THT:TO-220-3_Vertical" H 10250 2175 50  0001 L CIN
F 3 "https://www.st.com/resource/en/datasheet/bta16.pdf" H 10050 2250 50  0001 L CNN
	1    10050 2250
	1    0    0    -1  
$EndComp
$Comp
L Device:R R2
U 1 1 60D14CC4
P 9650 2600
F 0 "R2" H 9750 2500 50  0000 L CNN
F 1 "330R" H 9700 2600 50  0000 L CNN
F 2 "Resistor_SMD:R_0805_2012Metric" V 9580 2600 50  0001 C CNN
F 3 "~" H 9650 2600 50  0001 C CNN
	1    9650 2600
	-1   0    0    1   
$EndComp
$Comp
L Device:R R5
U 1 1 60D14CCA
P 9750 2000
F 0 "R5" V 9950 2000 50  0000 L CNN
F 1 "470R" V 9850 1950 50  0000 L CNN
F 2 "Resistor_SMD:R_0805_2012Metric" V 9680 2000 50  0001 C CNN
F 3 "~" H 9750 2000 50  0001 C CNN
	1    9750 2000
	0    -1   -1   0   
$EndComp
Text Label 8350 2000 0    50   ~ 0
TRIAC_2
Wire Wire Line
	8350 2000 8750 2000
$Comp
L power:GND #PWR023
U 1 1 60D14CD2
P 8650 2300
F 0 "#PWR023" H 8650 2050 50  0001 C CNN
F 1 "GND" H 8655 2127 50  0000 C CNN
F 2 "" H 8650 2300 50  0001 C CNN
F 3 "" H 8650 2300 50  0001 C CNN
	1    8650 2300
	1    0    0    -1  
$EndComp
Wire Wire Line
	8650 2300 8650 2200
Wire Wire Line
	8650 2200 8750 2200
Wire Wire Line
	9900 2350 9650 2350
Wire Wire Line
	9450 2350 9450 2200
Wire Wire Line
	9450 2200 9350 2200
Wire Wire Line
	9350 2000 9600 2000
Wire Wire Line
	9650 2450 9650 2350
Connection ~ 9650 2350
Wire Wire Line
	9650 2350 9450 2350
Wire Wire Line
	9900 2000 10050 2000
Wire Wire Line
	9650 2850 9650 2750
Wire Wire Line
	10050 2100 10050 2000
Wire Wire Line
	10050 2400 10050 2850
Wire Wire Line
	10050 2850 9650 2850
$Comp
L Relay_SolidState:MOC3041M U6
U 1 1 60D24D76
P 9050 3300
F 0 "U6" H 9050 3625 50  0000 C CNN
F 1 "MOC3041SM" H 9050 3534 50  0000 C CNN
F 2 "MOC3041SM:OPTO_MOC3041SM" H 8850 3100 50  0001 L CIN
F 3 "https://www.onsemi.com/pub/Collateral/MOC3043M-D.pdf" H 9050 3300 50  0001 L CNN
	1    9050 3300
	1    0    0    -1  
$EndComp
$Comp
L Triac_Thyristor:BTA16-600B Q4
U 1 1 60D24D7C
P 10050 3450
F 0 "Q4" H 10179 3496 50  0000 L CNN
F 1 "BTA16-600B" H 10179 3405 50  0000 L CNN
F 2 "Package_TO_SOT_THT:TO-220-3_Vertical" H 10250 3375 50  0001 L CIN
F 3 "https://www.st.com/resource/en/datasheet/bta16.pdf" H 10050 3450 50  0001 L CNN
	1    10050 3450
	1    0    0    -1  
$EndComp
$Comp
L Device:R R3
U 1 1 60D24D82
P 9650 3800
F 0 "R3" H 9750 3700 50  0000 L CNN
F 1 "330R" H 9700 3800 50  0000 L CNN
F 2 "Resistor_SMD:R_0805_2012Metric" V 9580 3800 50  0001 C CNN
F 3 "~" H 9650 3800 50  0001 C CNN
	1    9650 3800
	-1   0    0    1   
$EndComp
$Comp
L Device:R R6
U 1 1 60D24D88
P 9750 3200
F 0 "R6" V 9950 3200 50  0000 L CNN
F 1 "470R" V 9850 3150 50  0000 L CNN
F 2 "Resistor_SMD:R_0805_2012Metric" V 9680 3200 50  0001 C CNN
F 3 "~" H 9750 3200 50  0001 C CNN
	1    9750 3200
	0    -1   -1   0   
$EndComp
Text Label 8350 3200 0    50   ~ 0
TRIAC_3
Wire Wire Line
	8350 3200 8750 3200
$Comp
L power:GND #PWR024
U 1 1 60D24D90
P 8650 3500
F 0 "#PWR024" H 8650 3250 50  0001 C CNN
F 1 "GND" H 8655 3327 50  0000 C CNN
F 2 "" H 8650 3500 50  0001 C CNN
F 3 "" H 8650 3500 50  0001 C CNN
	1    8650 3500
	1    0    0    -1  
$EndComp
Wire Wire Line
	8650 3500 8650 3400
Wire Wire Line
	8650 3400 8750 3400
Wire Wire Line
	9900 3550 9650 3550
Wire Wire Line
	9450 3550 9450 3400
Wire Wire Line
	9450 3400 9350 3400
Wire Wire Line
	9350 3200 9600 3200
Wire Wire Line
	9650 3650 9650 3550
Connection ~ 9650 3550
Wire Wire Line
	9650 3550 9450 3550
Wire Wire Line
	9900 3200 10050 3200
Wire Wire Line
	9650 4050 9650 3950
Wire Wire Line
	10050 3300 10050 3200
Wire Wire Line
	10050 3600 10050 4050
Wire Wire Line
	10050 4050 9650 4050
$Comp
L power:+5V #PWR025
U 1 1 60215690
P 5000 5250
F 0 "#PWR025" H 5000 5100 50  0001 C CNN
F 1 "+5V" H 5015 5423 50  0000 C CNN
F 2 "" H 5000 5250 50  0001 C CNN
F 3 "" H 5000 5250 50  0001 C CNN
	1    5000 5250
	1    0    0    -1  
$EndComp
$Comp
L power:GND #PWR026
U 1 1 60215AE8
P 5000 5600
F 0 "#PWR026" H 5000 5350 50  0001 C CNN
F 1 "GND" H 5005 5427 50  0000 C CNN
F 2 "" H 5000 5600 50  0001 C CNN
F 3 "" H 5000 5600 50  0001 C CNN
	1    5000 5600
	1    0    0    -1  
$EndComp
$Comp
L Connector:Screw_Terminal_01x04 J6
U 1 1 602B0E45
P 6950 5550
F 0 "J6" H 6900 5850 50  0000 L CNN
F 1 "DI_INPUTs" H 6800 5750 50  0000 L CNN
F 2 "Connector_Phoenix_MSTB:PhoenixContact_MSTBA_2,5_4-G-5,08_1x04_P5.08mm_Horizontal" H 6950 5550 50  0001 C CNN
F 3 "~" H 6950 5550 50  0001 C CNN
	1    6950 5550
	1    0    0    -1  
$EndComp
$Comp
L power:+12VA #PWR027
U 1 1 602B2A58
P 6600 5350
F 0 "#PWR027" H 6600 5200 50  0001 C CNN
F 1 "+12VA" H 6615 5523 50  0000 C CNN
F 2 "" H 6600 5350 50  0001 C CNN
F 3 "" H 6600 5350 50  0001 C CNN
	1    6600 5350
	1    0    0    -1  
$EndComp
Wire Wire Line
	6750 5450 6600 5450
Wire Wire Line
	6600 5450 6600 5350
Text Label 6350 5550 0    50   ~ 0
DI0
Wire Wire Line
	6350 5550 6750 5550
Text Label 6350 5650 0    50   ~ 0
DI1
Text Label 6350 5750 0    50   ~ 0
DI2
Wire Wire Line
	6350 5650 6750 5650
Wire Wire Line
	6350 5750 6750 5750
$Comp
L Isolator:PC817 U10
U 1 1 602DF372
P 10350 4700
F 0 "U10" H 10350 5025 50  0000 C CNN
F 1 "PC817" H 10350 4934 50  0000 C CNN
F 2 "PC81713NIP0X:SOT254P1025X400-4N" H 10150 4500 50  0001 L CIN
F 3 "http://www.soselectronic.cz/a_info/resource/d/pc817.pdf" H 10350 4700 50  0001 L CNN
	1    10350 4700
	1    0    0    -1  
$EndComp
$Comp
L Device:R R7
U 1 1 602E01B7
P 9750 4600
F 0 "R7" V 9950 4600 50  0000 L CNN
F 1 "10k" V 9850 4550 50  0000 L CNN
F 2 "Resistor_SMD:R_0805_2012Metric" V 9680 4600 50  0001 C CNN
F 3 "~" H 9750 4600 50  0001 C CNN
	1    9750 4600
	0    -1   -1   0   
$EndComp
Wire Wire Line
	10050 4600 9900 4600
Text Label 9350 4600 0    50   ~ 0
DI0
Wire Wire Line
	9350 4600 9600 4600
$Comp
L power:GNDA #PWR028
U 1 1 602F69BA
P 9950 4900
F 0 "#PWR028" H 9950 4650 50  0001 C CNN
F 1 "GNDA" H 9955 4727 50  0000 C CNN
F 2 "" H 9950 4900 50  0001 C CNN
F 3 "" H 9950 4900 50  0001 C CNN
	1    9950 4900
	1    0    0    -1  
$EndComp
Wire Wire Line
	10050 4800 9950 4800
Wire Wire Line
	9950 4800 9950 4900
$Comp
L power:+5V #PWR029
U 1 1 603029EC
P 10700 4500
F 0 "#PWR029" H 10700 4350 50  0001 C CNN
F 1 "+5V" H 10715 4673 50  0000 C CNN
F 2 "" H 10700 4500 50  0001 C CNN
F 3 "" H 10700 4500 50  0001 C CNN
	1    10700 4500
	1    0    0    -1  
$EndComp
Wire Wire Line
	10650 4600 10700 4600
$Comp
L Device:R R8
U 1 1 6030F2E3
P 10900 5000
F 0 "R8" H 11000 4900 50  0000 L CNN
F 1 "4.7k" H 10950 5000 50  0000 L CNN
F 2 "Resistor_SMD:R_0805_2012Metric" V 10830 5000 50  0001 C CNN
F 3 "~" H 10900 5000 50  0001 C CNN
	1    10900 5000
	-1   0    0    1   
$EndComp
$Comp
L Device:R R9
U 1 1 6031B888
P 10900 5400
F 0 "R9" H 11000 5300 50  0000 L CNN
F 1 "3.3k" H 10950 5400 50  0000 L CNN
F 2 "Resistor_SMD:R_0805_2012Metric" V 10830 5400 50  0001 C CNN
F 3 "~" H 10900 5400 50  0001 C CNN
	1    10900 5400
	-1   0    0    1   
$EndComp
$Comp
L power:GND #PWR030
U 1 1 6031BC07
P 10900 5600
F 0 "#PWR030" H 10900 5350 50  0001 C CNN
F 1 "GND" H 10905 5427 50  0000 C CNN
F 2 "" H 10900 5600 50  0001 C CNN
F 3 "" H 10900 5600 50  0001 C CNN
	1    10900 5600
	1    0    0    -1  
$EndComp
Text Label 11100 5200 2    50   ~ 0
IO0
$Comp
L Isolator:PC817 U12
U 1 1 603FBF27
P 8800 4700
F 0 "U12" H 8800 5025 50  0000 C CNN
F 1 "PC817" H 8800 4934 50  0000 C CNN
F 2 "PC81713NIP0X:SOT254P1025X400-4N" H 8600 4500 50  0001 L CIN
F 3 "http://www.soselectronic.cz/a_info/resource/d/pc817.pdf" H 8800 4700 50  0001 L CNN
	1    8800 4700
	1    0    0    -1  
$EndComp
$Comp
L Device:R R14
U 1 1 603FBF2D
P 8200 4600
F 0 "R14" V 8400 4600 50  0000 L CNN
F 1 "10k" V 8300 4550 50  0000 L CNN
F 2 "Resistor_SMD:R_0805_2012Metric" V 8130 4600 50  0001 C CNN
F 3 "~" H 8200 4600 50  0001 C CNN
	1    8200 4600
	0    -1   -1   0   
$EndComp
Wire Wire Line
	8500 4600 8350 4600
Text Label 7800 4600 0    50   ~ 0
DI1
Wire Wire Line
	7800 4600 8050 4600
$Comp
L power:GNDA #PWR035
U 1 1 603FBF36
P 8400 4900
F 0 "#PWR035" H 8400 4650 50  0001 C CNN
F 1 "GNDA" H 8405 4727 50  0000 C CNN
F 2 "" H 8400 4900 50  0001 C CNN
F 3 "" H 8400 4900 50  0001 C CNN
	1    8400 4900
	1    0    0    -1  
$EndComp
Wire Wire Line
	8500 4800 8400 4800
Wire Wire Line
	8400 4800 8400 4900
$Comp
L power:+5V #PWR038
U 1 1 603FBF3E
P 9150 4500
F 0 "#PWR038" H 9150 4350 50  0001 C CNN
F 1 "+5V" H 9165 4673 50  0000 C CNN
F 2 "" H 9150 4500 50  0001 C CNN
F 3 "" H 9150 4500 50  0001 C CNN
	1    9150 4500
	1    0    0    -1  
$EndComp
Wire Wire Line
	9100 4600 9150 4600
$Comp
L Device:R R17
U 1 1 603FBF46
P 9350 5000
F 0 "R17" H 9450 4900 50  0000 L CNN
F 1 "4.7k" H 9400 5000 50  0000 L CNN
F 2 "Resistor_SMD:R_0805_2012Metric" V 9280 5000 50  0001 C CNN
F 3 "~" H 9350 5000 50  0001 C CNN
	1    9350 5000
	-1   0    0    1   
$EndComp
$Comp
L Device:R R18
U 1 1 603FBF4E
P 9350 5400
F 0 "R18" H 9450 5300 50  0000 L CNN
F 1 "3.3k" H 9400 5400 50  0000 L CNN
F 2 "Resistor_SMD:R_0805_2012Metric" V 9280 5400 50  0001 C CNN
F 3 "~" H 9350 5400 50  0001 C CNN
	1    9350 5400
	-1   0    0    1   
$EndComp
$Comp
L power:GND #PWR039
U 1 1 603FBF54
P 9350 5600
F 0 "#PWR039" H 9350 5350 50  0001 C CNN
F 1 "GND" H 9355 5427 50  0000 C CNN
F 2 "" H 9350 5600 50  0001 C CNN
F 3 "" H 9350 5600 50  0001 C CNN
	1    9350 5600
	1    0    0    -1  
$EndComp
Text Label 9600 5200 2    50   ~ 0
IO1
$Comp
L Isolator:PC817 U11
U 1 1 6040D403
P 7300 4700
F 0 "U11" H 7300 5025 50  0000 C CNN
F 1 "PC817" H 7300 4934 50  0000 C CNN
F 2 "PC81713NIP0X:SOT254P1025X400-4N" H 7100 4500 50  0001 L CIN
F 3 "http://www.soselectronic.cz/a_info/resource/d/pc817.pdf" H 7300 4700 50  0001 L CNN
	1    7300 4700
	1    0    0    -1  
$EndComp
$Comp
L Device:R R13
U 1 1 6040D409
P 6700 4600
F 0 "R13" V 6900 4600 50  0000 L CNN
F 1 "10k" V 6800 4550 50  0000 L CNN
F 2 "Resistor_SMD:R_0805_2012Metric" V 6630 4600 50  0001 C CNN
F 3 "~" H 6700 4600 50  0001 C CNN
	1    6700 4600
	0    -1   -1   0   
$EndComp
Wire Wire Line
	7000 4600 6850 4600
Text Label 6300 4600 0    50   ~ 0
DI2
Wire Wire Line
	6300 4600 6550 4600
$Comp
L power:GNDA #PWR034
U 1 1 6040D412
P 6900 4900
F 0 "#PWR034" H 6900 4650 50  0001 C CNN
F 1 "GNDA" H 6905 4727 50  0000 C CNN
F 2 "" H 6900 4900 50  0001 C CNN
F 3 "" H 6900 4900 50  0001 C CNN
	1    6900 4900
	1    0    0    -1  
$EndComp
Wire Wire Line
	7000 4800 6900 4800
Wire Wire Line
	6900 4800 6900 4900
$Comp
L power:+5V #PWR036
U 1 1 6040D41A
P 7650 4500
F 0 "#PWR036" H 7650 4350 50  0001 C CNN
F 1 "+5V" H 7665 4673 50  0000 C CNN
F 2 "" H 7650 4500 50  0001 C CNN
F 3 "" H 7650 4500 50  0001 C CNN
	1    7650 4500
	1    0    0    -1  
$EndComp
Wire Wire Line
	7600 4600 7650 4600
$Comp
L Device:R R15
U 1 1 6040D422
P 7850 5000
F 0 "R15" H 7950 4900 50  0000 L CNN
F 1 "4.7k" H 7900 5000 50  0000 L CNN
F 2 "Resistor_SMD:R_0805_2012Metric" V 7780 5000 50  0001 C CNN
F 3 "~" H 7850 5000 50  0001 C CNN
	1    7850 5000
	-1   0    0    1   
$EndComp
$Comp
L Device:R R16
U 1 1 6040D42A
P 7850 5400
F 0 "R16" H 7950 5300 50  0000 L CNN
F 1 "3.3k" H 7900 5400 50  0000 L CNN
F 2 "Resistor_SMD:R_0805_2012Metric" V 7780 5400 50  0001 C CNN
F 3 "~" H 7850 5400 50  0001 C CNN
	1    7850 5400
	-1   0    0    1   
$EndComp
$Comp
L power:GND #PWR037
U 1 1 6040D430
P 7850 5600
F 0 "#PWR037" H 7850 5350 50  0001 C CNN
F 1 "GND" H 7855 5427 50  0000 C CNN
F 2 "" H 7850 5600 50  0001 C CNN
F 3 "" H 7850 5600 50  0001 C CNN
	1    7850 5600
	1    0    0    -1  
$EndComp
Text Label 8100 5200 2    50   ~ 0
IO2
$Comp
L Switch:SW_Push SW1
U 1 1 60586E85
P 7800 2750
F 0 "SW1" V 7650 2800 50  0000 L CNN
F 1 "BUTTON" V 7950 2750 50  0000 L CNN
F 2 "Button_Switch_THT:SW_PUSH_6mm" H 7800 2950 50  0001 C CNN
F 3 "~" H 7800 2950 50  0001 C CNN
	1    7800 2750
	0    1    1    0   
$EndComp
$Comp
L Device:R R19
U 1 1 60589426
P 7800 2250
F 0 "R19" H 7900 2150 50  0000 L CNN
F 1 "1k" H 7850 2250 50  0000 L CNN
F 2 "Resistor_SMD:R_0805_2012Metric" V 7730 2250 50  0001 C CNN
F 3 "~" H 7800 2250 50  0001 C CNN
	1    7800 2250
	-1   0    0    1   
$EndComp
$Comp
L power:+5V #PWR040
U 1 1 6059A7F8
P 7800 2000
F 0 "#PWR040" H 7800 1850 50  0001 C CNN
F 1 "+5V" H 7815 2173 50  0000 C CNN
F 2 "" H 7800 2000 50  0001 C CNN
F 3 "" H 7800 2000 50  0001 C CNN
	1    7800 2000
	1    0    0    -1  
$EndComp
Wire Wire Line
	7800 2100 7800 2000
$Comp
L power:GND #PWR041
U 1 1 605AB73D
P 7800 3050
F 0 "#PWR041" H 7800 2800 50  0001 C CNN
F 1 "GND" H 7805 2877 50  0000 C CNN
F 2 "" H 7800 3050 50  0001 C CNN
F 3 "" H 7800 3050 50  0001 C CNN
	1    7800 3050
	1    0    0    -1  
$EndComp
Wire Wire Line
	7800 3050 7800 2950
Wire Wire Line
	7800 2550 7800 2500
Text Label 7400 2500 0    50   ~ 0
BUTTON
Wire Wire Line
	7400 2500 7800 2500
Connection ~ 7800 2500
Wire Wire Line
	7800 2500 7800 2400
Text Label 4750 5450 0    50   ~ 0
TEMP2
Text Label 4100 5450 0    50   ~ 0
TEMP1
Wire Wire Line
	5100 5450 4750 5450
$Comp
L Device:R R20
U 1 1 60AA94CB
P 5550 5500
F 0 "R20" H 5550 5350 50  0000 L CNN
F 1 "1k" H 5600 5500 50  0000 L CNN
F 2 "Resistor_SMD:R_0805_2012Metric" V 5480 5500 50  0001 C CNN
F 3 "~" H 5550 5500 50  0001 C CNN
	1    5550 5500
	-1   0    0    1   
$EndComp
$Comp
L Device:R R23
U 1 1 60AA99D3
P 5800 5500
F 0 "R23" H 5800 5350 50  0000 L CNN
F 1 "1k" H 5850 5500 50  0000 L CNN
F 2 "Resistor_SMD:R_0805_2012Metric" V 5730 5500 50  0001 C CNN
F 3 "~" H 5800 5500 50  0001 C CNN
	1    5800 5500
	-1   0    0    1   
$EndComp
Text Label 5150 5850 0    50   ~ 0
TEMP2
Text Label 5150 5750 0    50   ~ 0
TEMP1
Wire Wire Line
	5550 5650 5550 5750
Wire Wire Line
	5150 5750 5550 5750
Wire Wire Line
	5800 5850 5800 5650
Wire Wire Line
	5150 5850 5800 5850
$Comp
L power:+5V #PWR05
U 1 1 60ADF995
P 5550 5250
F 0 "#PWR05" H 5550 5100 50  0001 C CNN
F 1 "+5V" H 5565 5423 50  0000 C CNN
F 2 "" H 5550 5250 50  0001 C CNN
F 3 "" H 5550 5250 50  0001 C CNN
	1    5550 5250
	1    0    0    -1  
$EndComp
$Comp
L power:+5V #PWR042
U 1 1 60AE00D4
P 4400 5300
F 0 "#PWR042" H 4400 5150 50  0001 C CNN
F 1 "+5V" H 4415 5473 50  0000 C CNN
F 2 "" H 4400 5300 50  0001 C CNN
F 3 "" H 4400 5300 50  0001 C CNN
	1    4400 5300
	1    0    0    -1  
$EndComp
Wire Wire Line
	5550 5250 5550 5350
Wire Wire Line
	5800 5250 5800 5350
$Sheet
S 4250 6950 1100 700 
U 60209E92
F0 "Sheet2" 50
F1 "A9_SSC_V0.1_Sheet2.sch" 50
F2 "VBAT" I L 4250 7250 50 
F3 "ADC0" I L 4250 7400 50 
$EndSheet
$Comp
L My_Lib_KiCAD:A9G_Chip U13
U 1 1 60226594
P 3200 1400
F 0 "U13" H 2550 2000 50  0000 C CNN
F 1 "A9G_Chip" H 2550 1900 50  0000 C CNN
F 2 "Maduino Zero A9G GPS Tracker v3.3:A9G" V 4150 2150 50  0001 C CNN
F 3 "" V 4150 2050 50  0001 C CNN
	1    3200 1400
	1    0    0    -1  
$EndComp
$Comp
L Connector:SIM_Card J7
U 1 1 601A6D2A
P 7450 1200
F 0 "J7" H 7450 1700 50  0000 L CNN
F 1 "SIM_Card" H 7350 1600 50  0000 L CNN
F 2 "Maduino Zero A9G v1.0:MICROSIM" H 7450 1550 50  0001 C CNN
F 3 " ~" H 7400 1200 50  0001 C CNN
	1    7450 1200
	1    0    0    -1  
$EndComp
Text Label 4450 2350 2    50   ~ 0
SIM_CLK
Wire Wire Line
	4050 2350 4450 2350
Text Label 4450 2550 2    50   ~ 0
SIM_DIO
Wire Wire Line
	4450 2550 4050 2550
Text Label 4450 2100 2    50   ~ 0
SIM_RST
Wire Wire Line
	4450 2100 4050 2100
Text Label 6550 1000 0    50   ~ 0
SIM_RST
Wire Wire Line
	6550 1000 6950 1000
Text Label 6550 1100 0    50   ~ 0
SIM_CLK
Wire Wire Line
	6550 1100 6950 1100
Text Label 6550 1400 0    50   ~ 0
SIM_DIO
Wire Wire Line
	6550 1400 6950 1400
$Comp
L power:GND #PWR046
U 1 1 6026D22F
P 6900 1450
F 0 "#PWR046" H 6900 1200 50  0001 C CNN
F 1 "GND" H 6905 1277 50  0000 C CNN
F 2 "" H 6900 1450 50  0001 C CNN
F 3 "" H 6900 1450 50  0001 C CNN
	1    6900 1450
	1    0    0    -1  
$EndComp
Wire Wire Line
	6900 1200 6950 1200
Text Label 850  2400 0    50   ~ 0
ADC0
Wire Wire Line
	850  2400 1250 2400
Text Label 850  1800 0    50   ~ 0
VBAT
Wire Wire Line
	850  1800 1150 1800
Wire Wire Line
	1250 1900 1150 1900
Wire Wire Line
	1150 1900 1150 1800
Connection ~ 1150 1800
Wire Wire Line
	1150 1800 1250 1800
$Comp
L Connector_Generic:Conn_01x04 J14
U 1 1 606B848E
P 7150 2150
F 0 "J14" H 7050 2500 50  0000 L CNN
F 1 "Program" H 6950 2400 50  0000 L CNN
F 2 "Connector_PinHeader_2.54mm:PinHeader_1x04_P2.54mm_Vertical" H 7150 2150 50  0001 C CNN
F 3 "~" H 7150 2150 50  0001 C CNN
	1    7150 2150
	1    0    0    -1  
$EndComp
Text Label 6600 2250 0    50   ~ 0
HST_TX
Text Label 6600 2350 0    50   ~ 0
HST_RX
Wire Wire Line
	6950 2350 6600 2350
Wire Wire Line
	6950 2250 6600 2250
$Comp
L power:+5V #PWR070
U 1 1 606D60B0
P 6750 2000
F 0 "#PWR070" H 6750 1850 50  0001 C CNN
F 1 "+5V" H 6765 2173 50  0000 C CNN
F 2 "" H 6750 2000 50  0001 C CNN
F 3 "" H 6750 2000 50  0001 C CNN
	1    6750 2000
	1    0    0    -1  
$EndComp
$Comp
L power:GND #PWR069
U 1 1 606D74EA
P 6450 2250
F 0 "#PWR069" H 6450 2000 50  0001 C CNN
F 1 "GND" H 6455 2077 50  0000 C CNN
F 2 "" H 6450 2250 50  0001 C CNN
F 3 "" H 6450 2250 50  0001 C CNN
	1    6450 2250
	1    0    0    -1  
$EndComp
Wire Wire Line
	6950 2050 6450 2050
Wire Wire Line
	6950 2150 6750 2150
$Comp
L Connector_Generic:Conn_01x03 J13
U 1 1 607124CB
P 5300 5450
F 0 "J13" H 5250 5750 50  0000 L CNN
F 1 "TEMP1" H 5200 5650 50  0000 L CNN
F 2 "Connector_PinHeader_2.54mm:PinHeader_1x03_P2.54mm_Vertical" H 5300 5450 50  0001 C CNN
F 3 "~" H 5300 5450 50  0001 C CNN
	1    5300 5450
	1    0    0    -1  
$EndComp
Text Label 850  3500 0    50   ~ 0
IO27
Wire Wire Line
	850  3500 1250 3500
Text Label 4450 3450 2    50   ~ 0
IO28
Wire Wire Line
	4450 3450 4050 3450
$Comp
L Device:LED D4
U 1 1 6074D885
P 5300 1950
F 0 "D4" H 5350 1850 50  0000 R CNN
F 1 "LED" H 5350 2050 50  0000 R CNN
F 2 "LED_SMD:LED_1206_3216Metric" H 5300 1950 50  0001 C CNN
F 3 "~" H 5300 1950 50  0001 C CNN
	1    5300 1950
	-1   0    0    1   
$EndComp
Text Label 4900 1950 0    50   ~ 0
IO27
Wire Wire Line
	4900 1950 5150 1950
Text Label 4900 2250 0    50   ~ 0
IO28
$Comp
L Device:LED D5
U 1 1 6076BE10
P 5300 2250
F 0 "D5" H 5400 2150 50  0000 R CNN
F 1 "LED" H 5350 2350 50  0000 R CNN
F 2 "LED_SMD:LED_1206_3216Metric" H 5300 2250 50  0001 C CNN
F 3 "~" H 5300 2250 50  0001 C CNN
	1    5300 2250
	-1   0    0    1   
$EndComp
Wire Wire Line
	5150 2250 4900 2250
$Comp
L Device:R R35
U 1 1 607A6A0B
P 5750 1950
F 0 "R35" V 5850 2000 50  0000 L CNN
F 1 "1k" V 5850 1850 50  0000 L CNN
F 2 "Resistor_SMD:R_0805_2012Metric" V 5680 1950 50  0001 C CNN
F 3 "~" H 5750 1950 50  0001 C CNN
	1    5750 1950
	0    -1   -1   0   
$EndComp
$Comp
L Device:R R36
U 1 1 607A6FDF
P 5750 2250
F 0 "R36" V 5850 2300 50  0000 L CNN
F 1 "1k" V 5850 2150 50  0000 L CNN
F 2 "Resistor_SMD:R_0805_2012Metric" V 5680 2250 50  0001 C CNN
F 3 "~" H 5750 2250 50  0001 C CNN
	1    5750 2250
	0    -1   -1   0   
$EndComp
Wire Wire Line
	5600 1950 5450 1950
Wire Wire Line
	5600 2250 5450 2250
$Comp
L power:GND #PWR064
U 1 1 607E2303
P 6150 2050
F 0 "#PWR064" H 6150 1800 50  0001 C CNN
F 1 "GND" H 6155 1877 50  0000 C CNN
F 2 "" H 6150 2050 50  0001 C CNN
F 3 "" H 6150 2050 50  0001 C CNN
	1    6150 2050
	1    0    0    -1  
$EndComp
$Comp
L Connector_Generic:Conn_01x02 J10
U 1 1 6083CDE0
P 5300 1250
F 0 "J10" H 5250 1500 50  0000 L CNN
F 1 "RESET" H 5200 1400 50  0000 L CNN
F 2 "Connector_PinHeader_2.54mm:PinHeader_1x02_P2.54mm_Vertical" H 5300 1250 50  0001 C CNN
F 3 "~" H 5300 1250 50  0001 C CNN
	1    5300 1250
	1    0    0    -1  
$EndComp
$Comp
L Connector_Generic:Conn_01x02 J11
U 1 1 6083D89C
P 5800 1250
F 0 "J11" H 5750 1500 50  0000 L CNN
F 1 "PWR_KEY" H 5650 1400 50  0000 L CNN
F 2 "Connector_PinHeader_2.54mm:PinHeader_1x02_P2.54mm_Vertical" H 5800 1250 50  0001 C CNN
F 3 "~" H 5800 1250 50  0001 C CNN
	1    5800 1250
	1    0    0    -1  
$EndComp
Text Label 850  1600 0    50   ~ 0
PWR_KEY
Wire Wire Line
	850  1600 1250 1600
$Comp
L power:GND #PWR048
U 1 1 6085D91E
P 650 1800
F 0 "#PWR048" H 650 1550 50  0001 C CNN
F 1 "GND" H 655 1627 50  0000 C CNN
F 2 "" H 650 1800 50  0001 C CNN
F 3 "" H 650 1800 50  0001 C CNN
	1    650  1800
	1    0    0    -1  
$EndComp
Wire Wire Line
	1250 1700 650  1700
Wire Wire Line
	650  1700 650  1800
Text Label 850  2700 0    50   ~ 0
RESET
Wire Wire Line
	850  2700 1250 2700
Text Label 4800 1250 0    50   ~ 0
RESET
$Comp
L power:GND #PWR066
U 1 1 608BCADF
P 5000 1450
F 0 "#PWR066" H 5000 1200 50  0001 C CNN
F 1 "GND" H 5005 1277 50  0000 C CNN
F 2 "" H 5000 1450 50  0001 C CNN
F 3 "" H 5000 1450 50  0001 C CNN
	1    5000 1450
	1    0    0    -1  
$EndComp
Wire Wire Line
	5000 1450 5000 1350
Wire Wire Line
	5000 1350 5100 1350
Text Label 4450 2000 2    50   ~ 0
VIO
Wire Wire Line
	4450 2000 4050 2000
Text Label 4800 850  0    50   ~ 0
VIO
$Comp
L Device:R R37
U 1 1 6091DBEA
P 5200 850
F 0 "R37" V 5300 850 50  0000 L CNN
F 1 "10k" V 5300 650 50  0000 L CNN
F 2 "Resistor_SMD:R_0805_2012Metric" V 5130 850 50  0001 C CNN
F 3 "~" H 5200 850 50  0001 C CNN
	1    5200 850 
	0    -1   -1   0   
$EndComp
Wire Wire Line
	5050 850  4800 850 
$Comp
L Device:R R38
U 1 1 6093E752
P 5800 850
F 0 "R38" V 5900 900 50  0000 L CNN
F 1 "1k" V 5850 650 50  0000 L CNN
F 2 "Resistor_SMD:R_0805_2012Metric" V 5730 850 50  0001 C CNN
F 3 "~" H 5800 850 50  0001 C CNN
	1    5800 850 
	0    -1   -1   0   
$EndComp
Wire Wire Line
	5650 850  5500 850 
Text Label 5850 650  2    50   ~ 0
PWR_KEY
Connection ~ 5500 850 
Wire Wire Line
	5500 850  5350 850 
$Comp
L Device:C C10
U 1 1 6097FF01
P 6150 1100
F 0 "C10" H 6150 1200 50  0000 L CNN
F 1 "100nF" H 6150 1000 50  0000 L CNN
F 2 "Capacitor_SMD:C_0805_2012Metric" H 6188 950 50  0001 C CNN
F 3 "~" H 6150 1100 50  0001 C CNN
	1    6150 1100
	1    0    0    -1  
$EndComp
Wire Wire Line
	5600 1250 5500 1250
Wire Wire Line
	5500 1250 5500 850 
$Comp
L power:GND #PWR067
U 1 1 609A23CA
P 5500 1450
F 0 "#PWR067" H 5500 1200 50  0001 C CNN
F 1 "GND" H 5505 1277 50  0000 C CNN
F 2 "" H 5500 1450 50  0001 C CNN
F 3 "" H 5500 1450 50  0001 C CNN
	1    5500 1450
	1    0    0    -1  
$EndComp
Wire Wire Line
	5600 1350 5500 1350
Wire Wire Line
	5500 1350 5500 1450
$Comp
L power:GND #PWR068
U 1 1 609C3EEA
P 6150 1450
F 0 "#PWR068" H 6150 1200 50  0001 C CNN
F 1 "GND" H 6155 1277 50  0000 C CNN
F 2 "" H 6150 1450 50  0001 C CNN
F 3 "" H 6150 1450 50  0001 C CNN
	1    6150 1450
	1    0    0    -1  
$EndComp
Wire Wire Line
	6150 1450 6150 1250
Text Label 6400 850  2    50   ~ 0
IO29
Wire Wire Line
	6400 850  6150 850 
Wire Wire Line
	6150 950  6150 850 
Text Label 850  3300 0    50   ~ 0
IO29
Wire Wire Line
	850  3300 1250 3300
Text Label 4450 1800 2    50   ~ 0
GSM_RF
Wire Wire Line
	4450 1800 4050 1800
$Comp
L My_Lib_KiCAD:RF_Antenna U15
U 1 1 60AC890B
P 5450 3150
F 0 "U15" H 5350 3500 50  0000 L CNN
F 1 "GSM" H 5350 3400 50  0000 L CNN
F 2 "Maduino Zero A9G GPS Tracker v3.3:4P-U-FL" H 5450 3450 50  0001 C CNN
F 3 "" H 5450 3450 50  0001 C CNN
	1    5450 3150
	1    0    0    -1  
$EndComp
Text Label 4800 3000 0    50   ~ 0
GSM_RF
Wire Wire Line
	4800 3000 5200 3000
$Comp
L power:GND #PWR0102
U 1 1 60AED29C
P 5100 3450
F 0 "#PWR0102" H 5100 3200 50  0001 C CNN
F 1 "GND" H 5105 3277 50  0000 C CNN
F 2 "" H 5100 3450 50  0001 C CNN
F 3 "" H 5100 3450 50  0001 C CNN
	1    5100 3450
	1    0    0    -1  
$EndComp
Wire Wire Line
	5100 3450 5100 3300
Wire Wire Line
	5100 3100 5200 3100
Wire Wire Line
	5200 3200 5100 3200
Connection ~ 5100 3200
Wire Wire Line
	5100 3200 5100 3100
Wire Wire Line
	5200 3300 5100 3300
Connection ~ 5100 3300
Wire Wire Line
	5100 3300 5100 3200
Text Label 4450 3650 2    50   ~ 0
GPS_RF
Wire Wire Line
	4450 3650 4050 3650
$Comp
L My_Lib_KiCAD:RF_Antenna U2
U 1 1 60BCC21E
P 6700 3150
F 0 "U2" H 6600 3500 50  0000 L CNN
F 1 "GPS" H 6600 3400 50  0000 L CNN
F 2 "Maduino Zero A9G GPS Tracker v3.3:4P-U-FL" H 6700 3450 50  0001 C CNN
F 3 "" H 6700 3450 50  0001 C CNN
	1    6700 3150
	1    0    0    -1  
$EndComp
Text Label 5750 3000 0    50   ~ 0
GPS_RF
$Comp
L pspice:INDUCTOR L1
U 1 1 60BF16A3
P 6150 3300
F 0 "L1" V 6104 3378 50  0000 L CNN
F 1 "82nH" V 6150 3100 50  0000 L CNN
F 2 "Inductor_SMD:L_0402_1005Metric" H 6150 3300 50  0001 C CNN
F 3 "~" H 6150 3300 50  0001 C CNN
	1    6150 3300
	0    1    1    0   
$EndComp
Text Label 5750 3650 0    50   ~ 0
VBAT
$Comp
L power:GND #PWR01
U 1 1 60C87DF0
P 6400 3550
F 0 "#PWR01" H 6400 3300 50  0001 C CNN
F 1 "GND" H 6405 3377 50  0000 C CNN
F 2 "" H 6400 3550 50  0001 C CNN
F 3 "" H 6400 3550 50  0001 C CNN
	1    6400 3550
	1    0    0    -1  
$EndComp
Wire Wire Line
	6400 3550 6400 3300
Wire Wire Line
	6400 3100 6450 3100
Wire Wire Line
	6450 3200 6400 3200
Connection ~ 6400 3200
Wire Wire Line
	6400 3200 6400 3100
Wire Wire Line
	6450 3300 6400 3300
Connection ~ 6400 3300
Wire Wire Line
	6400 3300 6400 3200
Text Notes 600  650  0    50   ~ 0
A9 Module\n
Wire Notes Line
	4700 550  4700 3800
Wire Notes Line
	4700 3800 550  3800
Wire Notes Line
	550  3800 550  550 
Wire Notes Line
	550  550  4700 550 
Wire Wire Line
	4800 1250 5100 1250
Wire Wire Line
	5900 1950 5950 1950
Wire Wire Line
	6150 1950 6150 2050
Wire Wire Line
	5900 2250 5950 2250
Wire Wire Line
	5950 2250 5950 1950
Connection ~ 5950 1950
Wire Wire Line
	5950 1950 6150 1950
Wire Wire Line
	5850 650  5500 650 
Wire Wire Line
	5500 650  5500 850 
Wire Wire Line
	5950 850  6150 850 
Connection ~ 6150 850 
Wire Notes Line
	4750 550  6450 550 
Wire Notes Line
	6450 550  6450 1700
Wire Notes Line
	6450 1700 4750 1700
Wire Notes Line
	4750 1700 4750 550 
Text Notes 4800 750  0    50   ~ 0
System\n\n
Wire Notes Line
	4750 1750 6250 1750
Wire Notes Line
	6250 1750 6250 2400
Wire Notes Line
	6250 2400 4750 2400
Wire Notes Line
	4750 2400 4750 1750
Text Notes 4750 2000 0    50   ~ 0
Output\n\n\n
Wire Wire Line
	6450 3000 6150 3000
Wire Wire Line
	6150 3050 6150 3000
Connection ~ 6150 3000
Wire Wire Line
	6150 3000 5750 3000
Wire Wire Line
	6150 3550 6150 3650
Wire Wire Line
	6150 3650 5750 3650
Wire Notes Line
	4750 2650 6950 2650
Wire Notes Line
	6950 2650 6950 3800
Wire Notes Line
	6950 3800 4750 3800
Wire Notes Line
	4750 3800 4750 2650
Text Notes 4750 2900 0    50   ~ 0
RF\n\n\n
Wire Notes Line
	6500 550  8100 550 
Text Notes 6550 700  0    50   ~ 0
Sim Card\n\n
Wire Wire Line
	4450 5450 4100 5450
$Comp
L Connector_Generic:Conn_01x03 J12
U 1 1 60713672
P 4650 5450
F 0 "J12" H 4600 5750 50  0000 L CNN
F 1 "TEMP2" H 4550 5650 50  0000 L CNN
F 2 "Connector_PinHeader_2.54mm:PinHeader_1x03_P2.54mm_Vertical" H 4650 5450 50  0001 C CNN
F 3 "~" H 4650 5450 50  0001 C CNN
	1    4650 5450
	1    0    0    -1  
$EndComp
Wire Wire Line
	4450 5350 4400 5350
Wire Wire Line
	4400 5350 4400 5300
$Comp
L power:GND #PWR02
U 1 1 615922BA
P 4400 5600
F 0 "#PWR02" H 4400 5350 50  0001 C CNN
F 1 "GND" H 4405 5427 50  0000 C CNN
F 2 "" H 4400 5600 50  0001 C CNN
F 3 "" H 4400 5600 50  0001 C CNN
	1    4400 5600
	1    0    0    -1  
$EndComp
Wire Wire Line
	4450 5550 4400 5550
Wire Wire Line
	4400 5550 4400 5600
$Comp
L power:+5V #PWR03
U 1 1 615BA9AC
P 5800 5250
F 0 "#PWR03" H 5800 5100 50  0001 C CNN
F 1 "+5V" H 5815 5423 50  0000 C CNN
F 2 "" H 5800 5250 50  0001 C CNN
F 3 "" H 5800 5250 50  0001 C CNN
	1    5800 5250
	1    0    0    -1  
$EndComp
Wire Wire Line
	5100 5350 5000 5350
Wire Wire Line
	5000 5350 5000 5250
Wire Wire Line
	5100 5550 5000 5550
Wire Wire Line
	5000 5600 5000 5550
Text Label 4000 7250 0    50   ~ 0
VBAT
Text Label 4000 7400 0    50   ~ 0
ADC0
Wire Wire Line
	4000 7400 4250 7400
Wire Wire Line
	4000 7250 4250 7250
Text Label 850  2800 0    50   ~ 0
TRIAC_1
Text Label 850  800  0    50   ~ 0
TRIAC_2
Text Label 850  900  0    50   ~ 0
TRIAC_3
Text Label 850  3100 0    50   ~ 0
IO2
Text Label 850  3000 0    50   ~ 0
IO1
Text Label 850  2900 0    50   ~ 0
IO0
$Comp
L Device:LED D2
U 1 1 61B35DC1
P 4700 4100
F 0 "D2" H 4800 4000 50  0000 R CNN
F 1 "LED" H 4750 4200 50  0000 R CNN
F 2 "LED_SMD:LED_1206_3216Metric" H 4700 4100 50  0001 C CNN
F 3 "~" H 4700 4100 50  0001 C CNN
	1    4700 4100
	-1   0    0    1   
$EndComp
$Comp
L Device:LED D3
U 1 1 61B35DC7
P 4700 4350
F 0 "D3" H 4800 4250 50  0000 R CNN
F 1 "LED" H 4750 4450 50  0000 R CNN
F 2 "LED_SMD:LED_1206_3216Metric" H 4700 4350 50  0001 C CNN
F 3 "~" H 4700 4350 50  0001 C CNN
	1    4700 4350
	-1   0    0    1   
$EndComp
$Comp
L Device:LED D6
U 1 1 61B35DCD
P 4700 4600
F 0 "D6" H 4800 4500 50  0000 R CNN
F 1 "LED" H 4750 4700 50  0000 R CNN
F 2 "LED_SMD:LED_1206_3216Metric" H 4700 4600 50  0001 C CNN
F 3 "~" H 4700 4600 50  0001 C CNN
	1    4700 4600
	-1   0    0    1   
$EndComp
$Comp
L Device:R R24
U 1 1 61B35DD3
P 4300 4100
F 0 "R24" V 4200 3900 50  0000 L CNN
F 1 "120R" V 4200 4100 50  0000 L CNN
F 2 "Resistor_SMD:R_0805_2012Metric" V 4230 4100 50  0001 C CNN
F 3 "~" H 4300 4100 50  0001 C CNN
	1    4300 4100
	0    1    1    0   
$EndComp
$Comp
L Device:R R25
U 1 1 61B35DD9
P 4300 4350
F 0 "R25" V 4200 4150 50  0000 L CNN
F 1 "120R" V 4200 4350 50  0000 L CNN
F 2 "Resistor_SMD:R_0805_2012Metric" V 4230 4350 50  0001 C CNN
F 3 "~" H 4300 4350 50  0001 C CNN
	1    4300 4350
	0    1    1    0   
$EndComp
$Comp
L Device:R R26
U 1 1 61B35DDF
P 4300 4600
F 0 "R26" V 4200 4400 50  0000 L CNN
F 1 "120R" V 4200 4600 50  0000 L CNN
F 2 "Resistor_SMD:R_0805_2012Metric" V 4230 4600 50  0001 C CNN
F 3 "~" H 4300 4600 50  0001 C CNN
	1    4300 4600
	0    1    1    0   
$EndComp
Wire Wire Line
	4550 4600 4450 4600
Wire Wire Line
	4550 4350 4450 4350
Wire Wire Line
	4550 4100 4450 4100
$Comp
L power:GND #PWR062
U 1 1 61B35DF4
P 5000 4650
F 0 "#PWR062" H 5000 4400 50  0001 C CNN
F 1 "GND" H 5005 4477 50  0000 C CNN
F 2 "" H 5000 4650 50  0001 C CNN
F 3 "" H 5000 4650 50  0001 C CNN
	1    5000 4650
	1    0    0    -1  
$EndComp
Wire Wire Line
	4850 4350 5000 4350
Wire Wire Line
	5000 4600 5000 4350
Wire Wire Line
	4850 4600 5000 4600
Wire Wire Line
	5000 4350 5000 4100
Wire Wire Line
	5000 4100 4850 4100
Connection ~ 5000 4350
Wire Wire Line
	5000 4650 5000 4600
Connection ~ 5000 4600
Text Label 850  3400 0    50   ~ 0
LED1
Wire Wire Line
	850  3400 1250 3400
Text Label 4450 3350 2    50   ~ 0
LED3
Text Label 4450 3250 2    50   ~ 0
LED2
Wire Wire Line
	4450 3250 4050 3250
Wire Wire Line
	4450 3350 4050 3350
Text Label 3850 4100 0    50   ~ 0
LED1
Wire Wire Line
	3850 4100 4150 4100
Text Label 3850 4350 0    50   ~ 0
LED2
Text Label 3850 4600 0    50   ~ 0
LED3
Wire Wire Line
	3850 4350 4150 4350
Wire Wire Line
	3850 4600 4150 4600
$Comp
L Device:C C1
U 1 1 61CCFE2A
P 5900 4300
F 0 "C1" H 5900 4400 50  0000 L CNN
F 1 "104" H 5900 4200 50  0000 L CNN
F 2 "Capacitor_SMD:C_0805_2012Metric" H 5938 4150 50  0001 C CNN
F 3 "~" H 5900 4300 50  0001 C CNN
	1    5900 4300
	1    0    0    -1  
$EndComp
$Comp
L power:GND #PWR06
U 1 1 61CCFE30
P 5900 4550
F 0 "#PWR06" H 5900 4300 50  0001 C CNN
F 1 "GND" H 5905 4377 50  0000 C CNN
F 2 "" H 5900 4550 50  0001 C CNN
F 3 "" H 5900 4550 50  0001 C CNN
	1    5900 4550
	1    0    0    -1  
$EndComp
Text Label 4450 2650 2    50   ~ 0
HST_RX
Text Label 4450 2750 2    50   ~ 0
HST_TX
Wire Wire Line
	4050 2750 4450 2750
Wire Wire Line
	4050 2650 4450 2650
Wire Wire Line
	4450 1100 4050 1100
Text Label 4450 1100 2    50   ~ 0
BUTTON
Text Label 4450 900  2    50   ~ 0
TX1
Wire Wire Line
	4450 900  4050 900 
Text Label 4450 1000 2    50   ~ 0
RX1
Wire Wire Line
	4450 1000 4050 1000
$Comp
L power:GND #PWR060
U 1 1 61E06A4A
P 4600 800
F 0 "#PWR060" H 4600 550 50  0001 C CNN
F 1 "GND" H 4605 627 50  0000 C CNN
F 2 "" H 4600 800 50  0001 C CNN
F 3 "" H 4600 800 50  0001 C CNN
	1    4600 800 
	1    0    0    -1  
$EndComp
Wire Wire Line
	4050 800  4600 800 
Wire Wire Line
	4050 700  4600 700 
Wire Wire Line
	4600 700  4600 800 
Connection ~ 4600 800 
$Comp
L power:GND #PWR061
U 1 1 61E40D92
P 4600 1900
F 0 "#PWR061" H 4600 1650 50  0001 C CNN
F 1 "GND" H 4605 1727 50  0000 C CNN
F 2 "" H 4600 1900 50  0001 C CNN
F 3 "" H 4600 1900 50  0001 C CNN
	1    4600 1900
	1    0    0    -1  
$EndComp
Wire Wire Line
	4050 1900 4600 1900
Wire Wire Line
	4050 1700 4600 1700
Wire Wire Line
	4600 1700 4600 1900
Connection ~ 4600 1900
Wire Wire Line
	1250 900  850  900 
Wire Wire Line
	1250 800  850  800 
Wire Wire Line
	850  3100 1250 3100
Wire Wire Line
	850  3000 1250 3000
Wire Wire Line
	850  2900 1250 2900
Wire Wire Line
	850  2800 1250 2800
Text Label 4450 1500 2    50   ~ 0
TEMP1
Text Label 4450 1600 2    50   ~ 0
TEMP2
Wire Wire Line
	4050 1500 4450 1500
Wire Wire Line
	4050 1600 4450 1600
$Comp
L My_Lib_KiCAD:RSM3485CHT U1
U 1 1 6201F364
P 1950 4500
F 0 "U1" H 1950 4965 50  0000 C CNN
F 1 "RSM3485CHT" H 1950 4874 50  0000 C CNN
F 2 "My_Lib_KiCAD:RSM3-485CHT" H 1950 4500 50  0001 C CNN
F 3 "" H 1950 4500 50  0001 C CNN
	1    1950 4500
	1    0    0    -1  
$EndComp
Wire Wire Line
	3250 4600 3050 4600
Wire Wire Line
	3050 4600 3050 4750
Wire Wire Line
	3050 4750 2850 4750
Wire Wire Line
	2500 4750 2500 4600
Wire Wire Line
	2500 4600 2350 4600
Wire Wire Line
	3250 4500 3050 4500
Wire Wire Line
	3050 4500 3050 4350
Wire Wire Line
	3050 4350 2850 4350
Wire Wire Line
	2500 4350 2500 4500
Wire Wire Line
	2500 4500 2350 4500
Wire Wire Line
	2850 4400 2850 4350
Connection ~ 2850 4350
Wire Wire Line
	2850 4350 2500 4350
Wire Wire Line
	2850 4700 2850 4750
Connection ~ 2850 4750
Wire Wire Line
	2850 4750 2500 4750
Wire Wire Line
	1250 4300 1550 4300
Wire Wire Line
	1250 4400 1550 4400
Wire Wire Line
	1250 4500 1550 4500
Wire Wire Line
	1550 4700 1200 4700
Wire Wire Line
	1200 4700 1200 4100
Wire Wire Line
	1550 4600 1500 4600
$Comp
L Device:CP C4
U 1 1 62248A8B
P 700 4550
AR Path="/62248A8B" Ref="C4"  Part="1" 
AR Path="/60209E92/62248A8B" Ref="C?"  Part="1" 
F 0 "C4" H 700 4650 50  0000 L CNN
F 1 "10uF" H 700 4450 50  0000 L CNN
F 2 "Capacitor_Tantalum_SMD:CP_EIA-3216-10_Kemet-I" H 738 4400 50  0001 C CNN
F 3 "~" H 700 4550 50  0001 C CNN
	1    700  4550
	1    0    0    -1  
$EndComp
Wire Wire Line
	700  4400 700  4300
Wire Wire Line
	700  4800 700  4700
$Comp
L My_Lib_KiCAD:ESP12E_My U3
U 1 1 622CA53E
P 2050 6350
F 0 "U3" H 1600 7100 50  0000 C CNN
F 1 "ESP12E_My" H 1750 7000 50  0000 C CNN
F 2 "RF_Module:ESP-12E" H 1600 7150 50  0001 C CNN
F 3 "" H 3050 5550 50  0001 C CNN
	1    2050 6350
	1    0    0    -1  
$EndComp
$Comp
L Device:R R11
U 1 1 622CBF31
P 1250 5600
F 0 "R11" H 1350 5500 50  0000 L CNN
F 1 "10k" H 1300 5600 50  0000 L CNN
F 2 "Resistor_SMD:R_0805_2012Metric" V 1180 5600 50  0001 C CNN
F 3 "~" H 1250 5600 50  0001 C CNN
	1    1250 5600
	-1   0    0    1   
$EndComp
$Comp
L Device:R R10
U 1 1 622CC6C6
P 1000 5600
F 0 "R10" H 1100 5500 50  0000 L CNN
F 1 "10k" H 1050 5600 50  0000 L CNN
F 2 "Resistor_SMD:R_0805_2012Metric" V 930 5600 50  0001 C CNN
F 3 "~" H 1000 5600 50  0001 C CNN
	1    1000 5600
	-1   0    0    1   
$EndComp
$Comp
L Switch:SW_Push SW2
U 1 1 622CC8A2
P 800 6100
F 0 "SW2" V 600 6150 50  0000 L CNN
F 1 "RESET" V 950 6100 50  0000 L CNN
F 2 "Button_Switch_THT:SW_PUSH_6mm" H 800 6300 50  0001 C CNN
F 3 "~" H 800 6300 50  0001 C CNN
	1    800  6100
	0    -1   -1   0   
$EndComp
Wire Wire Line
	1450 5850 1250 5850
Wire Wire Line
	800  5850 800  5900
Wire Wire Line
	1250 5750 1250 5850
Connection ~ 1250 5850
Wire Wire Line
	1250 5850 800  5850
Wire Wire Line
	1450 6050 1000 6050
Wire Wire Line
	1000 6050 1000 5750
$Comp
L Device:C C6
U 1 1 6231C2AF
P 1150 6750
F 0 "C6" H 1150 6850 50  0000 L CNN
F 1 "104" H 1150 6650 50  0000 L CNN
F 2 "Capacitor_SMD:C_0805_2012Metric" H 1188 6600 50  0001 C CNN
F 3 "~" H 1150 6750 50  0001 C CNN
	1    1150 6750
	1    0    0    -1  
$EndComp
Wire Wire Line
	1150 6600 1150 6500
Wire Wire Line
	1150 6900 1150 7000
$Comp
L Device:R R12
U 1 1 62336DB2
P 2900 5600
F 0 "R12" H 3000 5500 50  0000 L CNN
F 1 "10k" H 2950 5600 50  0000 L CNN
F 2 "Resistor_SMD:R_0805_2012Metric" V 2830 5600 50  0001 C CNN
F 3 "~" H 2900 5600 50  0001 C CNN
	1    2900 5600
	-1   0    0    1   
$EndComp
$Comp
L Switch:SW_Push SW3
U 1 1 623372B7
P 3200 6100
F 0 "SW3" V 3154 6248 50  0000 L CNN
F 1 "PG" V 3245 6248 50  0000 L CNN
F 2 "Button_Switch_THT:SW_PUSH_6mm" H 3200 6300 50  0001 C CNN
F 3 "~" H 3200 6300 50  0001 C CNN
	1    3200 6100
	0    1    1    0   
$EndComp
Wire Wire Line
	2650 5850 2900 5850
Wire Wire Line
	2900 5750 2900 5850
Text Label 2950 5950 2    50   ~ 0
TX1
Text Label 2950 6150 2    50   ~ 0
RX1
Wire Wire Line
	2950 6150 2650 6150
Wire Wire Line
	2950 5950 2650 5950
$Comp
L Device:R R22
U 1 1 623A6A8E
P 2950 6850
F 0 "R22" V 3000 7000 50  0000 L CNN
F 1 "220R" V 2950 6750 50  0000 L CNN
F 2 "Resistor_SMD:R_0805_2012Metric" V 2880 6850 50  0001 C CNN
F 3 "~" H 2950 6850 50  0001 C CNN
	1    2950 6850
	0    -1   -1   0   
$EndComp
Wire Wire Line
	2800 6850 2650 6850
$Comp
L Device:R R21
U 1 1 623C3500
P 2950 6750
F 0 "R21" V 3000 6900 50  0000 L CNN
F 1 "10k" V 2950 6700 50  0000 L CNN
F 2 "Resistor_SMD:R_0805_2012Metric" V 2880 6750 50  0001 C CNN
F 3 "~" H 2950 6750 50  0001 C CNN
	1    2950 6750
	0    -1   -1   0   
$EndComp
Wire Wire Line
	2800 6750 2650 6750
$Comp
L Device:LED D1
U 1 1 623DFC2E
P 3350 6850
F 0 "D1" H 3550 6800 50  0000 R CNN
F 1 "LED" H 3400 6950 50  0000 R CNN
F 2 "LED_SMD:LED_1206_3216Metric" H 3350 6850 50  0001 C CNN
F 3 "~" H 3350 6850 50  0001 C CNN
	1    3350 6850
	-1   0    0    1   
$EndComp
Wire Wire Line
	3200 6850 3100 6850
Text Label 2950 6650 2    50   ~ 0
TRIAC_1
Text Label 2950 6550 2    50   ~ 0
TRIAC_2
Text Label 2950 6450 2    50   ~ 0
TRIAC_3
Wire Wire Line
	2950 6450 2650 6450
Wire Wire Line
	2950 6550 2650 6550
Wire Wire Line
	2950 6650 2650 6650
Text Label 2950 6350 2    50   ~ 0
CON
Wire Wire Line
	2950 6350 2650 6350
Text Label 2950 6250 2    50   ~ 0
IO0
Wire Wire Line
	2950 6250 2650 6250
$Comp
L Connector_Generic:Conn_01x03 J9
U 1 1 624911CF
P 3650 5550
F 0 "J9" H 3600 5850 50  0000 L CNN
F 1 "ESP_PG" H 3550 5750 50  0000 L CNN
F 2 "Connector_PinHeader_2.54mm:PinHeader_1x03_P2.54mm_Vertical" H 3650 5550 50  0001 C CNN
F 3 "~" H 3650 5550 50  0001 C CNN
	1    3650 5550
	1    0    0    -1  
$EndComp
$Comp
L power:+3.3V #PWR08
U 1 1 624ABA14
P 700 4300
F 0 "#PWR08" H 700 4150 50  0001 C CNN
F 1 "+3.3V" H 715 4473 50  0000 C CNN
F 2 "" H 700 4300 50  0001 C CNN
F 3 "" H 700 4300 50  0001 C CNN
	1    700  4300
	1    0    0    -1  
$EndComp
$Comp
L power:+3.3V #PWR011
U 1 1 624AC0C6
P 1000 4300
F 0 "#PWR011" H 1000 4150 50  0001 C CNN
F 1 "+3.3V" H 1015 4473 50  0000 C CNN
F 2 "" H 1000 4300 50  0001 C CNN
F 3 "" H 1000 4300 50  0001 C CNN
	1    1000 4300
	1    0    0    -1  
$EndComp
$Comp
L power:+3.3V #PWR016
U 1 1 624AC276
P 1200 4100
F 0 "#PWR016" H 1200 3950 50  0001 C CNN
F 1 "+3.3V" H 1215 4273 50  0000 C CNN
F 2 "" H 1200 4100 50  0001 C CNN
F 3 "" H 1200 4100 50  0001 C CNN
	1    1200 4100
	1    0    0    -1  
$EndComp
$Comp
L power:GND #PWR010
U 1 1 624ACB7A
P 700 4800
F 0 "#PWR010" H 700 4550 50  0001 C CNN
F 1 "GND" H 705 4627 50  0000 C CNN
F 2 "" H 700 4800 50  0001 C CNN
F 3 "" H 700 4800 50  0001 C CNN
	1    700  4800
	1    0    0    -1  
$EndComp
$Comp
L power:GND #PWR014
U 1 1 624AD339
P 1000 4800
F 0 "#PWR014" H 1000 4550 50  0001 C CNN
F 1 "GND" H 1005 4627 50  0000 C CNN
F 2 "" H 1000 4800 50  0001 C CNN
F 3 "" H 1000 4800 50  0001 C CNN
	1    1000 4800
	1    0    0    -1  
$EndComp
$Comp
L power:GND #PWR019
U 1 1 624AD4CF
P 1500 4800
F 0 "#PWR019" H 1500 4550 50  0001 C CNN
F 1 "GND" H 1505 4627 50  0000 C CNN
F 2 "" H 1500 4800 50  0001 C CNN
F 3 "" H 1500 4800 50  0001 C CNN
	1    1500 4800
	1    0    0    -1  
$EndComp
$Comp
L power:GND #PWR058
U 1 1 624AD6C9
P 3650 6950
F 0 "#PWR058" H 3650 6700 50  0001 C CNN
F 1 "GND" H 3655 6777 50  0000 C CNN
F 2 "" H 3650 6950 50  0001 C CNN
F 3 "" H 3650 6950 50  0001 C CNN
	1    3650 6950
	1    0    0    -1  
$EndComp
$Comp
L power:GND #PWR059
U 1 1 624ADAED
P 3850 6950
F 0 "#PWR059" H 3850 6700 50  0001 C CNN
F 1 "GND" H 3855 6777 50  0000 C CNN
F 2 "" H 3850 6950 50  0001 C CNN
F 3 "" H 3850 6950 50  0001 C CNN
	1    3850 6950
	1    0    0    -1  
$EndComp
Wire Wire Line
	3650 6950 3650 6850
Wire Wire Line
	3650 6850 3500 6850
Wire Wire Line
	3100 6750 3850 6750
Wire Wire Line
	3850 6750 3850 6950
$Comp
L power:GND #PWR044
U 1 1 624EACB5
P 2050 7250
F 0 "#PWR044" H 2050 7000 50  0001 C CNN
F 1 "GND" H 2055 7077 50  0000 C CNN
F 2 "" H 2050 7250 50  0001 C CNN
F 3 "" H 2050 7250 50  0001 C CNN
	1    2050 7250
	1    0    0    -1  
$EndComp
Wire Wire Line
	2050 7250 2050 7150
$Comp
L power:GND #PWR032
U 1 1 6250993E
P 1150 7000
F 0 "#PWR032" H 1150 6750 50  0001 C CNN
F 1 "GND" H 1155 6827 50  0000 C CNN
F 2 "" H 1150 7000 50  0001 C CNN
F 3 "" H 1150 7000 50  0001 C CNN
	1    1150 7000
	1    0    0    -1  
$EndComp
$Comp
L power:+3.3V #PWR020
U 1 1 62509B11
P 1000 5400
F 0 "#PWR020" H 1000 5250 50  0001 C CNN
F 1 "+3.3V" H 1015 5573 50  0000 C CNN
F 2 "" H 1000 5400 50  0001 C CNN
F 3 "" H 1000 5400 50  0001 C CNN
	1    1000 5400
	1    0    0    -1  
$EndComp
$Comp
L power:+3.3V #PWR033
U 1 1 6250A23E
P 1250 5400
F 0 "#PWR033" H 1250 5250 50  0001 C CNN
F 1 "+3.3V" H 1265 5573 50  0000 C CNN
F 2 "" H 1250 5400 50  0001 C CNN
F 3 "" H 1250 5400 50  0001 C CNN
	1    1250 5400
	1    0    0    -1  
$EndComp
$Comp
L power:+3.3V #PWR049
U 1 1 6250A3AF
P 2900 5400
F 0 "#PWR049" H 2900 5250 50  0001 C CNN
F 1 "+3.3V" H 2915 5573 50  0000 C CNN
F 2 "" H 2900 5400 50  0001 C CNN
F 3 "" H 2900 5400 50  0001 C CNN
	1    2900 5400
	1    0    0    -1  
$EndComp
$Comp
L power:GND #PWR018
U 1 1 6250A986
P 800 6400
F 0 "#PWR018" H 800 6150 50  0001 C CNN
F 1 "GND" H 805 6227 50  0000 C CNN
F 2 "" H 800 6400 50  0001 C CNN
F 3 "" H 800 6400 50  0001 C CNN
	1    800  6400
	1    0    0    -1  
$EndComp
Wire Wire Line
	800  6400 800  6300
$Comp
L power:+3.3V #PWR031
U 1 1 62529AB5
P 1150 6500
F 0 "#PWR031" H 1150 6350 50  0001 C CNN
F 1 "+3.3V" H 1165 6673 50  0000 C CNN
F 2 "" H 1150 6500 50  0001 C CNN
F 3 "" H 1150 6500 50  0001 C CNN
	1    1150 6500
	1    0    0    -1  
$EndComp
$Comp
L power:GND #PWR057
U 1 1 62587152
P 3200 6400
F 0 "#PWR057" H 3200 6150 50  0001 C CNN
F 1 "GND" H 3205 6227 50  0000 C CNN
F 2 "" H 3200 6400 50  0001 C CNN
F 3 "" H 3200 6400 50  0001 C CNN
	1    3200 6400
	1    0    0    -1  
$EndComp
Wire Wire Line
	3200 6400 3200 6300
Text Label 3250 5550 0    50   ~ 0
TX1
Wire Wire Line
	3250 5550 3450 5550
Text Label 3250 5450 0    50   ~ 0
RX1
Wire Wire Line
	3250 5450 3450 5450
$Comp
L power:GND #PWR055
U 1 1 625E6E17
P 3350 5700
F 0 "#PWR055" H 3350 5450 50  0001 C CNN
F 1 "GND" H 3355 5527 50  0000 C CNN
F 2 "" H 3350 5700 50  0001 C CNN
F 3 "" H 3350 5700 50  0001 C CNN
	1    3350 5700
	1    0    0    -1  
$EndComp
Wire Wire Line
	3450 5650 3350 5650
Wire Wire Line
	3350 5650 3350 5700
$Comp
L power:+3.3V #PWR043
U 1 1 62646FD6
P 2050 5400
F 0 "#PWR043" H 2050 5250 50  0001 C CNN
F 1 "+3.3V" H 2065 5573 50  0000 C CNN
F 2 "" H 2050 5400 50  0001 C CNN
F 3 "" H 2050 5400 50  0001 C CNN
	1    2050 5400
	1    0    0    -1  
$EndComp
Wire Wire Line
	1500 4800 1500 4600
Wire Notes Line
	3700 3850 3700 5050
Wire Notes Line
	3700 5050 550  5050
Wire Notes Line
	550  5050 550  3850
Wire Notes Line
	550  3850 3700 3850
Text Notes 600  3950 0    50   ~ 0
Modbus\n
Wire Wire Line
	3200 5900 3200 5850
Wire Wire Line
	3200 5850 2900 5850
Connection ~ 2900 5850
Wire Wire Line
	1000 5450 1000 5400
Wire Wire Line
	1250 5450 1250 5400
Wire Wire Line
	2050 5650 2050 5400
Wire Wire Line
	2900 5450 2900 5400
Wire Notes Line
	3950 5150 3950 7500
Wire Notes Line
	3950 7500 550  7500
Wire Notes Line
	550  7500 550  5150
Wire Notes Line
	550  5150 3950 5150
Text Notes 600  5250 0    50   ~ 0
ESP
Wire Notes Line
	11150 500  11150 4150
Wire Notes Line
	11150 4150 8300 4150
Wire Notes Line
	8300 4150 8300 500 
Wire Notes Line
	8300 500  11150 500 
Text Notes 8350 600  0    50   ~ 0
Triac Outputs\n
Wire Wire Line
	7600 4800 7850 4800
Wire Wire Line
	7850 4800 7850 4850
Wire Wire Line
	7850 5150 7850 5200
Wire Wire Line
	7850 5550 7850 5600
Wire Wire Line
	8100 5200 7850 5200
Connection ~ 7850 5200
Wire Wire Line
	7850 5200 7850 5250
Wire Wire Line
	9350 5250 9350 5200
Wire Wire Line
	9350 4850 9350 4800
Wire Wire Line
	9350 4800 9100 4800
Wire Wire Line
	9600 5200 9350 5200
Connection ~ 9350 5200
Wire Wire Line
	9350 5200 9350 5150
Wire Wire Line
	9350 5600 9350 5550
Wire Wire Line
	10900 5600 10900 5550
Wire Wire Line
	10900 5250 10900 5200
Wire Wire Line
	11100 5200 10900 5200
Connection ~ 10900 5200
Wire Wire Line
	10900 5200 10900 5150
Wire Wire Line
	10650 4800 10900 4800
Wire Wire Line
	10900 4800 10900 4850
Wire Wire Line
	7650 4600 7650 4500
Wire Wire Line
	9150 4600 9150 4500
Wire Wire Line
	10700 4600 10700 4500
Wire Notes Line
	11150 4250 11150 5900
Wire Notes Line
	11150 5900 6250 5900
Wire Notes Line
	6250 5900 6250 4250
Wire Notes Line
	6250 4250 11150 4250
Text Notes 6300 4350 0    50   ~ 0
Digital Inputs
Wire Notes Line
	5900 5000 5900 5900
Wire Notes Line
	5900 5900 4050 5900
Wire Notes Line
	4050 5900 4050 5000
Wire Notes Line
	4050 5000 5900 5000
Text Notes 4100 5100 0    50   ~ 0
Temp Sensors
Wire Wire Line
	6450 2250 6450 2050
Wire Wire Line
	6750 2150 6750 2000
Wire Notes Line
	5100 4900 3750 4900
Text Notes 3800 3950 0    50   ~ 0
Status LEDs\n
Wire Notes Line
	3750 3850 5100 3850
Wire Notes Line
	5100 3850 5100 4900
Wire Notes Line
	3750 3850 3750 4900
Wire Notes Line
	7300 1750 7300 2500
Wire Notes Line
	7300 2500 6300 2500
Wire Notes Line
	6300 2500 6300 1750
Wire Notes Line
	6300 1750 7300 1750
Text Notes 6350 1950 0    50   ~ 0
A9 PG\n\n
Wire Wire Line
	6900 1450 6900 1200
Wire Notes Line
	8100 550  8100 1700
Wire Notes Line
	8100 1700 6500 1700
Wire Notes Line
	6500 1700 6500 550 
Wire Notes Line
	8150 1750 8150 3300
Wire Notes Line
	8150 3300 7350 3300
Wire Notes Line
	7350 3300 7350 1750
Wire Notes Line
	7350 1750 8150 1750
Text Notes 7350 1950 0    50   ~ 0
Switch\n\n
Text Label 6100 4100 2    50   ~ 0
VBAT
Wire Wire Line
	6100 4100 5900 4100
Wire Wire Line
	5900 4100 5900 4150
$Comp
L Maduino_Zero_A9G_GPS_Tracker_v3.3-eagle-import:TVSARRAY_5LANE D7
U 1 1 62F9F9B7
P 5650 6600
F 0 "D7" H 5750 7247 42  0000 C CNN
F 1 "SMF05C" H 5750 7168 42  0000 C CNN
F 2 "Maduino Zero A9G GPS Tracker v3.3:SOT363" H 5650 6600 50  0001 C CNN
F 3 "" H 5650 6600 50  0001 C CNN
	1    5650 6600
	1    0    0    -1  
$EndComp
Text Label 4450 2450 2    50   ~ 0
VSIM
Wire Wire Line
	4450 2450 4050 2450
Text Label 6550 900  0    50   ~ 0
VSIM
Wire Wire Line
	6550 900  6950 900 
Text Label 6400 6200 2    50   ~ 0
VSIM
Text Label 6400 6400 2    50   ~ 0
SIM_RST
Text Label 6400 6600 2    50   ~ 0
SIM_CLK
Text Label 6400 6800 2    50   ~ 0
SIM_DIO
Wire Wire Line
	6400 6800 6050 6800
Wire Wire Line
	6400 6600 6050 6600
Wire Wire Line
	6400 6400 6050 6400
Wire Wire Line
	6050 6200 6400 6200
$Comp
L power:GND #PWR04
U 1 1 630B0713
P 5350 6650
F 0 "#PWR04" H 5350 6400 50  0001 C CNN
F 1 "GND" H 5355 6477 50  0000 C CNN
F 2 "" H 5350 6650 50  0001 C CNN
F 3 "" H 5350 6650 50  0001 C CNN
	1    5350 6650
	1    0    0    -1  
$EndComp
Wire Wire Line
	5450 6600 5350 6600
Wire Wire Line
	5350 6600 5350 6650
$Comp
L Device:CP C16
U 1 1 630D6262
P 5350 4300
AR Path="/630D6262" Ref="C16"  Part="1" 
AR Path="/60209E92/630D6262" Ref="C?"  Part="1" 
F 0 "C16" H 5350 4400 50  0000 L CNN
F 1 "10uF" H 5350 4200 50  0000 L CNN
F 2 "Capacitor_Tantalum_SMD:CP_EIA-3216-10_Kemet-I" H 5388 4150 50  0001 C CNN
F 3 "~" H 5350 4300 50  0001 C CNN
	1    5350 4300
	1    0    0    -1  
$EndComp
$Comp
L Device:CP C17
U 1 1 630D79FB
P 5650 4300
AR Path="/630D79FB" Ref="C17"  Part="1" 
AR Path="/60209E92/630D79FB" Ref="C?"  Part="1" 
F 0 "C17" H 5650 4400 50  0000 L CNN
F 1 "1uF" H 5650 4200 50  0000 L CNN
F 2 "Capacitor_SMD:C_0805_2012Metric" H 5688 4150 50  0001 C CNN
F 3 "~" H 5650 4300 50  0001 C CNN
	1    5650 4300
	1    0    0    -1  
$EndComp
Wire Wire Line
	5900 4550 5900 4500
Wire Wire Line
	5350 4450 5350 4500
Wire Wire Line
	5350 4500 5650 4500
Connection ~ 5900 4500
Wire Wire Line
	5900 4500 5900 4450
Wire Wire Line
	5650 4450 5650 4500
Connection ~ 5650 4500
Wire Wire Line
	5650 4500 5900 4500
Wire Wire Line
	5350 4150 5350 4100
Wire Wire Line
	5350 4100 5650 4100
Connection ~ 5900 4100
Wire Wire Line
	5650 4150 5650 4100
Connection ~ 5650 4100
Wire Wire Line
	5650 4100 5900 4100
Wire Notes Line
	6150 3950 6150 4800
Wire Notes Line
	6150 4800 5150 4800
Wire Notes Line
	5150 4800 5150 3950
Wire Notes Line
	5150 3950 6150 3950
Text Notes 5150 4100 0    50   ~ 0
Filter\n\n
$Comp
L Connector:Screw_Terminal_01x02 J1
U 1 1 63403DF5
P 3450 4500
F 0 "J1" H 3400 4750 50  0000 L CNN
F 1 "Modbus_OUT" H 3200 4650 50  0000 L CNN
F 2 "Connector_Phoenix_MSTB:PhoenixContact_MSTBA_2,5_2-G-5,08_1x02_P5.08mm_Horizontal" H 3450 4500 50  0001 C CNN
F 3 "~" H 3450 4500 50  0001 C CNN
	1    3450 4500
	1    0    0    -1  
$EndComp
$Comp
L Connector:Screw_Terminal_01x06 J2
U 1 1 63680222
P 11000 1250
F 0 "J2" H 10950 750 50  0000 L CNN
F 1 "L123OUT" H 10850 850 50  0000 L CNN
F 2 "Connector_Phoenix_MSTB:PhoenixContact_MSTBA_2,5_6-G-5,08_1x06_P5.08mm_Horizontal" H 11000 1250 50  0001 C CNN
F 3 "~" H 11000 1250 50  0001 C CNN
	1    11000 1250
	1    0    0    1   
$EndComp
Text Label 10500 800  2    50   ~ 0
L1_IN
Wire Wire Line
	10500 800  10050 800 
Connection ~ 10050 800 
Text Label 10500 1650 2    50   ~ 0
L1_OUT
Wire Wire Line
	10500 1650 10050 1650
Connection ~ 10050 1650
Text Label 10500 2000 2    50   ~ 0
L2_IN
Wire Wire Line
	10500 2000 10050 2000
Connection ~ 10050 2000
Text Label 10500 2850 2    50   ~ 0
L2_OUT
Wire Wire Line
	10500 2850 10050 2850
Connection ~ 10050 2850
Text Label 10500 3200 2    50   ~ 0
L3_IN
Connection ~ 10050 3200
Text Label 10500 4050 2    50   ~ 0
L3_OUT
Wire Wire Line
	10500 4050 10050 4050
Connection ~ 10050 4050
Wire Wire Line
	10050 3200 10500 3200
Text Label 10500 1050 0    50   ~ 0
L1_IN
Text Label 10500 950  0    50   ~ 0
L1_OUT
Text Label 10500 1150 0    50   ~ 0
L2_OUT
Text Label 10500 1250 0    50   ~ 0
L2_IN
Text Label 10500 1350 0    50   ~ 0
L3_OUT
Text Label 10500 1450 0    50   ~ 0
L3_IN
Wire Wire Line
	10500 950  10800 950 
Wire Wire Line
	10500 1050 10800 1050
Wire Wire Line
	10500 1150 10800 1150
Wire Wire Line
	10500 1250 10800 1250
Wire Wire Line
	10500 1350 10800 1350
Wire Wire Line
	10500 1450 10800 1450
$EndSCHEMATC
