EESchema Schematic File Version 4
EELAYER 30 0
EELAYER END
$Descr A4 11693 8268
encoding utf-8
Sheet 1 2
Title "A9 Max485 Iso v0.1"
Date "2021-01-11"
Rev "0"
Comp ""
Comment1 ""
Comment2 ""
Comment3 ""
Comment4 ""
$EndDescr
$Comp
L Mechanical:MountingHole H1
U 1 1 600C6DA6
P 6250 6850
F 0 "H1" H 6350 6896 50  0000 L CNN
F 1 "MountingHole" H 6350 6805 50  0000 L CNN
F 2 "MountingHole:MountingHole_3mm_Pad_Via" H 6250 6850 50  0001 C CNN
F 3 "~" H 6250 6850 50  0001 C CNN
	1    6250 6850
	1    0    0    -1  
$EndComp
$Comp
L Mechanical:MountingHole H2
U 1 1 600722EB
P 6250 7100
F 0 "H2" H 6350 7146 50  0000 L CNN
F 1 "MountingHole" H 6350 7055 50  0000 L CNN
F 2 "MountingHole:MountingHole_3mm_Pad_Via" H 6250 7100 50  0001 C CNN
F 3 "~" H 6250 7100 50  0001 C CNN
	1    6250 7100
	1    0    0    -1  
$EndComp
$Comp
L Mechanical:MountingHole H3
U 1 1 60062703
P 6250 7350
F 0 "H3" H 6350 7396 50  0000 L CNN
F 1 "MountingHole" H 6350 7305 50  0000 L CNN
F 2 "MountingHole:MountingHole_3mm_Pad_Via" H 6250 7350 50  0001 C CNN
F 3 "~" H 6250 7350 50  0001 C CNN
	1    6250 7350
	1    0    0    -1  
$EndComp
$Comp
L Mechanical:MountingHole H4
U 1 1 602E7F78
P 6250 7600
F 0 "H4" H 6350 7646 50  0000 L CNN
F 1 "MountingHole" H 6350 7555 50  0000 L CNN
F 2 "MountingHole:MountingHole_3mm_Pad_Via" H 6250 7600 50  0001 C CNN
F 3 "~" H 6250 7600 50  0001 C CNN
	1    6250 7600
	1    0    0    -1  
$EndComp
$Comp
L Device:CP C5
U 1 1 602E7F73
P 2200 1950
F 0 "C5" H 2318 1996 50  0000 L CNN
F 1 "10uF" H 2318 1905 50  0000 L CNN
F 2 "Capacitor_THT:C_Radial_D6.3mm_H11.0mm_P2.50mm" H 2238 1800 50  0001 C CNN
F 3 "~" H 2200 1950 50  0001 C CNN
	1    2200 1950
	1    0    0    -1  
$EndComp
Wire Wire Line
	2050 1700 2200 1700
Wire Wire Line
	2450 1700 2450 1650
Wire Wire Line
	2200 1800 2200 1700
Connection ~ 2200 1700
Wire Wire Line
	2200 1700 2450 1700
Wire Wire Line
	1750 2200 1750 2000
Wire Wire Line
	2200 2200 2200 2100
Wire Wire Line
	700  1700 700  1650
Wire Wire Line
	850  1800 850  1700
Wire Wire Line
	850  1700 700  1700
Wire Wire Line
	1250 1800 1250 1700
Wire Wire Line
	850  2200 850  2100
Wire Wire Line
	1250 2200 1250 2100
$Comp
L Device:CP C1
U 1 1 5FFBDF70
P 850 1950
F 0 "C1" H 968 1996 50  0000 L CNN
F 1 "10uF" H 968 1905 50  0000 L CNN
F 2 "Capacitor_THT:C_Radial_D6.3mm_H11.0mm_P2.50mm" H 888 1800 50  0001 C CNN
F 3 "~" H 850 1950 50  0001 C CNN
	1    850  1950
	1    0    0    -1  
$EndComp
$Comp
L Device:C C3
U 1 1 5FFBDF7C
P 1250 1950
F 0 "C3" H 1365 1996 50  0000 L CNN
F 1 "104" H 1365 1905 50  0000 L CNN
F 2 "Capacitor_THT:C_Rect_L7.0mm_W3.5mm_P5.00mm" H 1288 1800 50  0001 C CNN
F 3 "~" H 1250 1950 50  0001 C CNN
	1    1250 1950
	1    0    0    -1  
$EndComp
Wire Wire Line
	1450 1700 1250 1700
$Comp
L Device:C C9
U 1 1 600C6DB4
P 10750 2250
F 0 "C9" H 10865 2296 50  0000 L CNN
F 1 "104" H 10865 2205 50  0000 L CNN
F 2 "Capacitor_THT:C_Rect_L7.0mm_W3.5mm_P5.00mm" H 10788 2100 50  0001 C CNN
F 3 "~" H 10750 2250 50  0001 C CNN
	1    10750 2250
	1    0    0    -1  
$EndComp
Wire Wire Line
	10750 2100 10750 2000
Wire Wire Line
	10750 2400 10750 2500
$Comp
L Connector:Screw_Terminal_01x02 J1
U 1 1 6008BAF9
P 700 1050
F 0 "J1" H 750 750 50  0000 C CNN
F 1 "PowerIN" H 650 850 50  0000 C CNN
F 2 "TerminalBlock:TerminalBlock_bornier-2_P5.08mm" H 700 1050 50  0001 C CNN
F 3 "~" H 700 1050 50  0001 C CNN
	1    700  1050
	-1   0    0    1   
$EndComp
Wire Wire Line
	2750 900  2600 900 
Wire Wire Line
	950  950  900  950 
Wire Wire Line
	2750 1100 2600 1100
Wire Wire Line
	950  1050 900  1050
Wire Wire Line
	3550 1100 3600 1100
Wire Wire Line
	3600 1100 3600 1350
$Comp
L Interface_UART:MAX485E U12
U 1 1 600F0FB5
P 9300 1450
F 0 "U12" H 8900 2000 50  0000 C CNN
F 1 "MAX485E" H 9000 1900 50  0000 C CNN
F 2 "Package_DIP:DIP-8_W7.62mm" H 9300 750 50  0001 C CNN
F 3 "https://datasheets.maximintegrated.com/en/ds/MAX1487E-MAX491E.pdf" H 9300 1500 50  0001 C CNN
	1    9300 1450
	1    0    0    -1  
$EndComp
$Comp
L Isolator:PC817 U9
U 1 1 600F3191
P 7400 3100
F 0 "U9" H 7400 3425 50  0000 C CNN
F 1 "PC817" H 7400 3334 50  0000 C CNN
F 2 "Package_DIP:DIP-4_W7.62mm" H 7200 2900 50  0001 L CIN
F 3 "http://www.soselectronic.cz/a_info/resource/d/pc817.pdf" H 7400 3100 50  0001 L CNN
	1    7400 3100
	1    0    0    -1  
$EndComp
$Comp
L Device:R R20
U 1 1 600C6DAE
P 7000 2550
F 0 "R20" H 7100 2450 50  0000 L CNN
F 1 "1k" H 7050 2550 50  0000 L CNN
F 2 "Resistor_THT:R_Axial_DIN0207_L6.3mm_D2.5mm_P7.62mm_Horizontal" V 6930 2550 50  0001 C CNN
F 3 "~" H 7000 2550 50  0001 C CNN
	1    7000 2550
	-1   0    0    1   
$EndComp
Wire Wire Line
	7100 3000 7000 3000
Wire Wire Line
	7000 2400 7000 2300
$Comp
L power:GNDA #PWR043
U 1 1 6014F9C4
P 7800 3350
F 0 "#PWR043" H 7800 3100 50  0001 C CNN
F 1 "GNDA" H 7805 3177 50  0000 C CNN
F 2 "" H 7800 3350 50  0001 C CNN
F 3 "" H 7800 3350 50  0001 C CNN
	1    7800 3350
	1    0    0    -1  
$EndComp
Wire Wire Line
	7700 3200 7800 3200
Wire Wire Line
	7800 3200 7800 3350
$Comp
L Device:R R24
U 1 1 600C6DB0
P 7950 2550
F 0 "R24" H 8050 2450 50  0000 L CNN
F 1 "1k" H 8000 2550 50  0000 L CNN
F 2 "Resistor_THT:R_Axial_DIN0207_L6.3mm_D2.5mm_P7.62mm_Horizontal" V 7880 2550 50  0001 C CNN
F 3 "~" H 7950 2550 50  0001 C CNN
	1    7950 2550
	-1   0    0    1   
$EndComp
$Comp
L Device:R R26
U 1 1 600C6DB1
P 8250 3000
F 0 "R26" V 8450 3000 50  0000 L CNN
F 1 "10k" V 8350 2950 50  0000 L CNN
F 2 "Resistor_THT:R_Axial_DIN0207_L6.3mm_D2.5mm_P7.62mm_Horizontal" V 8180 3000 50  0001 C CNN
F 3 "~" H 8250 3000 50  0001 C CNN
	1    8250 3000
	0    -1   -1   0   
$EndComp
Connection ~ 7950 3000
Wire Wire Line
	7950 3000 8100 3000
$Comp
L power:+5VA #PWR045
U 1 1 600C6DB2
P 7950 2300
F 0 "#PWR045" H 7950 2150 50  0001 C CNN
F 1 "+5VA" H 7965 2473 50  0000 C CNN
F 2 "" H 7950 2300 50  0001 C CNN
F 3 "" H 7950 2300 50  0001 C CNN
	1    7950 2300
	1    0    0    -1  
$EndComp
Wire Wire Line
	7950 2300 7950 2400
Wire Wire Line
	8500 3000 8400 3000
$Comp
L power:GNDA #PWR048
U 1 1 600C6DB3
P 8800 3350
F 0 "#PWR048" H 8800 3100 50  0001 C CNN
F 1 "GNDA" H 8805 3177 50  0000 C CNN
F 2 "" H 8800 3350 50  0001 C CNN
F 3 "" H 8800 3350 50  0001 C CNN
	1    8800 3350
	1    0    0    -1  
$EndComp
Wire Wire Line
	8800 3350 8800 3200
Wire Wire Line
	7700 3000 7950 3000
Text Label 8250 3250 2    50   ~ 0
DI
Wire Wire Line
	8250 3250 7950 3250
Wire Wire Line
	7950 3250 7950 3000
$Comp
L Device:R R27
U 1 1 6022E61E
P 8800 2550
F 0 "R27" H 8900 2450 50  0000 L CNN
F 1 "1k" H 8850 2550 50  0000 L CNN
F 2 "Resistor_THT:R_Axial_DIN0207_L6.3mm_D2.5mm_P7.62mm_Horizontal" V 8730 2550 50  0001 C CNN
F 3 "~" H 8800 2550 50  0001 C CNN
	1    8800 2550
	-1   0    0    1   
$EndComp
Wire Wire Line
	8800 2800 8800 2750
$Comp
L power:+5VA #PWR047
U 1 1 60244D75
P 8800 2300
F 0 "#PWR047" H 8800 2150 50  0001 C CNN
F 1 "+5VA" H 8815 2473 50  0000 C CNN
F 2 "" H 8800 2300 50  0001 C CNN
F 3 "" H 8800 2300 50  0001 C CNN
	1    8800 2300
	1    0    0    -1  
$EndComp
Wire Wire Line
	8800 2400 8800 2300
Wire Wire Line
	7950 2700 7950 3000
Wire Wire Line
	7000 2700 7000 3000
Text Label 9100 2750 2    50   ~ 0
DE,RE
Wire Wire Line
	9100 2750 8800 2750
Connection ~ 8800 2750
Wire Wire Line
	8800 2750 8800 2700
Text Label 8550 1450 0    50   ~ 0
DE,RE
Wire Wire Line
	8900 1450 8800 1450
Wire Wire Line
	8900 1550 8800 1550
Wire Wire Line
	8800 1550 8800 1450
Connection ~ 8800 1450
Wire Wire Line
	8800 1450 8550 1450
$Comp
L power:GNDA #PWR050
U 1 1 600C6DB7
P 9300 2150
F 0 "#PWR050" H 9300 1900 50  0001 C CNN
F 1 "GNDA" H 9305 1977 50  0000 C CNN
F 2 "" H 9300 2150 50  0001 C CNN
F 3 "" H 9300 2150 50  0001 C CNN
	1    9300 2150
	1    0    0    -1  
$EndComp
Wire Wire Line
	9300 2150 9300 2050
$Comp
L power:+5VA #PWR049
U 1 1 600C6DB8
P 9300 800
F 0 "#PWR049" H 9300 650 50  0001 C CNN
F 1 "+5VA" H 9315 973 50  0000 C CNN
F 2 "" H 9300 800 50  0001 C CNN
F 3 "" H 9300 800 50  0001 C CNN
	1    9300 800 
	1    0    0    -1  
$EndComp
Wire Wire Line
	9300 950  9300 800 
Text Label 8550 1650 0    50   ~ 0
DI
Wire Wire Line
	8550 1650 8900 1650
Text Label 8550 1350 0    50   ~ 0
RO
Wire Wire Line
	8550 1350 8900 1350
$Comp
L Isolator:PC817 U10
U 1 1 600C6DB9
P 7450 1550
F 0 "U10" H 7450 1875 50  0000 C CNN
F 1 "PC817" H 7450 1784 50  0000 C CNN
F 2 "Package_DIP:DIP-4_W7.62mm" H 7250 1350 50  0001 L CIN
F 3 "http://www.soselectronic.cz/a_info/resource/d/pc817.pdf" H 7450 1550 50  0001 L CNN
	1    7450 1550
	-1   0    0    -1  
$EndComp
Text Label 8050 1650 2    50   ~ 0
RO
Wire Wire Line
	8050 1650 7750 1650
$Comp
L Device:R R23
U 1 1 600C6DBA
P 7900 1200
F 0 "R23" H 8000 1100 50  0000 L CNN
F 1 "330R" H 7950 1200 50  0000 L CNN
F 2 "Resistor_THT:R_Axial_DIN0207_L6.3mm_D2.5mm_P7.62mm_Horizontal" V 7830 1200 50  0001 C CNN
F 3 "~" H 7900 1200 50  0001 C CNN
	1    7900 1200
	-1   0    0    1   
$EndComp
Wire Wire Line
	7750 1450 7900 1450
Wire Wire Line
	7900 1450 7900 1350
$Comp
L power:+5VA #PWR044
U 1 1 600C6DBB
P 7900 950
F 0 "#PWR044" H 7900 800 50  0001 C CNN
F 1 "+5VA" H 7915 1123 50  0000 C CNN
F 2 "" H 7900 950 50  0001 C CNN
F 3 "" H 7900 950 50  0001 C CNN
	1    7900 950 
	1    0    0    -1  
$EndComp
Wire Wire Line
	7900 1050 7900 950 
$Comp
L power:GND #PWR039
U 1 1 600C6DBC
P 7050 1750
F 0 "#PWR039" H 7050 1500 50  0001 C CNN
F 1 "GND" H 7055 1577 50  0000 C CNN
F 2 "" H 7050 1750 50  0001 C CNN
F 3 "" H 7050 1750 50  0001 C CNN
	1    7050 1750
	1    0    0    -1  
$EndComp
Wire Wire Line
	7050 1750 7050 1650
Wire Wire Line
	7050 1650 7150 1650
Wire Wire Line
	7150 1450 7000 1450
$Comp
L Device:R R19
U 1 1 600C6DBD
P 7000 1200
F 0 "R19" H 7100 1100 50  0000 L CNN
F 1 "4.7k" H 7050 1200 50  0000 L CNN
F 2 "Resistor_THT:R_Axial_DIN0207_L6.3mm_D2.5mm_P7.62mm_Horizontal" V 6930 1200 50  0001 C CNN
F 3 "~" H 7000 1200 50  0001 C CNN
	1    7000 1200
	-1   0    0    1   
$EndComp
Wire Wire Line
	7000 1350 7000 1450
Wire Wire Line
	7000 1050 7000 950 
$Comp
L Connector:Screw_Terminal_01x02 J9
U 1 1 600C6DBE
P 10800 1450
F 0 "J9" H 10750 1700 50  0000 C CNN
F 1 "Mobus_OUT" H 10750 1600 50  0000 C CNN
F 2 "TerminalBlock:TerminalBlock_bornier-2_P5.08mm" H 10800 1450 50  0001 C CNN
F 3 "~" H 10800 1450 50  0001 C CNN
	1    10800 1450
	1    0    0    -1  
$EndComp
$Comp
L power:+5VA #PWR051
U 1 1 604A6C47
P 9900 800
F 0 "#PWR051" H 9900 650 50  0001 C CNN
F 1 "+5VA" H 9915 973 50  0000 C CNN
F 2 "" H 9900 800 50  0001 C CNN
F 3 "" H 9900 800 50  0001 C CNN
	1    9900 800 
	1    0    0    -1  
$EndComp
$Comp
L Device:R R28
U 1 1 600C6DC0
P 9900 1050
F 0 "R28" H 10000 950 50  0000 L CNN
F 1 "20k" H 9950 1050 50  0000 L CNN
F 2 "Resistor_THT:R_Axial_DIN0207_L6.3mm_D2.5mm_P7.62mm_Horizontal" V 9830 1050 50  0001 C CNN
F 3 "~" H 9900 1050 50  0001 C CNN
	1    9900 1050
	-1   0    0    1   
$EndComp
Wire Wire Line
	9900 900  9900 800 
$Comp
L Device:R R29
U 1 1 600C6DC2
P 10000 1900
F 0 "R29" H 10100 1800 50  0000 L CNN
F 1 "20k" H 10050 1900 50  0000 L CNN
F 2 "Resistor_THT:R_Axial_DIN0207_L6.3mm_D2.5mm_P7.62mm_Horizontal" V 9930 1900 50  0001 C CNN
F 3 "~" H 10000 1900 50  0001 C CNN
	1    10000 1900
	-1   0    0    1   
$EndComp
$Comp
L Device:R R30
U 1 1 604A58F5
P 10400 1500
F 0 "R30" H 10500 1400 50  0000 L CNN
F 1 "120R" H 10450 1500 50  0000 L CNN
F 2 "Resistor_THT:R_Axial_DIN0207_L6.3mm_D2.5mm_P7.62mm_Horizontal" V 10330 1500 50  0001 C CNN
F 3 "~" H 10400 1500 50  0001 C CNN
	1    10400 1500
	-1   0    0    1   
$EndComp
Wire Wire Line
	9900 1200 9900 1650
Wire Wire Line
	9900 1650 9700 1650
Wire Wire Line
	9700 1350 10000 1350
Wire Wire Line
	10000 1350 10000 1750
Wire Wire Line
	10400 1350 10000 1350
Connection ~ 10000 1350
Wire Wire Line
	10400 1650 9900 1650
Connection ~ 9900 1650
Wire Wire Line
	10400 1350 10600 1350
Wire Wire Line
	10600 1350 10600 1450
Connection ~ 10400 1350
Wire Wire Line
	10600 1550 10600 1650
Wire Wire Line
	10600 1650 10400 1650
Connection ~ 10400 1650
$Comp
L power:GNDA #PWR052
U 1 1 600C6DC3
P 10000 2150
F 0 "#PWR052" H 10000 1900 50  0001 C CNN
F 1 "GNDA" H 10005 1977 50  0000 C CNN
F 2 "" H 10000 2150 50  0001 C CNN
F 3 "" H 10000 2150 50  0001 C CNN
	1    10000 2150
	1    0    0    -1  
$EndComp
Wire Wire Line
	10000 2150 10000 2050
$Comp
L power:+5VA #PWR055
U 1 1 600C6DC4
P 10750 2000
F 0 "#PWR055" H 10750 1850 50  0001 C CNN
F 1 "+5VA" H 10765 2173 50  0000 C CNN
F 2 "" H 10750 2000 50  0001 C CNN
F 3 "" H 10750 2000 50  0001 C CNN
	1    10750 2000
	1    0    0    -1  
$EndComp
$Comp
L power:GNDA #PWR056
U 1 1 6079AC1D
P 10750 2500
F 0 "#PWR056" H 10750 2250 50  0001 C CNN
F 1 "GNDA" H 10755 2327 50  0000 C CNN
F 2 "" H 10750 2500 50  0001 C CNN
F 3 "" H 10750 2500 50  0001 C CNN
	1    10750 2500
	1    0    0    -1  
$EndComp
$Comp
L Transistor_BJT:BC547 Q4
U 1 1 607C9C5F
P 8700 3000
F 0 "Q4" H 8891 3046 50  0000 L CNN
F 1 "BC547" H 8891 2955 50  0000 L CNN
F 2 "Package_TO_SOT_THT:TO-92_Inline_Wide" H 8900 2925 50  0001 L CIN
F 3 "https://www.onsemi.com/pub/Collateral/BC550-D.pdf" H 8700 3000 50  0001 L CNN
	1    8700 3000
	1    0    0    -1  
$EndComp
$Comp
L Device:CP C7
U 1 1 607DEBD5
P 3900 1100
F 0 "C7" H 4018 1146 50  0000 L CNN
F 1 "220uF" H 4018 1055 50  0000 L CNN
F 2 "Capacitor_THT:C_Radial_D6.3mm_H11.0mm_P2.50mm" H 3938 950 50  0001 C CNN
F 3 "~" H 3900 1100 50  0001 C CNN
	1    3900 1100
	1    0    0    -1  
$EndComp
Wire Wire Line
	4050 900  4050 850 
Wire Wire Line
	3550 900  3900 900 
Wire Wire Line
	3900 950  3900 900 
Connection ~ 3900 900 
Wire Wire Line
	3900 900  4050 900 
Wire Wire Line
	3900 1350 3900 1250
$Comp
L Device:Varistor RV1
U 1 1 608BF74D
P 1550 1050
F 0 "RV1" H 1250 1100 50  0000 L CNN
F 1 "10D561" H 1150 1000 50  0000 L CNN
F 2 "Diode_THT:D_DO-41_SOD81_P10.16mm_Horizontal" V 1480 1050 50  0001 C CNN
F 3 "~" H 1550 1050 50  0001 C CNN
	1    1550 1050
	1    0    0    -1  
$EndComp
$Comp
L Device:EMI_Filter_CommonMode FL1
U 1 1 600C6DC9
P 2400 1000
F 0 "FL1" H 2400 1400 50  0000 C CNN
F 1 "EMI_Filter_CommonMode" H 2400 1250 50  0000 C CNN
F 2 "Inductor_THT:L_CommonMode_Toroid_Vertical_L19.3mm_W10.8mm_Px6.35mm_Py15.24mm_Bourns_8100" H 2400 1040 50  0001 C CNN
F 3 "~" H 2400 1040 50  0001 C CNN
	1    2400 1000
	1    0    0    -1  
$EndComp
$Comp
L Device:C C4
U 1 1 608BF759
P 1800 1050
F 0 "C4" H 1915 1096 50  0000 L CNN
F 1 "104/630V" H 1800 950 50  0000 L CNN
F 2 "Capacitor_THT:C_Rect_L19.0mm_W6.0mm_P15.00mm_MKS4" H 1838 900 50  0001 C CNN
F 3 "~" H 1800 1050 50  0001 C CNN
	1    1800 1050
	1    0    0    -1  
$EndComp
$Comp
L Device:Fuse F1
U 1 1 608BF75F
P 1250 800
F 0 "F1" V 1053 800 50  0000 C CNN
F 1 "Fuse" V 1144 800 50  0000 C CNN
F 2 "Fuse:Fuseholder_Cylinder-5x20mm_Stelvio-Kontek_PTF78_Horizontal_Open" V 1180 800 50  0001 C CNN
F 3 "~" H 1250 800 50  0001 C CNN
	1    1250 800 
	0    1    1    0   
$EndComp
Wire Wire Line
	2200 1100 2200 1300
Wire Wire Line
	2200 800  2200 900 
Wire Wire Line
	1400 800  1550 800 
Wire Wire Line
	1550 900  1550 800 
Connection ~ 1550 800 
Wire Wire Line
	1550 800  1800 800 
Wire Wire Line
	1800 900  1800 800 
Connection ~ 1800 800 
Wire Wire Line
	1800 800  2200 800 
Wire Wire Line
	2200 1300 1800 1300
Wire Wire Line
	1550 1200 1550 1300
Connection ~ 1550 1300
Wire Wire Line
	1550 1300 950  1300
Wire Wire Line
	1800 1200 1800 1300
Connection ~ 1800 1300
Wire Wire Line
	1800 1300 1550 1300
Wire Wire Line
	950  1050 950  1300
Wire Wire Line
	1100 800  950  800 
Wire Wire Line
	950  800  950  950 
Wire Notes Line
	550  2500 550  550 
Wire Notes Line
	550  550  4350 550 
Wire Notes Line
	4350 550  4350 2500
Wire Notes Line
	550  2500 4350 2500
Wire Notes Line
	11050 550  11050 3600
Wire Notes Line
	11050 3600 6650 3600
Wire Notes Line
	6650 3600 6650 550 
Wire Notes Line
	6650 550  11050 550 
$Comp
L My_Lib_KiCAD:A9_GSM_Module U11
U 1 1 60B9AC1F
P 9100 4800
F 0 "U11" H 9100 5765 50  0000 C CNN
F 1 "A9_GSM_Module" H 9100 5674 50  0000 C CNN
F 2 "BA56-12EWA(3Digit7Segment):A9_GSM_Module" H 8300 5800 50  0001 C CNN
F 3 "" H 8500 5800 50  0001 C CNN
	1    9100 4800
	1    0    0    -1  
$EndComp
$Comp
L Relay_SolidState:MOC3041M U1
U 1 1 60BC76A0
P 1650 4350
F 0 "U1" H 1650 4675 50  0000 C CNN
F 1 "MOC3041M" H 1650 4584 50  0000 C CNN
F 2 "Package_DIP:DIP-6_W7.62mm" H 1450 4150 50  0001 L CIN
F 3 "https://www.onsemi.com/pub/Collateral/MOC3043M-D.pdf" H 1650 4350 50  0001 L CNN
	1    1650 4350
	1    0    0    -1  
$EndComp
$Comp
L Triac_Thyristor:BTA16-600B Q1
U 1 1 60BC94F4
P 2650 4500
F 0 "Q1" H 2779 4546 50  0000 L CNN
F 1 "BTA16-600B" H 2779 4455 50  0000 L CNN
F 2 "Package_TO_SOT_THT:TO-220-3_Vertical" H 2850 4425 50  0001 L CIN
F 3 "https://www.st.com/resource/en/datasheet/bta16.pdf" H 2650 4500 50  0001 L CNN
	1    2650 4500
	1    0    0    -1  
$EndComp
$Comp
L Regulator_Linear:AMS1117-5.0 U4
U 1 1 60BCEE74
P 1750 1700
F 0 "U4" H 1750 1942 50  0000 C CNN
F 1 "AMS1117-5.0" H 1750 1851 50  0000 C CNN
F 2 "Package_TO_SOT_SMD:SOT-223-3_TabPin2" H 1750 1900 50  0001 C CNN
F 3 "http://www.advanced-monolithic.com/pdf/ds1117.pdf" H 1850 1450 50  0001 C CNN
	1    1750 1700
	1    0    0    -1  
$EndComp
$Comp
L power:GNDA #PWR03
U 1 1 60BE0C7F
P 850 2200
F 0 "#PWR03" H 850 1950 50  0001 C CNN
F 1 "GNDA" H 855 2027 50  0000 C CNN
F 2 "" H 850 2200 50  0001 C CNN
F 3 "" H 850 2200 50  0001 C CNN
	1    850  2200
	1    0    0    -1  
$EndComp
$Comp
L power:GNDA #PWR05
U 1 1 60BF453C
P 1250 2200
F 0 "#PWR05" H 1250 1950 50  0001 C CNN
F 1 "GNDA" H 1255 2027 50  0000 C CNN
F 2 "" H 1250 2200 50  0001 C CNN
F 3 "" H 1250 2200 50  0001 C CNN
	1    1250 2200
	1    0    0    -1  
$EndComp
$Comp
L power:GNDA #PWR010
U 1 1 60BF471E
P 1750 2200
F 0 "#PWR010" H 1750 1950 50  0001 C CNN
F 1 "GNDA" H 1755 2027 50  0000 C CNN
F 2 "" H 1750 2200 50  0001 C CNN
F 3 "" H 1750 2200 50  0001 C CNN
	1    1750 2200
	1    0    0    -1  
$EndComp
$Comp
L power:GNDA #PWR011
U 1 1 60BF4998
P 2200 2200
F 0 "#PWR011" H 2200 1950 50  0001 C CNN
F 1 "GNDA" H 2205 2027 50  0000 C CNN
F 2 "" H 2200 2200 50  0001 C CNN
F 3 "" H 2200 2200 50  0001 C CNN
	1    2200 2200
	1    0    0    -1  
$EndComp
$Comp
L power:+5VA #PWR013
U 1 1 60BF4BE1
P 2450 1650
F 0 "#PWR013" H 2450 1500 50  0001 C CNN
F 1 "+5VA" H 2465 1823 50  0000 C CNN
F 2 "" H 2450 1650 50  0001 C CNN
F 3 "" H 2450 1650 50  0001 C CNN
	1    2450 1650
	1    0    0    -1  
$EndComp
$Comp
L power:GNDA #PWR016
U 1 1 60BF56DD
P 3600 1350
F 0 "#PWR016" H 3600 1100 50  0001 C CNN
F 1 "GNDA" H 3605 1177 50  0000 C CNN
F 2 "" H 3600 1350 50  0001 C CNN
F 3 "" H 3600 1350 50  0001 C CNN
	1    3600 1350
	1    0    0    -1  
$EndComp
$Comp
L power:GNDA #PWR017
U 1 1 60BF5A83
P 3900 1350
F 0 "#PWR017" H 3900 1100 50  0001 C CNN
F 1 "GNDA" H 3905 1177 50  0000 C CNN
F 2 "" H 3900 1350 50  0001 C CNN
F 3 "" H 3900 1350 50  0001 C CNN
	1    3900 1350
	1    0    0    -1  
$EndComp
$Comp
L power:+12VA #PWR018
U 1 1 60BF61D6
P 4050 850
F 0 "#PWR018" H 4050 700 50  0001 C CNN
F 1 "+12VA" H 4065 1023 50  0000 C CNN
F 2 "" H 4050 850 50  0001 C CNN
F 3 "" H 4050 850 50  0001 C CNN
	1    4050 850 
	1    0    0    -1  
$EndComp
$Comp
L power:+12VA #PWR01
U 1 1 60BF7392
P 700 1650
F 0 "#PWR01" H 700 1500 50  0001 C CNN
F 1 "+12VA" H 715 1823 50  0000 C CNN
F 2 "" H 700 1650 50  0001 C CNN
F 3 "" H 700 1650 50  0001 C CNN
	1    700  1650
	1    0    0    -1  
$EndComp
$Comp
L My_Lib_KiCAD:EVISUN U5
U 1 1 60C115E4
P 1900 3100
F 0 "U5" H 1900 3467 50  0000 C CNN
F 1 "EVISUN" H 1900 3376 50  0000 C CNN
F 2 "My_Lib_KiCAD:EVISUN_2W" H 1750 3450 50  0001 C CNN
F 3 "" H 1700 3400 50  0001 C CNN
	1    1900 3100
	1    0    0    -1  
$EndComp
$Comp
L power:+12VA #PWR02
U 1 1 60C13147
P 700 2900
F 0 "#PWR02" H 700 2750 50  0001 C CNN
F 1 "+12VA" H 715 3073 50  0000 C CNN
F 2 "" H 700 2900 50  0001 C CNN
F 3 "" H 700 2900 50  0001 C CNN
	1    700  2900
	1    0    0    -1  
$EndComp
$Comp
L Device:CP C2
U 1 1 60C13596
P 1000 3200
F 0 "C2" H 1118 3246 50  0000 L CNN
F 1 "2.2uF" H 1118 3155 50  0000 L CNN
F 2 "Capacitor_THT:C_Radial_D6.3mm_H11.0mm_P2.50mm" H 1038 3050 50  0001 C CNN
F 3 "~" H 1000 3200 50  0001 C CNN
	1    1000 3200
	1    0    0    -1  
$EndComp
Wire Wire Line
	1500 3000 1000 3000
Wire Wire Line
	700  3000 700  2900
Wire Wire Line
	1000 3050 1000 3000
Connection ~ 1000 3000
Wire Wire Line
	1000 3000 700  3000
$Comp
L Device:CP C6
U 1 1 60C20683
P 2700 3200
F 0 "C6" H 2818 3246 50  0000 L CNN
F 1 "220uF" H 2818 3155 50  0000 L CNN
F 2 "Capacitor_THT:C_Radial_D6.3mm_H11.0mm_P2.50mm" H 2738 3050 50  0001 C CNN
F 3 "~" H 2700 3200 50  0001 C CNN
	1    2700 3200
	1    0    0    -1  
$EndComp
$Comp
L power:+5V #PWR015
U 1 1 60C20EAD
P 3100 2900
F 0 "#PWR015" H 3100 2750 50  0001 C CNN
F 1 "+5V" H 3115 3073 50  0000 C CNN
F 2 "" H 3100 2900 50  0001 C CNN
F 3 "" H 3100 2900 50  0001 C CNN
	1    3100 2900
	1    0    0    -1  
$EndComp
Wire Wire Line
	2300 3000 2700 3000
Wire Wire Line
	3100 3000 3100 2900
Wire Wire Line
	2700 3050 2700 3000
Connection ~ 2700 3000
Wire Wire Line
	2700 3000 3100 3000
$Comp
L power:GND #PWR014
U 1 1 60C2EB1F
P 2700 3450
F 0 "#PWR014" H 2700 3200 50  0001 C CNN
F 1 "GND" H 2705 3277 50  0000 C CNN
F 2 "" H 2700 3450 50  0001 C CNN
F 3 "" H 2700 3450 50  0001 C CNN
	1    2700 3450
	1    0    0    -1  
$EndComp
Wire Wire Line
	1000 3450 1000 3350
Wire Wire Line
	2700 3450 2700 3350
$Comp
L power:GND #PWR012
U 1 1 60C3C272
P 2400 3450
F 0 "#PWR012" H 2400 3200 50  0001 C CNN
F 1 "GND" H 2405 3277 50  0000 C CNN
F 2 "" H 2400 3450 50  0001 C CNN
F 3 "" H 2400 3450 50  0001 C CNN
	1    2400 3450
	1    0    0    -1  
$EndComp
Wire Wire Line
	2400 3450 2400 3200
Wire Wire Line
	2400 3200 2300 3200
Wire Wire Line
	1400 3450 1400 3200
Wire Wire Line
	1400 3200 1500 3200
$Comp
L power:GNDA #PWR04
U 1 1 60C49DDE
P 1000 3450
F 0 "#PWR04" H 1000 3200 50  0001 C CNN
F 1 "GNDA" H 1005 3277 50  0000 C CNN
F 2 "" H 1000 3450 50  0001 C CNN
F 3 "" H 1000 3450 50  0001 C CNN
	1    1000 3450
	1    0    0    -1  
$EndComp
$Comp
L power:GNDA #PWR09
U 1 1 60C4A0EC
P 1400 3450
F 0 "#PWR09" H 1400 3200 50  0001 C CNN
F 1 "GNDA" H 1405 3277 50  0000 C CNN
F 2 "" H 1400 3450 50  0001 C CNN
F 3 "" H 1400 3450 50  0001 C CNN
	1    1400 3450
	1    0    0    -1  
$EndComp
$Comp
L power:GND #PWR053
U 1 1 60C4C099
P 10250 5700
F 0 "#PWR053" H 10250 5450 50  0001 C CNN
F 1 "GND" H 10255 5527 50  0000 C CNN
F 2 "" H 10250 5700 50  0001 C CNN
F 3 "" H 10250 5700 50  0001 C CNN
	1    10250 5700
	1    0    0    -1  
$EndComp
$Comp
L power:+5V #PWR054
U 1 1 60C4C4A2
P 10600 5450
F 0 "#PWR054" H 10600 5300 50  0001 C CNN
F 1 "+5V" H 10615 5623 50  0000 C CNN
F 2 "" H 10600 5450 50  0001 C CNN
F 3 "" H 10600 5450 50  0001 C CNN
	1    10600 5450
	1    0    0    -1  
$EndComp
Wire Wire Line
	10100 5500 10600 5500
Wire Wire Line
	10100 5600 10250 5600
Wire Wire Line
	10250 5600 10250 5700
Wire Wire Line
	7650 4800 8100 4800
Wire Wire Line
	8100 4700 7650 4700
Wire Wire Line
	8100 4600 7650 4600
$Comp
L Device:R R1
U 1 1 60C7A3BA
P 2250 4850
F 0 "R1" H 2350 4750 50  0000 L CNN
F 1 "330R" H 2300 4850 50  0000 L CNN
F 2 "Resistor_THT:R_Axial_DIN0207_L6.3mm_D2.5mm_P7.62mm_Horizontal" V 2180 4850 50  0001 C CNN
F 3 "~" H 2250 4850 50  0001 C CNN
	1    2250 4850
	-1   0    0    1   
$EndComp
$Comp
L Device:R R4
U 1 1 60C7B629
P 2350 4250
F 0 "R4" V 2550 4250 50  0000 L CNN
F 1 "470R" V 2450 4200 50  0000 L CNN
F 2 "Resistor_THT:R_Axial_DIN0207_L6.3mm_D2.5mm_P7.62mm_Horizontal" V 2280 4250 50  0001 C CNN
F 3 "~" H 2350 4250 50  0001 C CNN
	1    2350 4250
	0    -1   -1   0   
$EndComp
Text Label 10900 4900 2    50   ~ 0
HST_RX
Text Label 10500 4900 2    50   ~ 0
HST_TX
$Comp
L Connector:Screw_Terminal_01x02 J7
U 1 1 60C8BB4A
P 7400 4200
F 0 "J7" H 7450 3900 50  0000 C CNN
F 1 "BATT" H 7350 4000 50  0000 C CNN
F 2 "TerminalBlock:TerminalBlock_bornier-2_P5.08mm" H 7400 4200 50  0001 C CNN
F 3 "~" H 7400 4200 50  0001 C CNN
	1    7400 4200
	-1   0    0    1   
$EndComp
Wire Wire Line
	8100 4200 7600 4200
$Comp
L power:GND #PWR041
U 1 1 60C95D53
P 7700 4250
F 0 "#PWR041" H 7700 4000 50  0001 C CNN
F 1 "GND" H 7705 4077 50  0000 C CNN
F 2 "" H 7700 4250 50  0001 C CNN
F 3 "" H 7700 4250 50  0001 C CNN
	1    7700 4250
	1    0    0    -1  
$EndComp
Wire Wire Line
	950  4250 1350 4250
$Comp
L power:GND #PWR06
U 1 1 60CAEB64
P 1250 4550
F 0 "#PWR06" H 1250 4300 50  0001 C CNN
F 1 "GND" H 1255 4377 50  0000 C CNN
F 2 "" H 1250 4550 50  0001 C CNN
F 3 "" H 1250 4550 50  0001 C CNN
	1    1250 4550
	1    0    0    -1  
$EndComp
Wire Wire Line
	1250 4550 1250 4450
Wire Wire Line
	1250 4450 1350 4450
Wire Wire Line
	2500 4600 2250 4600
Wire Wire Line
	2050 4600 2050 4450
Wire Wire Line
	2050 4450 1950 4450
Wire Wire Line
	1950 4250 2200 4250
Wire Wire Line
	2250 4700 2250 4600
Connection ~ 2250 4600
Wire Wire Line
	2250 4600 2050 4600
$Comp
L Connector:Screw_Terminal_01x02 J2
U 1 1 60CD24BC
P 3600 4400
F 0 "J2" H 3600 4600 50  0000 C CNN
F 1 "L1_OUT" H 3600 4500 50  0000 C CNN
F 2 "TerminalBlock:TerminalBlock_bornier-2_P5.08mm" H 3600 4400 50  0001 C CNN
F 3 "~" H 3600 4400 50  0001 C CNN
	1    3600 4400
	1    0    0    -1  
$EndComp
Wire Wire Line
	3400 4400 3300 4400
Wire Wire Line
	3300 4400 3300 4250
Wire Wire Line
	2500 4250 2650 4250
Wire Wire Line
	3400 4500 3250 4500
Wire Wire Line
	3250 4500 3250 5100
Wire Wire Line
	3250 5100 2650 5100
Wire Wire Line
	2250 5100 2250 5000
Wire Wire Line
	2650 4350 2650 4250
Connection ~ 2650 4250
Wire Wire Line
	2650 4250 3300 4250
Wire Wire Line
	2650 4650 2650 5100
Connection ~ 2650 5100
Wire Wire Line
	2650 5100 2250 5100
$Comp
L Relay_SolidState:MOC3041M U2
U 1 1 60D14CB8
P 1650 5550
F 0 "U2" H 1650 5875 50  0000 C CNN
F 1 "MOC3041M" H 1650 5784 50  0000 C CNN
F 2 "Package_DIP:DIP-6_W7.62mm" H 1450 5350 50  0001 L CIN
F 3 "https://www.onsemi.com/pub/Collateral/MOC3043M-D.pdf" H 1650 5550 50  0001 L CNN
	1    1650 5550
	1    0    0    -1  
$EndComp
$Comp
L Triac_Thyristor:BTA16-600B Q2
U 1 1 60D14CBE
P 2650 5700
F 0 "Q2" H 2779 5746 50  0000 L CNN
F 1 "BTA16-600B" H 2779 5655 50  0000 L CNN
F 2 "Package_TO_SOT_THT:TO-220-3_Vertical" H 2850 5625 50  0001 L CIN
F 3 "https://www.st.com/resource/en/datasheet/bta16.pdf" H 2650 5700 50  0001 L CNN
	1    2650 5700
	1    0    0    -1  
$EndComp
$Comp
L Device:R R2
U 1 1 60D14CC4
P 2250 6050
F 0 "R2" H 2350 5950 50  0000 L CNN
F 1 "330R" H 2300 6050 50  0000 L CNN
F 2 "Resistor_THT:R_Axial_DIN0207_L6.3mm_D2.5mm_P7.62mm_Horizontal" V 2180 6050 50  0001 C CNN
F 3 "~" H 2250 6050 50  0001 C CNN
	1    2250 6050
	-1   0    0    1   
$EndComp
$Comp
L Device:R R5
U 1 1 60D14CCA
P 2350 5450
F 0 "R5" V 2550 5450 50  0000 L CNN
F 1 "470R" V 2450 5400 50  0000 L CNN
F 2 "Resistor_THT:R_Axial_DIN0207_L6.3mm_D2.5mm_P7.62mm_Horizontal" V 2280 5450 50  0001 C CNN
F 3 "~" H 2350 5450 50  0001 C CNN
	1    2350 5450
	0    -1   -1   0   
$EndComp
Wire Wire Line
	950  5450 1350 5450
$Comp
L power:GND #PWR07
U 1 1 60D14CD2
P 1250 5750
F 0 "#PWR07" H 1250 5500 50  0001 C CNN
F 1 "GND" H 1255 5577 50  0000 C CNN
F 2 "" H 1250 5750 50  0001 C CNN
F 3 "" H 1250 5750 50  0001 C CNN
	1    1250 5750
	1    0    0    -1  
$EndComp
Wire Wire Line
	1250 5750 1250 5650
Wire Wire Line
	1250 5650 1350 5650
Wire Wire Line
	2500 5800 2250 5800
Wire Wire Line
	2050 5800 2050 5650
Wire Wire Line
	2050 5650 1950 5650
Wire Wire Line
	1950 5450 2200 5450
Wire Wire Line
	2250 5900 2250 5800
Connection ~ 2250 5800
Wire Wire Line
	2250 5800 2050 5800
$Comp
L Connector:Screw_Terminal_01x02 J3
U 1 1 60D14CE1
P 3600 5600
F 0 "J3" H 3600 5800 50  0000 C CNN
F 1 "L2_OUT" H 3600 5700 50  0000 C CNN
F 2 "TerminalBlock:TerminalBlock_bornier-2_P5.08mm" H 3600 5600 50  0001 C CNN
F 3 "~" H 3600 5600 50  0001 C CNN
	1    3600 5600
	1    0    0    -1  
$EndComp
Wire Wire Line
	3400 5600 3300 5600
Wire Wire Line
	3300 5600 3300 5450
Wire Wire Line
	2500 5450 2650 5450
Wire Wire Line
	3400 5700 3250 5700
Wire Wire Line
	3250 5700 3250 6300
Wire Wire Line
	3250 6300 2650 6300
Wire Wire Line
	2250 6300 2250 6200
Wire Wire Line
	2650 5550 2650 5450
Connection ~ 2650 5450
Wire Wire Line
	2650 5450 3300 5450
Wire Wire Line
	2650 5850 2650 6300
Connection ~ 2650 6300
Wire Wire Line
	2650 6300 2250 6300
$Comp
L Relay_SolidState:MOC3041M U3
U 1 1 60D24D76
P 1650 6750
F 0 "U3" H 1650 7075 50  0000 C CNN
F 1 "MOC3041M" H 1650 6984 50  0000 C CNN
F 2 "Package_DIP:DIP-6_W7.62mm" H 1450 6550 50  0001 L CIN
F 3 "https://www.onsemi.com/pub/Collateral/MOC3043M-D.pdf" H 1650 6750 50  0001 L CNN
	1    1650 6750
	1    0    0    -1  
$EndComp
$Comp
L Triac_Thyristor:BTA16-600B Q3
U 1 1 60D24D7C
P 2650 6900
F 0 "Q3" H 2779 6946 50  0000 L CNN
F 1 "BTA16-600B" H 2779 6855 50  0000 L CNN
F 2 "Package_TO_SOT_THT:TO-220-3_Vertical" H 2850 6825 50  0001 L CIN
F 3 "https://www.st.com/resource/en/datasheet/bta16.pdf" H 2650 6900 50  0001 L CNN
	1    2650 6900
	1    0    0    -1  
$EndComp
$Comp
L Device:R R3
U 1 1 60D24D82
P 2250 7250
F 0 "R3" H 2350 7150 50  0000 L CNN
F 1 "330R" H 2300 7250 50  0000 L CNN
F 2 "Resistor_THT:R_Axial_DIN0207_L6.3mm_D2.5mm_P7.62mm_Horizontal" V 2180 7250 50  0001 C CNN
F 3 "~" H 2250 7250 50  0001 C CNN
	1    2250 7250
	-1   0    0    1   
$EndComp
$Comp
L Device:R R6
U 1 1 60D24D88
P 2350 6650
F 0 "R6" V 2550 6650 50  0000 L CNN
F 1 "470R" V 2450 6600 50  0000 L CNN
F 2 "Resistor_THT:R_Axial_DIN0207_L6.3mm_D2.5mm_P7.62mm_Horizontal" V 2280 6650 50  0001 C CNN
F 3 "~" H 2350 6650 50  0001 C CNN
	1    2350 6650
	0    -1   -1   0   
$EndComp
Wire Wire Line
	950  6650 1350 6650
$Comp
L power:GND #PWR08
U 1 1 60D24D90
P 1250 6950
F 0 "#PWR08" H 1250 6700 50  0001 C CNN
F 1 "GND" H 1255 6777 50  0000 C CNN
F 2 "" H 1250 6950 50  0001 C CNN
F 3 "" H 1250 6950 50  0001 C CNN
	1    1250 6950
	1    0    0    -1  
$EndComp
Wire Wire Line
	1250 6950 1250 6850
Wire Wire Line
	1250 6850 1350 6850
Wire Wire Line
	2500 7000 2250 7000
Wire Wire Line
	2050 7000 2050 6850
Wire Wire Line
	2050 6850 1950 6850
Wire Wire Line
	1950 6650 2200 6650
Wire Wire Line
	2250 7100 2250 7000
Connection ~ 2250 7000
Wire Wire Line
	2250 7000 2050 7000
$Comp
L Connector:Screw_Terminal_01x02 J4
U 1 1 60D24D9F
P 3600 6800
F 0 "J4" H 3600 7000 50  0000 C CNN
F 1 "L3_OUT" H 3600 6900 50  0000 C CNN
F 2 "TerminalBlock:TerminalBlock_bornier-2_P5.08mm" H 3600 6800 50  0001 C CNN
F 3 "~" H 3600 6800 50  0001 C CNN
	1    3600 6800
	1    0    0    -1  
$EndComp
Wire Wire Line
	3400 6800 3300 6800
Wire Wire Line
	3300 6800 3300 6650
Wire Wire Line
	2500 6650 2650 6650
Wire Wire Line
	3400 6900 3250 6900
Wire Wire Line
	3250 6900 3250 7500
Wire Wire Line
	3250 7500 2650 7500
Wire Wire Line
	2250 7500 2250 7400
Wire Wire Line
	2650 6750 2650 6650
Connection ~ 2650 6650
Wire Wire Line
	2650 6650 3300 6650
Wire Wire Line
	2650 7050 2650 7500
Connection ~ 2650 7500
Wire Wire Line
	2650 7500 2250 7500
$Comp
L power:+5V #PWR037
U 1 1 60103A68
P 7000 950
F 0 "#PWR037" H 7000 800 50  0001 C CNN
F 1 "+5V" H 7015 1123 50  0000 C CNN
F 2 "" H 7000 950 50  0001 C CNN
F 3 "" H 7000 950 50  0001 C CNN
	1    7000 950 
	1    0    0    -1  
$EndComp
$Comp
L power:+5V #PWR038
U 1 1 60104613
P 7000 2300
F 0 "#PWR038" H 7000 2150 50  0001 C CNN
F 1 "+5V" H 7015 2473 50  0000 C CNN
F 2 "" H 7000 2300 50  0001 C CNN
F 3 "" H 7000 2300 50  0001 C CNN
	1    7000 2300
	1    0    0    -1  
$EndComp
Wire Wire Line
	7600 4100 7700 4100
Wire Wire Line
	7700 4250 7700 4100
Connection ~ 7700 4100
Wire Wire Line
	7700 4100 8100 4100
Text Label 4950 6700 0    50   ~ 0
HST_RX
Text Label 4950 6800 0    50   ~ 0
HST_TX
$Comp
L power:+5V #PWR025
U 1 1 60215690
P 5200 6400
F 0 "#PWR025" H 5200 6250 50  0001 C CNN
F 1 "+5V" H 5215 6573 50  0000 C CNN
F 2 "" H 5200 6400 50  0001 C CNN
F 3 "" H 5200 6400 50  0001 C CNN
	1    5200 6400
	1    0    0    -1  
$EndComp
$Comp
L power:GND #PWR022
U 1 1 60215AE8
P 4700 6650
F 0 "#PWR022" H 4700 6400 50  0001 C CNN
F 1 "GND" H 4705 6477 50  0000 C CNN
F 2 "" H 4700 6650 50  0001 C CNN
F 3 "" H 4700 6650 50  0001 C CNN
	1    4700 6650
	1    0    0    -1  
$EndComp
Wire Wire Line
	5300 6800 4950 6800
Wire Wire Line
	5300 6700 4950 6700
$Comp
L Connector:Screw_Terminal_01x04 J6
U 1 1 602B0E45
P 5800 1000
F 0 "J6" H 5880 992 50  0000 L CNN
F 1 "DI_INPUTs" H 5880 901 50  0000 L CNN
F 2 "TerminalBlock:TerminalBlock_bornier-4_P5.08mm" H 5800 1000 50  0001 C CNN
F 3 "~" H 5800 1000 50  0001 C CNN
	1    5800 1000
	1    0    0    -1  
$EndComp
$Comp
L power:+12VA #PWR027
U 1 1 602B2A58
P 5450 800
F 0 "#PWR027" H 5450 650 50  0001 C CNN
F 1 "+12VA" H 5465 973 50  0000 C CNN
F 2 "" H 5450 800 50  0001 C CNN
F 3 "" H 5450 800 50  0001 C CNN
	1    5450 800 
	1    0    0    -1  
$EndComp
Wire Wire Line
	5600 900  5450 900 
Wire Wire Line
	5450 900  5450 800 
Text Label 5200 1000 0    50   ~ 0
DI0
Wire Wire Line
	5200 1000 5600 1000
Text Label 5200 1100 0    50   ~ 0
DI1
Text Label 5200 1200 0    50   ~ 0
DI2
Wire Wire Line
	5200 1100 5600 1100
Wire Wire Line
	5200 1200 5600 1200
$Comp
L Isolator:PC817 U8
U 1 1 602DF372
P 5550 2050
F 0 "U8" H 5550 2375 50  0000 C CNN
F 1 "PC817" H 5550 2284 50  0000 C CNN
F 2 "Package_DIP:DIP-4_W7.62mm" H 5350 1850 50  0001 L CIN
F 3 "http://www.soselectronic.cz/a_info/resource/d/pc817.pdf" H 5550 2050 50  0001 L CNN
	1    5550 2050
	1    0    0    -1  
$EndComp
$Comp
L Device:R R10
U 1 1 602E01B7
P 4950 1950
F 0 "R10" V 5150 1950 50  0000 L CNN
F 1 "10k" V 5050 1900 50  0000 L CNN
F 2 "Resistor_THT:R_Axial_DIN0207_L6.3mm_D2.5mm_P7.62mm_Horizontal" V 4880 1950 50  0001 C CNN
F 3 "~" H 4950 1950 50  0001 C CNN
	1    4950 1950
	0    -1   -1   0   
$EndComp
Wire Wire Line
	5250 1950 5100 1950
Text Label 4550 1950 0    50   ~ 0
DI0
Wire Wire Line
	4550 1950 4800 1950
$Comp
L power:GNDA #PWR024
U 1 1 602F69BA
P 5150 2250
F 0 "#PWR024" H 5150 2000 50  0001 C CNN
F 1 "GNDA" H 5155 2077 50  0000 C CNN
F 2 "" H 5150 2250 50  0001 C CNN
F 3 "" H 5150 2250 50  0001 C CNN
	1    5150 2250
	1    0    0    -1  
$EndComp
Wire Wire Line
	5250 2150 5150 2150
Wire Wire Line
	5150 2150 5150 2250
$Comp
L power:+5V #PWR031
U 1 1 603029EC
P 5900 1800
F 0 "#PWR031" H 5900 1650 50  0001 C CNN
F 1 "+5V" H 5915 1973 50  0000 C CNN
F 2 "" H 5900 1800 50  0001 C CNN
F 3 "" H 5900 1800 50  0001 C CNN
	1    5900 1800
	1    0    0    -1  
$EndComp
Wire Wire Line
	5850 1950 5900 1950
Wire Wire Line
	5900 1950 5900 1800
$Comp
L Device:R R15
U 1 1 6030F2E3
P 6100 2450
F 0 "R15" H 6200 2350 50  0000 L CNN
F 1 "4.7k" H 6150 2450 50  0000 L CNN
F 2 "Resistor_THT:R_Axial_DIN0207_L6.3mm_D2.5mm_P7.62mm_Horizontal" V 6030 2450 50  0001 C CNN
F 3 "~" H 6100 2450 50  0001 C CNN
	1    6100 2450
	-1   0    0    1   
$EndComp
Wire Wire Line
	5850 2150 6100 2150
Wire Wire Line
	6100 2150 6100 2300
$Comp
L Device:R R16
U 1 1 6031B888
P 6100 2950
F 0 "R16" H 6200 2850 50  0000 L CNN
F 1 "3.3k" H 6150 2950 50  0000 L CNN
F 2 "Resistor_THT:R_Axial_DIN0207_L6.3mm_D2.5mm_P7.62mm_Horizontal" V 6030 2950 50  0001 C CNN
F 3 "~" H 6100 2950 50  0001 C CNN
	1    6100 2950
	-1   0    0    1   
$EndComp
$Comp
L power:GND #PWR032
U 1 1 6031BC07
P 6100 3200
F 0 "#PWR032" H 6100 2950 50  0001 C CNN
F 1 "GND" H 6105 3027 50  0000 C CNN
F 2 "" H 6100 3200 50  0001 C CNN
F 3 "" H 6100 3200 50  0001 C CNN
	1    6100 3200
	1    0    0    -1  
$EndComp
Wire Wire Line
	6100 3200 6100 3100
Wire Wire Line
	6100 2800 6100 2700
Text Label 6450 2700 2    50   ~ 0
IO0
Wire Wire Line
	6450 2700 6100 2700
Connection ~ 6100 2700
Wire Wire Line
	6100 2700 6100 2600
$Comp
L Device:LED D3
U 1 1 60341163
P 8000 6300
F 0 "D3" V 8039 6182 50  0000 R CNN
F 1 "LED" V 7948 6182 50  0000 R CNN
F 2 "LED_THT:LED_D5.0mm" H 8000 6300 50  0001 C CNN
F 3 "~" H 8000 6300 50  0001 C CNN
	1    8000 6300
	0    -1   -1   0   
$EndComp
$Comp
L Device:LED D2
U 1 1 603433F8
P 7700 6300
F 0 "D2" V 7739 6182 50  0000 R CNN
F 1 "LED" V 7648 6182 50  0000 R CNN
F 2 "LED_THT:LED_D5.0mm" H 7700 6300 50  0001 C CNN
F 3 "~" H 7700 6300 50  0001 C CNN
	1    7700 6300
	0    -1   -1   0   
$EndComp
$Comp
L Device:LED D1
U 1 1 603437F8
P 7400 6300
F 0 "D1" V 7439 6182 50  0000 R CNN
F 1 "LED" V 7348 6182 50  0000 R CNN
F 2 "LED_THT:LED_D5.0mm" H 7400 6300 50  0001 C CNN
F 3 "~" H 7400 6300 50  0001 C CNN
	1    7400 6300
	0    -1   -1   0   
$EndComp
$Comp
L Device:R R25
U 1 1 60343CEF
P 8000 5900
F 0 "R25" H 8100 5800 50  0000 L CNN
F 1 "120R" H 8050 5900 50  0000 L CNN
F 2 "Resistor_THT:R_Axial_DIN0207_L6.3mm_D2.5mm_P2.54mm_Vertical" V 7930 5900 50  0001 C CNN
F 3 "~" H 8000 5900 50  0001 C CNN
	1    8000 5900
	-1   0    0    1   
$EndComp
$Comp
L Device:R R22
U 1 1 60344123
P 7700 5900
F 0 "R22" H 7800 5800 50  0000 L CNN
F 1 "120R" H 7750 5900 50  0000 L CNN
F 2 "Resistor_THT:R_Axial_DIN0207_L6.3mm_D2.5mm_P2.54mm_Vertical" V 7630 5900 50  0001 C CNN
F 3 "~" H 7700 5900 50  0001 C CNN
	1    7700 5900
	-1   0    0    1   
$EndComp
$Comp
L Device:R R21
U 1 1 603443CB
P 7400 5900
F 0 "R21" H 7500 5800 50  0000 L CNN
F 1 "120R" H 7450 5900 50  0000 L CNN
F 2 "Resistor_THT:R_Axial_DIN0207_L6.3mm_D2.5mm_P2.54mm_Vertical" V 7330 5900 50  0001 C CNN
F 3 "~" H 7400 5900 50  0001 C CNN
	1    7400 5900
	-1   0    0    1   
$EndComp
Wire Wire Line
	7400 6150 7400 6050
Wire Wire Line
	7700 6150 7700 6050
Wire Wire Line
	8000 6150 8000 6050
$Comp
L power:GND #PWR040
U 1 1 603A11E9
P 7400 6550
F 0 "#PWR040" H 7400 6300 50  0001 C CNN
F 1 "GND" H 7405 6377 50  0000 C CNN
F 2 "" H 7400 6550 50  0001 C CNN
F 3 "" H 7400 6550 50  0001 C CNN
	1    7400 6550
	1    0    0    -1  
$EndComp
$Comp
L power:GND #PWR042
U 1 1 603A17D9
P 7700 6550
F 0 "#PWR042" H 7700 6300 50  0001 C CNN
F 1 "GND" H 7705 6377 50  0000 C CNN
F 2 "" H 7700 6550 50  0001 C CNN
F 3 "" H 7700 6550 50  0001 C CNN
	1    7700 6550
	1    0    0    -1  
$EndComp
$Comp
L power:GND #PWR046
U 1 1 603A1990
P 8000 6550
F 0 "#PWR046" H 8000 6300 50  0001 C CNN
F 1 "GND" H 8005 6377 50  0000 C CNN
F 2 "" H 8000 6550 50  0001 C CNN
F 3 "" H 8000 6550 50  0001 C CNN
	1    8000 6550
	1    0    0    -1  
$EndComp
Wire Wire Line
	7400 6550 7400 6450
Wire Wire Line
	7700 6550 7700 6450
Wire Wire Line
	8000 6550 8000 6450
$Comp
L Isolator:PC817 U7
U 1 1 603FBF27
P 5150 3250
F 0 "U7" H 5150 3575 50  0000 C CNN
F 1 "PC817" H 5150 3484 50  0000 C CNN
F 2 "Package_DIP:DIP-4_W7.62mm" H 4950 3050 50  0001 L CIN
F 3 "http://www.soselectronic.cz/a_info/resource/d/pc817.pdf" H 5150 3250 50  0001 L CNN
	1    5150 3250
	1    0    0    -1  
$EndComp
$Comp
L Device:R R9
U 1 1 603FBF2D
P 4550 3150
F 0 "R9" V 4750 3150 50  0000 L CNN
F 1 "10k" V 4650 3100 50  0000 L CNN
F 2 "Resistor_THT:R_Axial_DIN0207_L6.3mm_D2.5mm_P7.62mm_Horizontal" V 4480 3150 50  0001 C CNN
F 3 "~" H 4550 3150 50  0001 C CNN
	1    4550 3150
	0    -1   -1   0   
$EndComp
Wire Wire Line
	4850 3150 4700 3150
Text Label 4150 3150 0    50   ~ 0
DI1
Wire Wire Line
	4150 3150 4400 3150
$Comp
L power:GNDA #PWR023
U 1 1 603FBF36
P 4750 3450
F 0 "#PWR023" H 4750 3200 50  0001 C CNN
F 1 "GNDA" H 4755 3277 50  0000 C CNN
F 2 "" H 4750 3450 50  0001 C CNN
F 3 "" H 4750 3450 50  0001 C CNN
	1    4750 3450
	1    0    0    -1  
$EndComp
Wire Wire Line
	4850 3350 4750 3350
Wire Wire Line
	4750 3350 4750 3450
$Comp
L power:+5V #PWR028
U 1 1 603FBF3E
P 5500 3000
F 0 "#PWR028" H 5500 2850 50  0001 C CNN
F 1 "+5V" H 5515 3173 50  0000 C CNN
F 2 "" H 5500 3000 50  0001 C CNN
F 3 "" H 5500 3000 50  0001 C CNN
	1    5500 3000
	1    0    0    -1  
$EndComp
Wire Wire Line
	5450 3150 5500 3150
Wire Wire Line
	5500 3150 5500 3000
$Comp
L Device:R R13
U 1 1 603FBF46
P 5700 3650
F 0 "R13" H 5800 3550 50  0000 L CNN
F 1 "4.7k" H 5750 3650 50  0000 L CNN
F 2 "Resistor_THT:R_Axial_DIN0207_L6.3mm_D2.5mm_P7.62mm_Horizontal" V 5630 3650 50  0001 C CNN
F 3 "~" H 5700 3650 50  0001 C CNN
	1    5700 3650
	-1   0    0    1   
$EndComp
Wire Wire Line
	5450 3350 5700 3350
Wire Wire Line
	5700 3350 5700 3500
$Comp
L Device:R R14
U 1 1 603FBF4E
P 5700 4150
F 0 "R14" H 5800 4050 50  0000 L CNN
F 1 "3.3k" H 5750 4150 50  0000 L CNN
F 2 "Resistor_THT:R_Axial_DIN0207_L6.3mm_D2.5mm_P7.62mm_Horizontal" V 5630 4150 50  0001 C CNN
F 3 "~" H 5700 4150 50  0001 C CNN
	1    5700 4150
	-1   0    0    1   
$EndComp
$Comp
L power:GND #PWR030
U 1 1 603FBF54
P 5700 4400
F 0 "#PWR030" H 5700 4150 50  0001 C CNN
F 1 "GND" H 5705 4227 50  0000 C CNN
F 2 "" H 5700 4400 50  0001 C CNN
F 3 "" H 5700 4400 50  0001 C CNN
	1    5700 4400
	1    0    0    -1  
$EndComp
Wire Wire Line
	5700 4400 5700 4300
Wire Wire Line
	5700 4000 5700 3900
Text Label 6050 3900 2    50   ~ 0
IO1
Wire Wire Line
	6050 3900 5700 3900
Connection ~ 5700 3900
Wire Wire Line
	5700 3900 5700 3800
$Comp
L Isolator:PC817 U6
U 1 1 6040D403
P 5000 4750
F 0 "U6" H 5000 5075 50  0000 C CNN
F 1 "PC817" H 5000 4984 50  0000 C CNN
F 2 "Package_DIP:DIP-4_W7.62mm" H 4800 4550 50  0001 L CIN
F 3 "http://www.soselectronic.cz/a_info/resource/d/pc817.pdf" H 5000 4750 50  0001 L CNN
	1    5000 4750
	1    0    0    -1  
$EndComp
$Comp
L Device:R R8
U 1 1 6040D409
P 4400 4650
F 0 "R8" V 4600 4650 50  0000 L CNN
F 1 "10k" V 4500 4600 50  0000 L CNN
F 2 "Resistor_THT:R_Axial_DIN0207_L6.3mm_D2.5mm_P7.62mm_Horizontal" V 4330 4650 50  0001 C CNN
F 3 "~" H 4400 4650 50  0001 C CNN
	1    4400 4650
	0    -1   -1   0   
$EndComp
Wire Wire Line
	4700 4650 4550 4650
Text Label 4000 4650 0    50   ~ 0
DI2
Wire Wire Line
	4000 4650 4250 4650
$Comp
L power:GNDA #PWR021
U 1 1 6040D412
P 4600 4950
F 0 "#PWR021" H 4600 4700 50  0001 C CNN
F 1 "GNDA" H 4605 4777 50  0000 C CNN
F 2 "" H 4600 4950 50  0001 C CNN
F 3 "" H 4600 4950 50  0001 C CNN
	1    4600 4950
	1    0    0    -1  
$EndComp
Wire Wire Line
	4700 4850 4600 4850
Wire Wire Line
	4600 4850 4600 4950
$Comp
L power:+5V #PWR026
U 1 1 6040D41A
P 5350 4500
F 0 "#PWR026" H 5350 4350 50  0001 C CNN
F 1 "+5V" H 5365 4673 50  0000 C CNN
F 2 "" H 5350 4500 50  0001 C CNN
F 3 "" H 5350 4500 50  0001 C CNN
	1    5350 4500
	1    0    0    -1  
$EndComp
Wire Wire Line
	5300 4650 5350 4650
Wire Wire Line
	5350 4650 5350 4500
$Comp
L Device:R R11
U 1 1 6040D422
P 5550 5150
F 0 "R11" H 5650 5050 50  0000 L CNN
F 1 "4.7k" H 5600 5150 50  0000 L CNN
F 2 "Resistor_THT:R_Axial_DIN0207_L6.3mm_D2.5mm_P7.62mm_Horizontal" V 5480 5150 50  0001 C CNN
F 3 "~" H 5550 5150 50  0001 C CNN
	1    5550 5150
	-1   0    0    1   
$EndComp
Wire Wire Line
	5300 4850 5550 4850
Wire Wire Line
	5550 4850 5550 5000
$Comp
L Device:R R12
U 1 1 6040D42A
P 5550 5650
F 0 "R12" H 5650 5550 50  0000 L CNN
F 1 "3.3k" H 5600 5650 50  0000 L CNN
F 2 "Resistor_THT:R_Axial_DIN0207_L6.3mm_D2.5mm_P7.62mm_Horizontal" V 5480 5650 50  0001 C CNN
F 3 "~" H 5550 5650 50  0001 C CNN
	1    5550 5650
	-1   0    0    1   
$EndComp
$Comp
L power:GND #PWR029
U 1 1 6040D430
P 5550 5900
F 0 "#PWR029" H 5550 5650 50  0001 C CNN
F 1 "GND" H 5555 5727 50  0000 C CNN
F 2 "" H 5550 5900 50  0001 C CNN
F 3 "" H 5550 5900 50  0001 C CNN
	1    5550 5900
	1    0    0    -1  
$EndComp
Wire Wire Line
	5550 5900 5550 5800
Wire Wire Line
	5550 5500 5550 5400
Text Label 5900 5400 2    50   ~ 0
IO2
Wire Wire Line
	5900 5400 5550 5400
Connection ~ 5550 5400
Wire Wire Line
	5550 5400 5550 5300
Wire Wire Line
	8100 5600 8000 5600
Wire Wire Line
	8000 5600 8000 5750
Wire Wire Line
	8100 5500 7700 5500
Wire Wire Line
	7700 5500 7700 5750
Wire Wire Line
	8100 5400 7400 5400
Wire Wire Line
	7400 5400 7400 5750
Text Label 7650 5100 0    50   ~ 0
IO2
Wire Wire Line
	7650 5100 8100 5100
Text Label 7650 5000 0    50   ~ 0
IO1
Text Label 7650 4900 0    50   ~ 0
IO0
Wire Wire Line
	7650 5000 8100 5000
Wire Wire Line
	7650 4900 8100 4900
Text Label 10500 4300 2    50   ~ 0
BUTTON
Wire Wire Line
	10500 4300 10100 4300
$Comp
L Switch:SW_Push SW1
U 1 1 60586E85
P 4150 6250
F 0 "SW1" V 4104 6398 50  0000 L CNN
F 1 "SW_Push" V 4195 6398 50  0000 L CNN
F 2 "Button_Switch_THT:SW_PUSH_6mm" H 4150 6450 50  0001 C CNN
F 3 "~" H 4150 6450 50  0001 C CNN
	1    4150 6250
	0    1    1    0   
$EndComp
$Comp
L Device:R R7
U 1 1 60589426
P 4150 5750
F 0 "R7" H 4250 5650 50  0000 L CNN
F 1 "1k" H 4200 5750 50  0000 L CNN
F 2 "Resistor_THT:R_Axial_DIN0207_L6.3mm_D2.5mm_P7.62mm_Horizontal" V 4080 5750 50  0001 C CNN
F 3 "~" H 4150 5750 50  0001 C CNN
	1    4150 5750
	-1   0    0    1   
$EndComp
$Comp
L power:+5V #PWR019
U 1 1 6059A7F8
P 4150 5500
F 0 "#PWR019" H 4150 5350 50  0001 C CNN
F 1 "+5V" H 4165 5673 50  0000 C CNN
F 2 "" H 4150 5500 50  0001 C CNN
F 3 "" H 4150 5500 50  0001 C CNN
	1    4150 5500
	1    0    0    -1  
$EndComp
Wire Wire Line
	4150 5600 4150 5500
$Comp
L power:GND #PWR020
U 1 1 605AB73D
P 4150 6550
F 0 "#PWR020" H 4150 6300 50  0001 C CNN
F 1 "GND" H 4155 6377 50  0000 C CNN
F 2 "" H 4150 6550 50  0001 C CNN
F 3 "" H 4150 6550 50  0001 C CNN
	1    4150 6550
	1    0    0    -1  
$EndComp
Wire Wire Line
	4150 6550 4150 6450
Wire Wire Line
	4150 6050 4150 6000
Text Label 3750 6000 0    50   ~ 0
BUTTON
Wire Wire Line
	3750 6000 4150 6000
Connection ~ 4150 6000
Wire Wire Line
	4150 6000 4150 5900
Wire Wire Line
	1250 1700 850  1700
Connection ~ 1250 1700
Connection ~ 850  1700
Wire Wire Line
	10500 4100 10100 4100
Wire Wire Line
	10500 4200 10100 4200
Wire Wire Line
	5300 6500 4700 6500
Wire Wire Line
	4700 6500 4700 6650
Wire Wire Line
	5300 6600 5200 6600
Wire Wire Line
	5200 6600 5200 6400
$Comp
L Connector_Generic:Conn_01x06 J5
U 1 1 609F137C
P 5500 6700
F 0 "J5" H 5580 6692 50  0000 L CNN
F 1 "CONN" H 5580 6601 50  0000 L CNN
F 2 "Connector_PinHeader_2.54mm:PinHeader_1x06_P2.54mm_Vertical" H 5500 6700 50  0001 C CNN
F 3 "~" H 5500 6700 50  0001 C CNN
	1    5500 6700
	1    0    0    -1  
$EndComp
Text Label 4950 7000 0    50   ~ 0
TEMP1
Text Label 4950 6900 0    50   ~ 0
TEMP2
Wire Wire Line
	5300 6900 4950 6900
Wire Wire Line
	5300 7000 4950 7000
Text Label 10500 4700 2    50   ~ 0
TEMP1
Text Label 10500 4800 2    50   ~ 0
TEMP2
$Comp
L Device:R R17
U 1 1 60AA94CB
P 6250 6050
F 0 "R17" H 6350 5950 50  0000 L CNN
F 1 "1k" H 6300 6050 50  0000 L CNN
F 2 "Resistor_THT:R_Axial_DIN0207_L6.3mm_D2.5mm_P7.62mm_Horizontal" V 6180 6050 50  0001 C CNN
F 3 "~" H 6250 6050 50  0001 C CNN
	1    6250 6050
	-1   0    0    1   
$EndComp
$Comp
L Device:R R18
U 1 1 60AA99D3
P 6500 6050
F 0 "R18" H 6600 5950 50  0000 L CNN
F 1 "1k" H 6550 6050 50  0000 L CNN
F 2 "Resistor_THT:R_Axial_DIN0207_L6.3mm_D2.5mm_P7.62mm_Horizontal" V 6430 6050 50  0001 C CNN
F 3 "~" H 6500 6050 50  0001 C CNN
	1    6500 6050
	-1   0    0    1   
$EndComp
Text Label 5850 6400 0    50   ~ 0
TEMP2
Text Label 5850 6300 0    50   ~ 0
TEMP1
Wire Wire Line
	6250 6200 6250 6300
Wire Wire Line
	5850 6300 6250 6300
Wire Wire Line
	6500 6400 6500 6200
Wire Wire Line
	5850 6400 6500 6400
Wire Wire Line
	6250 5800 6250 5900
Wire Wire Line
	6500 5800 6500 5900
$Comp
L Device:C C8
U 1 1 5FFFB2FA
P 6900 4750
F 0 "C8" H 7015 4796 50  0000 L CNN
F 1 "104" H 7015 4705 50  0000 L CNN
F 2 "Capacitor_THT:C_Rect_L7.0mm_W3.5mm_P5.00mm" H 6938 4600 50  0001 C CNN
F 3 "~" H 6900 4750 50  0001 C CNN
	1    6900 4750
	1    0    0    -1  
$EndComp
$Comp
L power:GND #PWR036
U 1 1 5FFFC817
P 6900 5000
F 0 "#PWR036" H 6900 4750 50  0001 C CNN
F 1 "GND" H 6905 4827 50  0000 C CNN
F 2 "" H 6900 5000 50  0001 C CNN
F 3 "" H 6900 5000 50  0001 C CNN
	1    6900 5000
	1    0    0    -1  
$EndComp
$Comp
L power:+5V #PWR035
U 1 1 5FFFCAB7
P 6900 4500
F 0 "#PWR035" H 6900 4350 50  0001 C CNN
F 1 "+5V" H 6915 4673 50  0000 C CNN
F 2 "" H 6900 4500 50  0001 C CNN
F 3 "" H 6900 4500 50  0001 C CNN
	1    6900 4500
	1    0    0    -1  
$EndComp
Wire Wire Line
	6900 4600 6900 4500
Wire Wire Line
	6900 5000 6900 4900
$Sheet
S 12150 850  1850 1300
U 6018463A
F0 "A9_ESP_Max485_Iso_v0.1_sheet2" 50
F1 "A9_ESP_Max485_Iso_v0.1_sheet2.sch" 50
F2 "STX" I L 12150 1850 50 
F3 "RX1" I L 12150 1750 50 
F4 "TX1" I L 12150 1650 50 
F5 "STX_TFT" I L 12150 1550 50 
F6 "SRX" I L 12150 1950 50 
F7 "TRIAC_1" I L 12150 1450 50 
F8 "TRIAC_2" I L 12150 1350 50 
F9 "TRIAC_3" I L 12150 1250 50 
$EndSheet
Connection ~ 7000 1450
Wire Wire Line
	10500 4500 10100 4500
Wire Wire Line
	10500 4600 10100 4600
$Comp
L power:+3.3V #PWR0101
U 1 1 604305E2
P 6250 5800
F 0 "#PWR0101" H 6250 5650 50  0001 C CNN
F 1 "+3.3V" H 6265 5973 50  0000 C CNN
F 2 "" H 6250 5800 50  0001 C CNN
F 3 "" H 6250 5800 50  0001 C CNN
	1    6250 5800
	1    0    0    -1  
$EndComp
$Comp
L power:+3.3V #PWR0102
U 1 1 60430B3C
P 6500 5800
F 0 "#PWR0102" H 6500 5650 50  0001 C CNN
F 1 "+3.3V" H 6515 5973 50  0000 C CNN
F 2 "" H 6500 5800 50  0001 C CNN
F 3 "" H 6500 5800 50  0001 C CNN
	1    6500 5800
	1    0    0    -1  
$EndComp
Text Label 10500 4100 2    50   ~ 0
TX1
Text Label 6750 3200 0    50   ~ 0
TX1
Wire Wire Line
	6750 3200 7100 3200
Text Label 11800 1650 0    50   ~ 0
TX1
Wire Wire Line
	11800 1950 12150 1950
Text Label 10500 4200 2    50   ~ 0
RX1
Text Label 6700 1450 0    50   ~ 0
RX1
Wire Wire Line
	6700 1450 7000 1450
Text Label 11800 1750 0    50   ~ 0
RX1
Wire Wire Line
	11800 1650 12150 1650
Wire Wire Line
	11800 1750 12150 1750
Text Label 10500 4600 2    50   ~ 0
STX
Text Label 10500 4500 2    50   ~ 0
SRX
Text Label 7650 4600 0    50   ~ 0
TRIAC_3
Text Label 7650 4700 0    50   ~ 0
TRIAC_2
Text Label 7650 4800 0    50   ~ 0
TRIAC_1
Text Label 950  6650 0    50   ~ 0
TRIAC_3
Text Label 950  5450 0    50   ~ 0
TRIAC_2
Text Label 950  4250 0    50   ~ 0
TRIAC_1
Text Label 11800 1850 0    50   ~ 0
STX
Text Label 11800 1950 0    50   ~ 0
SRX
Wire Wire Line
	11800 1850 12150 1850
Text Label 11800 1450 0    50   ~ 0
TRIAC_1
Text Label 11800 1350 0    50   ~ 0
TRIAC_2
Text Label 11800 1250 0    50   ~ 0
TRIAC_3
Wire Wire Line
	11800 1450 12150 1450
Wire Wire Line
	11800 1350 12150 1350
Wire Wire Line
	11800 1250 12150 1250
$Comp
L Converter_ACDC:HLK-PM12 PS1
U 1 1 60617531
P 3150 1000
F 0 "PS1" H 3150 1325 50  0000 C CNN
F 1 "HLK-PM12" H 3150 1234 50  0000 C CNN
F 2 "Converter_ACDC:Converter_ACDC_HiLink_HLK-PMxx" H 3150 700 50  0001 C CNN
F 3 "http://www.hlktech.net/product_detail.php?ProId=56" H 3550 650 50  0001 C CNN
	1    3150 1000
	1    0    0    -1  
$EndComp
Text Label 10500 4400 2    50   ~ 0
STX_TFT
Wire Wire Line
	10500 4400 10100 4400
Text Label 11800 1550 0    50   ~ 0
STX_TFT
Wire Wire Line
	12150 1550 11800 1550
Wire Wire Line
	10600 5500 10600 5450
Wire Wire Line
	10100 4700 10500 4700
Wire Wire Line
	10100 4800 10500 4800
Text Label 10500 5000 2    50   ~ 0
RX1
Wire Wire Line
	10500 4900 10250 4900
Wire Wire Line
	10250 4900 10250 5000
Wire Wire Line
	10250 5100 10100 5100
Wire Wire Line
	10500 5000 10250 5000
Connection ~ 10250 5000
Wire Wire Line
	10250 5000 10250 5100
Text Label 10900 5000 2    50   ~ 0
TX1
Wire Wire Line
	10900 4900 10600 4900
Wire Wire Line
	10600 4900 10600 5000
Wire Wire Line
	10100 5200 10600 5200
Wire Wire Line
	10900 5000 10600 5000
Connection ~ 10600 5000
Wire Wire Line
	10600 5000 10600 5200
$EndSCHEMATC
