(kicad_pcb (version 20171130) (host pcbnew "(5.1.7)-1")

  (general
    (thickness 1.6)
    (drawings 12)
    (tracks 54)
    (zones 0)
    (modules 11)
    (nets 31)
  )

  (page A4)
  (layers
    (0 F.Cu signal)
    (31 B.Cu signal)
    (32 B.Adhes user)
    (33 F.Adhes user)
    (34 B.Paste user)
    (35 F.Paste user)
    (36 B.SilkS user)
    (37 F.SilkS user)
    (38 B.Mask user)
    (39 F.Mask user)
    (40 Dwgs.User user)
    (41 Cmts.User user)
    (42 Eco1.User user)
    (43 Eco2.User user)
    (44 Edge.Cuts user)
    (45 Margin user)
    (46 B.CrtYd user)
    (47 F.CrtYd user)
    (48 B.Fab user hide)
    (49 F.Fab user hide)
  )

  (setup
    (last_trace_width 1.27)
    (user_trace_width 0.254)
    (user_trace_width 0.635)
    (user_trace_width 0.762)
    (user_trace_width 1.016)
    (user_trace_width 1.27)
    (user_trace_width 1.778)
    (user_trace_width 2.54)
    (trace_clearance 0.2)
    (zone_clearance 0.508)
    (zone_45_only no)
    (trace_min 0.2)
    (via_size 0.8)
    (via_drill 0.4)
    (via_min_size 0.4)
    (via_min_drill 0.3)
    (user_via 1 0.5)
    (user_via 1.5 0.75)
    (user_via 2 1)
    (uvia_size 0.3)
    (uvia_drill 0.1)
    (uvias_allowed no)
    (uvia_min_size 0.2)
    (uvia_min_drill 0.1)
    (edge_width 0.05)
    (segment_width 0.2)
    (pcb_text_width 0.3)
    (pcb_text_size 1.5 1.5)
    (mod_edge_width 0.12)
    (mod_text_size 1 1)
    (mod_text_width 0.15)
    (pad_size 1.524 1.524)
    (pad_drill 0.762)
    (pad_to_mask_clearance 0)
    (aux_axis_origin 0 0)
    (visible_elements 7FFFFFFF)
    (pcbplotparams
      (layerselection 0x010fc_ffffffff)
      (usegerberextensions false)
      (usegerberattributes true)
      (usegerberadvancedattributes true)
      (creategerberjobfile true)
      (excludeedgelayer true)
      (linewidth 0.100000)
      (plotframeref false)
      (viasonmask false)
      (mode 1)
      (useauxorigin false)
      (hpglpennumber 1)
      (hpglpenspeed 20)
      (hpglpendiameter 15.000000)
      (psnegative false)
      (psa4output false)
      (plotreference true)
      (plotvalue true)
      (plotinvisibletext false)
      (padsonsilk false)
      (subtractmaskfromsilk false)
      (outputformat 1)
      (mirror false)
      (drillshape 1)
      (scaleselection 1)
      (outputdirectory ""))
  )

  (net 0 "")
  (net 1 GND)
  (net 2 +5V)
  (net 3 "Net-(U1-Pad20)")
  (net 4 "Net-(U1-Pad19)")
  (net 5 /SCL1)
  (net 6 /SDA1)
  (net 7 /SCL2)
  (net 8 /SDA2)
  (net 9 "Net-(U1-Pad30)")
  (net 10 "Net-(U1-Pad28)")
  (net 11 "Net-(U1-Pad18)")
  (net 12 "Net-(U1-Pad17)")
  (net 13 "Net-(U1-Pad25)")
  (net 14 "Net-(U1-Pad29)")
  (net 15 "Net-(U1-Pad27)")
  (net 16 "Net-(U1-Pad23)")
  (net 17 "Net-(U1-Pad22)")
  (net 18 "Net-(U1-Pad26)")
  (net 19 "Net-(U1-Pad24)")
  (net 20 "Net-(U1-Pad21)")
  (net 21 "Net-(U1-Pad10)")
  (net 22 "Net-(U1-Pad9)")
  (net 23 "Net-(U1-Pad4)")
  (net 24 "Net-(U1-Pad3)")
  (net 25 "Net-(U1-Pad8)")
  (net 26 "Net-(U1-Pad7)")
  (net 27 "Net-(J3-Pad1)")
  (net 28 "Net-(J3-Pad2)")
  (net 29 "Net-(J3-Pad3)")
  (net 30 "Net-(J3-Pad4)")

  (net_class Default "This is the default net class."
    (clearance 0.2)
    (trace_width 0.25)
    (via_dia 0.8)
    (via_drill 0.4)
    (uvia_dia 0.3)
    (uvia_drill 0.1)
    (add_net +5V)
    (add_net /SCL1)
    (add_net /SCL2)
    (add_net /SDA1)
    (add_net /SDA2)
    (add_net GND)
    (add_net "Net-(J3-Pad1)")
    (add_net "Net-(J3-Pad2)")
    (add_net "Net-(J3-Pad3)")
    (add_net "Net-(J3-Pad4)")
    (add_net "Net-(U1-Pad10)")
    (add_net "Net-(U1-Pad17)")
    (add_net "Net-(U1-Pad18)")
    (add_net "Net-(U1-Pad19)")
    (add_net "Net-(U1-Pad20)")
    (add_net "Net-(U1-Pad21)")
    (add_net "Net-(U1-Pad22)")
    (add_net "Net-(U1-Pad23)")
    (add_net "Net-(U1-Pad24)")
    (add_net "Net-(U1-Pad25)")
    (add_net "Net-(U1-Pad26)")
    (add_net "Net-(U1-Pad27)")
    (add_net "Net-(U1-Pad28)")
    (add_net "Net-(U1-Pad29)")
    (add_net "Net-(U1-Pad3)")
    (add_net "Net-(U1-Pad30)")
    (add_net "Net-(U1-Pad4)")
    (add_net "Net-(U1-Pad7)")
    (add_net "Net-(U1-Pad8)")
    (add_net "Net-(U1-Pad9)")
  )

  (module Connector_PinHeader_2.54mm:PinHeader_1x04_P2.54mm_Vertical (layer F.Cu) (tedit 59FED5CC) (tstamp 5FBCDF2D)
    (at 122.6566 147.9296 270)
    (descr "Through hole straight pin header, 1x04, 2.54mm pitch, single row")
    (tags "Through hole pin header THT 1x04 2.54mm single row")
    (path /5FBCB415)
    (fp_text reference J3 (at 0 -2.33 90) (layer F.SilkS)
      (effects (font (size 1 1) (thickness 0.15)))
    )
    (fp_text value Program (at 0 9.95 90) (layer F.Fab)
      (effects (font (size 1 1) (thickness 0.15)))
    )
    (fp_text user %R (at 0 3.81) (layer F.Fab)
      (effects (font (size 1 1) (thickness 0.15)))
    )
    (fp_line (start -0.635 -1.27) (end 1.27 -1.27) (layer F.Fab) (width 0.1))
    (fp_line (start 1.27 -1.27) (end 1.27 8.89) (layer F.Fab) (width 0.1))
    (fp_line (start 1.27 8.89) (end -1.27 8.89) (layer F.Fab) (width 0.1))
    (fp_line (start -1.27 8.89) (end -1.27 -0.635) (layer F.Fab) (width 0.1))
    (fp_line (start -1.27 -0.635) (end -0.635 -1.27) (layer F.Fab) (width 0.1))
    (fp_line (start -1.33 8.95) (end 1.33 8.95) (layer F.SilkS) (width 0.12))
    (fp_line (start -1.33 1.27) (end -1.33 8.95) (layer F.SilkS) (width 0.12))
    (fp_line (start 1.33 1.27) (end 1.33 8.95) (layer F.SilkS) (width 0.12))
    (fp_line (start -1.33 1.27) (end 1.33 1.27) (layer F.SilkS) (width 0.12))
    (fp_line (start -1.33 0) (end -1.33 -1.33) (layer F.SilkS) (width 0.12))
    (fp_line (start -1.33 -1.33) (end 0 -1.33) (layer F.SilkS) (width 0.12))
    (fp_line (start -1.8 -1.8) (end -1.8 9.4) (layer F.CrtYd) (width 0.05))
    (fp_line (start -1.8 9.4) (end 1.8 9.4) (layer F.CrtYd) (width 0.05))
    (fp_line (start 1.8 9.4) (end 1.8 -1.8) (layer F.CrtYd) (width 0.05))
    (fp_line (start 1.8 -1.8) (end -1.8 -1.8) (layer F.CrtYd) (width 0.05))
    (pad 4 thru_hole oval (at 0 7.62 270) (size 1.7 1.7) (drill 1) (layers *.Cu *.Mask)
      (net 30 "Net-(J3-Pad4)"))
    (pad 3 thru_hole oval (at 0 5.08 270) (size 1.7 1.7) (drill 1) (layers *.Cu *.Mask)
      (net 29 "Net-(J3-Pad3)"))
    (pad 2 thru_hole oval (at 0 2.54 270) (size 1.7 1.7) (drill 1) (layers *.Cu *.Mask)
      (net 28 "Net-(J3-Pad2)"))
    (pad 1 thru_hole rect (at 0 0 270) (size 1.7 1.7) (drill 1) (layers *.Cu *.Mask)
      (net 27 "Net-(J3-Pad1)"))
    (model ${KISYS3DMOD}/Connector_PinHeader_2.54mm.3dshapes/PinHeader_1x04_P2.54mm_Vertical.wrl
      (at (xyz 0 0 0))
      (scale (xyz 1 1 1))
      (rotate (xyz 0 0 0))
    )
  )

  (module TerminalBlock:TerminalBlock_bornier-2_P5.08mm (layer F.Cu) (tedit 59FF03AB) (tstamp 5FBC4984)
    (at 66.5988 177.8762)
    (descr "simple 2-pin terminal block, pitch 5.08mm, revamped version of bornier2")
    (tags "terminal block bornier2")
    (path /5FBDA278)
    (fp_text reference J2 (at 2.54 -5.08) (layer F.SilkS)
      (effects (font (size 1 1) (thickness 0.15)))
    )
    (fp_text value PowerIN+5V (at 2.54 5.08) (layer F.Fab)
      (effects (font (size 1 1) (thickness 0.15)))
    )
    (fp_line (start 7.79 4) (end -2.71 4) (layer F.CrtYd) (width 0.05))
    (fp_line (start 7.79 4) (end 7.79 -4) (layer F.CrtYd) (width 0.05))
    (fp_line (start -2.71 -4) (end -2.71 4) (layer F.CrtYd) (width 0.05))
    (fp_line (start -2.71 -4) (end 7.79 -4) (layer F.CrtYd) (width 0.05))
    (fp_line (start -2.54 3.81) (end 7.62 3.81) (layer F.SilkS) (width 0.12))
    (fp_line (start -2.54 -3.81) (end -2.54 3.81) (layer F.SilkS) (width 0.12))
    (fp_line (start 7.62 -3.81) (end -2.54 -3.81) (layer F.SilkS) (width 0.12))
    (fp_line (start 7.62 3.81) (end 7.62 -3.81) (layer F.SilkS) (width 0.12))
    (fp_line (start 7.62 2.54) (end -2.54 2.54) (layer F.SilkS) (width 0.12))
    (fp_line (start 7.54 -3.75) (end -2.46 -3.75) (layer F.Fab) (width 0.1))
    (fp_line (start 7.54 3.75) (end 7.54 -3.75) (layer F.Fab) (width 0.1))
    (fp_line (start -2.46 3.75) (end 7.54 3.75) (layer F.Fab) (width 0.1))
    (fp_line (start -2.46 -3.75) (end -2.46 3.75) (layer F.Fab) (width 0.1))
    (fp_line (start -2.41 2.55) (end 7.49 2.55) (layer F.Fab) (width 0.1))
    (fp_text user %R (at 2.54 0) (layer F.Fab)
      (effects (font (size 1 1) (thickness 0.15)))
    )
    (pad 2 thru_hole circle (at 5.08 0) (size 3 3) (drill 1.52) (layers *.Cu *.Mask)
      (net 2 +5V))
    (pad 1 thru_hole rect (at 0 0) (size 3 3) (drill 1.52) (layers *.Cu *.Mask)
      (net 1 GND))
    (model ${KISYS3DMOD}/TerminalBlock.3dshapes/TerminalBlock_bornier-2_P5.08mm.wrl
      (offset (xyz 2.539999961853027 0 0))
      (scale (xyz 1 1 1))
      (rotate (xyz 0 0 0))
    )
    (model "D:/KiCAD Files/Nano/Nano/3D designs/Screw Terminal/tb5p-2p_p5_l10_w7-6_h10.stp"
      (offset (xyz 2.5 0 5))
      (scale (xyz 1 1 1))
      (rotate (xyz -90 0 0))
    )
  )

  (module "BA56-12EWA(3Digit7Segment):A9_GSM_Module" (layer F.Cu) (tedit 5FBBCAC5) (tstamp 5FBD0423)
    (at 90.6272 147.9296 270)
    (descr "Through hole straight socket strip, 1x16, 2.54mm pitch, single row (from Kicad 4.0.7), script generated")
    (tags "Through hole socket strip THT 1x16 2.54mm single row")
    (path /5FBC6E3E)
    (fp_text reference U1 (at 11.7602 2.032 90) (layer F.SilkS)
      (effects (font (size 1 1) (thickness 0.15)))
    )
    (fp_text value A9_GSM_Module (at 0 23.09 90) (layer F.Fab)
      (effects (font (size 1 1) (thickness 0.15)))
    )
    (fp_line (start 1.33 -19.11) (end 24.19 -19.11) (layer F.SilkS) (width 0.12))
    (fp_line (start -1.33 21.65) (end 24.19 21.65) (layer F.SilkS) (width 0.12))
    (fp_line (start 21.53 -16.51) (end 24.19 -16.51) (layer F.SilkS) (width 0.12))
    (fp_line (start 23.495 -19.05) (end 24.13 -18.415) (layer F.Fab) (width 0.1))
    (fp_line (start 21.53 -16.51) (end 21.53 21.65) (layer F.SilkS) (width 0.12))
    (fp_line (start 21.59 21.59) (end 21.59 -19.05) (layer F.Fab) (width 0.1))
    (fp_line (start 22.86 -19.11) (end 24.19 -19.11) (layer F.SilkS) (width 0.12))
    (fp_line (start 21.53 21.65) (end 24.19 21.65) (layer F.SilkS) (width 0.12))
    (fp_line (start 21.59 -19.05) (end 23.495 -19.05) (layer F.Fab) (width 0.1))
    (fp_line (start 24.19 -16.51) (end 24.19 21.65) (layer F.SilkS) (width 0.12))
    (fp_line (start 24.13 21.59) (end 21.59 21.59) (layer F.Fab) (width 0.1))
    (fp_line (start 24.13 -18.415) (end 24.13 21.59) (layer F.Fab) (width 0.1))
    (fp_line (start 24.19 -19.11) (end 24.19 -17.78) (layer F.SilkS) (width 0.12))
    (fp_line (start 24.61 22.12) (end 21.06 22.12) (layer F.CrtYd) (width 0.05))
    (fp_line (start 21.06 -19.58) (end 24.61 -19.58) (layer F.CrtYd) (width 0.05))
    (fp_line (start 24.61 -19.58) (end 24.61 22.12) (layer F.CrtYd) (width 0.05))
    (fp_line (start 21.06 22.12) (end 21.06 -19.58) (layer F.CrtYd) (width 0.05))
    (fp_line (start -1.27 -19.05) (end 0.635 -19.05) (layer F.Fab) (width 0.1))
    (fp_line (start 0.635 -19.05) (end 1.27 -18.415) (layer F.Fab) (width 0.1))
    (fp_line (start 1.27 -18.415) (end 1.27 21.59) (layer F.Fab) (width 0.1))
    (fp_line (start 1.27 21.59) (end -1.27 21.59) (layer F.Fab) (width 0.1))
    (fp_line (start -1.27 21.59) (end -1.27 -19.05) (layer F.Fab) (width 0.1))
    (fp_line (start -1.33 -16.51) (end 1.33 -16.51) (layer F.SilkS) (width 0.12))
    (fp_line (start -1.33 -16.51) (end -1.33 21.65) (layer F.SilkS) (width 0.12))
    (fp_line (start -1.33 21.65) (end 1.33 21.65) (layer F.SilkS) (width 0.12))
    (fp_line (start 1.33 -16.51) (end 1.33 21.65) (layer F.SilkS) (width 0.12))
    (fp_line (start 1.33 -19.11) (end 1.33 -17.78) (layer F.SilkS) (width 0.12))
    (fp_line (start 0 -19.11) (end 1.33 -19.11) (layer F.SilkS) (width 0.12))
    (fp_line (start -1.8 -19.58) (end 1.75 -19.58) (layer F.CrtYd) (width 0.05))
    (fp_line (start 1.75 -19.58) (end 1.75 22.12) (layer F.CrtYd) (width 0.05))
    (fp_line (start 1.75 22.12) (end -1.8 22.12) (layer F.CrtYd) (width 0.05))
    (fp_line (start -1.8 22.12) (end -1.8 -19.58) (layer F.CrtYd) (width 0.05))
    (fp_line (start 7.62 -19.05) (end 7.62 -15.24) (layer F.SilkS) (width 0.12))
    (fp_line (start 7.62 -15.24) (end 15.24 -15.24) (layer F.SilkS) (width 0.12))
    (fp_line (start 15.24 -15.24) (end 15.24 -19.05) (layer F.SilkS) (width 0.12))
    (fp_text user con2 (at 22.86 23.09 90) (layer F.Fab)
      (effects (font (size 1 1) (thickness 0.15)))
    )
    (fp_text user %R (at 0 -1.27 180) (layer F.Fab)
      (effects (font (size 1 1) (thickness 0.15)))
    )
    (pad 28 thru_hole oval (at 22.86 -12.7 270) (size 1.7 1.7) (drill 1) (layers *.Cu *.Mask)
      (net 10 "Net-(U1-Pad28)"))
    (pad 26 thru_hole oval (at 22.86 -7.62 270) (size 1.7 1.7) (drill 1) (layers *.Cu *.Mask)
      (net 18 "Net-(U1-Pad26)"))
    (pad 17 thru_hole oval (at 22.86 15.24 270) (size 1.7 1.7) (drill 1) (layers *.Cu *.Mask)
      (net 12 "Net-(U1-Pad17)"))
    (pad 16 thru_hole oval (at 22.86 17.78 270) (size 1.7 1.7) (drill 1) (layers *.Cu *.Mask)
      (net 2 +5V))
    (pad 15 thru_hole oval (at 22.86 20.32 270) (size 1.7 1.7) (drill 1) (layers *.Cu *.Mask)
      (net 1 GND))
    (pad 29 thru_hole oval (at 22.86 -15.24 270) (size 1.7 1.7) (drill 1) (layers *.Cu *.Mask)
      (net 14 "Net-(U1-Pad29)"))
    (pad 23 thru_hole oval (at 22.86 0 270) (size 1.7 1.7) (drill 1) (layers *.Cu *.Mask)
      (net 16 "Net-(U1-Pad23)"))
    (pad 27 thru_hole oval (at 22.86 -10.16 270) (size 1.7 1.7) (drill 1) (layers *.Cu *.Mask)
      (net 15 "Net-(U1-Pad27)"))
    (pad 25 thru_hole oval (at 22.86 -5.08 270) (size 1.7 1.7) (drill 1) (layers *.Cu *.Mask)
      (net 13 "Net-(U1-Pad25)"))
    (pad 30 thru_hole rect (at 22.86 -17.78 270) (size 1.7 1.7) (drill 1) (layers *.Cu *.Mask)
      (net 9 "Net-(U1-Pad30)"))
    (pad 21 thru_hole oval (at 22.86 5.08 270) (size 1.7 1.7) (drill 1) (layers *.Cu *.Mask)
      (net 20 "Net-(U1-Pad21)"))
    (pad 20 thru_hole oval (at 22.86 7.62 270) (size 1.7 1.7) (drill 1) (layers *.Cu *.Mask)
      (net 3 "Net-(U1-Pad20)"))
    (pad 24 thru_hole oval (at 22.86 -2.54 270) (size 1.7 1.7) (drill 1) (layers *.Cu *.Mask)
      (net 19 "Net-(U1-Pad24)"))
    (pad 22 thru_hole oval (at 22.86 2.54 270) (size 1.7 1.7) (drill 1) (layers *.Cu *.Mask)
      (net 17 "Net-(U1-Pad22)"))
    (pad 18 thru_hole oval (at 22.86 12.7 270) (size 1.7 1.7) (drill 1) (layers *.Cu *.Mask)
      (net 11 "Net-(U1-Pad18)"))
    (pad 19 thru_hole oval (at 22.86 10.16 270) (size 1.7 1.7) (drill 1) (layers *.Cu *.Mask)
      (net 4 "Net-(U1-Pad19)"))
    (pad 14 thru_hole oval (at 0 20.32 270) (size 1.7 1.7) (drill 1) (layers *.Cu *.Mask)
      (net 8 /SDA2))
    (pad 13 thru_hole oval (at 0 17.78 270) (size 1.7 1.7) (drill 1) (layers *.Cu *.Mask)
      (net 7 /SCL2))
    (pad 12 thru_hole oval (at 0 15.24 270) (size 1.7 1.7) (drill 1) (layers *.Cu *.Mask)
      (net 5 /SCL1))
    (pad 11 thru_hole oval (at 0 12.7 270) (size 1.7 1.7) (drill 1) (layers *.Cu *.Mask)
      (net 6 /SDA1))
    (pad 10 thru_hole oval (at 0 10.16 270) (size 1.7 1.7) (drill 1) (layers *.Cu *.Mask)
      (net 21 "Net-(U1-Pad10)"))
    (pad 9 thru_hole oval (at 0 7.62 270) (size 1.7 1.7) (drill 1) (layers *.Cu *.Mask)
      (net 22 "Net-(U1-Pad9)"))
    (pad 8 thru_hole oval (at 0 5.08 270) (size 1.7 1.7) (drill 1) (layers *.Cu *.Mask)
      (net 25 "Net-(U1-Pad8)"))
    (pad 7 thru_hole oval (at 0 2.54 270) (size 1.7 1.7) (drill 1) (layers *.Cu *.Mask)
      (net 26 "Net-(U1-Pad7)"))
    (pad 6 thru_hole oval (at 0 -5.08 270) (size 1.7 1.7) (drill 1) (layers *.Cu *.Mask)
      (net 27 "Net-(J3-Pad1)"))
    (pad 5 thru_hole oval (at 0 -7.62 270) (size 1.7 1.7) (drill 1) (layers *.Cu *.Mask)
      (net 28 "Net-(J3-Pad2)"))
    (pad 4 thru_hole oval (at 0 -10.16 270) (size 1.7 1.7) (drill 1) (layers *.Cu *.Mask)
      (net 23 "Net-(U1-Pad4)"))
    (pad 3 thru_hole oval (at 0 -12.7 270) (size 1.7 1.7) (drill 1) (layers *.Cu *.Mask)
      (net 24 "Net-(U1-Pad3)"))
    (pad 2 thru_hole oval (at 0 -15.24 270) (size 1.7 1.7) (drill 1) (layers *.Cu *.Mask)
      (net 29 "Net-(J3-Pad3)"))
    (pad 1 thru_hole rect (at 0 -17.78 270) (size 1.7 1.7) (drill 1) (layers *.Cu *.Mask)
      (net 30 "Net-(J3-Pad4)"))
    (model ${KISYS3DMOD}/Connector_PinSocket_2.54mm.3dshapes/PinSocket_1x16_P2.54mm_Vertical.step
      (offset (xyz 22.85 17.75 0))
      (scale (xyz 1 1 1))
      (rotate (xyz 0 0 0))
    )
    (model ${KISYS3DMOD}/Connector_PinSocket_2.54mm.3dshapes/PinSocket_1x06_P2.54mm_Vertical.step
      (offset (xyz 0 17.75 0))
      (scale (xyz 1 1 1))
      (rotate (xyz 0 0 0))
    )
    (model ${KISYS3DMOD}/Connector_PinSocket_2.54mm.3dshapes/PinSocket_1x08_P2.54mm_Vertical.step
      (offset (xyz 0 -2.5 0))
      (scale (xyz 1 1 1))
      (rotate (xyz 0 0 0))
    )
  )

  (module My_Lib_KiCAD:RTC_Module (layer F.Cu) (tedit 5FBBC6C6) (tstamp 5FBC1F5E)
    (at 93.3958 134.493 270)
    (path /5FBD744B)
    (fp_text reference U2 (at 0 -2.54 90) (layer F.SilkS)
      (effects (font (size 1 1) (thickness 0.15)))
    )
    (fp_text value RTC_Module (at 0 -0.5 90) (layer F.Fab)
      (effects (font (size 1 1) (thickness 0.15)))
    )
    (fp_line (start 10.9982 -39.116) (end -10.9982 -39.116) (layer F.SilkS) (width 0.12))
    (fp_line (start 10.9982 -33.147) (end 10.9982 -39.116) (layer F.SilkS) (width 0.12))
    (fp_line (start -10.9982 -33.147) (end -10.9982 -39.116) (layer F.SilkS) (width 0.12))
    (fp_line (start -10.9982 -33.147) (end 10.9982 -33.147) (layer F.SilkS) (width 0.12))
    (fp_line (start 10.9982 4.9276) (end 10.9982 -33.147) (layer F.SilkS) (width 0.12))
    (fp_line (start -10.9982 4.9276) (end -10.9982 -33.147) (layer F.SilkS) (width 0.12))
    (fp_line (start -10.9982 4.9276) (end 10.9982 4.9276) (layer F.SilkS) (width 0.12))
    (fp_line (start -5.09102 1.77124) (end 5.06898 1.77124) (layer F.Fab) (width 0.1))
    (fp_line (start 5.06898 4.31124) (end -4.45602 4.31124) (layer F.Fab) (width 0.1))
    (fp_line (start -2.55102 1.71124) (end 5.12898 1.71124) (layer F.SilkS) (width 0.12))
    (fp_line (start -5.09102 3.67624) (end -5.09102 1.77124) (layer F.Fab) (width 0.1))
    (fp_line (start -4.45602 4.31124) (end -5.09102 3.67624) (layer F.Fab) (width 0.1))
    (fp_line (start -3.82102 4.37124) (end -5.15102 4.37124) (layer F.SilkS) (width 0.12))
    (fp_line (start -2.55102 4.37124) (end -2.55102 1.71124) (layer F.SilkS) (width 0.12))
    (fp_line (start 5.06898 1.77124) (end 5.06898 4.31124) (layer F.Fab) (width 0.1))
    (fp_line (start 5.12898 4.37124) (end 5.12898 1.71124) (layer F.SilkS) (width 0.12))
    (fp_line (start -2.55102 4.37124) (end 5.12898 4.37124) (layer F.SilkS) (width 0.12))
    (fp_line (start 5.57898 4.84124) (end 5.57898 1.24124) (layer F.CrtYd) (width 0.05))
    (fp_line (start 5.57898 1.24124) (end -5.62102 1.24124) (layer F.CrtYd) (width 0.05))
    (fp_line (start -5.62102 1.24124) (end -5.62102 4.84124) (layer F.CrtYd) (width 0.05))
    (fp_line (start -5.15102 4.37124) (end -5.15102 3.04124) (layer F.SilkS) (width 0.12))
    (fp_line (start -5.62102 4.84124) (end 5.57898 4.84124) (layer F.CrtYd) (width 0.05))
    (pad 3 thru_hole oval (at 1.25898 3.04124) (size 1.7 1.7) (drill 1) (layers *.Cu *.Mask)
      (net 2 +5V))
    (pad 2 thru_hole oval (at -1.28102 3.04124) (size 1.7 1.7) (drill 1) (layers *.Cu *.Mask)
      (net 26 "Net-(U1-Pad7)"))
    (pad 1 thru_hole rect (at -3.82102 3.04124) (size 1.7 1.7) (drill 1) (layers *.Cu *.Mask)
      (net 25 "Net-(U1-Pad8)"))
    (pad 4 thru_hole oval (at 3.79898 3.04124) (size 1.7 1.7) (drill 1) (layers *.Cu *.Mask)
      (net 1 GND))
    (model "D:/KiCAD Files/ds3231-rtc-module-1.snapshot.2/DS3231 RTC.step"
      (offset (xyz 0 15 4))
      (scale (xyz 1 1 1))
      (rotate (xyz 0 180 -90))
    )
    (model ${KISYS3DMOD}/Connector_PinHeader_2.54mm.3dshapes/PinHeader_1x04_P2.54mm_Vertical.step
      (offset (xyz 3.75 -3 4))
      (scale (xyz 1 1 1))
      (rotate (xyz 0 180 90))
    )
  )

  (module MountingHole:MountingHole_3mm_Pad_Via (layer F.Cu) (tedit 56DDBED4) (tstamp 5FBB9411)
    (at 139.6832 153)
    (descr "Mounting Hole 3mm")
    (tags "mounting hole 3mm")
    (path /5FBBAC41)
    (attr virtual)
    (fp_text reference H5 (at 0 -4) (layer F.SilkS)
      (effects (font (size 1 1) (thickness 0.15)))
    )
    (fp_text value MountingHole (at 0 4) (layer F.Fab)
      (effects (font (size 1 1) (thickness 0.15)))
    )
    (fp_circle (center 0 0) (end 3.25 0) (layer F.CrtYd) (width 0.05))
    (fp_circle (center 0 0) (end 3 0) (layer Cmts.User) (width 0.15))
    (fp_text user %R (at 0.3 0) (layer F.Fab)
      (effects (font (size 1 1) (thickness 0.15)))
    )
    (pad 1 thru_hole circle (at 1.59099 -1.59099) (size 0.8 0.8) (drill 0.5) (layers *.Cu *.Mask))
    (pad 1 thru_hole circle (at 0 -2.25) (size 0.8 0.8) (drill 0.5) (layers *.Cu *.Mask))
    (pad 1 thru_hole circle (at -1.59099 -1.59099) (size 0.8 0.8) (drill 0.5) (layers *.Cu *.Mask))
    (pad 1 thru_hole circle (at -2.25 0) (size 0.8 0.8) (drill 0.5) (layers *.Cu *.Mask))
    (pad 1 thru_hole circle (at -1.59099 1.59099) (size 0.8 0.8) (drill 0.5) (layers *.Cu *.Mask))
    (pad 1 thru_hole circle (at 0 2.25) (size 0.8 0.8) (drill 0.5) (layers *.Cu *.Mask))
    (pad 1 thru_hole circle (at 1.59099 1.59099) (size 0.8 0.8) (drill 0.5) (layers *.Cu *.Mask))
    (pad 1 thru_hole circle (at 2.25 0) (size 0.8 0.8) (drill 0.5) (layers *.Cu *.Mask))
    (pad 1 thru_hole circle (at 0 0) (size 6 6) (drill 3) (layers *.Cu *.Mask))
  )

  (module MountingHole:MountingHole_3mm_Pad_Via (layer F.Cu) (tedit 56DDBED4) (tstamp 5FBB914D)
    (at 121.9332 176)
    (descr "Mounting Hole 3mm")
    (tags "mounting hole 3mm")
    (path /60072588)
    (attr virtual)
    (fp_text reference H4 (at 0 -4) (layer F.SilkS)
      (effects (font (size 1 1) (thickness 0.15)))
    )
    (fp_text value MountingHole (at 0 4) (layer F.Fab)
      (effects (font (size 1 1) (thickness 0.15)))
    )
    (fp_circle (center 0 0) (end 3.25 0) (layer F.CrtYd) (width 0.05))
    (fp_circle (center 0 0) (end 3 0) (layer Cmts.User) (width 0.15))
    (fp_text user %R (at 0.3 0) (layer F.Fab)
      (effects (font (size 1 1) (thickness 0.15)))
    )
    (pad 1 thru_hole circle (at 1.59099 -1.59099) (size 0.8 0.8) (drill 0.5) (layers *.Cu *.Mask))
    (pad 1 thru_hole circle (at 0 -2.25) (size 0.8 0.8) (drill 0.5) (layers *.Cu *.Mask))
    (pad 1 thru_hole circle (at -1.59099 -1.59099) (size 0.8 0.8) (drill 0.5) (layers *.Cu *.Mask))
    (pad 1 thru_hole circle (at -2.25 0) (size 0.8 0.8) (drill 0.5) (layers *.Cu *.Mask))
    (pad 1 thru_hole circle (at -1.59099 1.59099) (size 0.8 0.8) (drill 0.5) (layers *.Cu *.Mask))
    (pad 1 thru_hole circle (at 0 2.25) (size 0.8 0.8) (drill 0.5) (layers *.Cu *.Mask))
    (pad 1 thru_hole circle (at 1.59099 1.59099) (size 0.8 0.8) (drill 0.5) (layers *.Cu *.Mask))
    (pad 1 thru_hole circle (at 2.25 0) (size 0.8 0.8) (drill 0.5) (layers *.Cu *.Mask))
    (pad 1 thru_hole circle (at 0 0) (size 6 6) (drill 3) (layers *.Cu *.Mask))
  )

  (module MountingHole:MountingHole_3mm_Pad_Via (layer F.Cu) (tedit 56DDBED4) (tstamp 5FBB913D)
    (at 77.4332 176)
    (descr "Mounting Hole 3mm")
    (tags "mounting hole 3mm")
    (path /600723F7)
    (attr virtual)
    (fp_text reference H3 (at 0 -4) (layer F.SilkS)
      (effects (font (size 1 1) (thickness 0.15)))
    )
    (fp_text value MountingHole (at 0 4) (layer F.Fab)
      (effects (font (size 1 1) (thickness 0.15)))
    )
    (fp_circle (center 0 0) (end 3.25 0) (layer F.CrtYd) (width 0.05))
    (fp_circle (center 0 0) (end 3 0) (layer Cmts.User) (width 0.15))
    (fp_text user %R (at 0.3 0) (layer F.Fab)
      (effects (font (size 1 1) (thickness 0.15)))
    )
    (pad 1 thru_hole circle (at 1.59099 -1.59099) (size 0.8 0.8) (drill 0.5) (layers *.Cu *.Mask))
    (pad 1 thru_hole circle (at 0 -2.25) (size 0.8 0.8) (drill 0.5) (layers *.Cu *.Mask))
    (pad 1 thru_hole circle (at -1.59099 -1.59099) (size 0.8 0.8) (drill 0.5) (layers *.Cu *.Mask))
    (pad 1 thru_hole circle (at -2.25 0) (size 0.8 0.8) (drill 0.5) (layers *.Cu *.Mask))
    (pad 1 thru_hole circle (at -1.59099 1.59099) (size 0.8 0.8) (drill 0.5) (layers *.Cu *.Mask))
    (pad 1 thru_hole circle (at 0 2.25) (size 0.8 0.8) (drill 0.5) (layers *.Cu *.Mask))
    (pad 1 thru_hole circle (at 1.59099 1.59099) (size 0.8 0.8) (drill 0.5) (layers *.Cu *.Mask))
    (pad 1 thru_hole circle (at 2.25 0) (size 0.8 0.8) (drill 0.5) (layers *.Cu *.Mask))
    (pad 1 thru_hole circle (at 0 0) (size 6 6) (drill 3) (layers *.Cu *.Mask))
  )

  (module MountingHole:MountingHole_3mm_Pad_Via (layer F.Cu) (tedit 56DDBED4) (tstamp 5FBB912D)
    (at 121.9332 130)
    (descr "Mounting Hole 3mm")
    (tags "mounting hole 3mm")
    (path /600722EB)
    (attr virtual)
    (fp_text reference H2 (at 0 -4) (layer F.SilkS)
      (effects (font (size 1 1) (thickness 0.15)))
    )
    (fp_text value MountingHole (at 0 4) (layer F.Fab)
      (effects (font (size 1 1) (thickness 0.15)))
    )
    (fp_circle (center 0 0) (end 3.25 0) (layer F.CrtYd) (width 0.05))
    (fp_circle (center 0 0) (end 3 0) (layer Cmts.User) (width 0.15))
    (fp_text user %R (at 0.3 0) (layer F.Fab)
      (effects (font (size 1 1) (thickness 0.15)))
    )
    (pad 1 thru_hole circle (at 1.59099 -1.59099) (size 0.8 0.8) (drill 0.5) (layers *.Cu *.Mask))
    (pad 1 thru_hole circle (at 0 -2.25) (size 0.8 0.8) (drill 0.5) (layers *.Cu *.Mask))
    (pad 1 thru_hole circle (at -1.59099 -1.59099) (size 0.8 0.8) (drill 0.5) (layers *.Cu *.Mask))
    (pad 1 thru_hole circle (at -2.25 0) (size 0.8 0.8) (drill 0.5) (layers *.Cu *.Mask))
    (pad 1 thru_hole circle (at -1.59099 1.59099) (size 0.8 0.8) (drill 0.5) (layers *.Cu *.Mask))
    (pad 1 thru_hole circle (at 0 2.25) (size 0.8 0.8) (drill 0.5) (layers *.Cu *.Mask))
    (pad 1 thru_hole circle (at 1.59099 1.59099) (size 0.8 0.8) (drill 0.5) (layers *.Cu *.Mask))
    (pad 1 thru_hole circle (at 2.25 0) (size 0.8 0.8) (drill 0.5) (layers *.Cu *.Mask))
    (pad 1 thru_hole circle (at 0 0) (size 6 6) (drill 3) (layers *.Cu *.Mask))
  )

  (module MountingHole:MountingHole_3mm_Pad_Via (layer F.Cu) (tedit 56DDBED4) (tstamp 5FBB911D)
    (at 77.4332 130)
    (descr "Mounting Hole 3mm")
    (tags "mounting hole 3mm")
    (path /60071B76)
    (attr virtual)
    (fp_text reference H1 (at 0 -4) (layer F.SilkS)
      (effects (font (size 1 1) (thickness 0.15)))
    )
    (fp_text value MountingHole (at 0 4) (layer F.Fab)
      (effects (font (size 1 1) (thickness 0.15)))
    )
    (fp_circle (center 0 0) (end 3.25 0) (layer F.CrtYd) (width 0.05))
    (fp_circle (center 0 0) (end 3 0) (layer Cmts.User) (width 0.15))
    (fp_text user %R (at 0.3 0) (layer F.Fab)
      (effects (font (size 1 1) (thickness 0.15)))
    )
    (pad 1 thru_hole circle (at 1.59099 -1.59099) (size 0.8 0.8) (drill 0.5) (layers *.Cu *.Mask))
    (pad 1 thru_hole circle (at 0 -2.25) (size 0.8 0.8) (drill 0.5) (layers *.Cu *.Mask))
    (pad 1 thru_hole circle (at -1.59099 -1.59099) (size 0.8 0.8) (drill 0.5) (layers *.Cu *.Mask))
    (pad 1 thru_hole circle (at -2.25 0) (size 0.8 0.8) (drill 0.5) (layers *.Cu *.Mask))
    (pad 1 thru_hole circle (at -1.59099 1.59099) (size 0.8 0.8) (drill 0.5) (layers *.Cu *.Mask))
    (pad 1 thru_hole circle (at 0 2.25) (size 0.8 0.8) (drill 0.5) (layers *.Cu *.Mask))
    (pad 1 thru_hole circle (at 1.59099 1.59099) (size 0.8 0.8) (drill 0.5) (layers *.Cu *.Mask))
    (pad 1 thru_hole circle (at 2.25 0) (size 0.8 0.8) (drill 0.5) (layers *.Cu *.Mask))
    (pad 1 thru_hole circle (at 0 0) (size 6 6) (drill 3) (layers *.Cu *.Mask))
  )

  (module Capacitor_THT:C_Rect_L7.0mm_W3.5mm_P5.00mm (layer F.Cu) (tedit 5AE50EF0) (tstamp 5FBB910D)
    (at 72.8726 166.5224 90)
    (descr "C, Rect series, Radial, pin pitch=5.00mm, , length*width=7*3.5mm^2, Capacitor")
    (tags "C Rect series Radial pin pitch 5.00mm  length 7mm width 3.5mm Capacitor")
    (path /5FD924AE)
    (fp_text reference C2 (at 2.5 -3 90) (layer F.SilkS)
      (effects (font (size 1 1) (thickness 0.15)))
    )
    (fp_text value C (at 2.5 3 90) (layer F.Fab)
      (effects (font (size 1 1) (thickness 0.15)))
    )
    (fp_line (start 6.25 -2) (end -1.25 -2) (layer F.CrtYd) (width 0.05))
    (fp_line (start 6.25 2) (end 6.25 -2) (layer F.CrtYd) (width 0.05))
    (fp_line (start -1.25 2) (end 6.25 2) (layer F.CrtYd) (width 0.05))
    (fp_line (start -1.25 -2) (end -1.25 2) (layer F.CrtYd) (width 0.05))
    (fp_line (start 6.12 -1.87) (end 6.12 1.87) (layer F.SilkS) (width 0.12))
    (fp_line (start -1.12 -1.87) (end -1.12 1.87) (layer F.SilkS) (width 0.12))
    (fp_line (start -1.12 1.87) (end 6.12 1.87) (layer F.SilkS) (width 0.12))
    (fp_line (start -1.12 -1.87) (end 6.12 -1.87) (layer F.SilkS) (width 0.12))
    (fp_line (start 6 -1.75) (end -1 -1.75) (layer F.Fab) (width 0.1))
    (fp_line (start 6 1.75) (end 6 -1.75) (layer F.Fab) (width 0.1))
    (fp_line (start -1 1.75) (end 6 1.75) (layer F.Fab) (width 0.1))
    (fp_line (start -1 -1.75) (end -1 1.75) (layer F.Fab) (width 0.1))
    (fp_text user %R (at 2.5 0 90) (layer F.Fab)
      (effects (font (size 1 1) (thickness 0.15)))
    )
    (pad 2 thru_hole circle (at 5 0 90) (size 1.6 1.6) (drill 0.8) (layers *.Cu *.Mask)
      (net 1 GND))
    (pad 1 thru_hole circle (at 0 0 90) (size 1.6 1.6) (drill 0.8) (layers *.Cu *.Mask)
      (net 2 +5V))
    (model ${KISYS3DMOD}/Capacitor_THT.3dshapes/C_Rect_L7.0mm_W3.5mm_P5.00mm.wrl
      (at (xyz 0 0 0))
      (scale (xyz 1 1 1))
      (rotate (xyz 0 0 0))
    )
  )

  (module Connector_PinHeader_2.54mm:PinHeader_1x06_P2.54mm_Vertical (layer F.Cu) (tedit 59FED5CC) (tstamp 5FBBD647)
    (at 61.1632 157.988)
    (descr "Through hole straight pin header, 1x06, 2.54mm pitch, single row")
    (tags "Through hole pin header THT 1x06 2.54mm single row")
    (path /5FCBCC01)
    (fp_text reference J1 (at 0 -2.33) (layer F.SilkS)
      (effects (font (size 1 1) (thickness 0.15)))
    )
    (fp_text value Conn_01x06 (at 0 15.03) (layer F.Fab)
      (effects (font (size 1 1) (thickness 0.15)))
    )
    (fp_line (start -0.635 -1.27) (end 1.27 -1.27) (layer F.Fab) (width 0.1))
    (fp_line (start 1.27 -1.27) (end 1.27 13.97) (layer F.Fab) (width 0.1))
    (fp_line (start 1.27 13.97) (end -1.27 13.97) (layer F.Fab) (width 0.1))
    (fp_line (start -1.27 13.97) (end -1.27 -0.635) (layer F.Fab) (width 0.1))
    (fp_line (start -1.27 -0.635) (end -0.635 -1.27) (layer F.Fab) (width 0.1))
    (fp_line (start -1.33 14.03) (end 1.33 14.03) (layer F.SilkS) (width 0.12))
    (fp_line (start -1.33 1.27) (end -1.33 14.03) (layer F.SilkS) (width 0.12))
    (fp_line (start 1.33 1.27) (end 1.33 14.03) (layer F.SilkS) (width 0.12))
    (fp_line (start -1.33 1.27) (end 1.33 1.27) (layer F.SilkS) (width 0.12))
    (fp_line (start -1.33 0) (end -1.33 -1.33) (layer F.SilkS) (width 0.12))
    (fp_line (start -1.33 -1.33) (end 0 -1.33) (layer F.SilkS) (width 0.12))
    (fp_line (start -1.8 -1.8) (end -1.8 14.5) (layer F.CrtYd) (width 0.05))
    (fp_line (start -1.8 14.5) (end 1.8 14.5) (layer F.CrtYd) (width 0.05))
    (fp_line (start 1.8 14.5) (end 1.8 -1.8) (layer F.CrtYd) (width 0.05))
    (fp_line (start 1.8 -1.8) (end -1.8 -1.8) (layer F.CrtYd) (width 0.05))
    (fp_text user %R (at 0 6.35 90) (layer F.Fab)
      (effects (font (size 1 1) (thickness 0.15)))
    )
    (pad 6 thru_hole oval (at 0 12.7) (size 1.7 1.7) (drill 1) (layers *.Cu *.Mask)
      (net 2 +5V))
    (pad 5 thru_hole oval (at 0 10.16) (size 1.7 1.7) (drill 1) (layers *.Cu *.Mask)
      (net 1 GND))
    (pad 4 thru_hole oval (at 0 7.62) (size 1.7 1.7) (drill 1) (layers *.Cu *.Mask)
      (net 6 /SDA1))
    (pad 3 thru_hole oval (at 0 5.08) (size 1.7 1.7) (drill 1) (layers *.Cu *.Mask)
      (net 5 /SCL1))
    (pad 2 thru_hole oval (at 0 2.54) (size 1.7 1.7) (drill 1) (layers *.Cu *.Mask)
      (net 7 /SCL2))
    (pad 1 thru_hole rect (at 0 0) (size 1.7 1.7) (drill 1) (layers *.Cu *.Mask)
      (net 8 /SDA2))
    (model ${KISYS3DMOD}/Connector_PinHeader_2.54mm.3dshapes/PinHeader_1x06_P2.54mm_Vertical.wrl
      (at (xyz 0 0 0))
      (scale (xyz 1 1 1))
      (rotate (xyz 0 0 0))
    )
  )

  (gr_line (start 68.58 182.88) (end 54.61 171.45) (layer Edge.Cuts) (width 0.05))
  (gr_line (start 144.78 135.89) (end 133.35 123.19) (layer Edge.Cuts) (width 0.05) (tstamp 5FBBC7C7))
  (gr_line (start 144.78 171.45) (end 133.35 182.88) (layer Edge.Cuts) (width 0.05))
  (gr_line (start 54.61 135.89) (end 68.58 123.19) (layer Edge.Cuts) (width 0.05) (tstamp 5FBBC7C6))
  (dimension 35.56 (width 0.15) (layer Dwgs.User)
    (gr_text "35.560 mm" (at 43.15 153.67 90) (layer Dwgs.User)
      (effects (font (size 1 1) (thickness 0.15)))
    )
    (feature1 (pts (xy 49.53 135.89) (xy 43.863579 135.89)))
    (feature2 (pts (xy 49.53 171.45) (xy 43.863579 171.45)))
    (crossbar (pts (xy 44.45 171.45) (xy 44.45 135.89)))
    (arrow1a (pts (xy 44.45 135.89) (xy 45.036421 137.016504)))
    (arrow1b (pts (xy 44.45 135.89) (xy 43.863579 137.016504)))
    (arrow2a (pts (xy 44.45 171.45) (xy 45.036421 170.323496)))
    (arrow2b (pts (xy 44.45 171.45) (xy 43.863579 170.323496)))
  )
  (dimension 66.04 (width 0.15) (layer Dwgs.User)
    (gr_text "66.040 mm" (at 101.6 191.799999) (layer Dwgs.User)
      (effects (font (size 1 1) (thickness 0.15)))
    )
    (feature1 (pts (xy 134.62 187.96) (xy 134.62 191.08642)))
    (feature2 (pts (xy 68.58 187.96) (xy 68.58 191.08642)))
    (crossbar (pts (xy 68.58 190.499999) (xy 134.62 190.499999)))
    (arrow1a (pts (xy 134.62 190.499999) (xy 133.493496 191.08642)))
    (arrow1b (pts (xy 134.62 190.499999) (xy 133.493496 189.913578)))
    (arrow2a (pts (xy 68.58 190.499999) (xy 69.706504 191.08642)))
    (arrow2b (pts (xy 68.58 190.499999) (xy 69.706504 189.913578)))
  )
  (dimension 59.69 (width 0.15) (layer Dwgs.User)
    (gr_text "59.690 mm" (at 36.8 153.035 90) (layer Dwgs.User)
      (effects (font (size 1 1) (thickness 0.15)))
    )
    (feature1 (pts (xy 50.8 123.19) (xy 37.513579 123.19)))
    (feature2 (pts (xy 50.8 182.88) (xy 37.513579 182.88)))
    (crossbar (pts (xy 38.1 182.88) (xy 38.1 123.19)))
    (arrow1a (pts (xy 38.1 123.19) (xy 38.686421 124.316504)))
    (arrow1b (pts (xy 38.1 123.19) (xy 37.513579 124.316504)))
    (arrow2a (pts (xy 38.1 182.88) (xy 38.686421 181.753496)))
    (arrow2b (pts (xy 38.1 182.88) (xy 37.513579 181.753496)))
  )
  (dimension 88.9 (width 0.15) (layer Dwgs.User)
    (gr_text "88.900 mm" (at 100.33 194.34) (layer Dwgs.User)
      (effects (font (size 1 1) (thickness 0.15)))
    )
    (feature1 (pts (xy 144.78 187.96) (xy 144.78 193.626421)))
    (feature2 (pts (xy 55.88 187.96) (xy 55.88 193.626421)))
    (crossbar (pts (xy 55.88 193.04) (xy 144.78 193.04)))
    (arrow1a (pts (xy 144.78 193.04) (xy 143.653496 193.626421)))
    (arrow1b (pts (xy 144.78 193.04) (xy 143.653496 192.453579)))
    (arrow2a (pts (xy 55.88 193.04) (xy 57.006504 193.626421)))
    (arrow2b (pts (xy 55.88 193.04) (xy 57.006504 192.453579)))
  )
  (gr_line (start 54.61 171.45) (end 54.61 135.89) (layer Edge.Cuts) (width 0.05) (tstamp 5FBCAC77))
  (gr_line (start 133.35 182.88) (end 68.58 182.88) (layer Edge.Cuts) (width 0.05))
  (gr_line (start 144.78 135.89) (end 144.78 171.45) (layer Edge.Cuts) (width 0.05))
  (gr_line (start 68.58 123.19) (end 133.35 123.19) (layer Edge.Cuts) (width 0.05) (tstamp 5FBCA510))

  (segment (start 71.6788 177.8762) (end 71.6788 174.0662) (width 1.27) (layer B.Cu) (net 2))
  (segment (start 72.8472 172.8978) (end 72.8472 170.7896) (width 1.27) (layer B.Cu) (net 2))
  (segment (start 71.6788 174.0662) (end 72.8472 172.8978) (width 1.27) (layer B.Cu) (net 2))
  (segment (start 72.8472 166.5478) (end 72.8726 166.5224) (width 1.27) (layer B.Cu) (net 2))
  (segment (start 63.9064 170.688) (end 61.1632 170.688) (width 1.27) (layer B.Cu) (net 2))
  (segment (start 68.072 166.5224) (end 63.9064 170.688) (width 1.27) (layer B.Cu) (net 2))
  (segment (start 89.6874 166.5224) (end 93.1926 163.0172) (width 1.27) (layer B.Cu) (net 2))
  (segment (start 93.1926 163.0172) (end 93.1926 137.414) (width 1.27) (layer B.Cu) (net 2))
  (segment (start 91.53058 135.75198) (end 90.35456 135.75198) (width 1.27) (layer B.Cu) (net 2))
  (segment (start 93.1926 137.414) (end 91.53058 135.75198) (width 1.27) (layer B.Cu) (net 2))
  (segment (start 72.8472 168.2496) (end 71.12 166.5224) (width 1.27) (layer B.Cu) (net 2))
  (segment (start 71.12 166.5224) (end 68.072 166.5224) (width 1.27) (layer B.Cu) (net 2))
  (segment (start 72.8726 166.5224) (end 71.12 166.5224) (width 1.27) (layer B.Cu) (net 2))
  (segment (start 72.8472 168.275) (end 72.8472 168.2496) (width 1.27) (layer B.Cu) (net 2))
  (segment (start 72.8472 170.7896) (end 72.8472 168.275) (width 1.27) (layer B.Cu) (net 2))
  (segment (start 72.8472 168.275) (end 72.8472 166.5478) (width 1.27) (layer B.Cu) (net 2))
  (segment (start 72.8472 168.0972) (end 74.422 166.5224) (width 1.27) (layer B.Cu) (net 2))
  (segment (start 72.8472 168.275) (end 72.8472 168.0972) (width 1.27) (layer B.Cu) (net 2))
  (segment (start 74.422 166.5224) (end 89.6874 166.5224) (width 1.27) (layer B.Cu) (net 2))
  (segment (start 72.8726 166.5224) (end 74.422 166.5224) (width 1.27) (layer B.Cu) (net 2))
  (segment (start 75.3872 147.9296) (end 75.3872 150.8506) (width 0.762) (layer B.Cu) (net 5))
  (segment (start 63.1698 163.068) (end 61.1632 163.068) (width 0.762) (layer B.Cu) (net 5))
  (segment (start 75.3872 150.8506) (end 63.1698 163.068) (width 0.762) (layer B.Cu) (net 5))
  (segment (start 77.9272 147.9296) (end 77.9272 151.3078) (width 0.762) (layer B.Cu) (net 6))
  (segment (start 63.627 165.608) (end 61.1632 165.608) (width 0.762) (layer B.Cu) (net 6))
  (segment (start 77.9272 151.3078) (end 63.627 165.608) (width 0.762) (layer B.Cu) (net 6))
  (segment (start 72.8472 147.9296) (end 72.8472 150.7998) (width 0.762) (layer B.Cu) (net 7))
  (segment (start 63.119 160.528) (end 61.1632 160.528) (width 0.762) (layer B.Cu) (net 7))
  (segment (start 72.8472 150.7998) (end 63.119 160.528) (width 0.762) (layer B.Cu) (net 7))
  (segment (start 70.3072 147.9296) (end 70.3072 150.2918) (width 0.762) (layer B.Cu) (net 8))
  (segment (start 62.611 157.988) (end 61.1632 157.988) (width 0.762) (layer B.Cu) (net 8))
  (segment (start 70.3072 150.2918) (end 62.611 157.988) (width 0.762) (layer B.Cu) (net 8))
  (segment (start 85.5472 147.9296) (end 85.5472 132.461) (width 0.762) (layer B.Cu) (net 25))
  (segment (start 87.33622 130.67198) (end 90.35456 130.67198) (width 0.762) (layer B.Cu) (net 25))
  (segment (start 85.5472 132.461) (end 87.33622 130.67198) (width 0.762) (layer B.Cu) (net 25))
  (segment (start 88.0872 147.9296) (end 88.0872 134.4422) (width 0.762) (layer B.Cu) (net 26))
  (segment (start 89.31742 133.21198) (end 90.35456 133.21198) (width 0.762) (layer B.Cu) (net 26))
  (segment (start 88.0872 134.4422) (end 89.31742 133.21198) (width 0.762) (layer B.Cu) (net 26))
  (segment (start 122.6566 147.9296) (end 122.6566 153.1112) (width 0.762) (layer B.Cu) (net 27))
  (segment (start 122.6566 153.1112) (end 121.2596 154.5082) (width 0.762) (layer B.Cu) (net 27))
  (segment (start 121.2596 154.5082) (end 97.3074 154.5082) (width 0.762) (layer B.Cu) (net 27))
  (segment (start 95.7072 152.908) (end 95.7072 147.9296) (width 0.762) (layer B.Cu) (net 27))
  (segment (start 97.3074 154.5082) (end 95.7072 152.908) (width 0.762) (layer B.Cu) (net 27))
  (segment (start 120.1166 147.9296) (end 120.1166 151.3332) (width 0.762) (layer B.Cu) (net 28))
  (segment (start 120.1166 151.3332) (end 118.6942 152.7556) (width 0.762) (layer B.Cu) (net 28))
  (segment (start 118.6942 152.7556) (end 99.949 152.7556) (width 0.762) (layer B.Cu) (net 28))
  (segment (start 98.2472 151.0538) (end 98.2472 147.9296) (width 0.762) (layer B.Cu) (net 28))
  (segment (start 99.949 152.7556) (end 98.2472 151.0538) (width 0.762) (layer B.Cu) (net 28))
  (segment (start 105.8672 147.9296) (end 105.8672 149.987) (width 0.762) (layer B.Cu) (net 29))
  (segment (start 105.8672 149.987) (end 106.9086 151.0284) (width 0.762) (layer B.Cu) (net 29))
  (segment (start 106.9086 151.0284) (end 116.6622 151.0284) (width 0.762) (layer B.Cu) (net 29))
  (segment (start 117.5766 150.114) (end 117.5766 147.9296) (width 0.762) (layer B.Cu) (net 29))
  (segment (start 116.6622 151.0284) (end 117.5766 150.114) (width 0.762) (layer B.Cu) (net 29))
  (segment (start 108.4072 147.9296) (end 115.0366 147.9296) (width 0.762) (layer B.Cu) (net 30))

  (zone (net 1) (net_name GND) (layer B.Cu) (tstamp 0) (hatch edge 0.508)
    (connect_pads yes (clearance 0.508))
    (min_thickness 0.254)
    (fill yes (arc_segments 32) (thermal_gap 0.508) (thermal_bridge_width 0.508))
    (polygon
      (pts
        (xy 144.78 135.89) (xy 144.78 171.45) (xy 133.35 182.88) (xy 68.58 182.88) (xy 54.61 171.45)
        (xy 54.61 135.89) (xy 68.58 123.19) (xy 133.35 123.19)
      )
    )
    (filled_polygon
      (pts
        (xy 144.12 136.143265) (xy 144.120001 171.176618) (xy 133.07662 182.22) (xy 68.815596 182.22) (xy 55.27 171.137241)
        (xy 55.27 157.138) (xy 59.675128 157.138) (xy 59.675128 158.838) (xy 59.687388 158.962482) (xy 59.723698 159.08218)
        (xy 59.782663 159.192494) (xy 59.862015 159.289185) (xy 59.958706 159.368537) (xy 60.06902 159.427502) (xy 60.14158 159.449513)
        (xy 60.009725 159.581368) (xy 59.84721 159.824589) (xy 59.735268 160.094842) (xy 59.6782 160.38174) (xy 59.6782 160.67426)
        (xy 59.735268 160.961158) (xy 59.84721 161.231411) (xy 60.009725 161.474632) (xy 60.216568 161.681475) (xy 60.39096 161.798)
        (xy 60.216568 161.914525) (xy 60.009725 162.121368) (xy 59.84721 162.364589) (xy 59.735268 162.634842) (xy 59.6782 162.92174)
        (xy 59.6782 163.21426) (xy 59.735268 163.501158) (xy 59.84721 163.771411) (xy 60.009725 164.014632) (xy 60.216568 164.221475)
        (xy 60.39096 164.338) (xy 60.216568 164.454525) (xy 60.009725 164.661368) (xy 59.84721 164.904589) (xy 59.735268 165.174842)
        (xy 59.6782 165.46174) (xy 59.6782 165.75426) (xy 59.735268 166.041158) (xy 59.84721 166.311411) (xy 60.009725 166.554632)
        (xy 60.216568 166.761475) (xy 60.459789 166.92399) (xy 60.730042 167.035932) (xy 61.01694 167.093) (xy 61.30946 167.093)
        (xy 61.596358 167.035932) (xy 61.866611 166.92399) (xy 62.109832 166.761475) (xy 62.247307 166.624) (xy 63.577098 166.624)
        (xy 63.627 166.628915) (xy 63.676902 166.624) (xy 63.826171 166.609298) (xy 64.017687 166.551202) (xy 64.19419 166.45686)
        (xy 64.348896 166.329896) (xy 64.380712 166.291128) (xy 78.610333 152.061508) (xy 78.649096 152.029696) (xy 78.77606 151.87499)
        (xy 78.870402 151.698487) (xy 78.928498 151.506971) (xy 78.9432 151.357702) (xy 78.948115 151.3078) (xy 78.9432 151.257898)
        (xy 78.9432 149.013707) (xy 79.080675 148.876232) (xy 79.1972 148.70184) (xy 79.313725 148.876232) (xy 79.520568 149.083075)
        (xy 79.763789 149.24559) (xy 80.034042 149.357532) (xy 80.32094 149.4146) (xy 80.61346 149.4146) (xy 80.900358 149.357532)
        (xy 81.170611 149.24559) (xy 81.413832 149.083075) (xy 81.620675 148.876232) (xy 81.7372 148.70184) (xy 81.853725 148.876232)
        (xy 82.060568 149.083075) (xy 82.303789 149.24559) (xy 82.574042 149.357532) (xy 82.86094 149.4146) (xy 83.15346 149.4146)
        (xy 83.440358 149.357532) (xy 83.710611 149.24559) (xy 83.953832 149.083075) (xy 84.160675 148.876232) (xy 84.2772 148.70184)
        (xy 84.393725 148.876232) (xy 84.600568 149.083075) (xy 84.843789 149.24559) (xy 85.114042 149.357532) (xy 85.40094 149.4146)
        (xy 85.69346 149.4146) (xy 85.980358 149.357532) (xy 86.250611 149.24559) (xy 86.493832 149.083075) (xy 86.700675 148.876232)
        (xy 86.8172 148.70184) (xy 86.933725 148.876232) (xy 87.140568 149.083075) (xy 87.383789 149.24559) (xy 87.654042 149.357532)
        (xy 87.94094 149.4146) (xy 88.23346 149.4146) (xy 88.520358 149.357532) (xy 88.790611 149.24559) (xy 89.033832 149.083075)
        (xy 89.240675 148.876232) (xy 89.40319 148.633011) (xy 89.515132 148.362758) (xy 89.5722 148.07586) (xy 89.5722 147.78334)
        (xy 89.515132 147.496442) (xy 89.40319 147.226189) (xy 89.240675 146.982968) (xy 89.1032 146.845493) (xy 89.1032 136.552117)
        (xy 89.201085 136.698612) (xy 89.407928 136.905455) (xy 89.651149 137.06797) (xy 89.921402 137.179912) (xy 90.2083 137.23698)
        (xy 90.50082 137.23698) (xy 90.787718 137.179912) (xy 91.052702 137.070152) (xy 91.922601 137.940052) (xy 91.9226 162.491149)
        (xy 89.16135 165.2524) (xy 74.48438 165.2524) (xy 74.422 165.246256) (xy 74.35962 165.2524) (xy 73.554841 165.2524)
        (xy 73.552327 165.25072) (xy 73.291174 165.142547) (xy 73.013935 165.0874) (xy 72.731265 165.0874) (xy 72.454026 165.142547)
        (xy 72.192873 165.25072) (xy 72.190359 165.2524) (xy 71.182373 165.2524) (xy 71.12 165.246257) (xy 71.057627 165.2524)
        (xy 68.134372 165.2524) (xy 68.071999 165.246257) (xy 68.009626 165.2524) (xy 68.00962 165.2524) (xy 67.848755 165.268244)
        (xy 67.823036 165.270777) (xy 67.750416 165.292806) (xy 67.583641 165.343397) (xy 67.363012 165.461325) (xy 67.16963 165.62003)
        (xy 67.129865 165.668484) (xy 63.38035 169.418) (xy 61.93544 169.418) (xy 61.866611 169.37201) (xy 61.596358 169.260068)
        (xy 61.30946 169.203) (xy 61.01694 169.203) (xy 60.730042 169.260068) (xy 60.459789 169.37201) (xy 60.216568 169.534525)
        (xy 60.009725 169.741368) (xy 59.84721 169.984589) (xy 59.735268 170.254842) (xy 59.6782 170.54174) (xy 59.6782 170.83426)
        (xy 59.735268 171.121158) (xy 59.84721 171.391411) (xy 60.009725 171.634632) (xy 60.216568 171.841475) (xy 60.459789 172.00399)
        (xy 60.730042 172.115932) (xy 61.01694 172.173) (xy 61.30946 172.173) (xy 61.596358 172.115932) (xy 61.866611 172.00399)
        (xy 61.93544 171.958) (xy 63.844027 171.958) (xy 63.9064 171.964143) (xy 63.968773 171.958) (xy 63.96878 171.958)
        (xy 64.155363 171.939623) (xy 64.394759 171.867003) (xy 64.615388 171.749075) (xy 64.80877 171.59037) (xy 64.848541 171.541909)
        (xy 68.598051 167.7924) (xy 70.59395 167.7924) (xy 71.577201 168.775652) (xy 71.5772 170.01736) (xy 71.53121 170.086189)
        (xy 71.419268 170.356442) (xy 71.3622 170.64334) (xy 71.3622 170.93586) (xy 71.419268 171.222758) (xy 71.53121 171.493011)
        (xy 71.577201 171.561841) (xy 71.5772 172.371749) (xy 70.824886 173.124064) (xy 70.776431 173.16383) (xy 70.617726 173.357212)
        (xy 70.587488 173.413784) (xy 70.499798 173.577841) (xy 70.427177 173.817237) (xy 70.402657 174.0662) (xy 70.408801 174.128583)
        (xy 70.4088 176.157044) (xy 70.317817 176.217837) (xy 70.020437 176.515217) (xy 69.786788 176.864898) (xy 69.625847 177.253444)
        (xy 69.5438 177.665921) (xy 69.5438 178.086479) (xy 69.625847 178.498956) (xy 69.786788 178.887502) (xy 70.020437 179.237183)
        (xy 70.317817 179.534563) (xy 70.667498 179.768212) (xy 71.056044 179.929153) (xy 71.468521 180.0112) (xy 71.889079 180.0112)
        (xy 72.301556 179.929153) (xy 72.690102 179.768212) (xy 73.039783 179.534563) (xy 73.337163 179.237183) (xy 73.570812 178.887502)
        (xy 73.731753 178.498956) (xy 73.8138 178.086479) (xy 73.8138 177.665921) (xy 73.731753 177.253444) (xy 73.570812 176.864898)
        (xy 73.337163 176.515217) (xy 73.039783 176.217837) (xy 72.9488 176.157044) (xy 72.9488 175.641984) (xy 73.7982 175.641984)
        (xy 73.7982 176.358016) (xy 73.937891 177.06029) (xy 74.211905 177.721818) (xy 74.609711 178.317177) (xy 75.116023 178.823489)
        (xy 75.711382 179.221295) (xy 76.37291 179.495309) (xy 77.075184 179.635) (xy 77.791216 179.635) (xy 78.49349 179.495309)
        (xy 79.155018 179.221295) (xy 79.750377 178.823489) (xy 80.256689 178.317177) (xy 80.654495 177.721818) (xy 80.928509 177.06029)
        (xy 81.0682 176.358016) (xy 81.0682 175.641984) (xy 118.2982 175.641984) (xy 118.2982 176.358016) (xy 118.437891 177.06029)
        (xy 118.711905 177.721818) (xy 119.109711 178.317177) (xy 119.616023 178.823489) (xy 120.211382 179.221295) (xy 120.87291 179.495309)
        (xy 121.575184 179.635) (xy 122.291216 179.635) (xy 122.99349 179.495309) (xy 123.655018 179.221295) (xy 124.250377 178.823489)
        (xy 124.756689 178.317177) (xy 125.154495 177.721818) (xy 125.428509 177.06029) (xy 125.5682 176.358016) (xy 125.5682 175.641984)
        (xy 125.428509 174.93971) (xy 125.154495 174.278182) (xy 124.756689 173.682823) (xy 124.250377 173.176511) (xy 123.655018 172.778705)
        (xy 122.99349 172.504691) (xy 122.291216 172.365) (xy 121.575184 172.365) (xy 120.87291 172.504691) (xy 120.211382 172.778705)
        (xy 119.616023 173.176511) (xy 119.109711 173.682823) (xy 118.711905 174.278182) (xy 118.437891 174.93971) (xy 118.2982 175.641984)
        (xy 81.0682 175.641984) (xy 80.928509 174.93971) (xy 80.654495 174.278182) (xy 80.256689 173.682823) (xy 79.750377 173.176511)
        (xy 79.155018 172.778705) (xy 78.49349 172.504691) (xy 77.791216 172.365) (xy 77.075184 172.365) (xy 76.37291 172.504691)
        (xy 75.711382 172.778705) (xy 75.116023 173.176511) (xy 74.609711 173.682823) (xy 74.211905 174.278182) (xy 73.937891 174.93971)
        (xy 73.7982 175.641984) (xy 72.9488 175.641984) (xy 72.9488 174.59225) (xy 73.701115 173.839936) (xy 73.74957 173.80017)
        (xy 73.908275 173.606788) (xy 74.026203 173.386159) (xy 74.098823 173.146763) (xy 74.1172 172.96018) (xy 74.1172 172.960174)
        (xy 74.123343 172.897801) (xy 74.1172 172.835428) (xy 74.1172 171.56184) (xy 74.233725 171.736232) (xy 74.440568 171.943075)
        (xy 74.683789 172.10559) (xy 74.954042 172.217532) (xy 75.24094 172.2746) (xy 75.53346 172.2746) (xy 75.820358 172.217532)
        (xy 76.090611 172.10559) (xy 76.333832 171.943075) (xy 76.540675 171.736232) (xy 76.6572 171.56184) (xy 76.773725 171.736232)
        (xy 76.980568 171.943075) (xy 77.223789 172.10559) (xy 77.494042 172.217532) (xy 77.78094 172.2746) (xy 78.07346 172.2746)
        (xy 78.360358 172.217532) (xy 78.630611 172.10559) (xy 78.873832 171.943075) (xy 79.080675 171.736232) (xy 79.1972 171.56184)
        (xy 79.313725 171.736232) (xy 79.520568 171.943075) (xy 79.763789 172.10559) (xy 80.034042 172.217532) (xy 80.32094 172.2746)
        (xy 80.61346 172.2746) (xy 80.900358 172.217532) (xy 81.170611 172.10559) (xy 81.413832 171.943075) (xy 81.620675 171.736232)
        (xy 81.7372 171.56184) (xy 81.853725 171.736232) (xy 82.060568 171.943075) (xy 82.303789 172.10559) (xy 82.574042 172.217532)
        (xy 82.86094 172.2746) (xy 83.15346 172.2746) (xy 83.440358 172.217532) (xy 83.710611 172.10559) (xy 83.953832 171.943075)
        (xy 84.160675 171.736232) (xy 84.2772 171.56184) (xy 84.393725 171.736232) (xy 84.600568 171.943075) (xy 84.843789 172.10559)
        (xy 85.114042 172.217532) (xy 85.40094 172.2746) (xy 85.69346 172.2746) (xy 85.980358 172.217532) (xy 86.250611 172.10559)
        (xy 86.493832 171.943075) (xy 86.700675 171.736232) (xy 86.8172 171.56184) (xy 86.933725 171.736232) (xy 87.140568 171.943075)
        (xy 87.383789 172.10559) (xy 87.654042 172.217532) (xy 87.94094 172.2746) (xy 88.23346 172.2746) (xy 88.520358 172.217532)
        (xy 88.790611 172.10559) (xy 89.033832 171.943075) (xy 89.240675 171.736232) (xy 89.3572 171.56184) (xy 89.473725 171.736232)
        (xy 89.680568 171.943075) (xy 89.923789 172.10559) (xy 90.194042 172.217532) (xy 90.48094 172.2746) (xy 90.77346 172.2746)
        (xy 91.060358 172.217532) (xy 91.330611 172.10559) (xy 91.573832 171.943075) (xy 91.780675 171.736232) (xy 91.8972 171.56184)
        (xy 92.013725 171.736232) (xy 92.220568 171.943075) (xy 92.463789 172.10559) (xy 92.734042 172.217532) (xy 93.02094 172.2746)
        (xy 93.31346 172.2746) (xy 93.600358 172.217532) (xy 93.870611 172.10559) (xy 94.113832 171.943075) (xy 94.320675 171.736232)
        (xy 94.4372 171.56184) (xy 94.553725 171.736232) (xy 94.760568 171.943075) (xy 95.003789 172.10559) (xy 95.274042 172.217532)
        (xy 95.56094 172.2746) (xy 95.85346 172.2746) (xy 96.140358 172.217532) (xy 96.410611 172.10559) (xy 96.653832 171.943075)
        (xy 96.860675 171.736232) (xy 96.9772 171.56184) (xy 97.093725 171.736232) (xy 97.300568 171.943075) (xy 97.543789 172.10559)
        (xy 97.814042 172.217532) (xy 98.10094 172.2746) (xy 98.39346 172.2746) (xy 98.680358 172.217532) (xy 98.950611 172.10559)
        (xy 99.193832 171.943075) (xy 99.400675 171.736232) (xy 99.5172 171.56184) (xy 99.633725 171.736232) (xy 99.840568 171.943075)
        (xy 100.083789 172.10559) (xy 100.354042 172.217532) (xy 100.64094 172.2746) (xy 100.93346 172.2746) (xy 101.220358 172.217532)
        (xy 101.490611 172.10559) (xy 101.733832 171.943075) (xy 101.940675 171.736232) (xy 102.0572 171.56184) (xy 102.173725 171.736232)
        (xy 102.380568 171.943075) (xy 102.623789 172.10559) (xy 102.894042 172.217532) (xy 103.18094 172.2746) (xy 103.47346 172.2746)
        (xy 103.760358 172.217532) (xy 104.030611 172.10559) (xy 104.273832 171.943075) (xy 104.480675 171.736232) (xy 104.5972 171.56184)
        (xy 104.713725 171.736232) (xy 104.920568 171.943075) (xy 105.163789 172.10559) (xy 105.434042 172.217532) (xy 105.72094 172.2746)
        (xy 106.01346 172.2746) (xy 106.300358 172.217532) (xy 106.570611 172.10559) (xy 106.813832 171.943075) (xy 106.945687 171.81122)
        (xy 106.967698 171.88378) (xy 107.026663 171.994094) (xy 107.106015 172.090785) (xy 107.202706 172.170137) (xy 107.31302 172.229102)
        (xy 107.432718 172.265412) (xy 107.5572 172.277672) (xy 109.2572 172.277672) (xy 109.381682 172.265412) (xy 109.50138 172.229102)
        (xy 109.611694 172.170137) (xy 109.708385 172.090785) (xy 109.787737 171.994094) (xy 109.846702 171.88378) (xy 109.883012 171.764082)
        (xy 109.895272 171.6396) (xy 109.895272 169.9396) (xy 109.883012 169.815118) (xy 109.846702 169.69542) (xy 109.787737 169.585106)
        (xy 109.708385 169.488415) (xy 109.611694 169.409063) (xy 109.50138 169.350098) (xy 109.381682 169.313788) (xy 109.2572 169.301528)
        (xy 107.5572 169.301528) (xy 107.432718 169.313788) (xy 107.31302 169.350098) (xy 107.202706 169.409063) (xy 107.106015 169.488415)
        (xy 107.026663 169.585106) (xy 106.967698 169.69542) (xy 106.945687 169.76798) (xy 106.813832 169.636125) (xy 106.570611 169.47361)
        (xy 106.300358 169.361668) (xy 106.01346 169.3046) (xy 105.72094 169.3046) (xy 105.434042 169.361668) (xy 105.163789 169.47361)
        (xy 104.920568 169.636125) (xy 104.713725 169.842968) (xy 104.5972 170.01736) (xy 104.480675 169.842968) (xy 104.273832 169.636125)
        (xy 104.030611 169.47361) (xy 103.760358 169.361668) (xy 103.47346 169.3046) (xy 103.18094 169.3046) (xy 102.894042 169.361668)
        (xy 102.623789 169.47361) (xy 102.380568 169.636125) (xy 102.173725 169.842968) (xy 102.0572 170.01736) (xy 101.940675 169.842968)
        (xy 101.733832 169.636125) (xy 101.490611 169.47361) (xy 101.220358 169.361668) (xy 100.93346 169.3046) (xy 100.64094 169.3046)
        (xy 100.354042 169.361668) (xy 100.083789 169.47361) (xy 99.840568 169.636125) (xy 99.633725 169.842968) (xy 99.5172 170.01736)
        (xy 99.400675 169.842968) (xy 99.193832 169.636125) (xy 98.950611 169.47361) (xy 98.680358 169.361668) (xy 98.39346 169.3046)
        (xy 98.10094 169.3046) (xy 97.814042 169.361668) (xy 97.543789 169.47361) (xy 97.300568 169.636125) (xy 97.093725 169.842968)
        (xy 96.9772 170.01736) (xy 96.860675 169.842968) (xy 96.653832 169.636125) (xy 96.410611 169.47361) (xy 96.140358 169.361668)
        (xy 95.85346 169.3046) (xy 95.56094 169.3046) (xy 95.274042 169.361668) (xy 95.003789 169.47361) (xy 94.760568 169.636125)
        (xy 94.553725 169.842968) (xy 94.4372 170.01736) (xy 94.320675 169.842968) (xy 94.113832 169.636125) (xy 93.870611 169.47361)
        (xy 93.600358 169.361668) (xy 93.31346 169.3046) (xy 93.02094 169.3046) (xy 92.734042 169.361668) (xy 92.463789 169.47361)
        (xy 92.220568 169.636125) (xy 92.013725 169.842968) (xy 91.8972 170.01736) (xy 91.780675 169.842968) (xy 91.573832 169.636125)
        (xy 91.330611 169.47361) (xy 91.060358 169.361668) (xy 90.77346 169.3046) (xy 90.48094 169.3046) (xy 90.194042 169.361668)
        (xy 89.923789 169.47361) (xy 89.680568 169.636125) (xy 89.473725 169.842968) (xy 89.3572 170.01736) (xy 89.240675 169.842968)
        (xy 89.033832 169.636125) (xy 88.790611 169.47361) (xy 88.520358 169.361668) (xy 88.23346 169.3046) (xy 87.94094 169.3046)
        (xy 87.654042 169.361668) (xy 87.383789 169.47361) (xy 87.140568 169.636125) (xy 86.933725 169.842968) (xy 86.8172 170.01736)
        (xy 86.700675 169.842968) (xy 86.493832 169.636125) (xy 86.250611 169.47361) (xy 85.980358 169.361668) (xy 85.69346 169.3046)
        (xy 85.40094 169.3046) (xy 85.114042 169.361668) (xy 84.843789 169.47361) (xy 84.600568 169.636125) (xy 84.393725 169.842968)
        (xy 84.2772 170.01736) (xy 84.160675 169.842968) (xy 83.953832 169.636125) (xy 83.710611 169.47361) (xy 83.440358 169.361668)
        (xy 83.15346 169.3046) (xy 82.86094 169.3046) (xy 82.574042 169.361668) (xy 82.303789 169.47361) (xy 82.060568 169.636125)
        (xy 81.853725 169.842968) (xy 81.7372 170.01736) (xy 81.620675 169.842968) (xy 81.413832 169.636125) (xy 81.170611 169.47361)
        (xy 80.900358 169.361668) (xy 80.61346 169.3046) (xy 80.32094 169.3046) (xy 80.034042 169.361668) (xy 79.763789 169.47361)
        (xy 79.520568 169.636125) (xy 79.313725 169.842968) (xy 79.1972 170.01736) (xy 79.080675 169.842968) (xy 78.873832 169.636125)
        (xy 78.630611 169.47361) (xy 78.360358 169.361668) (xy 78.07346 169.3046) (xy 77.78094 169.3046) (xy 77.494042 169.361668)
        (xy 77.223789 169.47361) (xy 76.980568 169.636125) (xy 76.773725 169.842968) (xy 76.6572 170.01736) (xy 76.540675 169.842968)
        (xy 76.333832 169.636125) (xy 76.090611 169.47361) (xy 75.820358 169.361668) (xy 75.53346 169.3046) (xy 75.24094 169.3046)
        (xy 74.954042 169.361668) (xy 74.683789 169.47361) (xy 74.440568 169.636125) (xy 74.233725 169.842968) (xy 74.1172 170.01736)
        (xy 74.1172 168.62325) (xy 74.948051 167.7924) (xy 89.625027 167.7924) (xy 89.6874 167.798543) (xy 89.749773 167.7924)
        (xy 89.74978 167.7924) (xy 89.936363 167.774023) (xy 90.175759 167.701403) (xy 90.396388 167.583475) (xy 90.58977 167.42477)
        (xy 90.629541 167.376309) (xy 94.046515 163.959336) (xy 94.09497 163.91957) (xy 94.253675 163.726188) (xy 94.371603 163.505559)
        (xy 94.422194 163.338784) (xy 94.444223 163.266164) (xy 94.449335 163.21426) (xy 94.4626 163.07958) (xy 94.4626 163.079574)
        (xy 94.468743 163.017201) (xy 94.4626 162.954828) (xy 94.4626 148.739854) (xy 94.553725 148.876232) (xy 94.691201 149.013708)
        (xy 94.6912 152.858098) (xy 94.686285 152.908) (xy 94.6912 152.957901) (xy 94.705902 153.10717) (xy 94.763998 153.298686)
        (xy 94.85834 153.47519) (xy 94.985304 153.629896) (xy 95.024072 153.661712) (xy 96.553692 155.191333) (xy 96.585504 155.230096)
        (xy 96.73397 155.351939) (xy 96.74021 155.35706) (xy 96.916713 155.451402) (xy 97.108229 155.509498) (xy 97.3074 155.529115)
        (xy 97.357302 155.5242) (xy 121.209698 155.5242) (xy 121.2596 155.529115) (xy 121.309502 155.5242) (xy 121.458771 155.509498)
        (xy 121.650287 155.451402) (xy 121.82679 155.35706) (xy 121.981496 155.230096) (xy 122.013312 155.191328) (xy 123.339733 153.864908)
        (xy 123.378496 153.833096) (xy 123.50546 153.67839) (xy 123.599802 153.501887) (xy 123.657898 153.310371) (xy 123.6726 153.161102)
        (xy 123.6726 153.161095) (xy 123.677514 153.111201) (xy 123.6726 153.061307) (xy 123.6726 152.641984) (xy 136.0482 152.641984)
        (xy 136.0482 153.358016) (xy 136.187891 154.06029) (xy 136.461905 154.721818) (xy 136.859711 155.317177) (xy 137.366023 155.823489)
        (xy 137.961382 156.221295) (xy 138.62291 156.495309) (xy 139.325184 156.635) (xy 140.041216 156.635) (xy 140.74349 156.495309)
        (xy 141.405018 156.221295) (xy 142.000377 155.823489) (xy 142.506689 155.317177) (xy 142.904495 154.721818) (xy 143.178509 154.06029)
        (xy 143.3182 153.358016) (xy 143.3182 152.641984) (xy 143.178509 151.93971) (xy 142.904495 151.278182) (xy 142.506689 150.682823)
        (xy 142.000377 150.176511) (xy 141.405018 149.778705) (xy 140.74349 149.504691) (xy 140.041216 149.365) (xy 139.325184 149.365)
        (xy 138.62291 149.504691) (xy 137.961382 149.778705) (xy 137.366023 150.176511) (xy 136.859711 150.682823) (xy 136.461905 151.278182)
        (xy 136.187891 151.93971) (xy 136.0482 152.641984) (xy 123.6726 152.641984) (xy 123.6726 149.392818) (xy 123.75078 149.369102)
        (xy 123.861094 149.310137) (xy 123.957785 149.230785) (xy 124.037137 149.134094) (xy 124.096102 149.02378) (xy 124.132412 148.904082)
        (xy 124.144672 148.7796) (xy 124.144672 147.0796) (xy 124.132412 146.955118) (xy 124.096102 146.83542) (xy 124.037137 146.725106)
        (xy 123.957785 146.628415) (xy 123.861094 146.549063) (xy 123.75078 146.490098) (xy 123.631082 146.453788) (xy 123.5066 146.441528)
        (xy 121.8066 146.441528) (xy 121.682118 146.453788) (xy 121.56242 146.490098) (xy 121.452106 146.549063) (xy 121.355415 146.628415)
        (xy 121.276063 146.725106) (xy 121.217098 146.83542) (xy 121.195087 146.90798) (xy 121.063232 146.776125) (xy 120.820011 146.61361)
        (xy 120.549758 146.501668) (xy 120.26286 146.4446) (xy 119.97034 146.4446) (xy 119.683442 146.501668) (xy 119.413189 146.61361)
        (xy 119.169968 146.776125) (xy 118.963125 146.982968) (xy 118.8466 147.15736) (xy 118.730075 146.982968) (xy 118.523232 146.776125)
        (xy 118.280011 146.61361) (xy 118.009758 146.501668) (xy 117.72286 146.4446) (xy 117.43034 146.4446) (xy 117.143442 146.501668)
        (xy 116.873189 146.61361) (xy 116.629968 146.776125) (xy 116.423125 146.982968) (xy 116.3066 147.15736) (xy 116.190075 146.982968)
        (xy 115.983232 146.776125) (xy 115.740011 146.61361) (xy 115.469758 146.501668) (xy 115.18286 146.4446) (xy 114.89034 146.4446)
        (xy 114.603442 146.501668) (xy 114.333189 146.61361) (xy 114.089968 146.776125) (xy 113.952493 146.9136) (xy 109.870418 146.9136)
        (xy 109.846702 146.83542) (xy 109.787737 146.725106) (xy 109.708385 146.628415) (xy 109.611694 146.549063) (xy 109.50138 146.490098)
        (xy 109.381682 146.453788) (xy 109.2572 146.441528) (xy 107.5572 146.441528) (xy 107.432718 146.453788) (xy 107.31302 146.490098)
        (xy 107.202706 146.549063) (xy 107.106015 146.628415) (xy 107.026663 146.725106) (xy 106.967698 146.83542) (xy 106.945687 146.90798)
        (xy 106.813832 146.776125) (xy 106.570611 146.61361) (xy 106.300358 146.501668) (xy 106.01346 146.4446) (xy 105.72094 146.4446)
        (xy 105.434042 146.501668) (xy 105.163789 146.61361) (xy 104.920568 146.776125) (xy 104.713725 146.982968) (xy 104.5972 147.15736)
        (xy 104.480675 146.982968) (xy 104.273832 146.776125) (xy 104.030611 146.61361) (xy 103.760358 146.501668) (xy 103.47346 146.4446)
        (xy 103.18094 146.4446) (xy 102.894042 146.501668) (xy 102.623789 146.61361) (xy 102.380568 146.776125) (xy 102.173725 146.982968)
        (xy 102.0572 147.15736) (xy 101.940675 146.982968) (xy 101.733832 146.776125) (xy 101.490611 146.61361) (xy 101.220358 146.501668)
        (xy 100.93346 146.4446) (xy 100.64094 146.4446) (xy 100.354042 146.501668) (xy 100.083789 146.61361) (xy 99.840568 146.776125)
        (xy 99.633725 146.982968) (xy 99.5172 147.15736) (xy 99.400675 146.982968) (xy 99.193832 146.776125) (xy 98.950611 146.61361)
        (xy 98.680358 146.501668) (xy 98.39346 146.4446) (xy 98.10094 146.4446) (xy 97.814042 146.501668) (xy 97.543789 146.61361)
        (xy 97.300568 146.776125) (xy 97.093725 146.982968) (xy 96.9772 147.15736) (xy 96.860675 146.982968) (xy 96.653832 146.776125)
        (xy 96.410611 146.61361) (xy 96.140358 146.501668) (xy 95.85346 146.4446) (xy 95.56094 146.4446) (xy 95.274042 146.501668)
        (xy 95.003789 146.61361) (xy 94.760568 146.776125) (xy 94.553725 146.982968) (xy 94.4626 147.119346) (xy 94.4626 137.476372)
        (xy 94.468743 137.413999) (xy 94.4626 137.351626) (xy 94.4626 137.35162) (xy 94.444223 137.165037) (xy 94.371603 136.925641)
        (xy 94.253675 136.705012) (xy 94.09497 136.51163) (xy 94.046514 136.471863) (xy 92.472721 134.898071) (xy 92.43295 134.84961)
        (xy 92.239568 134.690905) (xy 92.018939 134.572977) (xy 91.779543 134.500357) (xy 91.59296 134.48198) (xy 91.592953 134.48198)
        (xy 91.53058 134.475837) (xy 91.468207 134.48198) (xy 91.1268 134.48198) (xy 91.301192 134.365455) (xy 91.508035 134.158612)
        (xy 91.67055 133.915391) (xy 91.782492 133.645138) (xy 91.83956 133.35824) (xy 91.83956 133.06572) (xy 91.782492 132.778822)
        (xy 91.67055 132.508569) (xy 91.508035 132.265348) (xy 91.37618 132.133493) (xy 91.44874 132.111482) (xy 91.559054 132.052517)
        (xy 91.655745 131.973165) (xy 91.735097 131.876474) (xy 91.794062 131.76616) (xy 91.830372 131.646462) (xy 91.842632 131.52198)
        (xy 91.842632 129.82198) (xy 91.830372 129.697498) (xy 91.813533 129.641984) (xy 118.2982 129.641984) (xy 118.2982 130.358016)
        (xy 118.437891 131.06029) (xy 118.711905 131.721818) (xy 119.109711 132.317177) (xy 119.616023 132.823489) (xy 120.211382 133.221295)
        (xy 120.87291 133.495309) (xy 121.575184 133.635) (xy 122.291216 133.635) (xy 122.99349 133.495309) (xy 123.655018 133.221295)
        (xy 124.250377 132.823489) (xy 124.756689 132.317177) (xy 125.154495 131.721818) (xy 125.428509 131.06029) (xy 125.5682 130.358016)
        (xy 125.5682 129.641984) (xy 125.428509 128.93971) (xy 125.154495 128.278182) (xy 124.756689 127.682823) (xy 124.250377 127.176511)
        (xy 123.655018 126.778705) (xy 122.99349 126.504691) (xy 122.291216 126.365) (xy 121.575184 126.365) (xy 120.87291 126.504691)
        (xy 120.211382 126.778705) (xy 119.616023 127.176511) (xy 119.109711 127.682823) (xy 118.711905 128.278182) (xy 118.437891 128.93971)
        (xy 118.2982 129.641984) (xy 91.813533 129.641984) (xy 91.794062 129.5778) (xy 91.735097 129.467486) (xy 91.655745 129.370795)
        (xy 91.559054 129.291443) (xy 91.44874 129.232478) (xy 91.329042 129.196168) (xy 91.20456 129.183908) (xy 89.50456 129.183908)
        (xy 89.380078 129.196168) (xy 89.26038 129.232478) (xy 89.150066 129.291443) (xy 89.053375 129.370795) (xy 88.974023 129.467486)
        (xy 88.915058 129.5778) (xy 88.891342 129.65598) (xy 87.386113 129.65598) (xy 87.336219 129.651066) (xy 87.286325 129.65598)
        (xy 87.286318 129.65598) (xy 87.156397 129.668776) (xy 87.137048 129.670682) (xy 87.078952 129.688306) (xy 86.945533 129.728778)
        (xy 86.76903 129.82312) (xy 86.614324 129.950084) (xy 86.582512 129.988847) (xy 84.864068 131.707292) (xy 84.825305 131.739104)
        (xy 84.698341 131.89381) (xy 84.613511 132.052517) (xy 84.603999 132.070313) (xy 84.545902 132.26183) (xy 84.526285 132.461)
        (xy 84.531201 132.510912) (xy 84.5312 146.845493) (xy 84.393725 146.982968) (xy 84.2772 147.15736) (xy 84.160675 146.982968)
        (xy 83.953832 146.776125) (xy 83.710611 146.61361) (xy 83.440358 146.501668) (xy 83.15346 146.4446) (xy 82.86094 146.4446)
        (xy 82.574042 146.501668) (xy 82.303789 146.61361) (xy 82.060568 146.776125) (xy 81.853725 146.982968) (xy 81.7372 147.15736)
        (xy 81.620675 146.982968) (xy 81.413832 146.776125) (xy 81.170611 146.61361) (xy 80.900358 146.501668) (xy 80.61346 146.4446)
        (xy 80.32094 146.4446) (xy 80.034042 146.501668) (xy 79.763789 146.61361) (xy 79.520568 146.776125) (xy 79.313725 146.982968)
        (xy 79.1972 147.15736) (xy 79.080675 146.982968) (xy 78.873832 146.776125) (xy 78.630611 146.61361) (xy 78.360358 146.501668)
        (xy 78.07346 146.4446) (xy 77.78094 146.4446) (xy 77.494042 146.501668) (xy 77.223789 146.61361) (xy 76.980568 146.776125)
        (xy 76.773725 146.982968) (xy 76.6572 147.15736) (xy 76.540675 146.982968) (xy 76.333832 146.776125) (xy 76.090611 146.61361)
        (xy 75.820358 146.501668) (xy 75.53346 146.4446) (xy 75.24094 146.4446) (xy 74.954042 146.501668) (xy 74.683789 146.61361)
        (xy 74.440568 146.776125) (xy 74.233725 146.982968) (xy 74.1172 147.15736) (xy 74.000675 146.982968) (xy 73.793832 146.776125)
        (xy 73.550611 146.61361) (xy 73.280358 146.501668) (xy 72.99346 146.4446) (xy 72.70094 146.4446) (xy 72.414042 146.501668)
        (xy 72.143789 146.61361) (xy 71.900568 146.776125) (xy 71.693725 146.982968) (xy 71.5772 147.15736) (xy 71.460675 146.982968)
        (xy 71.253832 146.776125) (xy 71.010611 146.61361) (xy 70.740358 146.501668) (xy 70.45346 146.4446) (xy 70.16094 146.4446)
        (xy 69.874042 146.501668) (xy 69.603789 146.61361) (xy 69.360568 146.776125) (xy 69.153725 146.982968) (xy 68.99121 147.226189)
        (xy 68.879268 147.496442) (xy 68.8222 147.78334) (xy 68.8222 148.07586) (xy 68.879268 148.362758) (xy 68.99121 148.633011)
        (xy 69.153725 148.876232) (xy 69.2912 149.013707) (xy 69.291201 149.870958) (xy 62.469325 156.692835) (xy 62.464385 156.686815)
        (xy 62.367694 156.607463) (xy 62.25738 156.548498) (xy 62.137682 156.512188) (xy 62.0132 156.499928) (xy 60.3132 156.499928)
        (xy 60.188718 156.512188) (xy 60.06902 156.548498) (xy 59.958706 156.607463) (xy 59.862015 156.686815) (xy 59.782663 156.783506)
        (xy 59.723698 156.89382) (xy 59.687388 157.013518) (xy 59.675128 157.138) (xy 55.27 157.138) (xy 55.27 136.181962)
        (xy 62.463976 129.641984) (xy 73.7982 129.641984) (xy 73.7982 130.358016) (xy 73.937891 131.06029) (xy 74.211905 131.721818)
        (xy 74.609711 132.317177) (xy 75.116023 132.823489) (xy 75.711382 133.221295) (xy 76.37291 133.495309) (xy 77.075184 133.635)
        (xy 77.791216 133.635) (xy 78.49349 133.495309) (xy 79.155018 133.221295) (xy 79.750377 132.823489) (xy 80.256689 132.317177)
        (xy 80.654495 131.721818) (xy 80.928509 131.06029) (xy 81.0682 130.358016) (xy 81.0682 129.641984) (xy 80.928509 128.93971)
        (xy 80.654495 128.278182) (xy 80.256689 127.682823) (xy 79.750377 127.176511) (xy 79.155018 126.778705) (xy 78.49349 126.504691)
        (xy 77.791216 126.365) (xy 77.075184 126.365) (xy 76.37291 126.504691) (xy 75.711382 126.778705) (xy 75.116023 127.176511)
        (xy 74.609711 127.682823) (xy 74.211905 128.278182) (xy 73.937891 128.93971) (xy 73.7982 129.641984) (xy 62.463976 129.641984)
        (xy 68.83516 123.85) (xy 133.056062 123.85)
      )
    )
  )
)
