EESchema Schematic File Version 4
EELAYER 30 0
EELAYER END
$Descr A4 11693 8268
encoding utf-8
Sheet 1 1
Title "A9 RTC TM1637 (Base)"
Date "2020-11-23"
Rev "0"
Comp "Everything Electronic"
Comment1 ""
Comment2 ""
Comment3 ""
Comment4 ""
$EndDescr
$Comp
L Mechanical:MountingHole H1
U 1 1 60071B76
P 10400 700
F 0 "H1" H 10500 746 50  0000 L CNN
F 1 "MountingHole" H 10500 655 50  0000 L CNN
F 2 "MountingHole:MountingHole_3mm_Pad_Via" H 10400 700 50  0001 C CNN
F 3 "~" H 10400 700 50  0001 C CNN
	1    10400 700 
	1    0    0    -1  
$EndComp
$Comp
L Mechanical:MountingHole H2
U 1 1 600722EB
P 10400 950
F 0 "H2" H 10500 996 50  0000 L CNN
F 1 "MountingHole" H 10500 905 50  0000 L CNN
F 2 "MountingHole:MountingHole_3mm_Pad_Via" H 10400 950 50  0001 C CNN
F 3 "~" H 10400 950 50  0001 C CNN
	1    10400 950 
	1    0    0    -1  
$EndComp
$Comp
L Mechanical:MountingHole H3
U 1 1 600723F7
P 10400 1200
F 0 "H3" H 10500 1246 50  0000 L CNN
F 1 "MountingHole" H 10500 1155 50  0000 L CNN
F 2 "MountingHole:MountingHole_3mm_Pad_Via" H 10400 1200 50  0001 C CNN
F 3 "~" H 10400 1200 50  0001 C CNN
	1    10400 1200
	1    0    0    -1  
$EndComp
$Comp
L Mechanical:MountingHole H4
U 1 1 60072588
P 10400 1450
F 0 "H4" H 10500 1496 50  0000 L CNN
F 1 "MountingHole" H 10500 1405 50  0000 L CNN
F 2 "MountingHole:MountingHole_3mm_Pad_Via" H 10400 1450 50  0001 C CNN
F 3 "~" H 10400 1450 50  0001 C CNN
	1    10400 1450
	1    0    0    -1  
$EndComp
$Comp
L Device:C C2
U 1 1 5FD924AE
P 1450 2750
F 0 "C2" H 1565 2796 50  0000 L CNN
F 1 "C" H 1565 2705 50  0000 L CNN
F 2 "Capacitor_THT:C_Rect_L7.0mm_W3.5mm_P5.00mm" H 1488 2600 50  0001 C CNN
F 3 "~" H 1450 2750 50  0001 C CNN
	1    1450 2750
	1    0    0    -1  
$EndComp
$Comp
L power:GND #PWR05
U 1 1 5FD9374F
P 1450 3000
F 0 "#PWR05" H 1450 2750 50  0001 C CNN
F 1 "GND" H 1450 2850 50  0000 C CNN
F 2 "" H 1450 3000 50  0001 C CNN
F 3 "" H 1450 3000 50  0001 C CNN
	1    1450 3000
	1    0    0    -1  
$EndComp
$Comp
L power:+5V #PWR04
U 1 1 5FD940B1
P 1450 2500
F 0 "#PWR04" H 1450 2350 50  0001 C CNN
F 1 "+5V" H 1465 2673 50  0000 C CNN
F 2 "" H 1450 2500 50  0001 C CNN
F 3 "" H 1450 2500 50  0001 C CNN
	1    1450 2500
	1    0    0    -1  
$EndComp
Wire Wire Line
	1450 2500 1450 2600
Wire Wire Line
	1450 2900 1450 3000
$Comp
L Mechanical:MountingHole H5
U 1 1 5FBBAC41
P 10400 1700
F 0 "H5" H 10500 1746 50  0000 L CNN
F 1 "MountingHole" H 10500 1655 50  0000 L CNN
F 2 "MountingHole:MountingHole_3mm_Pad_Via" H 10400 1700 50  0001 C CNN
F 3 "~" H 10400 1700 50  0001 C CNN
	1    10400 1700
	1    0    0    -1  
$EndComp
$Comp
L My_Lib_KiCAD:A9_GSM_Module U1
U 1 1 5FBC6E3E
P 2850 2350
F 0 "U1" H 2850 3315 50  0000 C CNN
F 1 "A9_GSM_Module" H 2850 3224 50  0000 C CNN
F 2 "BA56-12EWA(3Digit7Segment):A9_GSM_Module" H 2050 3350 50  0001 C CNN
F 3 "" H 2250 3350 50  0001 C CNN
	1    2850 2350
	1    0    0    -1  
$EndComp
$Comp
L My_Lib_KiCAD:RTC_Module U2
U 1 1 5FBD744B
P 5400 2350
F 0 "U2" H 5350 2750 50  0000 L CNN
F 1 "RTC_Module" H 5200 2650 50  0000 L CNN
F 2 "My_Lib_KiCAD:RTC_Module" H 5300 2750 50  0001 C CNN
F 3 "" H 5400 2550 50  0001 C CNN
	1    5400 2350
	1    0    0    -1  
$EndComp
$Comp
L Connector:Screw_Terminal_01x02 J2
U 1 1 5FBDA278
P 900 1750
F 0 "J2" H 818 1425 50  0000 C CNN
F 1 "PowerIN+5V" H 818 1516 50  0000 C CNN
F 2 "TerminalBlock:TerminalBlock_bornier-2_P5.08mm" H 900 1750 50  0001 C CNN
F 3 "~" H 900 1750 50  0001 C CNN
	1    900  1750
	-1   0    0    1   
$EndComp
$Comp
L power:+5V #PWR03
U 1 1 5FBDB073
P 1350 1600
F 0 "#PWR03" H 1350 1450 50  0001 C CNN
F 1 "+5V" H 1365 1773 50  0000 C CNN
F 2 "" H 1350 1600 50  0001 C CNN
F 3 "" H 1350 1600 50  0001 C CNN
	1    1350 1600
	1    0    0    -1  
$EndComp
Wire Wire Line
	1350 1650 1350 1600
$Comp
L power:GND #PWR06
U 1 1 5FBDC0EC
P 1350 1800
F 0 "#PWR06" H 1350 1550 50  0001 C CNN
F 1 "GND" H 1350 1650 50  0000 C CNN
F 2 "" H 1350 1800 50  0001 C CNN
F 3 "" H 1350 1800 50  0001 C CNN
	1    1350 1800
	1    0    0    -1  
$EndComp
Wire Wire Line
	1350 1750 1350 1800
Wire Wire Line
	1100 1650 1350 1650
Wire Wire Line
	1100 1750 1350 1750
$Comp
L power:+5V #PWR07
U 1 1 5FBC87BB
P 4950 2100
F 0 "#PWR07" H 4950 1950 50  0001 C CNN
F 1 "+5V" H 4965 2273 50  0000 C CNN
F 2 "" H 4950 2100 50  0001 C CNN
F 3 "" H 4950 2100 50  0001 C CNN
	1    4950 2100
	1    0    0    -1  
$EndComp
$Comp
L power:GND #PWR08
U 1 1 5FBC8FB6
P 4950 2650
F 0 "#PWR08" H 4950 2400 50  0001 C CNN
F 1 "GND" H 4950 2500 50  0000 C CNN
F 2 "" H 4950 2650 50  0001 C CNN
F 3 "" H 4950 2650 50  0001 C CNN
	1    4950 2650
	1    0    0    -1  
$EndComp
Wire Wire Line
	5100 2550 4950 2550
Wire Wire Line
	4950 2550 4950 2650
Wire Wire Line
	4950 2100 4950 2450
Wire Wire Line
	4950 2450 5100 2450
$Comp
L Connector_Generic:Conn_01x04 J3
U 1 1 5FBCB415
P 4350 2950
F 0 "J3" H 4430 2942 50  0000 L CNN
F 1 "Program" H 4430 2851 50  0000 L CNN
F 2 "Connector_PinHeader_2.54mm:PinHeader_1x04_P2.54mm_Vertical" H 4350 2950 50  0001 C CNN
F 3 "~" H 4350 2950 50  0001 C CNN
	1    4350 2950
	1    0    0    -1  
$EndComp
Wire Wire Line
	3850 2250 5100 2250
Wire Wire Line
	3850 2350 5100 2350
Wire Wire Line
	3850 2650 4100 2650
Wire Wire Line
	4100 2650 4100 2850
Wire Wire Line
	4100 2850 4150 2850
Wire Wire Line
	3850 2750 4050 2750
Wire Wire Line
	4050 2750 4050 2950
Wire Wire Line
	4050 2950 4150 2950
Wire Wire Line
	3850 3050 4150 3050
Wire Wire Line
	3850 3150 4150 3150
Text Label 4100 1950 2    50   ~ 0
SDA1
Text Label 4100 1850 2    50   ~ 0
SCL1
Text Label 4100 1750 2    50   ~ 0
SCL2
Text Label 4100 1650 2    50   ~ 0
SDA2
Wire Wire Line
	4100 1950 3850 1950
Wire Wire Line
	4100 1850 3850 1850
Wire Wire Line
	4100 1750 3850 1750
Wire Wire Line
	4100 1650 3850 1650
$Comp
L power:+5V #PWR0101
U 1 1 5FBD2B73
P 1750 1450
F 0 "#PWR0101" H 1750 1300 50  0001 C CNN
F 1 "+5V" H 1765 1623 50  0000 C CNN
F 2 "" H 1750 1450 50  0001 C CNN
F 3 "" H 1750 1450 50  0001 C CNN
	1    1750 1450
	1    0    0    -1  
$EndComp
$Comp
L power:GND #PWR0102
U 1 1 5FBD3176
P 1700 1900
F 0 "#PWR0102" H 1700 1650 50  0001 C CNN
F 1 "GND" H 1700 1750 50  0000 C CNN
F 2 "" H 1700 1900 50  0001 C CNN
F 3 "" H 1700 1900 50  0001 C CNN
	1    1700 1900
	1    0    0    -1  
$EndComp
Wire Wire Line
	1850 1650 1700 1650
Wire Wire Line
	1700 1650 1700 1900
Wire Wire Line
	1850 1750 1750 1750
Wire Wire Line
	1750 1750 1750 1450
Wire Wire Line
	4850 1250 4850 1200
Wire Wire Line
	5300 1250 4850 1250
Wire Wire Line
	4850 1350 4850 1400
Wire Wire Line
	5300 1350 4850 1350
Wire Wire Line
	5300 1750 5050 1750
Wire Wire Line
	5300 1650 5050 1650
Wire Wire Line
	5300 1550 5050 1550
Wire Wire Line
	5300 1450 5050 1450
$Comp
L power:GND #PWR02
U 1 1 5FCBE29E
P 4850 1400
F 0 "#PWR02" H 4850 1150 50  0001 C CNN
F 1 "GND" H 4850 1250 50  0000 C CNN
F 2 "" H 4850 1400 50  0001 C CNN
F 3 "" H 4850 1400 50  0001 C CNN
	1    4850 1400
	-1   0    0    -1  
$EndComp
$Comp
L power:+5V #PWR01
U 1 1 5FCBDE72
P 4850 1200
F 0 "#PWR01" H 4850 1050 50  0001 C CNN
F 1 "+5V" H 4865 1373 50  0000 C CNN
F 2 "" H 4850 1200 50  0001 C CNN
F 3 "" H 4850 1200 50  0001 C CNN
	1    4850 1200
	-1   0    0    -1  
$EndComp
Text Label 5050 1750 0    50   ~ 0
SDA2
Text Label 5050 1650 0    50   ~ 0
SCL2
Text Label 5050 1550 0    50   ~ 0
SCL1
Text Label 5050 1450 0    50   ~ 0
SDA1
$Comp
L Connector_Generic:Conn_01x06 J1
U 1 1 5FCBCC01
P 5500 1550
F 0 "J1" H 5418 1025 50  0000 C CNN
F 1 "Conn_01x06" H 5418 1116 50  0000 C CNN
F 2 "Connector_PinHeader_2.54mm:PinHeader_1x06_P2.54mm_Vertical" H 5500 1550 50  0001 C CNN
F 3 "~" H 5500 1550 50  0001 C CNN
	1    5500 1550
	1    0    0    1   
$EndComp
Wire Notes Line
	5750 850  5750 3400
Wire Notes Line
	5750 3400 700  3400
Wire Notes Line
	700  3400 700  850 
Wire Notes Line
	700  850  5750 850 
$EndSCHEMATC
