EESchema Schematic File Version 4
EELAYER 30 0
EELAYER END
$Descr A4 11693 8268
encoding utf-8
Sheet 1 1
Title "A9 RTC TM1637 (Base)"
Date "2020-12-16"
Rev "1"
Comp "Everything Electronic"
Comment1 ""
Comment2 ""
Comment3 ""
Comment4 ""
$EndDescr
$Comp
L Mechanical:MountingHole H1
U 1 1 60071B76
P 750 6600
F 0 "H1" H 850 6646 50  0000 L CNN
F 1 "MountingHole" H 850 6555 50  0000 L CNN
F 2 "MountingHole:MountingHole_3mm_Pad_Via" H 750 6600 50  0001 C CNN
F 3 "~" H 750 6600 50  0001 C CNN
	1    750  6600
	1    0    0    -1  
$EndComp
$Comp
L Mechanical:MountingHole H2
U 1 1 600722EB
P 750 6850
F 0 "H2" H 850 6896 50  0000 L CNN
F 1 "MountingHole" H 850 6805 50  0000 L CNN
F 2 "MountingHole:MountingHole_3mm_Pad_Via" H 750 6850 50  0001 C CNN
F 3 "~" H 750 6850 50  0001 C CNN
	1    750  6850
	1    0    0    -1  
$EndComp
$Comp
L Mechanical:MountingHole H3
U 1 1 600723F7
P 750 7100
F 0 "H3" H 850 7146 50  0000 L CNN
F 1 "MountingHole" H 850 7055 50  0000 L CNN
F 2 "MountingHole:MountingHole_3mm_Pad_Via" H 750 7100 50  0001 C CNN
F 3 "~" H 750 7100 50  0001 C CNN
	1    750  7100
	1    0    0    -1  
$EndComp
$Comp
L Mechanical:MountingHole H4
U 1 1 5FD8AE63
P 750 7350
F 0 "H4" H 850 7396 50  0000 L CNN
F 1 "MountingHole" H 850 7305 50  0000 L CNN
F 2 "MountingHole:MountingHole_3mm_Pad_Via" H 750 7350 50  0001 C CNN
F 3 "~" H 750 7350 50  0001 C CNN
	1    750  7350
	1    0    0    -1  
$EndComp
$Comp
L Device:C C5
U 1 1 5FD924AE
P 6200 2550
F 0 "C5" H 6315 2596 50  0000 L CNN
F 1 "C" H 6315 2505 50  0000 L CNN
F 2 "Capacitor_THT:C_Rect_L7.0mm_W3.5mm_P5.00mm" H 6238 2400 50  0001 C CNN
F 3 "~" H 6200 2550 50  0001 C CNN
	1    6200 2550
	1    0    0    -1  
$EndComp
Wire Wire Line
	6200 2300 6200 2400
Wire Wire Line
	6200 2700 6200 2800
$Comp
L My_Lib_KiCAD:A9_GSM_Module U1
U 1 1 5FBC6E3E
P 8200 2100
F 0 "U1" H 8200 3065 50  0000 C CNN
F 1 "A9_GSM_Module" H 8200 2974 50  0000 C CNN
F 2 "BA56-12EWA(3Digit7Segment):A9_GSM_Module" H 7400 3100 50  0001 C CNN
F 3 "" H 7600 3100 50  0001 C CNN
	1    8200 2100
	1    0    0    -1  
$EndComp
$Comp
L My_Lib_KiCAD:RTC_Module U2
U 1 1 5FBD744B
P 10750 2100
F 0 "U2" H 10700 2500 50  0000 L CNN
F 1 "RTC_Module" H 10550 2400 50  0000 L CNN
F 2 "My_Lib_KiCAD:RTC_Module" H 10650 2500 50  0001 C CNN
F 3 "" H 10750 2300 50  0001 C CNN
	1    10750 2100
	1    0    0    -1  
$EndComp
$Comp
L Connector:Screw_Terminal_01x02 J5
U 1 1 5FBDA278
P 6200 1050
F 0 "J5" H 6118 725 50  0000 C CNN
F 1 "VBATT" H 6118 816 50  0000 C CNN
F 2 "TerminalBlock:TerminalBlock_bornier-2_P5.08mm" H 6200 1050 50  0001 C CNN
F 3 "~" H 6200 1050 50  0001 C CNN
	1    6200 1050
	-1   0    0    1   
$EndComp
Wire Wire Line
	6650 950  6650 900 
Wire Wire Line
	6650 1050 6650 1100
Wire Wire Line
	6400 950  6650 950 
Wire Wire Line
	6400 1050 6650 1050
Wire Wire Line
	10450 2300 10300 2300
Wire Wire Line
	10300 2300 10300 2400
Wire Wire Line
	10300 1850 10300 2200
Wire Wire Line
	10300 2200 10450 2200
$Comp
L Connector_Generic:Conn_01x04 J3
U 1 1 5FBCB415
P 9850 2700
F 0 "J3" H 9930 2692 50  0000 L CNN
F 1 "Program" H 9930 2601 50  0000 L CNN
F 2 "Connector_PinHeader_2.54mm:PinHeader_1x04_P2.54mm_Vertical" H 9850 2700 50  0001 C CNN
F 3 "~" H 9850 2700 50  0001 C CNN
	1    9850 2700
	1    0    0    -1  
$EndComp
Wire Wire Line
	9200 2000 10450 2000
Wire Wire Line
	9200 2100 10450 2100
Text Label 6850 2000 0    50   ~ 0
LSDA1
Text Label 6850 2100 0    50   ~ 0
LSCL1
Text Label 6850 2300 0    50   ~ 0
LSCL2
Text Label 6850 2400 0    50   ~ 0
LSDA2
Wire Wire Line
	7200 1500 7100 1500
Wire Wire Line
	7100 1500 7100 1200
Wire Wire Line
	5050 1200 5050 1250
Wire Wire Line
	5500 1200 5050 1200
Wire Wire Line
	5500 1600 5250 1600
Wire Wire Line
	5500 1500 5250 1500
Wire Wire Line
	5500 1400 5250 1400
Wire Wire Line
	5500 1300 5250 1300
Text Label 5250 1600 0    50   ~ 0
SDA2
Text Label 5250 1500 0    50   ~ 0
SCL2
Text Label 5250 1400 0    50   ~ 0
SCL1
Text Label 5250 1300 0    50   ~ 0
SDA1
$Comp
L Connector_Generic:Conn_01x06 J1
U 1 1 5FCBCC01
P 5700 1400
F 0 "J1" H 5618 875 50  0000 C CNN
F 1 "Display" H 5618 966 50  0000 C CNN
F 2 "Connector_PinHeader_2.54mm:PinHeader_1x06_P2.54mm_Vertical" H 5700 1400 50  0001 C CNN
F 3 "~" H 5700 1400 50  0001 C CNN
	1    5700 1400
	1    0    0    1   
$EndComp
Wire Notes Line
	11100 600  11100 3150
Wire Notes Line
	11100 3150 6050 3150
Wire Notes Line
	6050 3150 6050 600 
Wire Notes Line
	6050 600  11100 600 
$Comp
L Isolator:PC817 U4
U 1 1 5FD731E8
P 8550 4600
F 0 "U4" H 8550 4925 50  0000 C CNN
F 1 "PC817" H 8550 4834 50  0000 C CNN
F 2 "Package_DIP:DIP-4_W7.62mm" H 8350 4400 50  0001 L CIN
F 3 "http://www.soselectronic.cz/a_info/resource/d/pc817.pdf" H 8550 4600 50  0001 L CNN
	1    8550 4600
	1    0    0    -1  
$EndComp
$Comp
L Device:R R6
U 1 1 5FD7606A
P 7850 4500
F 0 "R6" V 7643 4500 50  0000 C CNN
F 1 "470R" V 7734 4500 50  0000 C CNN
F 2 "Resistor_THT:R_Axial_DIN0207_L6.3mm_D2.5mm_P7.62mm_Horizontal" V 7780 4500 50  0001 C CNN
F 3 "~" H 7850 4500 50  0001 C CNN
	1    7850 4500
	0    1    1    0   
$EndComp
$Comp
L power:GND1 #PWR06
U 1 1 5FD769A6
P 8150 4900
F 0 "#PWR06" H 8150 4650 50  0001 C CNN
F 1 "GND1" H 8155 4727 50  0000 C CNN
F 2 "" H 8150 4900 50  0001 C CNN
F 3 "" H 8150 4900 50  0001 C CNN
	1    8150 4900
	1    0    0    -1  
$EndComp
Wire Wire Line
	8000 4500 8250 4500
Wire Wire Line
	8850 4500 9000 4500
Wire Wire Line
	9000 4500 9000 4100
$Comp
L Device:R R7
U 1 1 5FD7F541
P 9200 4700
F 0 "R7" V 8993 4700 50  0000 C CNN
F 1 "10k" V 9084 4700 50  0000 C CNN
F 2 "Resistor_THT:R_Axial_DIN0207_L6.3mm_D2.5mm_P7.62mm_Horizontal" V 9130 4700 50  0001 C CNN
F 3 "~" H 9200 4700 50  0001 C CNN
	1    9200 4700
	0    1    1    0   
$EndComp
$Comp
L Device:R R8
U 1 1 5FD7FA99
P 9500 4900
F 0 "R8" H 9430 4854 50  0000 R CNN
F 1 "47k" H 9430 4945 50  0000 R CNN
F 2 "Resistor_THT:R_Axial_DIN0207_L6.3mm_D2.5mm_P7.62mm_Horizontal" V 9430 4900 50  0001 C CNN
F 3 "~" H 9500 4900 50  0001 C CNN
	1    9500 4900
	-1   0    0    1   
$EndComp
Wire Wire Line
	9050 4700 8850 4700
$Comp
L Transistor_BJT:BC547 Q1
U 1 1 5FD8063F
P 10000 4700
F 0 "Q1" H 10191 4746 50  0000 L CNN
F 1 "C945" H 10191 4655 50  0000 L CNN
F 2 "Package_TO_SOT_THT:TO-92_Inline_Wide" H 10200 4625 50  0001 L CIN
F 3 "https://www.onsemi.com/pub/Collateral/BC550-D.pdf" H 10000 4700 50  0001 L CNN
	1    10000 4700
	1    0    0    -1  
$EndComp
Wire Wire Line
	9800 4700 9500 4700
Wire Wire Line
	9500 4750 9500 4700
Connection ~ 9500 4700
Wire Wire Line
	9500 4700 9350 4700
$Comp
L Device:R R9
U 1 1 5FD83896
P 10100 4150
F 0 "R9" H 10030 4104 50  0000 R CNN
F 1 "4.7k" H 10030 4195 50  0000 R CNN
F 2 "Resistor_THT:R_Axial_DIN0207_L6.3mm_D2.5mm_P7.62mm_Horizontal" V 10030 4150 50  0001 C CNN
F 3 "~" H 10100 4150 50  0001 C CNN
	1    10100 4150
	-1   0    0    1   
$EndComp
$Comp
L Device:R R10
U 1 1 5FD840A1
P 10550 4700
F 0 "R10" H 10480 4654 50  0000 R CNN
F 1 "3.3k" H 10480 4745 50  0000 R CNN
F 2 "Resistor_THT:R_Axial_DIN0207_L6.3mm_D2.5mm_P7.62mm_Horizontal" V 10480 4700 50  0001 C CNN
F 3 "~" H 10550 4700 50  0001 C CNN
	1    10550 4700
	-1   0    0    1   
$EndComp
Wire Wire Line
	10100 3850 10100 4000
Wire Wire Line
	10100 4300 10100 4450
Text Label 11050 4450 2    50   ~ 0
AC_Monitor
Wire Wire Line
	11050 4450 10550 4450
Connection ~ 10100 4450
Wire Wire Line
	10100 4450 10100 4500
Wire Wire Line
	10550 4550 10550 4450
Connection ~ 10550 4450
Wire Wire Line
	10550 4450 10100 4450
$Comp
L Device:R R1
U 1 1 5FD9109D
P 1600 1400
F 0 "R1" V 1393 1400 50  0000 C CNN
F 1 "33k" V 1484 1400 50  0000 C CNN
F 2 "Resistor_THT:R_Axial_DIN0207_L6.3mm_D2.5mm_P7.62mm_Horizontal" V 1530 1400 50  0001 C CNN
F 3 "~" H 1600 1400 50  0001 C CNN
	1    1600 1400
	0    1    1    0   
$EndComp
$Comp
L Device:R_POT RV1
U 1 1 5FD91830
P 2600 1400
F 0 "RV1" H 2530 1354 50  0000 R CNN
F 1 "10k" H 2530 1445 50  0000 R CNN
F 2 "Potentiometer_THT:Potentiometer_Bourns_3296W_Vertical" H 2600 1400 50  0001 C CNN
F 3 "~" H 2600 1400 50  0001 C CNN
	1    2600 1400
	-1   0    0    1   
$EndComp
$Comp
L Device:R R4
U 1 1 5FD92668
P 2150 1650
F 0 "R4" H 2220 1696 50  0000 L CNN
F 1 "4.7k" H 2220 1605 50  0000 L CNN
F 2 "Resistor_THT:R_Axial_DIN0207_L6.3mm_D2.5mm_P7.62mm_Horizontal" V 2080 1650 50  0001 C CNN
F 3 "~" H 2150 1650 50  0001 C CNN
	1    2150 1650
	1    0    0    -1  
$EndComp
$Comp
L Connector:Screw_Terminal_01x02 J2
U 1 1 5FD92B46
P 750 1500
F 0 "J2" H 668 1175 50  0000 C CNN
F 1 "DC INPUT" H 668 1266 50  0000 C CNN
F 2 "TerminalBlock:TerminalBlock_bornier-2_P5.08mm" H 750 1500 50  0001 C CNN
F 3 "~" H 750 1500 50  0001 C CNN
	1    750  1500
	-1   0    0    1   
$EndComp
Wire Wire Line
	950  1400 1450 1400
$Comp
L Device:R R5
U 1 1 5FD9739C
P 2600 2050
F 0 "R5" H 2670 2096 50  0000 L CNN
F 1 "330R" H 2670 2005 50  0000 L CNN
F 2 "Resistor_THT:R_Axial_DIN0207_L6.3mm_D2.5mm_P7.62mm_Horizontal" V 2530 2050 50  0001 C CNN
F 3 "~" H 2600 2050 50  0001 C CNN
	1    2600 2050
	1    0    0    -1  
$EndComp
Wire Wire Line
	2950 1050 2600 1050
Wire Wire Line
	2600 1050 2600 1250
Wire Wire Line
	1750 1400 2150 1400
Wire Wire Line
	2150 1500 2150 1400
Connection ~ 2150 1400
Wire Wire Line
	2150 1400 2450 1400
Wire Wire Line
	2600 1550 2600 1850
Wire Wire Line
	2150 1800 2150 1850
Wire Wire Line
	2150 1850 2600 1850
Connection ~ 2600 1850
Wire Wire Line
	2600 1850 2600 1900
$Comp
L Device:CP C4
U 1 1 5FAF860A
P 6800 4750
F 0 "C4" H 6918 4796 50  0000 L CNN
F 1 "470uF" H 6918 4705 50  0000 L CNN
F 2 "Capacitor_THT:CP_Radial_D8.0mm_P3.50mm" H 6838 4600 50  0001 C CNN
F 3 "~" H 6800 4750 50  0001 C CNN
	1    6800 4750
	1    0    0    -1  
$EndComp
$Comp
L Device:R R2
U 1 1 5FBCB62D
P 5400 4100
F 0 "R2" V 5500 4050 50  0000 L CNN
F 1 "470k" V 5300 4000 50  0000 L CNN
F 2 "Resistor_THT:R_Axial_DIN0207_L6.3mm_D2.5mm_P7.62mm_Horizontal" V 5330 4100 50  0001 C CNN
F 3 "~" H 5400 4100 50  0001 C CNN
	1    5400 4100
	0    1    1    0   
$EndComp
$Comp
L Device:R R3
U 1 1 5FBCBD83
P 5500 5000
F 0 "R3" V 5300 4950 50  0000 L CNN
F 1 "10R" V 5400 4900 50  0000 L CNN
F 2 "Resistor_THT:R_Axial_DIN0207_L6.3mm_D2.5mm_P10.16mm_Horizontal" V 5430 5000 50  0001 C CNN
F 3 "~" H 5500 5000 50  0001 C CNN
	1    5500 5000
	0    1    1    0   
$EndComp
$Comp
L Device:D_Zener D2
U 1 1 6004E6A0
P 7250 4750
F 0 "D2" V 7204 4830 50  0000 L CNN
F 1 "1N4732" V 7295 4830 50  0000 L CNN
F 2 "Diode_THT:D_DO-35_SOD27_P7.62mm_Horizontal" H 7250 4750 50  0001 C CNN
F 3 "~" H 7250 4750 50  0001 C CNN
	1    7250 4750
	0    1    1    0   
$EndComp
$Comp
L Device:C C2
U 1 1 600577B1
P 5400 3800
F 0 "C2" V 5150 3750 50  0000 L CNN
F 1 "105J/630V" V 5250 3750 50  0000 L CNN
F 2 "Capacitor_THT:C_Rect_L27.0mm_W9.0mm_P23.00mm" H 5438 3650 50  0001 C CNN
F 3 "~" H 5400 3800 50  0001 C CNN
	1    5400 3800
	0    1    1    0   
$EndComp
$Comp
L Diode_Bridge:DF01M D1
U 1 1 600590A2
P 6300 4500
F 0 "D1" H 6400 4800 50  0000 L CNN
F 1 "DF01M" H 6400 4700 50  0000 L CNN
F 2 "Diode_THT:Diode_Bridge_DIP-4_W7.62mm_P5.08mm" H 6450 4625 50  0001 L CNN
F 3 "http://www.vishay.com/docs/88571/dfm.pdf" H 6300 4500 50  0001 C CNN
	1    6300 4500
	1    0    0    1   
$EndComp
Wire Wire Line
	6300 5000 6300 4800
Wire Wire Line
	5550 4100 5650 4100
Wire Wire Line
	5550 3800 5650 3800
Wire Wire Line
	5650 3800 5650 4100
Connection ~ 5650 4100
Wire Wire Line
	6000 4500 5800 4500
Wire Wire Line
	5800 4500 5800 4550
Wire Wire Line
	6300 4100 6300 4200
Wire Wire Line
	5650 5000 6300 5000
Wire Wire Line
	5250 4100 5150 4100
Wire Wire Line
	5250 3800 5150 3800
Wire Wire Line
	5150 3800 5150 4100
Connection ~ 5150 4100
Wire Wire Line
	4350 4100 5150 4100
Wire Wire Line
	5650 4100 6300 4100
Wire Wire Line
	4350 5000 5350 5000
Wire Wire Line
	6600 4500 6800 4500
Wire Wire Line
	6800 4600 6800 4500
Connection ~ 6800 4500
Wire Wire Line
	6800 4500 7250 4500
Wire Wire Line
	7250 4600 7250 4500
Connection ~ 7250 4500
Wire Wire Line
	7250 4500 7700 4500
$Comp
L power:GND1 #PWR04
U 1 1 5FDD1CF8
P 7250 5000
F 0 "#PWR04" H 7250 4750 50  0001 C CNN
F 1 "GND1" H 7255 4827 50  0000 C CNN
F 2 "" H 7250 5000 50  0001 C CNN
F 3 "" H 7250 5000 50  0001 C CNN
	1    7250 5000
	1    0    0    -1  
$EndComp
$Comp
L power:GND1 #PWR02
U 1 1 5FDD1EED
P 6800 5000
F 0 "#PWR02" H 6800 4750 50  0001 C CNN
F 1 "GND1" H 6805 4827 50  0000 C CNN
F 2 "" H 6800 5000 50  0001 C CNN
F 3 "" H 6800 5000 50  0001 C CNN
	1    6800 5000
	1    0    0    -1  
$EndComp
$Comp
L power:+5VD #PWR015
U 1 1 5FD8BBD6
P 9550 2400
F 0 "#PWR015" H 9550 2250 50  0001 C CNN
F 1 "+5VD" H 9565 2573 50  0000 C CNN
F 2 "" H 9550 2400 50  0001 C CNN
F 3 "" H 9550 2400 50  0001 C CNN
	1    9550 2400
	1    0    0    -1  
$EndComp
Wire Wire Line
	9200 2800 9550 2800
Wire Wire Line
	9550 2400 9550 2800
Connection ~ 9550 2800
Wire Wire Line
	9550 2800 9650 2800
Wire Wire Line
	9650 2700 9300 2700
Wire Wire Line
	9300 2700 9300 2500
Wire Wire Line
	9300 2500 9200 2500
Wire Wire Line
	9650 2600 9400 2600
Wire Wire Line
	9400 2600 9400 2400
Wire Wire Line
	9400 2400 9200 2400
$Comp
L power:+5VD #PWR017
U 1 1 5FD98EB0
P 10300 1850
F 0 "#PWR017" H 10300 1700 50  0001 C CNN
F 1 "+5VD" H 10315 2023 50  0000 C CNN
F 2 "" H 10300 1850 50  0001 C CNN
F 3 "" H 10300 1850 50  0001 C CNN
	1    10300 1850
	1    0    0    -1  
$EndComp
$Comp
L power:+5VD #PWR016
U 1 1 5FD9938C
P 3550 1000
F 0 "#PWR016" H 3550 850 50  0001 C CNN
F 1 "+5VD" H 3565 1173 50  0000 C CNN
F 2 "" H 3550 1000 50  0001 C CNN
F 3 "" H 3550 1000 50  0001 C CNN
	1    3550 1000
	1    0    0    -1  
$EndComp
Text Label 6850 1800 0    50   ~ 0
V_Sense
Wire Wire Line
	6850 1800 7200 1800
Text Label 2950 1050 2    50   ~ 0
V_Sense
Wire Wire Line
	6850 2000 7200 2000
Wire Wire Line
	6850 2100 7200 2100
Wire Wire Line
	6850 2300 7200 2300
Wire Wire Line
	6850 2400 7200 2400
$Comp
L Connector:Screw_Terminal_01x02 J4
U 1 1 5FDB5F3F
P 3850 4650
F 0 "J4" H 3768 4325 50  0000 C CNN
F 1 "AC INPUT" H 3768 4416 50  0000 C CNN
F 2 "TerminalBlock:TerminalBlock_bornier-2_P5.08mm" H 3850 4650 50  0001 C CNN
F 3 "~" H 3850 4650 50  0001 C CNN
	1    3850 4650
	-1   0    0    1   
$EndComp
Wire Wire Line
	4050 4550 4350 4550
Wire Wire Line
	4350 4550 4350 4100
Wire Wire Line
	4050 4650 4350 4650
Wire Wire Line
	4350 4650 4350 5000
Text Label 6750 2600 0    50   ~ 0
AC_Monitor
Wire Wire Line
	6750 2600 7200 2600
$Comp
L My_Lib_KiCAD:Level_Converter U3
U 1 1 5FDE213D
P 2050 4450
F 0 "U3" H 2025 4965 50  0000 C CNN
F 1 "Level_Converter" H 2025 4874 50  0000 C CNN
F 2 "My_Lib_KiCAD:Level_Converter" H 2000 5000 50  0001 C CNN
F 3 "" H 2000 4600 50  0001 C CNN
	1    2050 4450
	1    0    0    -1  
$EndComp
Text Label 1300 4200 0    50   ~ 0
LSDA1
Text Label 1300 4300 0    50   ~ 0
LSCL1
Text Label 1300 4600 0    50   ~ 0
LSCL2
Text Label 1300 4700 0    50   ~ 0
LSDA2
Wire Wire Line
	1300 4200 1650 4200
Wire Wire Line
	1300 4300 1650 4300
Wire Wire Line
	1300 4600 1650 4600
Wire Wire Line
	1300 4700 1650 4700
Wire Wire Line
	1650 4500 1050 4500
Wire Wire Line
	2400 4500 2950 4500
Wire Wire Line
	2400 4700 2650 4700
Wire Wire Line
	2400 4600 2650 4600
Wire Wire Line
	2400 4300 2650 4300
Wire Wire Line
	2400 4200 2650 4200
Text Label 2650 4700 2    50   ~ 0
SDA2
Text Label 2650 4600 2    50   ~ 0
SCL2
Text Label 2650 4300 2    50   ~ 0
SCL1
Text Label 2650 4200 2    50   ~ 0
SDA1
$Comp
L power:+5VD #PWR013
U 1 1 5FE206FD
P 2950 4300
F 0 "#PWR013" H 2950 4150 50  0001 C CNN
F 1 "+5VD" H 2965 4473 50  0000 C CNN
F 2 "" H 2950 4300 50  0001 C CNN
F 3 "" H 2950 4300 50  0001 C CNN
	1    2950 4300
	1    0    0    -1  
$EndComp
Wire Wire Line
	2400 4400 2950 4400
Wire Wire Line
	2950 4400 2950 4300
Text Label 6850 2200 0    50   ~ 0
LV
Wire Wire Line
	6850 2200 7200 2200
Text Label 1300 4400 0    50   ~ 0
LV
Wire Wire Line
	1300 4400 1650 4400
Wire Wire Line
	1050 4500 1050 4750
Wire Wire Line
	2950 4500 2950 4750
$Comp
L power:GND1 #PWR022
U 1 1 5FE3B7C6
P 5800 4550
F 0 "#PWR022" H 5800 4300 50  0001 C CNN
F 1 "GND1" H 5805 4377 50  0000 C CNN
F 2 "" H 5800 4550 50  0001 C CNN
F 3 "" H 5800 4550 50  0001 C CNN
	1    5800 4550
	1    0    0    -1  
$EndComp
Wire Wire Line
	9200 2900 9650 2900
$Comp
L power:GND2 #PWR023
U 1 1 5FE41977
P 2600 2350
F 0 "#PWR023" H 2600 2100 50  0001 C CNN
F 1 "GND2" H 2605 2177 50  0000 C CNN
F 2 "" H 2600 2350 50  0001 C CNN
F 3 "" H 2600 2350 50  0001 C CNN
	1    2600 2350
	1    0    0    -1  
$EndComp
$Comp
L power:GND2 #PWR01
U 1 1 5FE42039
P 1050 1650
F 0 "#PWR01" H 1050 1400 50  0001 C CNN
F 1 "GND2" H 1055 1477 50  0000 C CNN
F 2 "" H 1050 1650 50  0001 C CNN
F 3 "" H 1050 1650 50  0001 C CNN
	1    1050 1650
	1    0    0    -1  
$EndComp
Wire Wire Line
	950  1500 1050 1500
Wire Wire Line
	1050 1500 1050 1650
Wire Wire Line
	2600 2200 2600 2350
$Comp
L power:GND2 #PWR08
U 1 1 5FE4AD49
P 9500 5200
F 0 "#PWR08" H 9500 4950 50  0001 C CNN
F 1 "GND2" H 9505 5027 50  0000 C CNN
F 2 "" H 9500 5200 50  0001 C CNN
F 3 "" H 9500 5200 50  0001 C CNN
	1    9500 5200
	1    0    0    -1  
$EndComp
$Comp
L power:GND2 #PWR010
U 1 1 5FE4B2C2
P 10100 5200
F 0 "#PWR010" H 10100 4950 50  0001 C CNN
F 1 "GND2" H 10105 5027 50  0000 C CNN
F 2 "" H 10100 5200 50  0001 C CNN
F 3 "" H 10100 5200 50  0001 C CNN
	1    10100 5200
	1    0    0    -1  
$EndComp
$Comp
L power:GND2 #PWR011
U 1 1 5FE4B5FC
P 10550 5200
F 0 "#PWR011" H 10550 4950 50  0001 C CNN
F 1 "GND2" H 10555 5027 50  0000 C CNN
F 2 "" H 10550 5200 50  0001 C CNN
F 3 "" H 10550 5200 50  0001 C CNN
	1    10550 5200
	1    0    0    -1  
$EndComp
Wire Wire Line
	9500 5200 9500 5050
Wire Wire Line
	10100 5200 10100 4900
Wire Wire Line
	10550 5200 10550 4850
Wire Wire Line
	6800 5000 6800 4900
Wire Wire Line
	7250 5000 7250 4900
Wire Wire Line
	8150 4900 8150 4700
Wire Wire Line
	8150 4700 8250 4700
$Comp
L power:GND2 #PWR05
U 1 1 5FE654CE
P 1050 4750
F 0 "#PWR05" H 1050 4500 50  0001 C CNN
F 1 "GND2" H 1055 4577 50  0000 C CNN
F 2 "" H 1050 4750 50  0001 C CNN
F 3 "" H 1050 4750 50  0001 C CNN
	1    1050 4750
	1    0    0    -1  
$EndComp
$Comp
L power:GND2 #PWR012
U 1 1 5FE659F5
P 2950 4750
F 0 "#PWR012" H 2950 4500 50  0001 C CNN
F 1 "GND2" H 2955 4577 50  0000 C CNN
F 2 "" H 2950 4750 50  0001 C CNN
F 3 "" H 2950 4750 50  0001 C CNN
	1    2950 4750
	1    0    0    -1  
$EndComp
$Comp
L power:GND2 #PWR014
U 1 1 5FE65CD3
P 6200 2800
F 0 "#PWR014" H 6200 2550 50  0001 C CNN
F 1 "GND2" H 6205 2627 50  0000 C CNN
F 2 "" H 6200 2800 50  0001 C CNN
F 3 "" H 6200 2800 50  0001 C CNN
	1    6200 2800
	1    0    0    -1  
$EndComp
$Comp
L power:GND2 #PWR018
U 1 1 5FE662E4
P 6650 1100
F 0 "#PWR018" H 6650 850 50  0001 C CNN
F 1 "GND2" H 6655 927 50  0000 C CNN
F 2 "" H 6650 1100 50  0001 C CNN
F 3 "" H 6650 1100 50  0001 C CNN
	1    6650 1100
	1    0    0    -1  
$EndComp
$Comp
L power:GND2 #PWR019
U 1 1 5FE6664F
P 6300 1500
F 0 "#PWR019" H 6300 1250 50  0001 C CNN
F 1 "GND2" H 6305 1327 50  0000 C CNN
F 2 "" H 6300 1500 50  0001 C CNN
F 3 "" H 6300 1500 50  0001 C CNN
	1    6300 1500
	1    0    0    -1  
$EndComp
$Comp
L power:GND2 #PWR020
U 1 1 5FE667E5
P 5050 1250
F 0 "#PWR020" H 5050 1000 50  0001 C CNN
F 1 "GND2" H 5055 1077 50  0000 C CNN
F 2 "" H 5050 1250 50  0001 C CNN
F 3 "" H 5050 1250 50  0001 C CNN
	1    5050 1250
	1    0    0    -1  
$EndComp
$Comp
L power:GND2 #PWR021
U 1 1 5FE66F82
P 10300 2400
F 0 "#PWR021" H 10300 2150 50  0001 C CNN
F 1 "GND2" H 10305 2227 50  0000 C CNN
F 2 "" H 10300 2400 50  0001 C CNN
F 3 "" H 10300 2400 50  0001 C CNN
	1    10300 2400
	1    0    0    -1  
$EndComp
$Comp
L power:+5V #PWR07
U 1 1 5FE68A36
P 6200 2300
F 0 "#PWR07" H 6200 2150 50  0001 C CNN
F 1 "+5V" H 6215 2473 50  0000 C CNN
F 2 "" H 6200 2300 50  0001 C CNN
F 3 "" H 6200 2300 50  0001 C CNN
	1    6200 2300
	1    0    0    -1  
$EndComp
$Comp
L power:+5V #PWR09
U 1 1 5FE68EC1
P 6650 900
F 0 "#PWR09" H 6650 750 50  0001 C CNN
F 1 "+5V" H 6665 1073 50  0000 C CNN
F 2 "" H 6650 900 50  0001 C CNN
F 3 "" H 6650 900 50  0001 C CNN
	1    6650 900 
	1    0    0    -1  
$EndComp
$Comp
L power:+5V #PWR024
U 1 1 5FE691AA
P 7100 1200
F 0 "#PWR024" H 7100 1050 50  0001 C CNN
F 1 "+5V" H 7115 1373 50  0000 C CNN
F 2 "" H 7100 1200 50  0001 C CNN
F 3 "" H 7100 1200 50  0001 C CNN
	1    7100 1200
	1    0    0    -1  
$EndComp
$Comp
L Connector_Generic:Conn_01x06 J6
U 1 1 5FEA7175
P 9600 1700
F 0 "J6" H 9518 1175 50  0000 C CNN
F 1 "Conn_01x06" H 9518 1266 50  0000 C CNN
F 2 "Connector_PinHeader_2.54mm:PinHeader_1x06_P2.54mm_Vertical" H 9600 1700 50  0001 C CNN
F 3 "~" H 9600 1700 50  0001 C CNN
	1    9600 1700
	1    0    0    1   
$EndComp
Wire Wire Line
	9400 1400 9200 1400
Wire Wire Line
	9400 1500 9200 1500
Wire Wire Line
	9400 1600 9200 1600
Wire Wire Line
	9400 1700 9200 1700
Wire Wire Line
	9400 1800 9200 1800
Wire Wire Line
	9400 1900 9200 1900
$Comp
L power:+5VD #PWR025
U 1 1 5FED4766
P 9000 4100
F 0 "#PWR025" H 9000 3950 50  0001 C CNN
F 1 "+5VD" H 9015 4273 50  0000 C CNN
F 2 "" H 9000 4100 50  0001 C CNN
F 3 "" H 9000 4100 50  0001 C CNN
	1    9000 4100
	1    0    0    -1  
$EndComp
$Comp
L power:+5VD #PWR026
U 1 1 5FED4EC5
P 10100 3850
F 0 "#PWR026" H 10100 3700 50  0001 C CNN
F 1 "+5VD" H 10115 4023 50  0000 C CNN
F 2 "" H 10100 3850 50  0001 C CNN
F 3 "" H 10100 3850 50  0001 C CNN
	1    10100 3850
	1    0    0    -1  
$EndComp
$Comp
L Transistor_BJT:BC547 Q2
U 1 1 5FEDD553
P 4300 2450
F 0 "Q2" H 4491 2496 50  0000 L CNN
F 1 "C1384" H 4491 2405 50  0000 L CNN
F 2 "Package_TO_SOT_THT:TO-92_Inline_Wide" H 4500 2375 50  0001 L CIN
F 3 "https://www.onsemi.com/pub/Collateral/BC550-D.pdf" H 4300 2450 50  0001 L CNN
	1    4300 2450
	1    0    0    -1  
$EndComp
$Comp
L Device:Q_PNP_ECB Q3
U 1 1 5FEDF084
P 4400 1200
F 0 "Q3" V 4728 1200 50  0000 C CNN
F 1 "A733" V 4637 1200 50  0000 C CNN
F 2 "Package_TO_SOT_THT:TO-220-3_Vertical" H 4600 1300 50  0001 C CNN
F 3 "~" H 4400 1200 50  0001 C CNN
	1    4400 1200
	0    1    -1   0   
$EndComp
$Comp
L Device:R R12
U 1 1 5FEDFE01
P 4000 1500
F 0 "R12" H 3930 1454 50  0000 R CNN
F 1 "470R" H 3930 1545 50  0000 R CNN
F 2 "Resistor_THT:R_Axial_DIN0207_L6.3mm_D2.5mm_P7.62mm_Horizontal" V 3930 1500 50  0001 C CNN
F 3 "~" H 4000 1500 50  0001 C CNN
	1    4000 1500
	-1   0    0    1   
$EndComp
Wire Wire Line
	4200 1100 4000 1100
Wire Wire Line
	3550 1100 3550 1000
Wire Wire Line
	4000 1350 4000 1100
Connection ~ 4000 1100
Wire Wire Line
	4000 1100 3550 1100
Wire Wire Line
	5500 1100 4600 1100
$Comp
L power:GND2 #PWR03
U 1 1 5FF03C14
P 4400 2800
F 0 "#PWR03" H 4400 2550 50  0001 C CNN
F 1 "GND2" H 4405 2627 50  0000 C CNN
F 2 "" H 4400 2800 50  0001 C CNN
F 3 "" H 4400 2800 50  0001 C CNN
	1    4400 2800
	1    0    0    -1  
$EndComp
Wire Wire Line
	4400 2800 4400 2650
$Comp
L Device:R R11
U 1 1 5FF08EAC
P 3750 2450
F 0 "R11" V 3650 2500 50  0000 R CNN
F 1 "100R" V 3850 2500 50  0000 R CNN
F 2 "Resistor_THT:R_Axial_DIN0207_L6.3mm_D2.5mm_P7.62mm_Horizontal" V 3680 2450 50  0001 C CNN
F 3 "~" H 3750 2450 50  0001 C CNN
	1    3750 2450
	0    -1   -1   0   
$EndComp
Wire Wire Line
	3900 2450 4100 2450
$Comp
L Device:R R13
U 1 1 5FF1A794
P 4400 2000
F 0 "R13" H 4330 1954 50  0000 R CNN
F 1 "220R" H 4330 2045 50  0000 R CNN
F 2 "Resistor_THT:R_Axial_DIN0207_L6.3mm_D2.5mm_P7.62mm_Horizontal" V 4330 2000 50  0001 C CNN
F 3 "~" H 4400 2000 50  0001 C CNN
	1    4400 2000
	-1   0    0    1   
$EndComp
Wire Wire Line
	4400 2150 4400 2250
Wire Wire Line
	4400 1400 4400 1750
Wire Wire Line
	4000 1650 4000 1750
Wire Wire Line
	4000 1750 4400 1750
Connection ~ 4400 1750
Wire Wire Line
	4400 1750 4400 1850
Text Label 3350 2450 0    50   ~ 0
V_Con
Wire Wire Line
	3350 2450 3600 2450
Text Label 6750 2700 0    50   ~ 0
V_Con
Wire Wire Line
	6750 2700 7200 2700
$Comp
L Device:R R14
U 1 1 5FFF1B01
P 6550 1800
F 0 "R14" H 6480 1754 50  0000 R CNN
F 1 "10k" H 6480 1845 50  0000 R CNN
F 2 "Resistor_THT:R_Axial_DIN0207_L6.3mm_D2.5mm_P7.62mm_Horizontal" V 6480 1800 50  0001 C CNN
F 3 "~" H 6550 1800 50  0001 C CNN
	1    6550 1800
	-1   0    0    1   
$EndComp
Wire Wire Line
	6300 1400 6300 1500
Wire Wire Line
	6300 1400 7200 1400
Wire Wire Line
	7200 1600 6550 1600
Wire Wire Line
	6550 1600 6550 1650
$Comp
L power:GND2 #PWR027
U 1 1 60008BB9
P 6550 1950
F 0 "#PWR027" H 6550 1700 50  0001 C CNN
F 1 "GND2" H 6555 1777 50  0000 C CNN
F 2 "" H 6550 1950 50  0001 C CNN
F 3 "" H 6550 1950 50  0001 C CNN
	1    6550 1950
	1    0    0    -1  
$EndComp
Wire Notes Line
	11150 3400 11150 5700
Wire Notes Line
	11150 5700 3650 5700
Wire Notes Line
	3650 5700 3650 3400
Wire Notes Line
	3650 3400 11150 3400
Wire Notes Line
	5900 600  5900 3150
Wire Notes Line
	5900 3150 3250 3150
Wire Notes Line
	3250 3150 3250 600 
Wire Notes Line
	3250 600  5900 600 
Wire Notes Line
	3150 600  3150 3150
Wire Notes Line
	3150 3150 600  3150
Wire Notes Line
	600  3150 600  600 
Wire Notes Line
	600  600  3150 600 
Wire Notes Line
	3550 3400 3550 5700
Wire Notes Line
	3550 5700 600  5700
Wire Notes Line
	600  5700 600  3400
Wire Notes Line
	600  3400 3550 3400
$EndSCHEMATC
