EESchema Schematic File Version 4
EELAYER 30 0
EELAYER END
$Descr A4 11693 8268
encoding utf-8
Sheet 2 2
Title "A9 SSC V0.1"
Date "2021-02-02"
Rev "0"
Comp ""
Comment1 ""
Comment2 ""
Comment3 ""
Comment4 ""
$EndDescr
$Comp
L Connector:Screw_Terminal_01x02 J?
U 1 1 619D5111
P 750 1050
AR Path="/619D5111" Ref="J?"  Part="1" 
AR Path="/60209E92/619D5111" Ref="J5"  Part="1" 
F 0 "J5" H 750 800 50  0000 C CNN
F 1 "PowerIN" H 700 850 50  0000 C CNN
F 2 "Connector_Phoenix_MSTB:PhoenixContact_MSTBA_2,5_2-G-5,08_1x02_P5.08mm_Horizontal" H 750 1050 50  0001 C CNN
F 3 "~" H 750 1050 50  0001 C CNN
	1    750  1050
	-1   0    0    1   
$EndComp
Wire Wire Line
	2800 900  2650 900 
Wire Wire Line
	1000 950  950  950 
Wire Wire Line
	2800 1100 2650 1100
Wire Wire Line
	1000 1050 950  1050
Wire Wire Line
	3600 1100 3650 1100
Wire Wire Line
	3650 1100 3650 1350
$Comp
L Device:CP C?
U 1 1 619D511D
P 3950 1100
AR Path="/619D511D" Ref="C?"  Part="1" 
AR Path="/60209E92/619D511D" Ref="C13"  Part="1" 
F 0 "C13" H 4068 1146 50  0000 L CNN
F 1 "220uF" H 4068 1055 50  0000 L CNN
F 2 "Capacitor_SMD:CP_Elec_6.3x7.7" H 3988 950 50  0001 C CNN
F 3 "~" H 3950 1100 50  0001 C CNN
	1    3950 1100
	1    0    0    -1  
$EndComp
Wire Wire Line
	4100 900  4100 850 
Wire Wire Line
	3600 900  3950 900 
Wire Wire Line
	3950 950  3950 900 
Connection ~ 3950 900 
Wire Wire Line
	3950 900  4100 900 
Wire Wire Line
	3950 1350 3950 1250
$Comp
L Device:Varistor RV?
U 1 1 619D5129
P 1600 1050
AR Path="/619D5129" Ref="RV?"  Part="1" 
AR Path="/60209E92/619D5129" Ref="RV1"  Part="1" 
F 0 "RV1" H 1300 1100 50  0000 L CNN
F 1 "10D561" H 1200 1000 50  0000 L CNN
F 2 "Varistor:RV_Disc_D21.5mm_W4.3mm_P10mm" V 1530 1050 50  0001 C CNN
F 3 "~" H 1600 1050 50  0001 C CNN
	1    1600 1050
	1    0    0    -1  
$EndComp
$Comp
L Device:EMI_Filter_CommonMode FL?
U 1 1 619D512F
P 2450 1000
AR Path="/619D512F" Ref="FL?"  Part="1" 
AR Path="/60209E92/619D512F" Ref="FL1"  Part="1" 
F 0 "FL1" H 2450 1400 50  0000 C CNN
F 1 "EMI_Filter_CommonMode" H 2450 1250 50  0000 C CNN
F 2 "My_Lib_KiCAD:Common Mode Choke My" H 2450 1040 50  0001 C CNN
F 3 "~" H 2450 1040 50  0001 C CNN
	1    2450 1000
	1    0    0    -1  
$EndComp
$Comp
L Device:C C?
U 1 1 619D5135
P 1850 1050
AR Path="/619D5135" Ref="C?"  Part="1" 
AR Path="/60209E92/619D5135" Ref="C5"  Part="1" 
F 0 "C5" H 1965 1096 50  0000 L CNN
F 1 "104/630V" H 1850 950 50  0000 L CNN
F 2 "Capacitor_THT:C_Rect_L19.0mm_W6.0mm_P15.00mm_MKS4" H 1888 900 50  0001 C CNN
F 3 "~" H 1850 1050 50  0001 C CNN
	1    1850 1050
	1    0    0    -1  
$EndComp
$Comp
L Device:Fuse F?
U 1 1 619D513B
P 1300 800
AR Path="/619D513B" Ref="F?"  Part="1" 
AR Path="/60209E92/619D513B" Ref="F1"  Part="1" 
F 0 "F1" V 1103 800 50  0000 C CNN
F 1 "Fuse" V 1194 800 50  0000 C CNN
F 2 "Fuse:Fuseholder_Cylinder-5x20mm_Stelvio-Kontek_PTF78_Horizontal_Open" V 1230 800 50  0001 C CNN
F 3 "~" H 1300 800 50  0001 C CNN
	1    1300 800 
	0    1    1    0   
$EndComp
Wire Wire Line
	2250 1100 2250 1300
Wire Wire Line
	2250 800  2250 900 
Wire Wire Line
	1450 800  1600 800 
Wire Wire Line
	1600 900  1600 800 
Connection ~ 1600 800 
Wire Wire Line
	1600 800  1850 800 
Wire Wire Line
	1850 900  1850 800 
Connection ~ 1850 800 
Wire Wire Line
	1850 800  2250 800 
Wire Wire Line
	2250 1300 1850 1300
Wire Wire Line
	1600 1200 1600 1300
Connection ~ 1600 1300
Wire Wire Line
	1600 1300 1000 1300
Wire Wire Line
	1850 1200 1850 1300
Connection ~ 1850 1300
Wire Wire Line
	1850 1300 1600 1300
Wire Wire Line
	1000 1050 1000 1300
Wire Wire Line
	1150 800  1000 800 
Wire Wire Line
	1000 800  1000 950 
Wire Notes Line
	600  2500 600  550 
Wire Notes Line
	600  550  4400 550 
Wire Notes Line
	4400 550  4400 2500
Wire Notes Line
	600  2500 4400 2500
$Comp
L power:+12VA #PWR?
U 1 1 619D5188
P 4100 850
AR Path="/619D5188" Ref="#PWR?"  Part="1" 
AR Path="/60209E92/619D5188" Ref="#PWR071"  Part="1" 
F 0 "#PWR071" H 4100 700 50  0001 C CNN
F 1 "+12VA" H 4115 1023 50  0000 C CNN
F 2 "" H 4100 850 50  0001 C CNN
F 3 "" H 4100 850 50  0001 C CNN
	1    4100 850 
	1    0    0    -1  
$EndComp
$Comp
L My_Lib_KiCAD:EVISUN U?
U 1 1 619D5194
P 1950 1850
AR Path="/619D5194" Ref="U?"  Part="1" 
AR Path="/60209E92/619D5194" Ref="U16"  Part="1" 
F 0 "U16" H 1950 2217 50  0000 C CNN
F 1 "EVISUN" H 1950 2126 50  0000 C CNN
F 2 "My_Lib_KiCAD:EVISUN_2W" H 1800 2200 50  0001 C CNN
F 3 "" H 1750 2150 50  0001 C CNN
	1    1950 1850
	1    0    0    -1  
$EndComp
$Comp
L power:+12VA #PWR?
U 1 1 619D519A
P 750 1650
AR Path="/619D519A" Ref="#PWR?"  Part="1" 
AR Path="/60209E92/619D519A" Ref="#PWR07"  Part="1" 
F 0 "#PWR07" H 750 1500 50  0001 C CNN
F 1 "+12VA" H 765 1823 50  0000 C CNN
F 2 "" H 750 1650 50  0001 C CNN
F 3 "" H 750 1650 50  0001 C CNN
	1    750  1650
	1    0    0    -1  
$EndComp
$Comp
L Device:CP C?
U 1 1 619D51A0
P 1050 1950
AR Path="/619D51A0" Ref="C?"  Part="1" 
AR Path="/60209E92/619D51A0" Ref="C3"  Part="1" 
F 0 "C3" H 1168 1996 50  0000 L CNN
F 1 "2.2uF" H 1168 1905 50  0000 L CNN
F 2 "Capacitor_SMD:C_0805_2012Metric" H 1088 1800 50  0001 C CNN
F 3 "~" H 1050 1950 50  0001 C CNN
	1    1050 1950
	1    0    0    -1  
$EndComp
Wire Wire Line
	1550 1750 1050 1750
Wire Wire Line
	750  1750 750  1650
Wire Wire Line
	1050 1800 1050 1750
Connection ~ 1050 1750
Wire Wire Line
	1050 1750 750  1750
$Comp
L Device:CP C?
U 1 1 619D51AB
P 2750 1950
AR Path="/619D51AB" Ref="C?"  Part="1" 
AR Path="/60209E92/619D51AB" Ref="C8"  Part="1" 
F 0 "C8" H 2868 1996 50  0000 L CNN
F 1 "220uF" H 2868 1905 50  0000 L CNN
F 2 "Capacitor_SMD:CP_Elec_6.3x7.7" H 2788 1800 50  0001 C CNN
F 3 "~" H 2750 1950 50  0001 C CNN
	1    2750 1950
	1    0    0    -1  
$EndComp
$Comp
L power:+5V #PWR?
U 1 1 619D51B1
P 3150 1650
AR Path="/619D51B1" Ref="#PWR?"  Part="1" 
AR Path="/60209E92/619D51B1" Ref="#PWR051"  Part="1" 
F 0 "#PWR051" H 3150 1500 50  0001 C CNN
F 1 "+5V" H 3165 1823 50  0000 C CNN
F 2 "" H 3150 1650 50  0001 C CNN
F 3 "" H 3150 1650 50  0001 C CNN
	1    3150 1650
	1    0    0    -1  
$EndComp
Wire Wire Line
	2350 1750 2750 1750
Wire Wire Line
	3150 1750 3150 1650
Wire Wire Line
	2750 1800 2750 1750
Connection ~ 2750 1750
Wire Wire Line
	2750 1750 3150 1750
Wire Wire Line
	1050 2200 1050 2100
Wire Wire Line
	2750 2200 2750 2100
Wire Wire Line
	2450 2200 2450 1950
Wire Wire Line
	2450 1950 2350 1950
Wire Wire Line
	1450 2200 1450 1950
Wire Wire Line
	1450 1950 1550 1950
$Comp
L Converter_ACDC:HLK-PM12 PS?
U 1 1 619D51DD
P 3200 1000
AR Path="/619D51DD" Ref="PS?"  Part="1" 
AR Path="/60209E92/619D51DD" Ref="PS1"  Part="1" 
F 0 "PS1" H 3200 1325 50  0000 C CNN
F 1 "HLK-PM12" H 3200 1234 50  0000 C CNN
F 2 "Converter_ACDC:Converter_ACDC_HiLink_HLK-PMxx" H 3200 700 50  0001 C CNN
F 3 "http://www.hlktech.net/product_detail.php?ProId=56" H 3600 650 50  0001 C CNN
	1    3200 1000
	1    0    0    -1  
$EndComp
$Comp
L My_Lib_KiCAD:SY8089 U?
U 1 1 619D51E3
P 1950 4200
AR Path="/619D51E3" Ref="U?"  Part="1" 
AR Path="/60209E92/619D51E3" Ref="U14"  Part="1" 
F 0 "U14" H 1950 4665 50  0000 C CNN
F 1 "SY8089" H 1950 4574 50  0000 C CNN
F 2 "Package_TO_SOT_SMD:SOT-23-5" H 1750 4650 50  0001 C CNN
F 3 "" H 1950 4200 50  0001 C CNN
	1    1950 4200
	1    0    0    -1  
$EndComp
$Comp
L power:+5V #PWR?
U 1 1 619D51E9
P 800 4000
AR Path="/619D51E9" Ref="#PWR?"  Part="1" 
AR Path="/60209E92/619D51E9" Ref="#PWR09"  Part="1" 
F 0 "#PWR09" H 800 3850 50  0001 C CNN
F 1 "+5V" H 815 4173 50  0000 C CNN
F 2 "" H 800 4000 50  0001 C CNN
F 3 "" H 800 4000 50  0001 C CNN
	1    800  4000
	1    0    0    -1  
$EndComp
$Comp
L Device:CP C?
U 1 1 619D51EF
P 1050 4350
AR Path="/619D51EF" Ref="C?"  Part="1" 
AR Path="/60209E92/619D51EF" Ref="C2"  Part="1" 
F 0 "C2" H 1168 4396 50  0000 L CNN
F 1 "10uF" H 1168 4305 50  0000 L CNN
F 2 "Capacitor_Tantalum_SMD:CP_EIA-3216-10_Kemet-I" H 1088 4200 50  0001 C CNN
F 3 "~" H 1050 4350 50  0001 C CNN
	1    1050 4350
	1    0    0    -1  
$EndComp
Wire Wire Line
	1550 4050 1400 4050
Wire Wire Line
	800  4050 800  4000
Wire Wire Line
	1050 4200 1050 4050
Connection ~ 1050 4050
Wire Wire Line
	1050 4050 800  4050
$Comp
L power:GND #PWR?
U 1 1 619D51FA
P 1050 4650
AR Path="/619D51FA" Ref="#PWR?"  Part="1" 
AR Path="/60209E92/619D51FA" Ref="#PWR012"  Part="1" 
F 0 "#PWR012" H 1050 4400 50  0001 C CNN
F 1 "GND" H 1055 4477 50  0000 C CNN
F 2 "" H 1050 4650 50  0001 C CNN
F 3 "" H 1050 4650 50  0001 C CNN
	1    1050 4650
	1    0    0    -1  
$EndComp
Wire Wire Line
	1050 4650 1050 4500
Wire Wire Line
	1550 4400 1400 4400
Wire Wire Line
	1400 4400 1400 4050
Connection ~ 1400 4050
Wire Wire Line
	1400 4050 1050 4050
$Comp
L power:GND #PWR?
U 1 1 619D5205
P 2000 4750
AR Path="/619D5205" Ref="#PWR?"  Part="1" 
AR Path="/60209E92/619D5205" Ref="#PWR017"  Part="1" 
F 0 "#PWR017" H 2000 4500 50  0001 C CNN
F 1 "GND" H 2005 4577 50  0000 C CNN
F 2 "" H 2000 4750 50  0001 C CNN
F 3 "" H 2000 4750 50  0001 C CNN
	1    2000 4750
	1    0    0    -1  
$EndComp
Wire Wire Line
	2000 4750 2000 4650
$Comp
L Device:L_Core_Iron L?
U 1 1 619D520C
P 2650 4050
AR Path="/619D520C" Ref="L?"  Part="1" 
AR Path="/60209E92/619D520C" Ref="L2"  Part="1" 
F 0 "L2" V 2875 4050 50  0000 C CNN
F 1 "2.2uH" V 2784 4050 50  0000 C CNN
F 2 "Inductor_SMD:L_Wuerth_MAPI-2512" H 2650 4050 50  0001 C CNN
F 3 "~" H 2650 4050 50  0001 C CNN
	1    2650 4050
	0    -1   -1   0   
$EndComp
Wire Wire Line
	2500 4050 2350 4050
$Comp
L Device:C C?
U 1 1 619D5213
P 3050 4300
AR Path="/619D5213" Ref="C?"  Part="1" 
AR Path="/60209E92/619D5213" Ref="C9"  Part="1" 
F 0 "C9" H 2800 4300 50  0000 L CNN
F 1 "8.2pF" H 2750 4200 50  0000 L CNN
F 2 "Capacitor_SMD:C_0805_2012Metric" H 3088 4150 50  0001 C CNN
F 3 "~" H 3050 4300 50  0001 C CNN
	1    3050 4300
	1    0    0    -1  
$EndComp
$Comp
L Device:R R?
U 1 1 619D5219
P 3600 4300
AR Path="/619D5219" Ref="R?"  Part="1" 
AR Path="/60209E92/619D5219" Ref="R31"  Part="1" 
F 0 "R31" H 3700 4200 50  0000 L CNN
F 1 "330k" H 3650 4300 50  0000 L CNN
F 2 "Resistor_SMD:R_0805_2012Metric" V 3530 4300 50  0001 C CNN
F 3 "~" H 3600 4300 50  0001 C CNN
	1    3600 4300
	-1   0    0    1   
$EndComp
$Comp
L Device:R R?
U 1 1 619D521F
P 3600 4800
AR Path="/619D521F" Ref="R?"  Part="1" 
AR Path="/60209E92/619D521F" Ref="R32"  Part="1" 
F 0 "R32" H 3700 4700 50  0000 L CNN
F 1 "56k" H 3650 4800 50  0000 L CNN
F 2 "Resistor_SMD:R_0805_2012Metric" V 3530 4800 50  0001 C CNN
F 3 "~" H 3600 4800 50  0001 C CNN
	1    3600 4800
	-1   0    0    1   
$EndComp
$Comp
L Device:CP C?
U 1 1 619D5225
P 3950 4300
AR Path="/619D5225" Ref="C?"  Part="1" 
AR Path="/60209E92/619D5225" Ref="C12"  Part="1" 
F 0 "C12" H 4068 4346 50  0000 L CNN
F 1 "22uF" H 4068 4255 50  0000 L CNN
F 2 "Capacitor_SMD:CP_Elec_5x5.3" H 3988 4150 50  0001 C CNN
F 3 "~" H 3950 4300 50  0001 C CNN
	1    3950 4300
	1    0    0    -1  
$EndComp
Wire Wire Line
	3600 4650 3600 4550
Wire Wire Line
	3600 4550 3050 4550
Wire Wire Line
	2450 4550 2450 4400
Wire Wire Line
	2450 4400 2350 4400
Connection ~ 3600 4550
Wire Wire Line
	3600 4550 3600 4450
Wire Wire Line
	3050 4450 3050 4550
Connection ~ 3050 4550
Wire Wire Line
	3050 4550 2450 4550
Wire Wire Line
	3050 4150 3050 4050
Connection ~ 3050 4050
Wire Wire Line
	3050 4050 2800 4050
Wire Wire Line
	3600 4150 3600 4050
Connection ~ 3600 4050
Wire Wire Line
	3600 4050 3050 4050
$Comp
L power:GND #PWR?
U 1 1 619D523A
P 3600 5050
AR Path="/619D523A" Ref="#PWR?"  Part="1" 
AR Path="/60209E92/619D523A" Ref="#PWR052"  Part="1" 
F 0 "#PWR052" H 3600 4800 50  0001 C CNN
F 1 "GND" H 3605 4877 50  0000 C CNN
F 2 "" H 3600 5050 50  0001 C CNN
F 3 "" H 3600 5050 50  0001 C CNN
	1    3600 5050
	1    0    0    -1  
$EndComp
Wire Wire Line
	3600 5050 3600 4950
$Comp
L power:GND #PWR?
U 1 1 619D5241
P 3950 5050
AR Path="/619D5241" Ref="#PWR?"  Part="1" 
AR Path="/60209E92/619D5241" Ref="#PWR054"  Part="1" 
F 0 "#PWR054" H 3950 4800 50  0001 C CNN
F 1 "GND" H 3955 4877 50  0000 C CNN
F 2 "" H 3950 5050 50  0001 C CNN
F 3 "" H 3950 5050 50  0001 C CNN
	1    3950 5050
	1    0    0    -1  
$EndComp
Wire Wire Line
	3950 5050 3950 4450
Wire Wire Line
	3950 4150 3950 4050
Connection ~ 3950 4050
Wire Wire Line
	3950 4050 3600 4050
Text Notes 3500 4000 0    50   ~ 0
4.2V
$Comp
L Connector_Generic:Conn_01x02 J?
U 1 1 619D524C
P 4650 4600
AR Path="/619D524C" Ref="J?"  Part="1" 
AR Path="/60209E92/619D524C" Ref="J8"  Part="1" 
F 0 "J8" H 4600 4800 50  0000 L CNN
F 1 "VBAT" H 4550 4700 50  0000 L CNN
F 2 "Connector_PinHeader_2.54mm:PinHeader_1x02_P2.54mm_Vertical" H 4650 4600 50  0001 C CNN
F 3 "~" H 4650 4600 50  0001 C CNN
	1    4650 4600
	1    0    0    -1  
$EndComp
Wire Wire Line
	4450 4600 4300 4600
Wire Wire Line
	4300 4600 4300 4050
Connection ~ 4300 4050
Wire Wire Line
	4300 4050 3950 4050
$Comp
L power:GND #PWR?
U 1 1 619D5256
P 4300 5050
AR Path="/619D5256" Ref="#PWR?"  Part="1" 
AR Path="/60209E92/619D5256" Ref="#PWR072"  Part="1" 
F 0 "#PWR072" H 4300 4800 50  0001 C CNN
F 1 "GND" H 4305 4877 50  0000 C CNN
F 2 "" H 4300 5050 50  0001 C CNN
F 3 "" H 4300 5050 50  0001 C CNN
	1    4300 5050
	1    0    0    -1  
$EndComp
Wire Wire Line
	4450 4700 4300 4700
Wire Wire Line
	4300 4700 4300 5050
$Comp
L Device:R R?
U 1 1 619D525E
P 4850 4350
AR Path="/619D525E" Ref="R?"  Part="1" 
AR Path="/60209E92/619D525E" Ref="R33"  Part="1" 
F 0 "R33" H 4700 4250 50  0000 L CNN
F 1 "200k" H 4600 4350 50  0000 L CNN
F 2 "Resistor_SMD:R_0805_2012Metric" V 4780 4350 50  0001 C CNN
F 3 "~" H 4850 4350 50  0001 C CNN
	1    4850 4350
	-1   0    0    1   
$EndComp
$Comp
L Device:R R?
U 1 1 619D5264
P 4850 4800
AR Path="/619D5264" Ref="R?"  Part="1" 
AR Path="/60209E92/619D5264" Ref="R34"  Part="1" 
F 0 "R34" H 4700 4700 50  0000 L CNN
F 1 "100k" H 4600 4800 50  0000 L CNN
F 2 "Resistor_SMD:R_0805_2012Metric" V 4780 4800 50  0001 C CNN
F 3 "~" H 4850 4800 50  0001 C CNN
	1    4850 4800
	-1   0    0    1   
$EndComp
$Comp
L power:GND #PWR?
U 1 1 619D526A
P 4850 5050
AR Path="/619D526A" Ref="#PWR?"  Part="1" 
AR Path="/60209E92/619D526A" Ref="#PWR073"  Part="1" 
F 0 "#PWR073" H 4850 4800 50  0001 C CNN
F 1 "GND" H 4855 4877 50  0000 C CNN
F 2 "" H 4850 5050 50  0001 C CNN
F 3 "" H 4850 5050 50  0001 C CNN
	1    4850 5050
	1    0    0    -1  
$EndComp
Wire Wire Line
	4850 5050 4850 4950
Wire Wire Line
	4300 4050 4850 4050
Wire Wire Line
	4850 4200 4850 4050
Connection ~ 4850 4050
Wire Wire Line
	4850 4050 5200 4050
$Comp
L power:GND #PWR?
U 1 1 619D51C4
P 2450 2200
AR Path="/619D51C4" Ref="#PWR?"  Part="1" 
AR Path="/60209E92/619D51C4" Ref="#PWR021"  Part="1" 
F 0 "#PWR021" H 2450 1950 50  0001 C CNN
F 1 "GND" H 2455 2027 50  0000 C CNN
F 2 "" H 2450 2200 50  0001 C CNN
F 3 "" H 2450 2200 50  0001 C CNN
	1    2450 2200
	1    0    0    -1  
$EndComp
$Comp
L power:GND #PWR?
U 1 1 619D51BC
P 2750 2200
AR Path="/619D51BC" Ref="#PWR?"  Part="1" 
AR Path="/60209E92/619D51BC" Ref="#PWR050"  Part="1" 
F 0 "#PWR050" H 2750 1950 50  0001 C CNN
F 1 "GND" H 2755 2027 50  0000 C CNN
F 2 "" H 2750 2200 50  0001 C CNN
F 3 "" H 2750 2200 50  0001 C CNN
	1    2750 2200
	1    0    0    -1  
$EndComp
$Comp
L power:GNDA #PWR?
U 1 1 619D51CE
P 1050 2200
AR Path="/619D51CE" Ref="#PWR?"  Part="1" 
AR Path="/60209E92/619D51CE" Ref="#PWR013"  Part="1" 
F 0 "#PWR013" H 1050 1950 50  0001 C CNN
F 1 "GNDA" H 1055 2027 50  0000 C CNN
F 2 "" H 1050 2200 50  0001 C CNN
F 3 "" H 1050 2200 50  0001 C CNN
	1    1050 2200
	1    0    0    -1  
$EndComp
$Comp
L power:GNDA #PWR?
U 1 1 619D51D4
P 1450 2200
AR Path="/619D51D4" Ref="#PWR?"  Part="1" 
AR Path="/60209E92/619D51D4" Ref="#PWR015"  Part="1" 
F 0 "#PWR015" H 1450 1950 50  0001 C CNN
F 1 "GNDA" H 1455 2027 50  0000 C CNN
F 2 "" H 1450 2200 50  0001 C CNN
F 3 "" H 1450 2200 50  0001 C CNN
	1    1450 2200
	1    0    0    -1  
$EndComp
$Comp
L power:GNDA #PWR?
U 1 1 619D5182
P 3950 1350
AR Path="/619D5182" Ref="#PWR?"  Part="1" 
AR Path="/60209E92/619D5182" Ref="#PWR056"  Part="1" 
F 0 "#PWR056" H 3950 1100 50  0001 C CNN
F 1 "GNDA" H 3955 1177 50  0000 C CNN
F 2 "" H 3950 1350 50  0001 C CNN
F 3 "" H 3950 1350 50  0001 C CNN
	1    3950 1350
	1    0    0    -1  
$EndComp
$Comp
L power:GNDA #PWR?
U 1 1 619D517C
P 3650 1350
AR Path="/619D517C" Ref="#PWR?"  Part="1" 
AR Path="/60209E92/619D517C" Ref="#PWR053"  Part="1" 
F 0 "#PWR053" H 3650 1100 50  0001 C CNN
F 1 "GNDA" H 3655 1177 50  0000 C CNN
F 2 "" H 3650 1350 50  0001 C CNN
F 3 "" H 3650 1350 50  0001 C CNN
	1    3650 1350
	1    0    0    -1  
$EndComp
Text HLabel 5200 4050 2    50   Input ~ 0
VBAT
Text HLabel 5200 4550 2    50   Input ~ 0
ADC0
Wire Wire Line
	4850 4500 4850 4550
Wire Wire Line
	5200 4550 4850 4550
Connection ~ 4850 4550
Wire Wire Line
	4850 4550 4850 4650
$Comp
L Device:CP C?
U 1 1 62493EC8
P 2350 3200
AR Path="/62493EC8" Ref="C?"  Part="1" 
AR Path="/60209E92/62493EC8" Ref="C15"  Part="1" 
F 0 "C15" H 2468 3246 50  0000 L CNN
F 1 "10uF" H 2468 3155 50  0000 L CNN
F 2 "Capacitor_Tantalum_SMD:CP_EIA-3216-10_Kemet-I" H 2388 3050 50  0001 C CNN
F 3 "~" H 2350 3200 50  0001 C CNN
	1    2350 3200
	1    0    0    -1  
$EndComp
Wire Wire Line
	2200 2950 2350 2950
Wire Wire Line
	2350 3050 2350 2950
Connection ~ 2350 2950
Wire Wire Line
	1000 3050 1000 2950
Wire Wire Line
	1400 3050 1400 2950
$Comp
L Device:CP C?
U 1 1 62493ED4
P 1000 3200
AR Path="/62493ED4" Ref="C?"  Part="1" 
AR Path="/60209E92/62493ED4" Ref="C7"  Part="1" 
F 0 "C7" H 1118 3246 50  0000 L CNN
F 1 "10uF" H 1118 3155 50  0000 L CNN
F 2 "Capacitor_Tantalum_SMD:CP_EIA-3216-10_Kemet-I" H 1038 3050 50  0001 C CNN
F 3 "~" H 1000 3200 50  0001 C CNN
	1    1000 3200
	1    0    0    -1  
$EndComp
$Comp
L Device:C C?
U 1 1 62493EDA
P 1400 3200
AR Path="/62493EDA" Ref="C?"  Part="1" 
AR Path="/60209E92/62493EDA" Ref="C14"  Part="1" 
F 0 "C14" H 1515 3246 50  0000 L CNN
F 1 "104" H 1515 3155 50  0000 L CNN
F 2 "Capacitor_SMD:C_0805_2012Metric" H 1438 3050 50  0001 C CNN
F 3 "~" H 1400 3200 50  0001 C CNN
	1    1400 3200
	1    0    0    -1  
$EndComp
Wire Wire Line
	1600 2950 1400 2950
Wire Wire Line
	1400 2950 1000 2950
Connection ~ 1400 2950
Connection ~ 1000 2950
Wire Wire Line
	2350 2950 2700 2950
Wire Wire Line
	2350 3450 2350 3350
Wire Wire Line
	1900 3450 1900 3250
Wire Wire Line
	1400 3450 1400 3350
Wire Wire Line
	1000 3450 1000 3350
Wire Wire Line
	2700 2950 2700 2900
$Comp
L Regulator_Linear:AMS1117-3.3 U7
U 1 1 62493F02
P 1900 2950
F 0 "U7" H 1900 3192 50  0000 C CNN
F 1 "AMS1117-3.3" H 1900 3101 50  0000 C CNN
F 2 "Package_TO_SOT_SMD:SOT-223-3_TabPin2" H 1900 3150 50  0001 C CNN
F 3 "http://www.advanced-monolithic.com/pdf/ds1117.pdf" H 2000 2700 50  0001 C CNN
	1    1900 2950
	1    0    0    -1  
$EndComp
$Comp
L power:+5V #PWR?
U 1 1 62496CDB
P 750 2900
AR Path="/62496CDB" Ref="#PWR?"  Part="1" 
AR Path="/60209E92/62496CDB" Ref="#PWR063"  Part="1" 
F 0 "#PWR063" H 750 2750 50  0001 C CNN
F 1 "+5V" H 765 3073 50  0000 C CNN
F 2 "" H 750 2900 50  0001 C CNN
F 3 "" H 750 2900 50  0001 C CNN
	1    750  2900
	1    0    0    -1  
$EndComp
Wire Wire Line
	750  2950 750  2900
Wire Wire Line
	750  2950 1000 2950
$Comp
L power:GND #PWR?
U 1 1 62499DB6
P 1000 3450
AR Path="/62499DB6" Ref="#PWR?"  Part="1" 
AR Path="/60209E92/62499DB6" Ref="#PWR065"  Part="1" 
F 0 "#PWR065" H 1000 3200 50  0001 C CNN
F 1 "GND" H 1005 3277 50  0000 C CNN
F 2 "" H 1000 3450 50  0001 C CNN
F 3 "" H 1000 3450 50  0001 C CNN
	1    1000 3450
	1    0    0    -1  
$EndComp
$Comp
L power:GND #PWR?
U 1 1 62499F41
P 1400 3450
AR Path="/62499F41" Ref="#PWR?"  Part="1" 
AR Path="/60209E92/62499F41" Ref="#PWR074"  Part="1" 
F 0 "#PWR074" H 1400 3200 50  0001 C CNN
F 1 "GND" H 1405 3277 50  0000 C CNN
F 2 "" H 1400 3450 50  0001 C CNN
F 3 "" H 1400 3450 50  0001 C CNN
	1    1400 3450
	1    0    0    -1  
$EndComp
$Comp
L power:GND #PWR?
U 1 1 6249A19B
P 1900 3450
AR Path="/6249A19B" Ref="#PWR?"  Part="1" 
AR Path="/60209E92/6249A19B" Ref="#PWR075"  Part="1" 
F 0 "#PWR075" H 1900 3200 50  0001 C CNN
F 1 "GND" H 1905 3277 50  0000 C CNN
F 2 "" H 1900 3450 50  0001 C CNN
F 3 "" H 1900 3450 50  0001 C CNN
	1    1900 3450
	1    0    0    -1  
$EndComp
$Comp
L power:GND #PWR?
U 1 1 6249A2D3
P 2350 3450
AR Path="/6249A2D3" Ref="#PWR?"  Part="1" 
AR Path="/60209E92/6249A2D3" Ref="#PWR076"  Part="1" 
F 0 "#PWR076" H 2350 3200 50  0001 C CNN
F 1 "GND" H 2355 3277 50  0000 C CNN
F 2 "" H 2350 3450 50  0001 C CNN
F 3 "" H 2350 3450 50  0001 C CNN
	1    2350 3450
	1    0    0    -1  
$EndComp
$Comp
L power:+3.3V #PWR077
U 1 1 6249A637
P 2700 2900
F 0 "#PWR077" H 2700 2750 50  0001 C CNN
F 1 "+3.3V" H 2715 3073 50  0000 C CNN
F 2 "" H 2700 2900 50  0001 C CNN
F 3 "" H 2700 2900 50  0001 C CNN
	1    2700 2900
	1    0    0    -1  
$EndComp
Wire Notes Line
	600  2550 5500 2550
Wire Notes Line
	5500 2550 5500 5350
Wire Notes Line
	5500 5350 600  5350
Wire Notes Line
	600  5350 600  2550
Text Notes 650  650  0    50   ~ 0
Power
Text Notes 650  2650 0    50   ~ 0
Power
$Comp
L Regulator_Linear:L7812 U8
U 1 1 63B96528
P 6650 1050
F 0 "U8" H 6650 1292 50  0000 C CNN
F 1 "L7812" H 6650 1201 50  0000 C CNN
F 2 "Package_TO_SOT_SMD:TO-252-2" H 6675 900 50  0001 L CIN
F 3 "http://www.st.com/content/ccc/resource/technical/document/datasheet/41/4f/b3/b0/12/d4/47/88/CD00000444.pdf/files/CD00000444.pdf/jcr:content/translations/en.CD00000444.pdf" H 6650 1000 50  0001 C CNN
	1    6650 1050
	1    0    0    -1  
$EndComp
$Comp
L Connector:Screw_Terminal_01x02 J?
U 1 1 63B96F91
P 4800 1150
AR Path="/63B96F91" Ref="J?"  Part="1" 
AR Path="/60209E92/63B96F91" Ref="J3"  Part="1" 
F 0 "J3" H 4800 900 50  0000 C CNN
F 1 "DC_IN" H 4750 950 50  0000 C CNN
F 2 "Connector_Phoenix_MSTB:PhoenixContact_MSTBA_2,5_2-G-5,08_1x02_P5.08mm_Horizontal" H 4800 1150 50  0001 C CNN
F 3 "~" H 4800 1150 50  0001 C CNN
	1    4800 1150
	-1   0    0    1   
$EndComp
$Comp
L Device:CP C?
U 1 1 63B97AC6
P 5600 1250
AR Path="/63B97AC6" Ref="C?"  Part="1" 
AR Path="/60209E92/63B97AC6" Ref="C19"  Part="1" 
F 0 "C19" H 5650 1350 50  0000 L CNN
F 1 "10uF" H 5650 1150 50  0000 L CNN
F 2 "Capacitor_Tantalum_SMD:CP_EIA-3216-10_Kemet-I" H 5638 1100 50  0001 C CNN
F 3 "~" H 5600 1250 50  0001 C CNN
	1    5600 1250
	1    0    0    -1  
$EndComp
$Comp
L Device:C C?
U 1 1 63B9B66B
P 6150 1250
AR Path="/63B9B66B" Ref="C?"  Part="1" 
AR Path="/60209E92/63B9B66B" Ref="C21"  Part="1" 
F 0 "C21" H 6150 1350 50  0000 L CNN
F 1 "104" H 6150 1150 50  0000 L CNN
F 2 "Capacitor_SMD:C_0805_2012Metric" H 6188 1100 50  0001 C CNN
F 3 "~" H 6150 1250 50  0001 C CNN
	1    6150 1250
	1    0    0    -1  
$EndComp
$Comp
L Device:CP C?
U 1 1 63B9D8CF
P 5300 1250
AR Path="/63B9D8CF" Ref="C?"  Part="1" 
AR Path="/60209E92/63B9D8CF" Ref="C18"  Part="1" 
F 0 "C18" H 5350 1350 50  0000 L CNN
F 1 "220uF" H 5300 1150 50  0000 L CNN
F 2 "Capacitor_SMD:CP_Elec_6.3x7.7" H 5338 1100 50  0001 C CNN
F 3 "~" H 5300 1250 50  0001 C CNN
	1    5300 1250
	1    0    0    -1  
$EndComp
$Comp
L Device:CP C?
U 1 1 63BAD6F2
P 5900 1250
AR Path="/63BAD6F2" Ref="C?"  Part="1" 
AR Path="/60209E92/63BAD6F2" Ref="C20"  Part="1" 
F 0 "C20" H 5900 1350 50  0000 L CNN
F 1 "1uF" H 5900 1150 50  0000 L CNN
F 2 "Capacitor_SMD:C_0805_2012Metric" H 5938 1100 50  0001 C CNN
F 3 "~" H 5900 1250 50  0001 C CNN
	1    5900 1250
	1    0    0    -1  
$EndComp
Wire Wire Line
	6350 1050 6150 1050
$Comp
L power:GNDA #PWR?
U 1 1 63BB323B
P 5050 1500
AR Path="/63BB323B" Ref="#PWR?"  Part="1" 
AR Path="/60209E92/63BB323B" Ref="#PWR045"  Part="1" 
F 0 "#PWR045" H 5050 1250 50  0001 C CNN
F 1 "GNDA" H 5055 1327 50  0000 C CNN
F 2 "" H 5050 1500 50  0001 C CNN
F 3 "" H 5050 1500 50  0001 C CNN
	1    5050 1500
	1    0    0    -1  
$EndComp
$Comp
L power:GNDA #PWR?
U 1 1 63BB394D
P 5300 1500
AR Path="/63BB394D" Ref="#PWR?"  Part="1" 
AR Path="/60209E92/63BB394D" Ref="#PWR047"  Part="1" 
F 0 "#PWR047" H 5300 1250 50  0001 C CNN
F 1 "GNDA" H 5305 1327 50  0000 C CNN
F 2 "" H 5300 1500 50  0001 C CNN
F 3 "" H 5300 1500 50  0001 C CNN
	1    5300 1500
	1    0    0    -1  
$EndComp
$Comp
L power:GNDA #PWR?
U 1 1 63BB3C2F
P 5600 1500
AR Path="/63BB3C2F" Ref="#PWR?"  Part="1" 
AR Path="/60209E92/63BB3C2F" Ref="#PWR078"  Part="1" 
F 0 "#PWR078" H 5600 1250 50  0001 C CNN
F 1 "GNDA" H 5605 1327 50  0000 C CNN
F 2 "" H 5600 1500 50  0001 C CNN
F 3 "" H 5600 1500 50  0001 C CNN
	1    5600 1500
	1    0    0    -1  
$EndComp
$Comp
L power:GNDA #PWR?
U 1 1 63BB3E32
P 5900 1500
AR Path="/63BB3E32" Ref="#PWR?"  Part="1" 
AR Path="/60209E92/63BB3E32" Ref="#PWR079"  Part="1" 
F 0 "#PWR079" H 5900 1250 50  0001 C CNN
F 1 "GNDA" H 5905 1327 50  0000 C CNN
F 2 "" H 5900 1500 50  0001 C CNN
F 3 "" H 5900 1500 50  0001 C CNN
	1    5900 1500
	1    0    0    -1  
$EndComp
$Comp
L power:GNDA #PWR?
U 1 1 63BB3FF4
P 6150 1500
AR Path="/63BB3FF4" Ref="#PWR?"  Part="1" 
AR Path="/60209E92/63BB3FF4" Ref="#PWR080"  Part="1" 
F 0 "#PWR080" H 6150 1250 50  0001 C CNN
F 1 "GNDA" H 6155 1327 50  0000 C CNN
F 2 "" H 6150 1500 50  0001 C CNN
F 3 "" H 6150 1500 50  0001 C CNN
	1    6150 1500
	1    0    0    -1  
$EndComp
$Comp
L power:GNDA #PWR?
U 1 1 63BB4178
P 6650 1500
AR Path="/63BB4178" Ref="#PWR?"  Part="1" 
AR Path="/60209E92/63BB4178" Ref="#PWR081"  Part="1" 
F 0 "#PWR081" H 6650 1250 50  0001 C CNN
F 1 "GNDA" H 6655 1327 50  0000 C CNN
F 2 "" H 6650 1500 50  0001 C CNN
F 3 "" H 6650 1500 50  0001 C CNN
	1    6650 1500
	1    0    0    -1  
$EndComp
$Comp
L Device:C C?
U 1 1 63BB4C45
P 7550 1250
AR Path="/63BB4C45" Ref="C?"  Part="1" 
AR Path="/60209E92/63BB4C45" Ref="C23"  Part="1" 
F 0 "C23" H 7550 1350 50  0000 L CNN
F 1 "104" H 7550 1150 50  0000 L CNN
F 2 "Capacitor_SMD:C_0805_2012Metric" H 7588 1100 50  0001 C CNN
F 3 "~" H 7550 1250 50  0001 C CNN
	1    7550 1250
	1    0    0    -1  
$EndComp
$Comp
L power:+12VA #PWR?
U 1 1 63BB5019
P 7800 1000
AR Path="/63BB5019" Ref="#PWR?"  Part="1" 
AR Path="/60209E92/63BB5019" Ref="#PWR084"  Part="1" 
F 0 "#PWR084" H 7800 850 50  0001 C CNN
F 1 "+12VA" H 7815 1173 50  0000 C CNN
F 2 "" H 7800 1000 50  0001 C CNN
F 3 "" H 7800 1000 50  0001 C CNN
	1    7800 1000
	1    0    0    -1  
$EndComp
Wire Wire Line
	6950 1050 7200 1050
Wire Wire Line
	7800 1050 7800 1000
Wire Wire Line
	7200 1100 7200 1050
Connection ~ 7200 1050
Wire Wire Line
	7200 1050 7550 1050
Wire Wire Line
	7550 1100 7550 1050
Connection ~ 7550 1050
Wire Wire Line
	7550 1050 7800 1050
Wire Wire Line
	6650 1500 6650 1350
Wire Wire Line
	5050 1500 5050 1150
Wire Wire Line
	5050 1150 5000 1150
Wire Wire Line
	5300 1100 5300 1050
Connection ~ 5300 1050
Wire Wire Line
	5300 1050 5000 1050
Wire Wire Line
	5600 1100 5600 1050
Connection ~ 5600 1050
Wire Wire Line
	5600 1050 5300 1050
Wire Wire Line
	5900 1100 5900 1050
Connection ~ 5900 1050
Wire Wire Line
	5900 1050 5600 1050
Wire Wire Line
	6150 1100 6150 1050
Connection ~ 6150 1050
Wire Wire Line
	6150 1050 5900 1050
Wire Wire Line
	5300 1500 5300 1400
Wire Wire Line
	5600 1500 5600 1400
Wire Wire Line
	5900 1500 5900 1400
Wire Wire Line
	6150 1500 6150 1400
$Comp
L power:GNDA #PWR?
U 1 1 63BDC0FF
P 7200 1500
AR Path="/63BDC0FF" Ref="#PWR?"  Part="1" 
AR Path="/60209E92/63BDC0FF" Ref="#PWR082"  Part="1" 
F 0 "#PWR082" H 7200 1250 50  0001 C CNN
F 1 "GNDA" H 7205 1327 50  0000 C CNN
F 2 "" H 7200 1500 50  0001 C CNN
F 3 "" H 7200 1500 50  0001 C CNN
	1    7200 1500
	1    0    0    -1  
$EndComp
Wire Wire Line
	7200 1500 7200 1400
$Comp
L power:GNDA #PWR?
U 1 1 63BDF910
P 7550 1500
AR Path="/63BDF910" Ref="#PWR?"  Part="1" 
AR Path="/60209E92/63BDF910" Ref="#PWR083"  Part="1" 
F 0 "#PWR083" H 7550 1250 50  0001 C CNN
F 1 "GNDA" H 7555 1327 50  0000 C CNN
F 2 "" H 7550 1500 50  0001 C CNN
F 3 "" H 7550 1500 50  0001 C CNN
	1    7550 1500
	1    0    0    -1  
$EndComp
Wire Wire Line
	7550 1500 7550 1400
$Comp
L Device:CP C?
U 1 1 63BFCBED
P 7200 1250
AR Path="/63BFCBED" Ref="C?"  Part="1" 
AR Path="/60209E92/63BFCBED" Ref="C22"  Part="1" 
F 0 "C22" H 7250 1350 50  0000 L CNN
F 1 "10uF" H 7250 1150 50  0000 L CNN
F 2 "Capacitor_Tantalum_SMD:CP_EIA-3216-10_Kemet-I" H 7238 1100 50  0001 C CNN
F 3 "~" H 7200 1250 50  0001 C CNN
	1    7200 1250
	1    0    0    -1  
$EndComp
$EndSCHEMATC
