EESchema Schematic File Version 4
EELAYER 30 0
EELAYER END
$Descr A4 11693 8268
encoding utf-8
Sheet 1 1
Title "Wireless Trigger V0.1"
Date "2021-03-17"
Rev "2"
Comp "Everything Electronic"
Comment1 ""
Comment2 ""
Comment3 ""
Comment4 ""
$EndDescr
$Comp
L MCU_Microchip_PIC16:PIC16F883-IP U1
U 1 1 5FABA539
P 2700 2050
F 0 "U1" H 2700 2150 50  0000 C CNN
F 1 "PIC16F1936" H 2700 2050 50  0000 C CNN
F 2 "Package_DIP:DIP-28_W7.62mm_Socket" H 2700 2050 50  0001 C CIN
F 3 "http://ww1.microchip.com/downloads/en/DeviceDoc/41291D.pdf" H 2700 1850 50  0001 C CNN
	1    2700 2050
	1    0    0    -1  
$EndComp
$Comp
L power:GND #PWR07
U 1 1 5FAC77EA
P 2700 3250
F 0 "#PWR07" H 2700 3000 50  0001 C CNN
F 1 "GND" H 2705 3077 50  0000 C CNN
F 2 "" H 2700 3250 50  0001 C CNN
F 3 "" H 2700 3250 50  0001 C CNN
	1    2700 3250
	1    0    0    -1  
$EndComp
Wire Wire Line
	2700 3250 2700 3200
Wire Wire Line
	2800 3150 2800 3200
Wire Wire Line
	2800 3200 2700 3200
Connection ~ 2700 3200
Wire Wire Line
	2700 3200 2700 3150
$Comp
L power:+5V #PWR06
U 1 1 5FAC87DD
P 2700 900
F 0 "#PWR06" H 2700 750 50  0001 C CNN
F 1 "+5V" H 2715 1073 50  0000 C CNN
F 2 "" H 2700 900 50  0001 C CNN
F 3 "" H 2700 900 50  0001 C CNN
	1    2700 900 
	1    0    0    -1  
$EndComp
$Comp
L Device:CP C4
U 1 1 5FAF860A
P 4000 4550
F 0 "C4" H 4118 4596 50  0000 L CNN
F 1 "470uF" H 4118 4505 50  0000 L CNN
F 2 "Capacitor_THT:CP_Radial_D8.0mm_P3.50mm" H 4038 4400 50  0001 C CNN
F 3 "~" H 4000 4550 50  0001 C CNN
	1    4000 4550
	1    0    0    -1  
$EndComp
$Comp
L power:GND #PWR018
U 1 1 5FAFE5C4
P 2750 5350
F 0 "#PWR018" H 2750 5100 50  0001 C CNN
F 1 "GND" H 2755 5177 50  0000 C CNN
F 2 "" H 2750 5350 50  0001 C CNN
F 3 "" H 2750 5350 50  0001 C CNN
	1    2750 5350
	1    0    0    -1  
$EndComp
$Comp
L power:+5V #PWR020
U 1 1 5FB0043B
P 4600 4000
F 0 "#PWR020" H 4600 3850 50  0001 C CNN
F 1 "+5V" H 4615 4173 50  0000 C CNN
F 2 "" H 4600 4000 50  0001 C CNN
F 3 "" H 4600 4000 50  0001 C CNN
	1    4600 4000
	1    0    0    -1  
$EndComp
$Comp
L Device:C C1
U 1 1 5FB09333
P 900 1700
F 0 "C1" H 1015 1746 50  0000 L CNN
F 1 "104" H 1015 1655 50  0000 L CNN
F 2 "Capacitor_THT:C_Rect_L7.0mm_W3.5mm_P5.00mm" H 938 1550 50  0001 C CNN
F 3 "~" H 900 1700 50  0001 C CNN
	1    900  1700
	1    0    0    -1  
$EndComp
$Comp
L power:+5V #PWR01
U 1 1 5FB0A375
P 900 1450
F 0 "#PWR01" H 900 1300 50  0001 C CNN
F 1 "+5V" H 915 1623 50  0000 C CNN
F 2 "" H 900 1450 50  0001 C CNN
F 3 "" H 900 1450 50  0001 C CNN
	1    900  1450
	1    0    0    -1  
$EndComp
$Comp
L power:GND #PWR02
U 1 1 5FB0A6B6
P 900 1900
F 0 "#PWR02" H 900 1650 50  0001 C CNN
F 1 "GND" H 905 1727 50  0000 C CNN
F 2 "" H 900 1900 50  0001 C CNN
F 3 "" H 900 1900 50  0001 C CNN
	1    900  1900
	1    0    0    -1  
$EndComp
Wire Wire Line
	900  1450 900  1550
Wire Wire Line
	900  1850 900  1900
$Comp
L Device:R R7
U 1 1 5FB0E645
P 9600 4850
F 0 "R7" V 9400 4800 50  0000 L CNN
F 1 "10k" V 9500 4750 50  0000 L CNN
F 2 "Resistor_THT:R_Axial_DIN0207_L6.3mm_D2.5mm_P7.62mm_Horizontal" V 9530 4850 50  0001 C CNN
F 3 "~" H 9600 4850 50  0001 C CNN
	1    9600 4850
	-1   0    0    1   
$EndComp
$Comp
L Switch:SW_Push SW1
U 1 1 5FB0FB05
P 9950 5200
F 0 "SW1" H 9950 5485 50  0000 C CNN
F 1 "SW_Push" H 9950 5394 50  0000 C CNN
F 2 "Button_Switch_THT:SW_PUSH_6mm" H 9950 5400 50  0001 C CNN
F 3 "~" H 9950 5400 50  0001 C CNN
	1    9950 5200
	1    0    0    -1  
$EndComp
Text Label 9300 5200 0    50   ~ 0
VPP
Wire Wire Line
	9300 5200 9600 5200
Wire Wire Line
	9600 5000 9600 5200
Connection ~ 9600 5200
Wire Wire Line
	9600 5200 9750 5200
$Comp
L power:GND #PWR016
U 1 1 5FB148DD
P 10250 5300
F 0 "#PWR016" H 10250 5050 50  0001 C CNN
F 1 "GND" H 10255 5127 50  0000 C CNN
F 2 "" H 10250 5300 50  0001 C CNN
F 3 "" H 10250 5300 50  0001 C CNN
	1    10250 5300
	1    0    0    -1  
$EndComp
Wire Wire Line
	10150 5200 10250 5200
Wire Wire Line
	10250 5200 10250 5300
$Comp
L power:+5V #PWR011
U 1 1 5FB16BC2
P 9600 4600
F 0 "#PWR011" H 9600 4450 50  0001 C CNN
F 1 "+5V" H 9615 4773 50  0000 C CNN
F 2 "" H 9600 4600 50  0001 C CNN
F 3 "" H 9600 4600 50  0001 C CNN
	1    9600 4600
	1    0    0    -1  
$EndComp
Wire Wire Line
	9600 4600 9600 4700
Text Label 1100 1250 0    50   ~ 0
VPP
Wire Wire Line
	1100 1250 1400 1250
Text Label 4550 900  0    50   ~ 0
VPP
Text Label 4550 1200 0    50   ~ 0
PGD
Text Label 4550 1300 0    50   ~ 0
PGC
Wire Wire Line
	4550 900  4800 900 
Wire Wire Line
	4550 1200 4800 1200
Wire Wire Line
	4550 1300 4800 1300
$Comp
L power:+5V #PWR012
U 1 1 5FB464EA
P 4750 800
F 0 "#PWR012" H 4750 650 50  0001 C CNN
F 1 "+5V" H 4765 973 50  0000 C CNN
F 2 "" H 4750 800 50  0001 C CNN
F 3 "" H 4750 800 50  0001 C CNN
	1    4750 800 
	1    0    0    -1  
$EndComp
$Comp
L power:GND #PWR013
U 1 1 5FB46C5E
P 4750 1500
F 0 "#PWR013" H 4750 1250 50  0001 C CNN
F 1 "GND" H 4755 1327 50  0000 C CNN
F 2 "" H 4750 1500 50  0001 C CNN
F 3 "" H 4750 1500 50  0001 C CNN
	1    4750 1500
	1    0    0    -1  
$EndComp
Wire Wire Line
	4750 1500 4750 1100
Wire Wire Line
	4750 1100 4800 1100
Wire Wire Line
	4800 1000 4750 1000
Wire Wire Line
	4750 1000 4750 800 
Wire Wire Line
	2700 900  2700 950 
$Comp
L BA56-12EWA:BA56-12EWA DS1
U 1 1 5FB69BF4
P 6450 2400
F 0 "DS1" H 6933 2446 50  0000 L CNN
F 1 "BA56-12EWA" H 6933 2355 50  0000 L CNN
F 2 "BA56-12EWA(3Digit7Segment):BA56-12EWA" H 6450 2400 50  0001 L BNN
F 3 "" H 6450 2400 50  0001 L BNN
	1    6450 2400
	1    0    0    -1  
$EndComp
$Comp
L Device:R R11
U 1 1 5FB723F2
P 6150 3050
F 0 "R11" V 6200 2800 50  0000 L CNN
F 1 "470R" V 6150 2950 50  0000 L CNN
F 2 "Resistor_THT:R_Axial_DIN0207_L6.3mm_D2.5mm_P7.62mm_Horizontal" V 6080 3050 50  0001 C CNN
F 3 "~" H 6150 3050 50  0001 C CNN
	1    6150 3050
	-1   0    0    1   
$EndComp
$Comp
L Device:R R12
U 1 1 5FB72E51
P 6250 3050
F 0 "R12" V 6300 2800 50  0000 L CNN
F 1 "470R" V 6250 2950 50  0000 L CNN
F 2 "Resistor_THT:R_Axial_DIN0207_L6.3mm_D2.5mm_P7.62mm_Horizontal" V 6180 3050 50  0001 C CNN
F 3 "~" H 6250 3050 50  0001 C CNN
	1    6250 3050
	-1   0    0    1   
$EndComp
$Comp
L Device:R R14
U 1 1 5FB72FDC
P 6350 3050
F 0 "R14" V 6400 2800 50  0000 L CNN
F 1 "470R" V 6350 2950 50  0000 L CNN
F 2 "Resistor_THT:R_Axial_DIN0207_L6.3mm_D2.5mm_P7.62mm_Horizontal" V 6280 3050 50  0001 C CNN
F 3 "~" H 6350 3050 50  0001 C CNN
	1    6350 3050
	-1   0    0    1   
$EndComp
$Comp
L Device:R R15
U 1 1 5FB731F0
P 6450 3050
F 0 "R15" V 6500 2800 50  0000 L CNN
F 1 "470R" V 6450 2950 50  0000 L CNN
F 2 "Resistor_THT:R_Axial_DIN0207_L6.3mm_D2.5mm_P7.62mm_Horizontal" V 6380 3050 50  0001 C CNN
F 3 "~" H 6450 3050 50  0001 C CNN
	1    6450 3050
	-1   0    0    1   
$EndComp
$Comp
L Device:R R16
U 1 1 5FB733A5
P 6550 3050
F 0 "R16" V 6600 2800 50  0000 L CNN
F 1 "470R" V 6550 2950 50  0000 L CNN
F 2 "Resistor_THT:R_Axial_DIN0207_L6.3mm_D2.5mm_P7.62mm_Horizontal" V 6480 3050 50  0001 C CNN
F 3 "~" H 6550 3050 50  0001 C CNN
	1    6550 3050
	-1   0    0    1   
$EndComp
$Comp
L Device:R R17
U 1 1 5FB734F0
P 6650 3050
F 0 "R17" V 6700 2800 50  0000 L CNN
F 1 "470R" V 6650 2950 50  0000 L CNN
F 2 "Resistor_THT:R_Axial_DIN0207_L6.3mm_D2.5mm_P7.62mm_Horizontal" V 6580 3050 50  0001 C CNN
F 3 "~" H 6650 3050 50  0001 C CNN
	1    6650 3050
	-1   0    0    1   
$EndComp
$Comp
L Device:R R18
U 1 1 5FB73661
P 6750 3050
F 0 "R18" V 6800 2800 50  0000 L CNN
F 1 "470R" V 6750 2950 50  0000 L CNN
F 2 "Resistor_THT:R_Axial_DIN0207_L6.3mm_D2.5mm_P7.62mm_Horizontal" V 6680 3050 50  0001 C CNN
F 3 "~" H 6750 3050 50  0001 C CNN
	1    6750 3050
	-1   0    0    1   
$EndComp
Text Label 6150 3350 2    50   ~ 0
a
Text Label 6250 3350 2    50   ~ 0
b
Text Label 6350 3350 2    50   ~ 0
c
Text Label 6450 3350 2    50   ~ 0
d
Text Label 6550 3350 2    50   ~ 0
e
Text Label 6650 3350 2    50   ~ 0
f
Text Label 6750 3350 2    50   ~ 0
g
Wire Wire Line
	6150 3350 6150 3200
Wire Wire Line
	6250 3350 6250 3200
Wire Wire Line
	6350 3350 6350 3200
Wire Wire Line
	6450 3350 6450 3200
Wire Wire Line
	6550 3350 6550 3200
Wire Wire Line
	6650 3350 6650 3200
Wire Wire Line
	6750 3350 6750 3200
Wire Wire Line
	6150 2900 6150 2800
Wire Wire Line
	6250 2900 6250 2800
Wire Wire Line
	6350 2900 6350 2800
Wire Wire Line
	6450 2900 6450 2800
Wire Wire Line
	6550 2900 6550 2800
Wire Wire Line
	6650 2900 6650 2800
Wire Wire Line
	6750 2900 6750 2800
$Comp
L Transistor_BJT:BC557 Q3
U 1 1 5FBC2D59
P 5850 1450
F 0 "Q3" H 6041 1404 50  0000 L CNN
F 1 "BC557" H 6041 1495 50  0000 L CNN
F 2 "Package_TO_SOT_THT:TO-92L_Inline_Wide" H 6050 1375 50  0001 L CIN
F 3 "https://www.onsemi.com/pub/Collateral/BC556BTA-D.pdf" H 5850 1450 50  0001 L CNN
	1    5850 1450
	1    0    0    1   
$EndComp
$Comp
L Transistor_BJT:BC557 Q4
U 1 1 5FBC5DB7
P 6550 1450
F 0 "Q4" H 6741 1404 50  0000 L CNN
F 1 "BC557" H 6741 1495 50  0000 L CNN
F 2 "Package_TO_SOT_THT:TO-92L_Inline_Wide" H 6750 1375 50  0001 L CIN
F 3 "https://www.onsemi.com/pub/Collateral/BC556BTA-D.pdf" H 6550 1450 50  0001 L CNN
	1    6550 1450
	1    0    0    1   
$EndComp
$Comp
L Transistor_BJT:BC557 Q5
U 1 1 5FBC6610
P 7200 1450
F 0 "Q5" H 7391 1404 50  0000 L CNN
F 1 "BC557" H 7391 1495 50  0000 L CNN
F 2 "Package_TO_SOT_THT:TO-92L_Inline_Wide" H 7400 1375 50  0001 L CIN
F 3 "https://www.onsemi.com/pub/Collateral/BC556BTA-D.pdf" H 7200 1450 50  0001 L CNN
	1    7200 1450
	1    0    0    1   
$EndComp
Wire Wire Line
	6650 2000 6650 1650
Wire Wire Line
	6750 2000 6750 1750
Wire Wire Line
	6750 1750 7300 1750
Wire Wire Line
	7300 1750 7300 1650
Wire Wire Line
	6550 2000 6550 1750
Wire Wire Line
	6550 1750 5950 1750
Wire Wire Line
	5950 1750 5950 1650
$Comp
L Device:R R10
U 1 1 5FBD74F7
P 5600 1200
F 0 "R10" V 5400 1150 50  0000 L CNN
F 1 "1k" V 5500 1100 50  0000 L CNN
F 2 "Resistor_THT:R_Axial_DIN0207_L6.3mm_D2.5mm_P7.62mm_Horizontal" V 5530 1200 50  0001 C CNN
F 3 "~" H 5600 1200 50  0001 C CNN
	1    5600 1200
	1    0    0    -1  
$EndComp
$Comp
L Device:R R13
U 1 1 5FBDBB46
P 6300 1200
F 0 "R13" V 6100 1150 50  0000 L CNN
F 1 "1k" V 6200 1100 50  0000 L CNN
F 2 "Resistor_THT:R_Axial_DIN0207_L6.3mm_D2.5mm_P7.62mm_Horizontal" V 6230 1200 50  0001 C CNN
F 3 "~" H 6300 1200 50  0001 C CNN
	1    6300 1200
	1    0    0    -1  
$EndComp
$Comp
L Device:R R19
U 1 1 5FBDBECD
P 6950 1200
F 0 "R19" V 6750 1150 50  0000 L CNN
F 1 "1k" V 6850 1100 50  0000 L CNN
F 2 "Resistor_THT:R_Axial_DIN0207_L6.3mm_D2.5mm_P7.62mm_Horizontal" V 6880 1200 50  0001 C CNN
F 3 "~" H 6950 1200 50  0001 C CNN
	1    6950 1200
	1    0    0    -1  
$EndComp
$Comp
L power:+5V #PWR027
U 1 1 5FBDC405
P 5950 900
F 0 "#PWR027" H 5950 750 50  0001 C CNN
F 1 "+5V" H 5965 1073 50  0000 C CNN
F 2 "" H 5950 900 50  0001 C CNN
F 3 "" H 5950 900 50  0001 C CNN
	1    5950 900 
	1    0    0    -1  
$EndComp
$Comp
L power:+5V #PWR028
U 1 1 5FBDCC96
P 6650 900
F 0 "#PWR028" H 6650 750 50  0001 C CNN
F 1 "+5V" H 6665 1073 50  0000 C CNN
F 2 "" H 6650 900 50  0001 C CNN
F 3 "" H 6650 900 50  0001 C CNN
	1    6650 900 
	1    0    0    -1  
$EndComp
$Comp
L power:+5V #PWR029
U 1 1 5FBDD101
P 7300 900
F 0 "#PWR029" H 7300 750 50  0001 C CNN
F 1 "+5V" H 7315 1073 50  0000 C CNN
F 2 "" H 7300 900 50  0001 C CNN
F 3 "" H 7300 900 50  0001 C CNN
	1    7300 900 
	1    0    0    -1  
$EndComp
Wire Wire Line
	5950 900  5950 1250
Wire Wire Line
	6650 900  6650 1250
Wire Wire Line
	7300 900  7300 1250
Wire Wire Line
	5600 1350 5600 1450
Wire Wire Line
	5600 1450 5650 1450
Wire Wire Line
	6300 1350 6300 1450
Wire Wire Line
	6300 1450 6350 1450
Wire Wire Line
	6950 1350 6950 1450
Wire Wire Line
	6950 1450 7000 1450
Text Label 5400 800  0    50   ~ 0
SEG3
Text Label 6100 800  0    50   ~ 0
SEG2
Text Label 6750 800  0    50   ~ 0
SEG1
Wire Wire Line
	5600 800  5600 1050
Wire Wire Line
	6300 800  6300 1050
Wire Wire Line
	6950 800  6950 1050
Text Label 5500 1950 0    50   ~ 0
dp
Wire Wire Line
	5950 1950 6150 1950
Wire Wire Line
	6150 1950 6150 2000
Wire Wire Line
	4150 3100 4450 3100
Wire Wire Line
	4250 3000 4450 3000
Text Label 4450 3000 2    50   ~ 0
PGC
Text Label 4450 3100 2    50   ~ 0
PGD
Wire Wire Line
	4000 2850 4150 2850
Wire Wire Line
	4000 2750 4250 2750
Wire Wire Line
	4250 3000 4250 2750
Wire Wire Line
	4150 3100 4150 2850
Wire Wire Line
	5400 800  5600 800 
Wire Wire Line
	6100 800  6300 800 
Wire Wire Line
	6750 800  6950 800 
Text Label 4700 2850 2    50   ~ 0
SEG3
Text Label 4700 2650 2    50   ~ 0
SEG1
$Comp
L Device:R R20
U 1 1 5FCE9931
P 7350 4850
F 0 "R20" V 7150 4800 50  0000 L CNN
F 1 "10k" V 7250 4750 50  0000 L CNN
F 2 "Resistor_THT:R_Axial_DIN0207_L6.3mm_D2.5mm_P7.62mm_Horizontal" V 7280 4850 50  0001 C CNN
F 3 "~" H 7350 4850 50  0001 C CNN
	1    7350 4850
	-1   0    0    1   
$EndComp
$Comp
L Switch:SW_Push SW2
U 1 1 5FCE9937
P 7700 5200
F 0 "SW2" H 7700 5485 50  0000 C CNN
F 1 "SW_Push" H 7700 5394 50  0000 C CNN
F 2 "Button_Switch_THT:SW_PUSH_6mm" H 7700 5400 50  0001 C CNN
F 3 "~" H 7700 5400 50  0001 C CNN
	1    7700 5200
	1    0    0    -1  
$EndComp
Text Label 7050 5200 0    50   ~ 0
SW1
Wire Wire Line
	7050 5200 7350 5200
Wire Wire Line
	7350 5000 7350 5200
Connection ~ 7350 5200
Wire Wire Line
	7350 5200 7500 5200
$Comp
L power:GND #PWR0101
U 1 1 5FCE9942
P 8000 5300
F 0 "#PWR0101" H 8000 5050 50  0001 C CNN
F 1 "GND" H 8005 5127 50  0000 C CNN
F 2 "" H 8000 5300 50  0001 C CNN
F 3 "" H 8000 5300 50  0001 C CNN
	1    8000 5300
	1    0    0    -1  
$EndComp
Wire Wire Line
	7900 5200 8000 5200
Wire Wire Line
	8000 5200 8000 5300
$Comp
L power:+5V #PWR0102
U 1 1 5FCE994A
P 7350 4600
F 0 "#PWR0102" H 7350 4450 50  0001 C CNN
F 1 "+5V" H 7365 4773 50  0000 C CNN
F 2 "" H 7350 4600 50  0001 C CNN
F 3 "" H 7350 4600 50  0001 C CNN
	1    7350 4600
	1    0    0    -1  
$EndComp
Wire Wire Line
	7350 4600 7350 4700
$Comp
L Device:R R21
U 1 1 5FCF2405
P 8500 4850
F 0 "R21" V 8300 4800 50  0000 L CNN
F 1 "10k" V 8400 4750 50  0000 L CNN
F 2 "Resistor_THT:R_Axial_DIN0207_L6.3mm_D2.5mm_P7.62mm_Horizontal" V 8430 4850 50  0001 C CNN
F 3 "~" H 8500 4850 50  0001 C CNN
	1    8500 4850
	-1   0    0    1   
$EndComp
$Comp
L Switch:SW_Push SW3
U 1 1 5FCF240B
P 8850 5200
F 0 "SW3" H 8850 5485 50  0000 C CNN
F 1 "SW_Push" H 8850 5394 50  0000 C CNN
F 2 "Button_Switch_THT:SW_PUSH_6mm" H 8850 5400 50  0001 C CNN
F 3 "~" H 8850 5400 50  0001 C CNN
	1    8850 5200
	1    0    0    -1  
$EndComp
Text Label 8200 5200 0    50   ~ 0
SW2
Wire Wire Line
	8200 5200 8500 5200
Wire Wire Line
	8500 5000 8500 5200
Connection ~ 8500 5200
Wire Wire Line
	8500 5200 8650 5200
$Comp
L power:GND #PWR0103
U 1 1 5FCF2416
P 9150 5300
F 0 "#PWR0103" H 9150 5050 50  0001 C CNN
F 1 "GND" H 9155 5127 50  0000 C CNN
F 2 "" H 9150 5300 50  0001 C CNN
F 3 "" H 9150 5300 50  0001 C CNN
	1    9150 5300
	1    0    0    -1  
$EndComp
Wire Wire Line
	9050 5200 9150 5200
Wire Wire Line
	9150 5200 9150 5300
$Comp
L power:+5V #PWR0104
U 1 1 5FCF241E
P 8500 4600
F 0 "#PWR0104" H 8500 4450 50  0001 C CNN
F 1 "+5V" H 8515 4773 50  0000 C CNN
F 2 "" H 8500 4600 50  0001 C CNN
F 3 "" H 8500 4600 50  0001 C CNN
	1    8500 4600
	1    0    0    -1  
$EndComp
Wire Wire Line
	8500 4600 8500 4700
Text Label 4400 1550 2    50   ~ 0
SW1
Text Label 4400 1450 2    50   ~ 0
SW2
Wire Wire Line
	4400 1550 4000 1550
Wire Notes Line
	600  550  5200 550 
Text Notes 650  650  0    50   ~ 0
MCU
Wire Notes Line
	7650 550  7650 3500
Wire Notes Line
	7650 3500 5300 3500
Wire Notes Line
	5300 3500 5300 550 
Wire Notes Line
	5300 550  7650 550 
Text Notes 5350 650  0    50   ~ 0
7 Segment Display\n
$Comp
L Mechanical:MountingHole H1
U 1 1 60071B76
P 6300 6900
F 0 "H1" H 6400 6946 50  0000 L CNN
F 1 "MountingHole" H 6400 6855 50  0000 L CNN
F 2 "MountingHole:MountingHole_3mm_Pad_Via" H 6300 6900 50  0001 C CNN
F 3 "~" H 6300 6900 50  0001 C CNN
	1    6300 6900
	1    0    0    -1  
$EndComp
$Comp
L Mechanical:MountingHole H2
U 1 1 600722EB
P 6300 7150
F 0 "H2" H 6400 7196 50  0000 L CNN
F 1 "MountingHole" H 6400 7105 50  0000 L CNN
F 2 "MountingHole:MountingHole_3mm_Pad_Via" H 6300 7150 50  0001 C CNN
F 3 "~" H 6300 7150 50  0001 C CNN
	1    6300 7150
	1    0    0    -1  
$EndComp
$Comp
L Mechanical:MountingHole H3
U 1 1 600723F7
P 6300 7400
F 0 "H3" H 6400 7446 50  0000 L CNN
F 1 "MountingHole" H 6400 7355 50  0000 L CNN
F 2 "MountingHole:MountingHole_3mm_Pad_Via" H 6300 7400 50  0001 C CNN
F 3 "~" H 6300 7400 50  0001 C CNN
	1    6300 7400
	1    0    0    -1  
$EndComp
$Comp
L Mechanical:MountingHole H4
U 1 1 60072588
P 6300 7650
F 0 "H4" H 6400 7696 50  0000 L CNN
F 1 "MountingHole" H 6400 7605 50  0000 L CNN
F 2 "MountingHole:MountingHole_3mm_Pad_Via" H 6300 7650 50  0001 C CNN
F 3 "~" H 6300 7650 50  0001 C CNN
	1    6300 7650
	1    0    0    -1  
$EndComp
Text Label 4700 2750 2    50   ~ 0
SEG2
$Comp
L Connector:Screw_Terminal_01x02 J1
U 1 1 5FBC8EAC
P 700 4350
F 0 "J1" H 618 4025 50  0000 C CNN
F 1 "+12VIN" H 618 4116 50  0000 C CNN
F 2 "TerminalBlock:TerminalBlock_bornier-2_P5.08mm" H 700 4350 50  0001 C CNN
F 3 "~" H 700 4350 50  0001 C CNN
	1    700  4350
	-1   0    0    1   
$EndComp
$Comp
L power:GND #PWR0112
U 1 1 5FD6ED8A
P 1450 4800
F 0 "#PWR0112" H 1450 4550 50  0001 C CNN
F 1 "GND" H 1450 4650 50  0000 C CNN
F 2 "" H 1450 4800 50  0001 C CNN
F 3 "" H 1450 4800 50  0001 C CNN
	1    1450 4800
	1    0    0    -1  
$EndComp
$Comp
L Device:CP C8
U 1 1 5FF57414
P 2050 4500
F 0 "C8" H 2168 4546 50  0000 L CNN
F 1 "220uF" H 2168 4455 50  0000 L CNN
F 2 "Capacitor_THT:CP_Radial_D8.0mm_P3.50mm" H 2088 4350 50  0001 C CNN
F 3 "~" H 2050 4500 50  0001 C CNN
	1    2050 4500
	1    0    0    -1  
$EndComp
$Comp
L Device:C C9
U 1 1 5FF821FC
P 4450 4550
F 0 "C9" H 4565 4596 50  0000 L CNN
F 1 "104" H 4565 4505 50  0000 L CNN
F 2 "Capacitor_THT:C_Rect_L7.0mm_W3.5mm_P5.00mm" H 4488 4400 50  0001 C CNN
F 3 "~" H 4450 4550 50  0001 C CNN
	1    4450 4550
	1    0    0    -1  
$EndComp
$Comp
L power:GND #PWR0117
U 1 1 60006FD8
P 1000 4450
F 0 "#PWR0117" H 1000 4200 50  0001 C CNN
F 1 "GND" H 1000 4300 50  0000 C CNN
F 2 "" H 1000 4450 50  0001 C CNN
F 3 "" H 1000 4450 50  0001 C CNN
	1    1000 4450
	1    0    0    -1  
$EndComp
Wire Wire Line
	900  4350 1000 4350
Wire Wire Line
	1000 4350 1000 4450
$Comp
L Regulator_Linear:LM317_TO-220 U2
U 1 1 60240D67
P 2750 4250
F 0 "U2" H 2750 4492 50  0000 C CNN
F 1 "LM317_TO-220" H 2750 4401 50  0000 C CNN
F 2 "Package_TO_SOT_THT:TO-220-3_Vertical" H 2750 4500 50  0001 C CIN
F 3 "http://www.ti.com/lit/ds/symlink/lm317.pdf" H 2750 4250 50  0001 C CNN
	1    2750 4250
	1    0    0    -1  
$EndComp
$Comp
L Device:R R33
U 1 1 60245594
P 2750 5100
F 0 "R33" V 2650 5100 50  0000 L CNN
F 1 "1k" V 2750 5050 50  0000 L CNN
F 2 "Resistor_THT:R_Axial_DIN0207_L6.3mm_D2.5mm_P7.62mm_Horizontal" V 2680 5100 50  0001 C CNN
F 3 "~" H 2750 5100 50  0001 C CNN
	1    2750 5100
	1    0    0    -1  
$EndComp
$Comp
L Diode:1N4007 D8
U 1 1 60246AEE
P 2750 3850
F 0 "D8" H 2750 4067 50  0000 C CNN
F 1 "1N4007" H 2750 3976 50  0000 C CNN
F 2 "Diode_THT:D_DO-41_SOD81_P10.16mm_Horizontal" H 2750 3675 50  0001 C CNN
F 3 "http://www.vishay.com/docs/88503/1n4001.pdf" H 2750 3850 50  0001 C CNN
	1    2750 3850
	1    0    0    -1  
$EndComp
$Comp
L Device:CP C10
U 1 1 6024AF65
P 3200 5050
F 0 "C10" H 3318 5096 50  0000 L CNN
F 1 "10uF" H 3318 5005 50  0000 L CNN
F 2 "Capacitor_THT:C_Radial_D6.3mm_H11.0mm_P2.50mm" H 3238 4900 50  0001 C CNN
F 3 "~" H 3200 5050 50  0001 C CNN
	1    3200 5050
	1    0    0    -1  
$EndComp
$Comp
L Device:R R34
U 1 1 6024BB0A
P 3650 4550
F 0 "R34" V 3750 4500 50  0000 L CNN
F 1 "330" V 3650 4500 50  0000 L CNN
F 2 "Resistor_THT:R_Axial_DIN0207_L6.3mm_D2.5mm_P7.62mm_Horizontal" V 3580 4550 50  0001 C CNN
F 3 "~" H 3650 4550 50  0001 C CNN
	1    3650 4550
	1    0    0    -1  
$EndComp
Wire Wire Line
	2450 4250 2400 4250
Wire Wire Line
	2050 4250 2050 4350
$Comp
L power:GND #PWR03
U 1 1 6026F84B
P 2050 4750
F 0 "#PWR03" H 2050 4500 50  0001 C CNN
F 1 "GND" H 2055 4577 50  0000 C CNN
F 2 "" H 2050 4750 50  0001 C CNN
F 3 "" H 2050 4750 50  0001 C CNN
	1    2050 4750
	1    0    0    -1  
$EndComp
Wire Wire Line
	2050 4750 2050 4650
Wire Wire Line
	2750 4550 2750 4800
Wire Wire Line
	2750 5250 2750 5300
Wire Wire Line
	3200 4700 3200 4800
Wire Wire Line
	3200 5200 3200 5300
Wire Wire Line
	3200 5300 2750 5300
Connection ~ 2750 5300
Wire Wire Line
	2750 5300 2750 5350
Wire Wire Line
	3200 4800 2750 4800
Connection ~ 3200 4800
Wire Wire Line
	3200 4800 3200 4900
Connection ~ 2750 4800
Wire Wire Line
	2750 4800 2750 4950
Wire Wire Line
	3050 4250 3200 4250
Wire Wire Line
	4600 4250 4600 4000
Wire Wire Line
	3200 4400 3200 4250
Connection ~ 3200 4250
Wire Wire Line
	3200 4250 3650 4250
Wire Wire Line
	3650 4700 3650 4800
Wire Wire Line
	3650 4800 3200 4800
Wire Wire Line
	3650 4400 3650 4250
Connection ~ 3650 4250
Wire Wire Line
	3650 4250 4000 4250
Wire Wire Line
	4000 4400 4000 4250
Connection ~ 4000 4250
Wire Wire Line
	4000 4250 4450 4250
Wire Wire Line
	4450 4400 4450 4250
Connection ~ 4450 4250
Wire Wire Line
	4450 4250 4600 4250
$Comp
L power:GND #PWR04
U 1 1 60356CCD
P 4000 4800
F 0 "#PWR04" H 4000 4550 50  0001 C CNN
F 1 "GND" H 4005 4627 50  0000 C CNN
F 2 "" H 4000 4800 50  0001 C CNN
F 3 "" H 4000 4800 50  0001 C CNN
	1    4000 4800
	1    0    0    -1  
$EndComp
$Comp
L power:GND #PWR05
U 1 1 60357162
P 4450 4800
F 0 "#PWR05" H 4450 4550 50  0001 C CNN
F 1 "GND" H 4455 4627 50  0000 C CNN
F 2 "" H 4450 4800 50  0001 C CNN
F 3 "" H 4450 4800 50  0001 C CNN
	1    4450 4800
	1    0    0    -1  
$EndComp
Wire Wire Line
	4000 4800 4000 4700
Wire Wire Line
	4450 4800 4450 4700
Wire Wire Line
	2900 3850 3200 3850
Wire Wire Line
	3200 3850 3200 4250
Wire Wire Line
	2600 3850 2400 3850
Wire Wire Line
	2400 3850 2400 4250
Connection ~ 2400 4250
Wire Wire Line
	2400 4250 2050 4250
$Comp
L Diode:1N4007 D9
U 1 1 6024906C
P 3200 4550
F 0 "D9" V 3154 4630 50  0000 L CNN
F 1 "1N4007" V 3245 4630 50  0000 L CNN
F 2 "Diode_THT:D_DO-41_SOD81_P10.16mm_Horizontal" H 3200 4375 50  0001 C CNN
F 3 "http://www.vishay.com/docs/88503/1n4001.pdf" H 3200 4550 50  0001 C CNN
	1    3200 4550
	0    1    1    0   
$EndComp
Wire Wire Line
	4400 1450 4000 1450
$Comp
L Device:R R35
U 1 1 6065AADE
P 5250 4200
F 0 "R35" V 5050 4100 50  0000 L CNN
F 1 "1k" V 5150 4100 50  0000 L CNN
F 2 "Resistor_THT:R_Axial_DIN0207_L6.3mm_D2.5mm_P7.62mm_Horizontal" V 5180 4200 50  0001 C CNN
F 3 "~" H 5250 4200 50  0001 C CNN
	1    5250 4200
	1    0    0    -1  
$EndComp
$Comp
L Device:LED D10
U 1 1 6065B048
P 5250 4600
F 0 "D10" V 5300 4800 50  0000 R CNN
F 1 "LED" V 5200 4800 50  0000 R CNN
F 2 "LED_THT:LED_D5.0mm" H 5250 4600 50  0001 C CNN
F 3 "~" H 5250 4600 50  0001 C CNN
	1    5250 4600
	0    -1   -1   0   
$EndComp
$Comp
L Device:R R36
U 1 1 6065B797
P 5750 4200
F 0 "R36" V 5550 4100 50  0000 L CNN
F 1 "1k" V 5650 4100 50  0000 L CNN
F 2 "Resistor_THT:R_Axial_DIN0207_L6.3mm_D2.5mm_P7.62mm_Horizontal" V 5680 4200 50  0001 C CNN
F 3 "~" H 5750 4200 50  0001 C CNN
	1    5750 4200
	1    0    0    -1  
$EndComp
$Comp
L Device:LED D11
U 1 1 6065BC56
P 5750 4600
F 0 "D11" V 5800 4800 50  0000 R CNN
F 1 "LED" V 5700 4800 50  0000 R CNN
F 2 "LED_THT:LED_D5.0mm" H 5750 4600 50  0001 C CNN
F 3 "~" H 5750 4600 50  0001 C CNN
	1    5750 4600
	0    -1   -1   0   
$EndComp
Wire Wire Line
	5250 4450 5250 4350
Wire Wire Line
	5750 4450 5750 4350
$Comp
L power:+5V #PWR010
U 1 1 6069FEF3
P 5250 3950
F 0 "#PWR010" H 5250 3800 50  0001 C CNN
F 1 "+5V" H 5265 4123 50  0000 C CNN
F 2 "" H 5250 3950 50  0001 C CNN
F 3 "" H 5250 3950 50  0001 C CNN
	1    5250 3950
	1    0    0    -1  
$EndComp
$Comp
L power:+5V #PWR014
U 1 1 606A0663
P 5750 3950
F 0 "#PWR014" H 5750 3800 50  0001 C CNN
F 1 "+5V" H 5765 4123 50  0000 C CNN
F 2 "" H 5750 3950 50  0001 C CNN
F 3 "" H 5750 3950 50  0001 C CNN
	1    5750 3950
	1    0    0    -1  
$EndComp
Wire Wire Line
	5250 3950 5250 4050
Wire Wire Line
	5750 3950 5750 4050
Text Label 4850 4900 0    50   ~ 0
AL1_LED
Text Label 5400 4900 0    50   ~ 0
AL2_LED
Wire Wire Line
	4850 4900 5250 4900
Wire Wire Line
	5250 4900 5250 4750
Wire Wire Line
	5400 4900 5750 4900
Wire Wire Line
	5750 4900 5750 4750
$Comp
L Connector_Generic:Conn_01x02 J2
U 1 1 608BCD3A
P 6550 4000
F 0 "J2" H 6630 3992 50  0000 L CNN
F 1 "DEBUG" H 6630 3901 50  0000 L CNN
F 2 "Connector_PinHeader_2.54mm:PinHeader_1x02_P2.54mm_Vertical" H 6550 4000 50  0001 C CNN
F 3 "~" H 6550 4000 50  0001 C CNN
	1    6550 4000
	1    0    0    -1  
$EndComp
$Comp
L power:GND #PWR0107
U 1 1 608BE8AA
P 6250 4200
F 0 "#PWR0107" H 6250 3950 50  0001 C CNN
F 1 "GND" H 6255 4027 50  0000 C CNN
F 2 "" H 6250 4200 50  0001 C CNN
F 3 "" H 6250 4200 50  0001 C CNN
	1    6250 4200
	1    0    0    -1  
$EndComp
Wire Wire Line
	6250 4200 6250 4100
Wire Wire Line
	6250 4100 6350 4100
Text Label 6100 4000 0    50   ~ 0
DEBUG
Wire Wire Line
	6100 4000 6350 4000
Text Label 1150 2750 0    50   ~ 0
DEBUG
Wire Wire Line
	1150 2750 1400 2750
Wire Notes Line
	5950 3600 6950 3600
Wire Notes Line
	6950 3600 6950 4650
Wire Notes Line
	6950 4650 5950 4650
Wire Notes Line
	5950 4650 5950 3600
Wire Notes Line
	4800 5000 5850 5000
Wire Notes Line
	4800 3600 4800 5000
Wire Notes Line
	5850 3600 5850 5000
Wire Notes Line
	4800 3600 5850 3600
Text Notes 650  3750 0    50   ~ 0
Power Supply
Text Notes 4850 3700 0    50   ~ 0
AL1 AL2 LEDs
Text Notes 7050 4350 0    50   ~ 0
Buttons
Text Notes 6000 3700 0    50   ~ 0
Debug
Wire Wire Line
	1550 4250 1450 4250
$Comp
L Diode:1N4007 D7
U 1 1 601D1299
P 1700 4250
F 0 "D7" H 1700 4033 50  0000 C CNN
F 1 "1N4007" H 1700 4124 50  0000 C CNN
F 2 "Diode_THT:D_DO-41_SOD81_P10.16mm_Horizontal" H 1700 4075 50  0001 C CNN
F 3 "http://www.vishay.com/docs/88503/1n4001.pdf" H 1700 4250 50  0001 C CNN
	1    1700 4250
	-1   0    0    1   
$EndComp
Wire Wire Line
	1450 4250 1450 4400
Wire Wire Line
	1450 4800 1450 4700
$Comp
L Device:C C2
U 1 1 5FBE4CDE
P 1450 4550
F 0 "C2" H 1600 4600 50  0000 L CNN
F 1 "2A104J" H 1600 4500 50  0000 L CNN
F 2 "Capacitor_THT:C_Rect_L7.0mm_W3.5mm_P5.00mm" H 1488 4400 50  0001 C CNN
F 3 "~" H 1450 4550 50  0001 C CNN
	1    1450 4550
	1    0    0    -1  
$EndComp
Wire Wire Line
	1850 4250 2050 4250
Connection ~ 2050 4250
Wire Wire Line
	900  4250 1200 4250
Connection ~ 1450 4250
$Comp
L power:+12V #PWR0105
U 1 1 5FF728E0
P 1200 4050
F 0 "#PWR0105" H 1200 3900 50  0001 C CNN
F 1 "+12V" H 1215 4223 50  0000 C CNN
F 2 "" H 1200 4050 50  0001 C CNN
F 3 "" H 1200 4050 50  0001 C CNN
	1    1200 4050
	1    0    0    -1  
$EndComp
Wire Wire Line
	1200 4050 1200 4250
Connection ~ 1200 4250
Wire Wire Line
	1200 4250 1450 4250
$Comp
L 74xx:74HC595 U3
U 1 1 605FAE7C
P 8550 1500
F 0 "U3" H 8600 1600 50  0000 C CNN
F 1 "74HC595" H 8500 1500 50  0000 C CNN
F 2 "Package_DIP:DIP-16_W7.62mm" H 8550 1500 50  0001 C CNN
F 3 "http://www.ti.com/lit/ds/symlink/sn74hc595.pdf" H 8550 1500 50  0001 C CNN
	1    8550 1500
	1    0    0    -1  
$EndComp
Text Label 9200 1600 2    50   ~ 0
f
Text Label 9200 1500 2    50   ~ 0
e
Text Label 9200 1400 2    50   ~ 0
d
Text Label 9200 1300 2    50   ~ 0
c
Text Label 9200 1200 2    50   ~ 0
b
Text Label 9200 1100 2    50   ~ 0
a
Text Label 9200 1800 2    50   ~ 0
dp
Text Label 9200 1700 2    50   ~ 0
g
Wire Wire Line
	9200 1100 8950 1100
Wire Wire Line
	9200 1200 8950 1200
Wire Wire Line
	9200 1300 8950 1300
Wire Wire Line
	9200 1400 8950 1400
Wire Wire Line
	9200 1500 8950 1500
Wire Wire Line
	9200 1600 8950 1600
Wire Wire Line
	9200 1700 8950 1700
Wire Wire Line
	9200 1800 8950 1800
$Comp
L power:GND #PWR0106
U 1 1 60634571
P 8550 2300
F 0 "#PWR0106" H 8550 2050 50  0001 C CNN
F 1 "GND" H 8555 2127 50  0000 C CNN
F 2 "" H 8550 2300 50  0001 C CNN
F 3 "" H 8550 2300 50  0001 C CNN
	1    8550 2300
	1    0    0    -1  
$EndComp
Wire Wire Line
	8550 2300 8550 2250
Text Label 4700 2150 2    50   ~ 0
INT
Text Label 4700 2250 2    50   ~ 0
NSS
Text Label 700  2850 0    50   ~ 0
RESET
$Comp
L Device:R R4
U 1 1 6065F132
P 4300 2150
F 0 "R4" V 4350 2300 50  0000 L CNN
F 1 "470R" V 4300 2050 50  0000 L CNN
F 2 "Resistor_THT:R_Axial_DIN0207_L6.3mm_D2.5mm_P7.62mm_Horizontal" V 4230 2150 50  0001 C CNN
F 3 "~" H 4300 2150 50  0001 C CNN
	1    4300 2150
	0    -1   -1   0   
$EndComp
Wire Wire Line
	4150 2150 4000 2150
$Comp
L Device:R R5
U 1 1 6066D996
P 4300 2250
F 0 "R5" V 4350 2400 50  0000 L CNN
F 1 "470R" V 4300 2150 50  0000 L CNN
F 2 "Resistor_THT:R_Axial_DIN0207_L6.3mm_D2.5mm_P7.62mm_Horizontal" V 4230 2250 50  0001 C CNN
F 3 "~" H 4300 2250 50  0001 C CNN
	1    4300 2250
	0    -1   -1   0   
$EndComp
$Comp
L Device:R R6
U 1 1 6066DB98
P 1100 2850
F 0 "R6" V 1150 3000 50  0000 L CNN
F 1 "470R" V 1100 2750 50  0000 L CNN
F 2 "Resistor_THT:R_Axial_DIN0207_L6.3mm_D2.5mm_P7.62mm_Horizontal" V 1030 2850 50  0001 C CNN
F 3 "~" H 1100 2850 50  0001 C CNN
	1    1100 2850
	0    1    1    0   
$EndComp
Wire Wire Line
	1400 2850 1250 2850
Wire Wire Line
	4000 2250 4150 2250
Wire Wire Line
	950  2850 700  2850
Wire Wire Line
	4450 2250 4700 2250
Wire Wire Line
	4450 2150 4700 2150
Text Label 750  2650 0    50   ~ 0
MOSI
Text Label 750  2550 0    50   ~ 0
MISO
Text Label 750  2450 0    50   ~ 0
SCK
$Comp
L Device:R R3
U 1 1 606A8353
P 1150 2650
F 0 "R3" V 1100 2750 50  0000 L CNN
F 1 "470R" V 1150 2550 50  0000 L CNN
F 2 "Resistor_THT:R_Axial_DIN0207_L6.3mm_D2.5mm_P7.62mm_Horizontal" V 1080 2650 50  0001 C CNN
F 3 "~" H 1150 2650 50  0001 C CNN
	1    1150 2650
	0    1    1    0   
$EndComp
$Comp
L Device:R R2
U 1 1 606A8359
P 1150 2550
F 0 "R2" V 1100 2650 50  0000 L CNN
F 1 "470R" V 1150 2450 50  0000 L CNN
F 2 "Resistor_THT:R_Axial_DIN0207_L6.3mm_D2.5mm_P7.62mm_Horizontal" V 1080 2550 50  0001 C CNN
F 3 "~" H 1150 2550 50  0001 C CNN
	1    1150 2550
	0    1    1    0   
$EndComp
$Comp
L Device:R R1
U 1 1 606A835F
P 1150 2450
F 0 "R1" V 1100 2550 50  0000 L CNN
F 1 "470R" V 1150 2350 50  0000 L CNN
F 2 "Resistor_THT:R_Axial_DIN0207_L6.3mm_D2.5mm_P7.62mm_Horizontal" V 1080 2450 50  0001 C CNN
F 3 "~" H 1150 2450 50  0001 C CNN
	1    1150 2450
	0    1    1    0   
$EndComp
Wire Wire Line
	1000 2450 750  2450
Wire Wire Line
	1000 2550 750  2550
Wire Wire Line
	1000 2650 750  2650
Wire Wire Line
	1300 2650 1400 2650
Wire Wire Line
	1300 2550 1400 2550
Wire Wire Line
	1300 2450 1400 2450
$Comp
L My_Lib_KiCAD:Ra_CNT_v1.0 U5
U 1 1 606C6B0A
P 8800 3400
F 0 "U5" H 8825 3965 50  0000 C CNN
F 1 "Ra_CNT_v1.0" H 8825 3874 50  0000 C CNN
F 2 "RF_Module:Ai-Thinker-Ra-01-LoRa" H 8800 3400 50  0001 C CNN
F 3 "" H 8800 3400 50  0001 C CNN
	1    8800 3400
	1    0    0    -1  
$EndComp
Text Label 9800 3300 2    50   ~ 0
MOSI
Text Label 9800 3400 2    50   ~ 0
MISO
Text Label 9800 3500 2    50   ~ 0
SCK
$Comp
L power:GND #PWR0108
U 1 1 606D0351
P 9500 3900
F 0 "#PWR0108" H 9500 3650 50  0001 C CNN
F 1 "GND" H 9505 3727 50  0000 C CNN
F 2 "" H 9500 3900 50  0001 C CNN
F 3 "" H 9500 3900 50  0001 C CNN
	1    9500 3900
	1    0    0    -1  
$EndComp
Wire Wire Line
	9400 3800 9500 3800
Wire Wire Line
	9500 3800 9500 3900
$Comp
L power:GND #PWR0109
U 1 1 606D8A37
P 7850 3300
F 0 "#PWR0109" H 7850 3050 50  0001 C CNN
F 1 "GND" H 7855 3127 50  0000 C CNN
F 2 "" H 7850 3300 50  0001 C CNN
F 3 "" H 7850 3300 50  0001 C CNN
	1    7850 3300
	1    0    0    -1  
$EndComp
Wire Wire Line
	8250 3100 8150 3100
Wire Wire Line
	8250 3200 8150 3200
Wire Wire Line
	8150 3200 8150 3100
$Comp
L power:+3.3V #PWR0110
U 1 1 606E9C3B
P 8050 2900
F 0 "#PWR0110" H 8050 2750 50  0001 C CNN
F 1 "+3.3V" H 8065 3073 50  0000 C CNN
F 2 "" H 8050 2900 50  0001 C CNN
F 3 "" H 8050 2900 50  0001 C CNN
	1    8050 2900
	1    0    0    -1  
$EndComp
Wire Wire Line
	8050 2900 8050 3300
Wire Wire Line
	8050 3300 8250 3300
Text Label 8000 3500 0    50   ~ 0
INT
Text Label 9800 3200 2    50   ~ 0
NSS
Text Label 8000 3400 0    50   ~ 0
RESET
Wire Wire Line
	8250 3400 8000 3400
Wire Wire Line
	8250 3500 8000 3500
Wire Wire Line
	8150 3100 7850 3100
Wire Wire Line
	7850 3100 7850 3300
Connection ~ 8150 3100
Wire Wire Line
	9400 3500 9800 3500
Wire Wire Line
	9400 3400 9800 3400
Wire Wire Line
	9400 3300 9800 3300
Wire Wire Line
	9400 3200 9800 3200
Wire Wire Line
	9500 3800 9500 3100
Wire Wire Line
	9500 3100 9400 3100
Connection ~ 9500 3800
$Comp
L Device:CP C3
U 1 1 607545FD
P 1550 6250
F 0 "C3" H 1668 6296 50  0000 L CNN
F 1 "10uF" H 1668 6205 50  0000 L CNN
F 2 "Capacitor_THT:C_Radial_D6.3mm_H11.0mm_P2.50mm" H 1588 6100 50  0001 C CNN
F 3 "~" H 1550 6250 50  0001 C CNN
	1    1550 6250
	1    0    0    -1  
$EndComp
$Comp
L Device:CP C5
U 1 1 607549B9
P 2050 6250
F 0 "C5" H 2168 6296 50  0000 L CNN
F 1 "1uF" H 2168 6205 50  0000 L CNN
F 2 "Capacitor_THT:C_Radial_D6.3mm_H11.0mm_P2.50mm" H 2088 6100 50  0001 C CNN
F 3 "~" H 2050 6250 50  0001 C CNN
	1    2050 6250
	1    0    0    -1  
$EndComp
$Comp
L Device:C C6
U 1 1 60754CDB
P 2500 6250
F 0 "C6" H 2615 6296 50  0000 L CNN
F 1 "104" H 2615 6205 50  0000 L CNN
F 2 "Capacitor_THT:C_Rect_L7.0mm_W3.5mm_P5.00mm" H 2538 6100 50  0001 C CNN
F 3 "~" H 2500 6250 50  0001 C CNN
	1    2500 6250
	1    0    0    -1  
$EndComp
$Comp
L Regulator_Linear:AMS1117-3.3 U4
U 1 1 60761340
P 3100 6000
F 0 "U4" H 3100 6242 50  0000 C CNN
F 1 "AMS1117-3.3" H 3100 6151 50  0000 C CNN
F 2 "Package_TO_SOT_SMD:SOT-223-3_TabPin2" H 3100 6200 50  0001 C CNN
F 3 "http://www.advanced-monolithic.com/pdf/ds1117.pdf" H 3200 5750 50  0001 C CNN
	1    3100 6000
	1    0    0    -1  
$EndComp
$Comp
L Device:CP C7
U 1 1 60762B2D
P 3650 6250
F 0 "C7" H 3768 6296 50  0000 L CNN
F 1 "10uF" H 3768 6205 50  0000 L CNN
F 2 "Capacitor_THT:C_Radial_D6.3mm_H11.0mm_P2.50mm" H 3688 6100 50  0001 C CNN
F 3 "~" H 3650 6250 50  0001 C CNN
	1    3650 6250
	1    0    0    -1  
$EndComp
$Comp
L power:+5V #PWR0111
U 1 1 60762F98
P 1400 5950
F 0 "#PWR0111" H 1400 5800 50  0001 C CNN
F 1 "+5V" H 1415 6123 50  0000 C CNN
F 2 "" H 1400 5950 50  0001 C CNN
F 3 "" H 1400 5950 50  0001 C CNN
	1    1400 5950
	1    0    0    -1  
$EndComp
Wire Wire Line
	2800 6000 2500 6000
Wire Wire Line
	1400 6000 1400 5950
Wire Wire Line
	1550 6100 1550 6000
Connection ~ 1550 6000
Wire Wire Line
	1550 6000 1400 6000
Wire Wire Line
	2050 6100 2050 6000
Connection ~ 2050 6000
Wire Wire Line
	2050 6000 1550 6000
Wire Wire Line
	2500 6100 2500 6000
Connection ~ 2500 6000
Wire Wire Line
	2500 6000 2050 6000
$Comp
L power:GND #PWR0113
U 1 1 607897F3
P 1550 6500
F 0 "#PWR0113" H 1550 6250 50  0001 C CNN
F 1 "GND" H 1555 6327 50  0000 C CNN
F 2 "" H 1550 6500 50  0001 C CNN
F 3 "" H 1550 6500 50  0001 C CNN
	1    1550 6500
	1    0    0    -1  
$EndComp
$Comp
L power:GND #PWR0114
U 1 1 60789A1A
P 2050 6500
F 0 "#PWR0114" H 2050 6250 50  0001 C CNN
F 1 "GND" H 2055 6327 50  0000 C CNN
F 2 "" H 2050 6500 50  0001 C CNN
F 3 "" H 2050 6500 50  0001 C CNN
	1    2050 6500
	1    0    0    -1  
$EndComp
$Comp
L power:GND #PWR0115
U 1 1 60789C00
P 2500 6500
F 0 "#PWR0115" H 2500 6250 50  0001 C CNN
F 1 "GND" H 2505 6327 50  0000 C CNN
F 2 "" H 2500 6500 50  0001 C CNN
F 3 "" H 2500 6500 50  0001 C CNN
	1    2500 6500
	1    0    0    -1  
$EndComp
$Comp
L power:GND #PWR0116
U 1 1 60789D48
P 3100 6500
F 0 "#PWR0116" H 3100 6250 50  0001 C CNN
F 1 "GND" H 3105 6327 50  0000 C CNN
F 2 "" H 3100 6500 50  0001 C CNN
F 3 "" H 3100 6500 50  0001 C CNN
	1    3100 6500
	1    0    0    -1  
$EndComp
$Comp
L power:GND #PWR0118
U 1 1 60789ED4
P 3650 6500
F 0 "#PWR0118" H 3650 6250 50  0001 C CNN
F 1 "GND" H 3655 6327 50  0000 C CNN
F 2 "" H 3650 6500 50  0001 C CNN
F 3 "" H 3650 6500 50  0001 C CNN
	1    3650 6500
	1    0    0    -1  
$EndComp
$Comp
L power:+3.3V #PWR0119
U 1 1 6078A096
P 4000 5950
F 0 "#PWR0119" H 4000 5800 50  0001 C CNN
F 1 "+3.3V" H 4015 6123 50  0000 C CNN
F 2 "" H 4000 5950 50  0001 C CNN
F 3 "" H 4000 5950 50  0001 C CNN
	1    4000 5950
	1    0    0    -1  
$EndComp
Wire Wire Line
	3400 6000 3650 6000
Wire Wire Line
	4000 6000 4000 5950
Wire Wire Line
	3650 6100 3650 6000
Connection ~ 3650 6000
Wire Wire Line
	3650 6000 4000 6000
Wire Wire Line
	3100 6500 3100 6300
Wire Wire Line
	3650 6500 3650 6400
Wire Wire Line
	2500 6500 2500 6400
Wire Wire Line
	2050 6500 2050 6400
Wire Wire Line
	1550 6500 1550 6400
$Comp
L Diode:1N4007 D1
U 1 1 607E1576
P 1150 6000
F 0 "D1" H 1150 5783 50  0000 C CNN
F 1 "1N4007" H 1150 5874 50  0000 C CNN
F 2 "Diode_THT:D_DO-41_SOD81_P10.16mm_Horizontal" H 1150 5825 50  0001 C CNN
F 3 "http://www.vishay.com/docs/88503/1n4001.pdf" H 1150 6000 50  0001 C CNN
	1    1150 6000
	-1   0    0    1   
$EndComp
Wire Wire Line
	1300 6000 1400 6000
Connection ~ 1400 6000
$Comp
L Connector:Screw_Terminal_01x02 J3
U 1 1 607ED228
P 700 6100
F 0 "J3" H 618 5775 50  0000 C CNN
F 1 "BATT" H 618 5866 50  0000 C CNN
F 2 "TerminalBlock:TerminalBlock_bornier-2_P5.08mm" H 700 6100 50  0001 C CNN
F 3 "~" H 700 6100 50  0001 C CNN
	1    700  6100
	-1   0    0    1   
$EndComp
Wire Wire Line
	900  6000 1000 6000
$Comp
L power:GND #PWR0120
U 1 1 607F9209
P 1000 6500
F 0 "#PWR0120" H 1000 6250 50  0001 C CNN
F 1 "GND" H 1005 6327 50  0000 C CNN
F 2 "" H 1000 6500 50  0001 C CNN
F 3 "" H 1000 6500 50  0001 C CNN
	1    1000 6500
	1    0    0    -1  
$EndComp
Wire Wire Line
	900  6100 1000 6100
Wire Wire Line
	1000 6100 1000 6500
Wire Notes Line
	4700 3600 4700 5600
Wire Notes Line
	4700 5600 600  5600
Wire Notes Line
	600  5600 600  3600
Wire Notes Line
	600  3600 4700 3600
Wire Notes Line
	4150 5700 4150 6750
Wire Notes Line
	600  6750 600  5700
Wire Notes Line
	600  5700 4150 5700
Wire Notes Line
	600  6750 4150 6750
$Comp
L power:+5V #PWR0121
U 1 1 608D2FDA
P 8550 800
F 0 "#PWR0121" H 8550 650 50  0001 C CNN
F 1 "+5V" H 8565 973 50  0000 C CNN
F 2 "" H 8550 800 50  0001 C CNN
F 3 "" H 8550 800 50  0001 C CNN
	1    8550 800 
	1    0    0    -1  
$EndComp
Wire Wire Line
	8550 900  8550 850 
Text Label 4700 2450 2    50   ~ 0
LATCH
Text Label 4700 2550 2    50   ~ 0
CLK
Text Label 4700 2350 2    50   ~ 0
DATA
$Comp
L Device:C C11
U 1 1 608DFD07
P 7850 2100
F 0 "C11" H 7900 2200 50  0000 L CNN
F 1 "104" H 7900 2000 50  0000 L CNN
F 2 "Capacitor_THT:C_Rect_L7.0mm_W3.5mm_P5.00mm" H 7888 1950 50  0001 C CNN
F 3 "~" H 7850 2100 50  0001 C CNN
	1    7850 2100
	1    0    0    -1  
$EndComp
$Comp
L power:GND #PWR0122
U 1 1 608E0A65
P 7850 2300
F 0 "#PWR0122" H 7850 2050 50  0001 C CNN
F 1 "GND" H 7855 2127 50  0000 C CNN
F 2 "" H 7850 2300 50  0001 C CNN
F 3 "" H 7850 2300 50  0001 C CNN
	1    7850 2300
	1    0    0    -1  
$EndComp
$Comp
L power:+5V #PWR0123
U 1 1 608E147A
P 7850 1900
F 0 "#PWR0123" H 7850 1750 50  0001 C CNN
F 1 "+5V" H 7865 2073 50  0000 C CNN
F 2 "" H 7850 1900 50  0001 C CNN
F 3 "" H 7850 1900 50  0001 C CNN
	1    7850 1900
	1    0    0    -1  
$EndComp
Wire Wire Line
	7850 1900 7850 1950
Wire Wire Line
	7850 2250 7850 2300
Text Label 7850 1600 0    50   ~ 0
LATCH
Text Label 7850 1300 0    50   ~ 0
CLK
Text Label 7850 1100 0    50   ~ 0
DATA
Wire Wire Line
	7850 1100 8150 1100
Wire Wire Line
	7850 1300 8150 1300
Wire Wire Line
	7850 1600 8150 1600
Wire Wire Line
	8100 1700 8150 1700
Wire Wire Line
	8150 1400 8100 1400
Wire Wire Line
	8100 1400 8100 850 
Wire Wire Line
	8100 850  8550 850 
Connection ~ 8550 850 
Wire Wire Line
	8550 850  8550 800 
Wire Wire Line
	8100 1700 8100 2250
Wire Wire Line
	8100 2250 8550 2250
Connection ~ 8550 2250
Wire Wire Line
	8550 2250 8550 2200
Wire Wire Line
	4700 2450 4000 2450
Wire Wire Line
	4700 2550 4000 2550
Wire Wire Line
	4700 2350 4000 2350
Text Label 4400 1350 2    50   ~ 0
AL1_LED
Text Label 4400 1250 2    50   ~ 0
AL2_LED
Wire Wire Line
	4400 1350 4000 1350
Wire Wire Line
	4400 1250 4000 1250
$Comp
L Device:C C12
U 1 1 60A4BE69
P 9950 3400
F 0 "C12" H 10065 3446 50  0000 L CNN
F 1 "104" H 10065 3355 50  0000 L CNN
F 2 "Capacitor_THT:C_Rect_L7.0mm_W3.5mm_P5.00mm" H 9988 3250 50  0001 C CNN
F 3 "~" H 9950 3400 50  0001 C CNN
	1    9950 3400
	1    0    0    -1  
$EndComp
$Comp
L power:+3.3V #PWR08
U 1 1 60A4D155
P 9950 3150
F 0 "#PWR08" H 9950 3000 50  0001 C CNN
F 1 "+3.3V" H 9965 3323 50  0000 C CNN
F 2 "" H 9950 3150 50  0001 C CNN
F 3 "" H 9950 3150 50  0001 C CNN
	1    9950 3150
	1    0    0    -1  
$EndComp
$Comp
L power:GND #PWR09
U 1 1 60A4D3C8
P 9950 3650
F 0 "#PWR09" H 9950 3400 50  0001 C CNN
F 1 "GND" H 9955 3477 50  0000 C CNN
F 2 "" H 9950 3650 50  0001 C CNN
F 3 "" H 9950 3650 50  0001 C CNN
	1    9950 3650
	1    0    0    -1  
$EndComp
Wire Wire Line
	9950 3650 9950 3550
Wire Wire Line
	9950 3250 9950 3150
Wire Wire Line
	4000 2650 4700 2650
Wire Wire Line
	4250 2750 4700 2750
Connection ~ 4250 2750
Wire Wire Line
	4150 2850 4700 2850
Connection ~ 4150 2850
$Comp
L Device:R R8
U 1 1 60B92917
P 5800 1950
F 0 "R8" V 5850 1700 50  0000 L CNN
F 1 "1k" V 5800 1900 50  0000 L CNN
F 2 "Resistor_THT:R_Axial_DIN0207_L6.3mm_D2.5mm_P7.62mm_Horizontal" V 5730 1950 50  0001 C CNN
F 3 "~" H 5800 1950 50  0001 C CNN
	1    5800 1950
	0    -1   -1   0   
$EndComp
Wire Wire Line
	5500 1950 5650 1950
$Comp
L Connector_Generic:Conn_01x05 J4
U 1 1 60C04068
P 5000 1100
F 0 "J4" H 5080 1142 50  0000 L CNN
F 1 "Program" H 4850 800 50  0000 L CNN
F 2 "Connector_PinHeader_2.54mm:PinHeader_1x05_P2.54mm_Vertical" H 5000 1100 50  0001 C CNN
F 3 "~" H 5000 1100 50  0001 C CNN
	1    5000 1100
	1    0    0    -1  
$EndComp
Wire Notes Line
	10250 2650 10250 4150
Wire Notes Line
	10250 4150 7750 4150
Wire Notes Line
	7750 4150 7750 2650
Wire Notes Line
	7750 2650 10250 2650
Wire Notes Line
	9250 550  9250 2550
Wire Notes Line
	9250 2550 7750 2550
Wire Notes Line
	7750 2550 7750 550 
Wire Notes Line
	7750 550  9250 550 
Wire Notes Line
	10350 4250 10350 5550
Wire Notes Line
	10350 5550 7050 5550
Wire Notes Line
	7050 5550 7050 4250
Wire Notes Line
	7050 4250 10350 4250
Wire Notes Line
	5200 3500 600  3500
Wire Notes Line
	5200 550  5200 3500
Wire Notes Line
	600  550  600  3500
$EndSCHEMATC
