EESchema Schematic File Version 4
EELAYER 30 0
EELAYER END
$Descr A4 11693 8268
encoding utf-8
Sheet 1 1
Title "AC Power Line Monitor and DC Voltage Sense"
Date "2020-12-14"
Rev "0"
Comp ""
Comment1 ""
Comment2 ""
Comment3 ""
Comment4 ""
$EndDescr
$Comp
L Isolator:PC817 U1
U 1 1 5FD731E8
P 5700 1800
F 0 "U1" H 5700 2125 50  0000 C CNN
F 1 "PC817" H 5700 2034 50  0000 C CNN
F 2 "Package_DIP:DIP-4_W7.62mm" H 5500 1600 50  0001 L CIN
F 3 "http://www.soselectronic.cz/a_info/resource/d/pc817.pdf" H 5700 1800 50  0001 L CNN
	1    5700 1800
	1    0    0    -1  
$EndComp
$Comp
L Device:R R6
U 1 1 5FD7606A
P 5000 1700
F 0 "R6" V 4793 1700 50  0000 C CNN
F 1 "470R" V 4884 1700 50  0000 C CNN
F 2 "Resistor_THT:R_Axial_DIN0207_L6.3mm_D2.5mm_P7.62mm_Horizontal" V 4930 1700 50  0001 C CNN
F 3 "~" H 5000 1700 50  0001 C CNN
	1    5000 1700
	0    1    1    0   
$EndComp
$Comp
L power:GND1 #PWR06
U 1 1 5FD769A6
P 5300 2100
F 0 "#PWR06" H 5300 1850 50  0001 C CNN
F 1 "GND1" H 5305 1927 50  0000 C CNN
F 2 "" H 5300 2100 50  0001 C CNN
F 3 "" H 5300 2100 50  0001 C CNN
	1    5300 2100
	1    0    0    -1  
$EndComp
Wire Wire Line
	5400 1900 5300 1900
Wire Wire Line
	5300 1900 5300 2100
Wire Wire Line
	5150 1700 5400 1700
$Comp
L power:+5V #PWR07
U 1 1 5FD7E79E
P 6150 1300
F 0 "#PWR07" H 6150 1150 50  0001 C CNN
F 1 "+5V" H 6165 1473 50  0000 C CNN
F 2 "" H 6150 1300 50  0001 C CNN
F 3 "" H 6150 1300 50  0001 C CNN
	1    6150 1300
	1    0    0    -1  
$EndComp
Wire Wire Line
	6000 1700 6150 1700
Wire Wire Line
	6150 1700 6150 1300
$Comp
L Device:R R7
U 1 1 5FD7F541
P 6350 1900
F 0 "R7" V 6143 1900 50  0000 C CNN
F 1 "10k" V 6234 1900 50  0000 C CNN
F 2 "Resistor_THT:R_Axial_DIN0207_L6.3mm_D2.5mm_P7.62mm_Horizontal" V 6280 1900 50  0001 C CNN
F 3 "~" H 6350 1900 50  0001 C CNN
	1    6350 1900
	0    1    1    0   
$EndComp
$Comp
L Device:R R8
U 1 1 5FD7FA99
P 6650 2100
F 0 "R8" H 6580 2054 50  0000 R CNN
F 1 "47k" H 6580 2145 50  0000 R CNN
F 2 "Resistor_THT:R_Axial_DIN0207_L6.3mm_D2.5mm_P7.62mm_Horizontal" V 6580 2100 50  0001 C CNN
F 3 "~" H 6650 2100 50  0001 C CNN
	1    6650 2100
	-1   0    0    1   
$EndComp
Wire Wire Line
	6200 1900 6000 1900
$Comp
L Transistor_BJT:BC547 Q1
U 1 1 5FD8063F
P 7150 1900
F 0 "Q1" H 7341 1946 50  0000 L CNN
F 1 "C945" H 7341 1855 50  0000 L CNN
F 2 "Package_TO_SOT_THT:TO-92_Inline" H 7350 1825 50  0001 L CIN
F 3 "https://www.onsemi.com/pub/Collateral/BC550-D.pdf" H 7150 1900 50  0001 L CNN
	1    7150 1900
	1    0    0    -1  
$EndComp
Wire Wire Line
	6950 1900 6650 1900
Wire Wire Line
	6650 1950 6650 1900
Connection ~ 6650 1900
Wire Wire Line
	6650 1900 6500 1900
$Comp
L power:GND2 #PWR08
U 1 1 5FD81B6E
P 6650 2350
F 0 "#PWR08" H 6650 2100 50  0001 C CNN
F 1 "GND2" H 6655 2177 50  0000 C CNN
F 2 "" H 6650 2350 50  0001 C CNN
F 3 "" H 6650 2350 50  0001 C CNN
	1    6650 2350
	1    0    0    -1  
$EndComp
Wire Wire Line
	6650 2350 6650 2250
$Comp
L power:GND2 #PWR010
U 1 1 5FD829F5
P 7250 2350
F 0 "#PWR010" H 7250 2100 50  0001 C CNN
F 1 "GND2" H 7255 2177 50  0000 C CNN
F 2 "" H 7250 2350 50  0001 C CNN
F 3 "" H 7250 2350 50  0001 C CNN
	1    7250 2350
	1    0    0    -1  
$EndComp
Wire Wire Line
	7250 2350 7250 2100
$Comp
L power:+5V #PWR09
U 1 1 5FD83416
P 7250 1050
F 0 "#PWR09" H 7250 900 50  0001 C CNN
F 1 "+5V" H 7265 1223 50  0000 C CNN
F 2 "" H 7250 1050 50  0001 C CNN
F 3 "" H 7250 1050 50  0001 C CNN
	1    7250 1050
	1    0    0    -1  
$EndComp
$Comp
L Device:R R9
U 1 1 5FD83896
P 7250 1350
F 0 "R9" H 7180 1304 50  0000 R CNN
F 1 "1k" H 7180 1395 50  0000 R CNN
F 2 "Resistor_THT:R_Axial_DIN0207_L6.3mm_D2.5mm_P7.62mm_Horizontal" V 7180 1350 50  0001 C CNN
F 3 "~" H 7250 1350 50  0001 C CNN
	1    7250 1350
	-1   0    0    1   
$EndComp
$Comp
L Device:R R10
U 1 1 5FD840A1
P 7700 1900
F 0 "R10" H 7630 1854 50  0000 R CNN
F 1 "1k" H 7630 1945 50  0000 R CNN
F 2 "Resistor_THT:R_Axial_DIN0207_L6.3mm_D2.5mm_P7.62mm_Horizontal" V 7630 1900 50  0001 C CNN
F 3 "~" H 7700 1900 50  0001 C CNN
	1    7700 1900
	-1   0    0    1   
$EndComp
Wire Wire Line
	7250 1050 7250 1200
Wire Wire Line
	7250 1500 7250 1650
Text Label 8200 1650 2    50   ~ 0
S1
Wire Wire Line
	8200 1650 7700 1650
Connection ~ 7250 1650
Wire Wire Line
	7250 1650 7250 1700
Wire Wire Line
	7700 1750 7700 1650
Connection ~ 7700 1650
Wire Wire Line
	7700 1650 7250 1650
$Comp
L power:GND2 #PWR011
U 1 1 5FD8683F
P 7700 2350
F 0 "#PWR011" H 7700 2100 50  0001 C CNN
F 1 "GND2" H 7705 2177 50  0000 C CNN
F 2 "" H 7700 2350 50  0001 C CNN
F 3 "" H 7700 2350 50  0001 C CNN
	1    7700 2350
	1    0    0    -1  
$EndComp
Wire Wire Line
	7700 2350 7700 2050
$Comp
L Device:R R1
U 1 1 5FD9109D
P 2200 3850
F 0 "R1" V 1993 3850 50  0000 C CNN
F 1 "33k" V 2084 3850 50  0000 C CNN
F 2 "Resistor_THT:R_Axial_DIN0207_L6.3mm_D2.5mm_P7.62mm_Horizontal" V 2130 3850 50  0001 C CNN
F 3 "~" H 2200 3850 50  0001 C CNN
	1    2200 3850
	0    1    1    0   
$EndComp
$Comp
L Device:R_POT RV1
U 1 1 5FD91830
P 3200 3850
F 0 "RV1" H 3130 3804 50  0000 R CNN
F 1 "10k" H 3130 3895 50  0000 R CNN
F 2 "Potentiometer_THT:Potentiometer_Bourns_3296W_Vertical" H 3200 3850 50  0001 C CNN
F 3 "~" H 3200 3850 50  0001 C CNN
	1    3200 3850
	-1   0    0    1   
$EndComp
$Comp
L Device:R R4
U 1 1 5FD92668
P 2750 4100
F 0 "R4" H 2820 4146 50  0000 L CNN
F 1 "4.7k" H 2820 4055 50  0000 L CNN
F 2 "Resistor_THT:R_Axial_DIN0207_L6.3mm_D2.5mm_P7.62mm_Horizontal" V 2680 4100 50  0001 C CNN
F 3 "~" H 2750 4100 50  0001 C CNN
	1    2750 4100
	1    0    0    -1  
$EndComp
$Comp
L Connector:Screw_Terminal_01x02 J2
U 1 1 5FD92B46
P 1350 3950
F 0 "J2" H 1268 3625 50  0000 C CNN
F 1 "DC INPUT" H 1268 3716 50  0000 C CNN
F 2 "TerminalBlock:TerminalBlock_bornier-2_P5.08mm" H 1350 3950 50  0001 C CNN
F 3 "~" H 1350 3950 50  0001 C CNN
	1    1350 3950
	-1   0    0    1   
$EndComp
Wire Wire Line
	1550 3850 2050 3850
$Comp
L power:GND2 #PWR01
U 1 1 5FD952DC
P 1700 4100
F 0 "#PWR01" H 1700 3850 50  0001 C CNN
F 1 "GND2" H 1705 3927 50  0000 C CNN
F 2 "" H 1700 4100 50  0001 C CNN
F 3 "" H 1700 4100 50  0001 C CNN
	1    1700 4100
	1    0    0    -1  
$EndComp
Wire Wire Line
	1550 3950 1700 3950
Wire Wire Line
	1700 3950 1700 4100
$Comp
L Device:R R5
U 1 1 5FD9739C
P 3200 4500
F 0 "R5" H 3270 4546 50  0000 L CNN
F 1 "330R" H 3270 4455 50  0000 L CNN
F 2 "Resistor_THT:R_Axial_DIN0207_L6.3mm_D2.5mm_P7.62mm_Horizontal" V 3130 4500 50  0001 C CNN
F 3 "~" H 3200 4500 50  0001 C CNN
	1    3200 4500
	1    0    0    -1  
$EndComp
$Comp
L power:GND2 #PWR03
U 1 1 5FD97661
P 3200 4750
F 0 "#PWR03" H 3200 4500 50  0001 C CNN
F 1 "GND2" H 3205 4577 50  0000 C CNN
F 2 "" H 3200 4750 50  0001 C CNN
F 3 "" H 3200 4750 50  0001 C CNN
	1    3200 4750
	1    0    0    -1  
$EndComp
Text Label 3550 3500 2    50   ~ 0
S2
Wire Wire Line
	3550 3500 3200 3500
Wire Wire Line
	3200 3500 3200 3700
Wire Wire Line
	2350 3850 2750 3850
Wire Wire Line
	2750 3950 2750 3850
Connection ~ 2750 3850
Wire Wire Line
	2750 3850 3050 3850
Wire Wire Line
	3200 4000 3200 4300
Wire Wire Line
	2750 4250 2750 4300
Wire Wire Line
	2750 4300 3200 4300
Connection ~ 3200 4300
Wire Wire Line
	3200 4300 3200 4350
Wire Wire Line
	3200 4650 3200 4750
$Comp
L Device:CP C4
U 1 1 5FAF860A
P 3950 1950
F 0 "C4" H 4068 1996 50  0000 L CNN
F 1 "470uF" H 4068 1905 50  0000 L CNN
F 2 "Capacitor_THT:CP_Radial_D8.0mm_P3.50mm" H 3988 1800 50  0001 C CNN
F 3 "~" H 3950 1950 50  0001 C CNN
	1    3950 1950
	1    0    0    -1  
$EndComp
$Comp
L Mechanical:MountingHole H2
U 1 1 600722EB
P 10500 5750
F 0 "H2" H 10600 5796 50  0000 L CNN
F 1 "MountingHole" H 10600 5705 50  0000 L CNN
F 2 "MountingHole:MountingHole_3mm_Pad_Via" H 10500 5750 50  0001 C CNN
F 3 "~" H 10500 5750 50  0001 C CNN
	1    10500 5750
	1    0    0    -1  
$EndComp
$Comp
L Mechanical:MountingHole H3
U 1 1 600723F7
P 10500 6000
F 0 "H3" H 10600 6046 50  0000 L CNN
F 1 "MountingHole" H 10600 5955 50  0000 L CNN
F 2 "MountingHole:MountingHole_3mm_Pad_Via" H 10500 6000 50  0001 C CNN
F 3 "~" H 10500 6000 50  0001 C CNN
	1    10500 6000
	1    0    0    -1  
$EndComp
$Comp
L Device:R R2
U 1 1 5FBCB62D
P 2550 1300
F 0 "R2" V 2650 1250 50  0000 L CNN
F 1 "470k" V 2450 1200 50  0000 L CNN
F 2 "Resistor_THT:R_Axial_DIN0207_L6.3mm_D2.5mm_P7.62mm_Horizontal" V 2480 1300 50  0001 C CNN
F 3 "~" H 2550 1300 50  0001 C CNN
	1    2550 1300
	0    1    1    0   
$EndComp
$Comp
L Device:R R3
U 1 1 5FBCBD83
P 2650 2200
F 0 "R3" V 2450 2150 50  0000 L CNN
F 1 "10R" V 2550 2100 50  0000 L CNN
F 2 "Resistor_THT:R_Axial_DIN0207_L6.3mm_D2.5mm_P10.16mm_Horizontal" V 2580 2200 50  0001 C CNN
F 3 "~" H 2650 2200 50  0001 C CNN
	1    2650 2200
	0    1    1    0   
$EndComp
$Comp
L power:GND #PWR0114
U 1 1 5FDAA110
P 2950 1750
F 0 "#PWR0114" H 2950 1500 50  0001 C CNN
F 1 "GND" H 2955 1577 50  0000 C CNN
F 2 "" H 2950 1750 50  0001 C CNN
F 3 "" H 2950 1750 50  0001 C CNN
	1    2950 1750
	1    0    0    -1  
$EndComp
$Comp
L Device:D_Zener D2
U 1 1 6004E6A0
P 4400 1950
F 0 "D2" V 4354 2030 50  0000 L CNN
F 1 "1N4732" V 4445 2030 50  0000 L CNN
F 2 "Diode_THT:D_DO-35_SOD27_P7.62mm_Horizontal" H 4400 1950 50  0001 C CNN
F 3 "~" H 4400 1950 50  0001 C CNN
	1    4400 1950
	0    1    1    0   
$EndComp
$Comp
L Device:C C2
U 1 1 600577B1
P 2550 1000
F 0 "C2" V 2300 950 50  0000 L CNN
F 1 "105J/630V" V 2400 950 50  0000 L CNN
F 2 "Capacitor_THT:C_Rect_L27.0mm_W9.0mm_P23.00mm" H 2588 850 50  0001 C CNN
F 3 "~" H 2550 1000 50  0001 C CNN
	1    2550 1000
	0    1    1    0   
$EndComp
$Comp
L Diode_Bridge:DF01M D1
U 1 1 600590A2
P 3450 1700
F 0 "D1" H 3550 2000 50  0000 L CNN
F 1 "DF01M" H 3550 1900 50  0000 L CNN
F 2 "Diode_THT:Diode_Bridge_DIP-4_W7.62mm_P5.08mm" H 3600 1825 50  0001 L CNN
F 3 "http://www.vishay.com/docs/88571/dfm.pdf" H 3450 1700 50  0001 C CNN
	1    3450 1700
	1    0    0    1   
$EndComp
Wire Wire Line
	3450 2200 3450 2000
Wire Wire Line
	2700 1300 2800 1300
Wire Wire Line
	2700 1000 2800 1000
Wire Wire Line
	2800 1000 2800 1300
Connection ~ 2800 1300
Wire Wire Line
	3150 1700 2950 1700
Wire Wire Line
	2950 1700 2950 1750
Wire Wire Line
	3450 1300 3450 1400
$Comp
L Connector:Screw_Terminal_01x01 J5
U 1 1 600EDD71
P 1300 1300
F 0 "J5" H 1218 1075 50  0000 C CNN
F 1 "AC1" H 1218 1166 50  0000 C CNN
F 2 "TestPoint:TestPoint_Loop_D2.60mm_Drill1.6mm_Beaded" H 1300 1300 50  0001 C CNN
F 3 "~" H 1300 1300 50  0001 C CNN
	1    1300 1300
	-1   0    0    1   
$EndComp
$Comp
L Connector:Screw_Terminal_01x01 J6
U 1 1 600EE7C6
P 1300 2200
F 0 "J6" H 1218 1975 50  0000 C CNN
F 1 "AC2" H 1218 2066 50  0000 C CNN
F 2 "TestPoint:TestPoint_Loop_D2.60mm_Drill1.6mm_Beaded" H 1300 2200 50  0001 C CNN
F 3 "~" H 1300 2200 50  0001 C CNN
	1    1300 2200
	-1   0    0    1   
$EndComp
Wire Wire Line
	2800 2200 3450 2200
Wire Wire Line
	2400 1300 2300 1300
Wire Wire Line
	2400 1000 2300 1000
Wire Wire Line
	2300 1000 2300 1300
Connection ~ 2300 1300
$Comp
L Mechanical:MountingHole H4
U 1 1 60072588
P 10500 6250
F 0 "H4" H 10600 6296 50  0000 L CNN
F 1 "MountingHole" H 10600 6205 50  0000 L CNN
F 2 "MountingHole:MountingHole_3mm_Pad_Via" H 10500 6250 50  0001 C CNN
F 3 "~" H 10500 6250 50  0001 C CNN
	1    10500 6250
	1    0    0    -1  
$EndComp
$Comp
L Mechanical:MountingHole H1
U 1 1 60273CA4
P 10500 5500
F 0 "H1" H 10600 5546 50  0000 L CNN
F 1 "MountingHole" H 10600 5455 50  0000 L CNN
F 2 "MountingHole:MountingHole_3mm_Pad_Via" H 10500 5500 50  0001 C CNN
F 3 "~" H 10500 5500 50  0001 C CNN
	1    10500 5500
	1    0    0    -1  
$EndComp
Wire Wire Line
	1500 1300 2300 1300
Wire Wire Line
	2800 1300 3450 1300
Wire Wire Line
	1500 2200 2500 2200
Wire Wire Line
	3750 1700 3950 1700
Wire Wire Line
	3950 1800 3950 1700
Connection ~ 3950 1700
Wire Wire Line
	3950 1700 4400 1700
Wire Wire Line
	4400 1800 4400 1700
Connection ~ 4400 1700
Wire Wire Line
	4400 1700 4850 1700
$Comp
L power:GND1 #PWR04
U 1 1 5FDD1CF8
P 4400 2200
F 0 "#PWR04" H 4400 1950 50  0001 C CNN
F 1 "GND1" H 4405 2027 50  0000 C CNN
F 2 "" H 4400 2200 50  0001 C CNN
F 3 "" H 4400 2200 50  0001 C CNN
	1    4400 2200
	1    0    0    -1  
$EndComp
$Comp
L power:GND1 #PWR02
U 1 1 5FDD1EED
P 3950 2200
F 0 "#PWR02" H 3950 1950 50  0001 C CNN
F 1 "GND1" H 3955 2027 50  0000 C CNN
F 2 "" H 3950 2200 50  0001 C CNN
F 3 "" H 3950 2200 50  0001 C CNN
	1    3950 2200
	1    0    0    -1  
$EndComp
Wire Wire Line
	3950 2200 3950 2100
Wire Wire Line
	4400 2200 4400 2100
$EndSCHEMATC
