EESchema Schematic File Version 4
EELAYER 30 0
EELAYER END
$Descr A4 11693 8268
encoding utf-8
Sheet 1 1
Title "Fill Drain Counter"
Date "2020-11-11"
Rev "0"
Comp "Everything Electronic"
Comment1 ""
Comment2 ""
Comment3 ""
Comment4 ""
$EndDescr
$Comp
L Device:R R3
U 1 1 5FAB9588
P 8800 5250
F 0 "R3" H 8870 5296 50  0000 L CNN
F 1 "100k" H 8870 5205 50  0000 L CNN
F 2 "Resistor_THT:R_Axial_DIN0207_L6.3mm_D2.5mm_P7.62mm_Horizontal" V 8730 5250 50  0001 C CNN
F 3 "~" H 8800 5250 50  0001 C CNN
	1    8800 5250
	-1   0    0    1   
$EndComp
$Comp
L MCU_Microchip_PIC16:PIC16F883-IP U1
U 1 1 5FABA539
P 2550 1950
F 0 "U1" H 2550 2050 50  0000 C CNN
F 1 "PIC16F1936" H 2550 1950 50  0000 C CNN
F 2 "Package_DIP:DIP-28_W7.62mm_Socket" H 2550 1950 50  0001 C CIN
F 3 "http://ww1.microchip.com/downloads/en/DeviceDoc/41291D.pdf" H 2550 1750 50  0001 C CNN
	1    2550 1950
	1    0    0    -1  
$EndComp
$Comp
L 2SC945:2SC945 T1
U 1 1 5FABA224
P 8700 5700
F 0 "T1" H 8844 5746 50  0000 L CNN
F 1 "2SC945" H 8844 5655 50  0000 L CNN
F 2 "Package_TO_SOT_THT:TO-92L_Inline_Wide" H 8700 5700 50  0001 L BNN
F 3 "" H 8700 5700 50  0001 L BNN
	1    8700 5700
	1    0    0    -1  
$EndComp
$Comp
L Connector:Screw_Terminal_01x02 J1
U 1 1 5FABB200
P 7700 5700
F 0 "J1" H 7618 5375 50  0000 C CNN
F 1 "Sensor1" H 7618 5466 50  0000 C CNN
F 2 "TerminalBlock:TerminalBlock_bornier-2_P5.08mm" H 7700 5700 50  0001 C CNN
F 3 "~" H 7700 5700 50  0001 C CNN
	1    7700 5700
	-1   0    0    1   
$EndComp
$Comp
L Device:R R2
U 1 1 5FABD64E
P 8300 5700
F 0 "R2" V 8100 5650 50  0000 L CNN
F 1 "820k" V 8200 5600 50  0000 L CNN
F 2 "Resistor_THT:R_Axial_DIN0207_L6.3mm_D2.5mm_P7.62mm_Horizontal" V 8230 5700 50  0001 C CNN
F 3 "~" H 8300 5700 50  0001 C CNN
	1    8300 5700
	0    1    1    0   
$EndComp
$Comp
L Device:R R1
U 1 1 5FABE3A5
P 8050 5950
F 0 "R1" H 8120 5996 50  0000 L CNN
F 1 "47k" H 8120 5905 50  0000 L CNN
F 2 "Resistor_THT:R_Axial_DIN0207_L6.3mm_D2.5mm_P7.62mm_Horizontal" V 7980 5950 50  0001 C CNN
F 3 "~" H 8050 5950 50  0001 C CNN
	1    8050 5950
	-1   0    0    1   
$EndComp
$Comp
L power:GND #PWR03
U 1 1 5FABF7C1
P 8050 6200
F 0 "#PWR03" H 8050 5950 50  0001 C CNN
F 1 "GND" H 8055 6027 50  0000 C CNN
F 2 "" H 8050 6200 50  0001 C CNN
F 3 "" H 8050 6200 50  0001 C CNN
	1    8050 6200
	1    0    0    -1  
$EndComp
$Comp
L power:GND #PWR05
U 1 1 5FABFDFD
P 8800 6000
F 0 "#PWR05" H 8800 5750 50  0001 C CNN
F 1 "GND" H 8805 5827 50  0000 C CNN
F 2 "" H 8800 6000 50  0001 C CNN
F 3 "" H 8800 6000 50  0001 C CNN
	1    8800 6000
	1    0    0    -1  
$EndComp
Wire Wire Line
	8050 6200 8050 6100
Wire Wire Line
	8450 5700 8600 5700
Wire Wire Line
	7900 5700 8050 5700
Wire Wire Line
	8050 5800 8050 5700
Connection ~ 8050 5700
Wire Wire Line
	8050 5700 8150 5700
Wire Wire Line
	8800 6000 8800 5900
Wire Wire Line
	8800 5500 8800 5450
Wire Wire Line
	7900 5600 8050 5600
Wire Wire Line
	8050 5600 8050 5050
Wire Wire Line
	8050 5050 8800 5050
Wire Wire Line
	8800 5050 8800 5100
$Comp
L power:GND #PWR07
U 1 1 5FAC77EA
P 2550 3150
F 0 "#PWR07" H 2550 2900 50  0001 C CNN
F 1 "GND" H 2555 2977 50  0000 C CNN
F 2 "" H 2550 3150 50  0001 C CNN
F 3 "" H 2550 3150 50  0001 C CNN
	1    2550 3150
	1    0    0    -1  
$EndComp
Wire Wire Line
	2550 3150 2550 3100
Wire Wire Line
	2650 3050 2650 3100
Wire Wire Line
	2650 3100 2550 3100
Connection ~ 2550 3100
Wire Wire Line
	2550 3100 2550 3050
$Comp
L power:+5V #PWR06
U 1 1 5FAC87DD
P 2550 800
F 0 "#PWR06" H 2550 650 50  0001 C CNN
F 1 "+5V" H 2565 973 50  0000 C CNN
F 2 "" H 2550 800 50  0001 C CNN
F 3 "" H 2550 800 50  0001 C CNN
	1    2550 800 
	1    0    0    -1  
$EndComp
$Comp
L power:+5V #PWR04
U 1 1 5FAC93A3
P 8800 4950
F 0 "#PWR04" H 8800 4800 50  0001 C CNN
F 1 "+5V" H 8815 5123 50  0000 C CNN
F 2 "" H 8800 4950 50  0001 C CNN
F 3 "" H 8800 4950 50  0001 C CNN
	1    8800 4950
	1    0    0    -1  
$EndComp
Text Label 9150 5450 2    50   ~ 0
Sense1
Wire Wire Line
	9150 5450 8800 5450
Connection ~ 8800 5450
Wire Wire Line
	8800 5450 8800 5400
Wire Wire Line
	8800 4950 8800 5050
Connection ~ 8800 5050
$Comp
L Device:R R6
U 1 1 5FAD0442
P 10500 5250
F 0 "R6" H 10570 5296 50  0000 L CNN
F 1 "100k" H 10570 5205 50  0000 L CNN
F 2 "Resistor_THT:R_Axial_DIN0207_L6.3mm_D2.5mm_P7.62mm_Horizontal" V 10430 5250 50  0001 C CNN
F 3 "~" H 10500 5250 50  0001 C CNN
	1    10500 5250
	-1   0    0    1   
$EndComp
$Comp
L 2SC945:2SC945 T2
U 1 1 5FAD0448
P 10400 5700
F 0 "T2" H 10544 5746 50  0000 L CNN
F 1 "2SC945" H 10544 5655 50  0000 L CNN
F 2 "Package_TO_SOT_THT:TO-92L_Inline_Wide" H 10400 5700 50  0001 L BNN
F 3 "" H 10400 5700 50  0001 L BNN
	1    10400 5700
	1    0    0    -1  
$EndComp
$Comp
L Connector:Screw_Terminal_01x02 J2
U 1 1 5FAD044E
P 9400 5700
F 0 "J2" H 9318 5375 50  0000 C CNN
F 1 "Sensor2" H 9318 5466 50  0000 C CNN
F 2 "TerminalBlock:TerminalBlock_bornier-2_P5.08mm" H 9400 5700 50  0001 C CNN
F 3 "~" H 9400 5700 50  0001 C CNN
	1    9400 5700
	-1   0    0    1   
$EndComp
$Comp
L Device:R R5
U 1 1 5FAD0454
P 10050 5700
F 0 "R5" V 9850 5650 50  0000 L CNN
F 1 "820k" V 9950 5600 50  0000 L CNN
F 2 "Resistor_THT:R_Axial_DIN0207_L6.3mm_D2.5mm_P7.62mm_Horizontal" V 9980 5700 50  0001 C CNN
F 3 "~" H 10050 5700 50  0001 C CNN
	1    10050 5700
	0    1    1    0   
$EndComp
$Comp
L Device:R R4
U 1 1 5FAD045A
P 9750 5950
F 0 "R4" H 9820 5996 50  0000 L CNN
F 1 "47k" H 9820 5905 50  0000 L CNN
F 2 "Resistor_THT:R_Axial_DIN0207_L6.3mm_D2.5mm_P7.62mm_Horizontal" V 9680 5950 50  0001 C CNN
F 3 "~" H 9750 5950 50  0001 C CNN
	1    9750 5950
	-1   0    0    1   
$EndComp
$Comp
L power:GND #PWR08
U 1 1 5FAD0460
P 9750 6200
F 0 "#PWR08" H 9750 5950 50  0001 C CNN
F 1 "GND" H 9755 6027 50  0000 C CNN
F 2 "" H 9750 6200 50  0001 C CNN
F 3 "" H 9750 6200 50  0001 C CNN
	1    9750 6200
	1    0    0    -1  
$EndComp
$Comp
L power:GND #PWR010
U 1 1 5FAD0466
P 10500 6000
F 0 "#PWR010" H 10500 5750 50  0001 C CNN
F 1 "GND" H 10505 5827 50  0000 C CNN
F 2 "" H 10500 6000 50  0001 C CNN
F 3 "" H 10500 6000 50  0001 C CNN
	1    10500 6000
	1    0    0    -1  
$EndComp
Wire Wire Line
	9750 6200 9750 6100
Wire Wire Line
	9600 5700 9750 5700
Wire Wire Line
	9750 5800 9750 5700
Connection ~ 9750 5700
Wire Wire Line
	10500 6000 10500 5900
Wire Wire Line
	10500 5500 10500 5450
Wire Wire Line
	9600 5600 9750 5600
Wire Wire Line
	9750 5600 9750 5050
Wire Wire Line
	9750 5050 10500 5050
Wire Wire Line
	10500 5050 10500 5100
$Comp
L power:+5V #PWR09
U 1 1 5FAD0478
P 10500 4950
F 0 "#PWR09" H 10500 4800 50  0001 C CNN
F 1 "+5V" H 10515 5123 50  0000 C CNN
F 2 "" H 10500 4950 50  0001 C CNN
F 3 "" H 10500 4950 50  0001 C CNN
	1    10500 4950
	1    0    0    -1  
$EndComp
Text Label 10850 5450 2    50   ~ 0
Sense2
Wire Wire Line
	10850 5450 10500 5450
Connection ~ 10500 5450
Wire Wire Line
	10500 5450 10500 5400
Wire Wire Line
	10500 4950 10500 5050
Connection ~ 10500 5050
Wire Notes Line
	10900 4700 10900 6500
Wire Notes Line
	10900 6500 7550 6500
Wire Notes Line
	7550 6500 7550 4700
Wire Notes Line
	7550 4700 10900 4700
Text Notes 7600 4800 0    50   ~ 0
Sensor\n
$Comp
L Relay:SANYOU_SRD_Form_C K1
U 1 1 5FAD8B60
P 9350 1350
F 0 "K1" H 9780 1396 50  0000 L CNN
F 1 "RLY1" H 9780 1305 50  0000 L CNN
F 2 "SLA-12VDC-SL-C(T93):RELAY_SLA-12VDC-SL-C" H 9800 1300 50  0001 L CNN
F 3 "http://www.sanyourelay.ca/public/products/pdf/SRD.pdf" H 9350 1350 50  0001 C CNN
	1    9350 1350
	1    0    0    -1  
$EndComp
$Comp
L Device:D D2
U 1 1 5FADA3D2
P 8650 1350
F 0 "D2" V 8604 1430 50  0000 L CNN
F 1 "D" V 8695 1430 50  0000 L CNN
F 2 "Diode_THT:D_DO-41_SOD81_P7.62mm_Horizontal" H 8650 1350 50  0001 C CNN
F 3 "~" H 8650 1350 50  0001 C CNN
	1    8650 1350
	0    1    1    0   
$EndComp
$Comp
L Transistor_BJT:BC547 Q1
U 1 1 5FADB203
P 9050 2050
F 0 "Q1" H 9241 2096 50  0000 L CNN
F 1 "BC547" H 9241 2005 50  0000 L CNN
F 2 "Package_TO_SOT_THT:TO-92L_Inline_Wide" H 9250 1975 50  0001 L CIN
F 3 "https://www.onsemi.com/pub/Collateral/BC550-D.pdf" H 9050 2050 50  0001 L CNN
	1    9050 2050
	1    0    0    -1  
$EndComp
$Comp
L Device:R R8
U 1 1 5FADC835
P 8550 2050
F 0 "R8" V 8350 2000 50  0000 L CNN
F 1 "1k" V 8450 1950 50  0000 L CNN
F 2 "Resistor_THT:R_Axial_DIN0207_L6.3mm_D2.5mm_P7.62mm_Horizontal" V 8480 2050 50  0001 C CNN
F 3 "~" H 8550 2050 50  0001 C CNN
	1    8550 2050
	0    1    1    0   
$EndComp
$Comp
L power:GND #PWR024
U 1 1 5FADD126
P 9150 2350
F 0 "#PWR024" H 9150 2100 50  0001 C CNN
F 1 "GND" H 9155 2177 50  0000 C CNN
F 2 "" H 9150 2350 50  0001 C CNN
F 3 "" H 9150 2350 50  0001 C CNN
	1    9150 2350
	1    0    0    -1  
$EndComp
Wire Wire Line
	9150 2350 9150 2250
Wire Wire Line
	9150 1850 9150 1750
Wire Wire Line
	8650 1200 8650 950 
Wire Wire Line
	8650 950  9150 950 
Connection ~ 9150 950 
Wire Wire Line
	9150 950  9150 1050
Wire Wire Line
	8650 1500 8650 1750
Wire Wire Line
	8650 1750 9150 1750
Connection ~ 9150 1750
Wire Wire Line
	9150 1750 9150 1650
Wire Wire Line
	8700 2050 8850 2050
Text Label 8050 2050 0    50   ~ 0
RLY1
Wire Wire Line
	8050 2050 8400 2050
$Comp
L Connector:Barrel_Jack_Switch_Pin3Ring J3
U 1 1 5FAE49DC
P 5650 1050
F 0 "J3" H 5707 1367 50  0000 C CNN
F 1 "DC Jack" H 5707 1276 50  0000 C CNN
F 2 "Connector_BarrelJack:BarrelJack_Wuerth_6941xx301002" H 5700 1010 50  0001 C CNN
F 3 "~" H 5700 1010 50  0001 C CNN
	1    5650 1050
	1    0    0    -1  
$EndComp
$Comp
L Device:C C5
U 1 1 5FAE53EE
P 7500 1200
F 0 "C5" H 7615 1246 50  0000 L CNN
F 1 "104" H 7615 1155 50  0000 L CNN
F 2 "Capacitor_THT:C_Rect_L7.0mm_W3.5mm_P5.00mm" H 7538 1050 50  0001 C CNN
F 3 "~" H 7500 1200 50  0001 C CNN
	1    7500 1200
	1    0    0    -1  
$EndComp
$Comp
L Device:CP C2
U 1 1 5FAE5B99
P 6650 1200
F 0 "C2" H 6768 1246 50  0000 L CNN
F 1 "10uF" H 6768 1155 50  0000 L CNN
F 2 "Capacitor_THT:C_Radial_D6.3mm_H11.0mm_P2.50mm" H 6688 1050 50  0001 C CNN
F 3 "~" H 6650 1200 50  0001 C CNN
	1    6650 1200
	1    0    0    -1  
$EndComp
$Comp
L Device:CP C3
U 1 1 5FAE6B91
P 7100 1200
F 0 "C3" H 7218 1246 50  0000 L CNN
F 1 "1uF" H 7218 1155 50  0000 L CNN
F 2 "Capacitor_THT:C_Radial_D6.3mm_H11.0mm_P2.50mm" H 7138 1050 50  0001 C CNN
F 3 "~" H 7100 1200 50  0001 C CNN
	1    7100 1200
	1    0    0    -1  
$EndComp
$Comp
L power:GND #PWR014
U 1 1 5FAE74D8
P 6050 1250
F 0 "#PWR014" H 6050 1000 50  0001 C CNN
F 1 "GND" H 6055 1077 50  0000 C CNN
F 2 "" H 6050 1250 50  0001 C CNN
F 3 "" H 6050 1250 50  0001 C CNN
	1    6050 1250
	1    0    0    -1  
$EndComp
$Comp
L Device:D D1
U 1 1 5FAE7FE1
P 6350 950
F 0 "D1" H 6350 733 50  0000 C CNN
F 1 "D" H 6350 824 50  0000 C CNN
F 2 "Diode_THT:D_DO-41_SOD81_P7.62mm_Horizontal" H 6350 950 50  0001 C CNN
F 3 "~" H 6350 950 50  0001 C CNN
	1    6350 950 
	-1   0    0    1   
$EndComp
$Comp
L power:GND #PWR017
U 1 1 5FAE9FD6
P 6650 1450
F 0 "#PWR017" H 6650 1200 50  0001 C CNN
F 1 "GND" H 6655 1277 50  0000 C CNN
F 2 "" H 6650 1450 50  0001 C CNN
F 3 "" H 6650 1450 50  0001 C CNN
	1    6650 1450
	1    0    0    -1  
$EndComp
$Comp
L power:GND #PWR019
U 1 1 5FAEA2A5
P 7100 1450
F 0 "#PWR019" H 7100 1200 50  0001 C CNN
F 1 "GND" H 7105 1277 50  0000 C CNN
F 2 "" H 7100 1450 50  0001 C CNN
F 3 "" H 7100 1450 50  0001 C CNN
	1    7100 1450
	1    0    0    -1  
$EndComp
$Comp
L power:GND #PWR021
U 1 1 5FAEA463
P 7500 1450
F 0 "#PWR021" H 7500 1200 50  0001 C CNN
F 1 "GND" H 7505 1277 50  0000 C CNN
F 2 "" H 7500 1450 50  0001 C CNN
F 3 "" H 7500 1450 50  0001 C CNN
	1    7500 1450
	1    0    0    -1  
$EndComp
Wire Wire Line
	5950 950  6200 950 
$Comp
L power:+12V #PWR022
U 1 1 5FAEB29C
P 7750 850
F 0 "#PWR022" H 7750 700 50  0001 C CNN
F 1 "+12V" H 7765 1023 50  0000 C CNN
F 2 "" H 7750 850 50  0001 C CNN
F 3 "" H 7750 850 50  0001 C CNN
	1    7750 850 
	1    0    0    -1  
$EndComp
Wire Wire Line
	6500 950  6650 950 
Wire Wire Line
	7750 950  7750 850 
Wire Wire Line
	6650 1050 6650 950 
Connection ~ 6650 950 
Wire Wire Line
	6650 950  7100 950 
Wire Wire Line
	7100 1050 7100 950 
Connection ~ 7100 950 
Wire Wire Line
	7100 950  7500 950 
Wire Wire Line
	7500 1050 7500 950 
Connection ~ 7500 950 
Wire Wire Line
	7500 950  7750 950 
Wire Wire Line
	7500 1450 7500 1350
Wire Wire Line
	6050 1250 6050 1150
Wire Wire Line
	6050 1050 5950 1050
Wire Wire Line
	5950 1150 6050 1150
Connection ~ 6050 1150
Wire Wire Line
	6050 1150 6050 1050
$Comp
L Regulator_Linear:LM7805_TO220 U2
U 1 1 5FAF4105
P 6750 2200
F 0 "U2" H 6750 2442 50  0000 C CNN
F 1 "LM7805" H 6750 2351 50  0000 C CNN
F 2 "Package_TO_SOT_THT:TO-220-3_Vertical" H 6750 2425 50  0001 C CIN
F 3 "https://www.onsemi.cn/PowerSolutions/document/MC7800-D.PDF" H 6750 2150 50  0001 C CNN
	1    6750 2200
	1    0    0    -1  
$EndComp
$Comp
L Device:CP C4
U 1 1 5FAF860A
P 7200 2450
F 0 "C4" H 7318 2496 50  0000 L CNN
F 1 "470uF" H 7318 2405 50  0000 L CNN
F 2 "Capacitor_THT:CP_Radial_D8.0mm_P3.50mm" H 7238 2300 50  0001 C CNN
F 3 "~" H 7200 2450 50  0001 C CNN
	1    7200 2450
	1    0    0    -1  
$EndComp
$Comp
L power:+12V #PWR015
U 1 1 5FAFA099
P 6050 2100
F 0 "#PWR015" H 6050 1950 50  0001 C CNN
F 1 "+12V" H 6065 2273 50  0000 C CNN
F 2 "" H 6050 2100 50  0001 C CNN
F 3 "" H 6050 2100 50  0001 C CNN
	1    6050 2100
	1    0    0    -1  
$EndComp
Wire Wire Line
	6450 2200 6050 2200
Wire Wire Line
	6050 2200 6050 2100
Wire Wire Line
	6650 1350 6650 1450
Wire Wire Line
	7100 1350 7100 1450
$Comp
L power:GND #PWR018
U 1 1 5FAFE5C4
P 6750 2700
F 0 "#PWR018" H 6750 2450 50  0001 C CNN
F 1 "GND" H 6755 2527 50  0000 C CNN
F 2 "" H 6750 2700 50  0001 C CNN
F 3 "" H 6750 2700 50  0001 C CNN
	1    6750 2700
	1    0    0    -1  
$EndComp
$Comp
L power:+5V #PWR020
U 1 1 5FB0043B
P 7450 2100
F 0 "#PWR020" H 7450 1950 50  0001 C CNN
F 1 "+5V" H 7465 2273 50  0000 C CNN
F 2 "" H 7450 2100 50  0001 C CNN
F 3 "" H 7450 2100 50  0001 C CNN
	1    7450 2100
	1    0    0    -1  
$EndComp
Wire Wire Line
	7050 2200 7200 2200
Wire Wire Line
	7450 2200 7450 2100
Wire Wire Line
	7200 2300 7200 2200
Connection ~ 7200 2200
Wire Wire Line
	6750 2500 6750 2650
Wire Wire Line
	7200 2600 7200 2650
Wire Wire Line
	7200 2650 6750 2650
Connection ~ 6750 2650
Wire Wire Line
	6750 2650 6750 2700
Wire Wire Line
	7200 2200 7450 2200
$Comp
L Device:C C1
U 1 1 5FB09333
P 750 1600
F 0 "C1" H 865 1646 50  0000 L CNN
F 1 "104" H 865 1555 50  0000 L CNN
F 2 "Capacitor_THT:C_Rect_L7.0mm_W3.5mm_P5.00mm" H 788 1450 50  0001 C CNN
F 3 "~" H 750 1600 50  0001 C CNN
	1    750  1600
	1    0    0    -1  
$EndComp
$Comp
L power:+5V #PWR01
U 1 1 5FB0A375
P 750 1350
F 0 "#PWR01" H 750 1200 50  0001 C CNN
F 1 "+5V" H 765 1523 50  0000 C CNN
F 2 "" H 750 1350 50  0001 C CNN
F 3 "" H 750 1350 50  0001 C CNN
	1    750  1350
	1    0    0    -1  
$EndComp
$Comp
L power:GND #PWR02
U 1 1 5FB0A6B6
P 750 1800
F 0 "#PWR02" H 750 1550 50  0001 C CNN
F 1 "GND" H 755 1627 50  0000 C CNN
F 2 "" H 750 1800 50  0001 C CNN
F 3 "" H 750 1800 50  0001 C CNN
	1    750  1800
	1    0    0    -1  
$EndComp
Wire Wire Line
	750  1350 750  1450
Wire Wire Line
	750  1750 750  1800
$Comp
L Device:R R7
U 1 1 5FB0E645
P 4250 4600
F 0 "R7" V 4050 4550 50  0000 L CNN
F 1 "10k" V 4150 4500 50  0000 L CNN
F 2 "Resistor_THT:R_Axial_DIN0207_L6.3mm_D2.5mm_P7.62mm_Horizontal" V 4180 4600 50  0001 C CNN
F 3 "~" H 4250 4600 50  0001 C CNN
	1    4250 4600
	-1   0    0    1   
$EndComp
$Comp
L Switch:SW_Push SW1
U 1 1 5FB0FB05
P 4600 4950
F 0 "SW1" H 4600 5235 50  0000 C CNN
F 1 "SW_Push" H 4600 5144 50  0000 C CNN
F 2 "Button_Switch_THT:SW_PUSH_6mm" H 4600 5150 50  0001 C CNN
F 3 "~" H 4600 5150 50  0001 C CNN
	1    4600 4950
	1    0    0    -1  
$EndComp
Text Label 3950 4950 0    50   ~ 0
VPP
Wire Wire Line
	3950 4950 4250 4950
Wire Wire Line
	4250 4750 4250 4950
Connection ~ 4250 4950
Wire Wire Line
	4250 4950 4400 4950
$Comp
L power:GND #PWR016
U 1 1 5FB148DD
P 4900 5050
F 0 "#PWR016" H 4900 4800 50  0001 C CNN
F 1 "GND" H 4905 4877 50  0000 C CNN
F 2 "" H 4900 5050 50  0001 C CNN
F 3 "" H 4900 5050 50  0001 C CNN
	1    4900 5050
	1    0    0    -1  
$EndComp
Wire Wire Line
	4800 4950 4900 4950
Wire Wire Line
	4900 4950 4900 5050
$Comp
L power:+5V #PWR011
U 1 1 5FB16BC2
P 4250 4350
F 0 "#PWR011" H 4250 4200 50  0001 C CNN
F 1 "+5V" H 4265 4523 50  0000 C CNN
F 2 "" H 4250 4350 50  0001 C CNN
F 3 "" H 4250 4350 50  0001 C CNN
	1    4250 4350
	1    0    0    -1  
$EndComp
Wire Wire Line
	4250 4350 4250 4450
Text Label 950  1150 0    50   ~ 0
VPP
Wire Wire Line
	950  1150 1250 1150
$Comp
L Connector_Generic:Conn_01x06 J4
U 1 1 5FB3CF1F
P 5000 1100
F 0 "J4" H 4950 1400 50  0000 L CNN
F 1 "Program" H 4850 700 50  0000 L CNN
F 2 "Connector_PinHeader_2.54mm:PinHeader_1x06_P2.54mm_Vertical" H 5000 1100 50  0001 C CNN
F 3 "~" H 5000 1100 50  0001 C CNN
	1    5000 1100
	1    0    0    -1  
$EndComp
Text Label 4550 900  0    50   ~ 0
VPP
Text Label 4550 1200 0    50   ~ 0
DAT
Text Label 4550 1300 0    50   ~ 0
CLK
Wire Wire Line
	4550 900  4800 900 
Wire Wire Line
	4550 1200 4800 1200
Wire Wire Line
	4550 1300 4800 1300
NoConn ~ 4800 1400
$Comp
L power:+5V #PWR012
U 1 1 5FB464EA
P 4750 800
F 0 "#PWR012" H 4750 650 50  0001 C CNN
F 1 "+5V" H 4765 973 50  0000 C CNN
F 2 "" H 4750 800 50  0001 C CNN
F 3 "" H 4750 800 50  0001 C CNN
	1    4750 800 
	1    0    0    -1  
$EndComp
$Comp
L power:GND #PWR013
U 1 1 5FB46C5E
P 4750 1500
F 0 "#PWR013" H 4750 1250 50  0001 C CNN
F 1 "GND" H 4755 1327 50  0000 C CNN
F 2 "" H 4750 1500 50  0001 C CNN
F 3 "" H 4750 1500 50  0001 C CNN
	1    4750 1500
	1    0    0    -1  
$EndComp
Wire Wire Line
	4750 1500 4750 1100
Wire Wire Line
	4750 1100 4800 1100
Wire Wire Line
	4800 1000 4750 1000
Wire Wire Line
	4750 1000 4750 800 
Wire Wire Line
	2550 800  2550 850 
$Comp
L BA56-12EWA:BA56-12EWA DS1
U 1 1 5FB69BF4
P 6250 5400
F 0 "DS1" H 6733 5446 50  0000 L CNN
F 1 "BA56-12EWA" H 6733 5355 50  0000 L CNN
F 2 "BA56-12EWA(3Digit7Segment):BA56-12EWA" H 6250 5400 50  0001 L BNN
F 3 "" H 6250 5400 50  0001 L BNN
	1    6250 5400
	1    0    0    -1  
$EndComp
$Comp
L Device:R R11
U 1 1 5FB723F2
P 5950 6050
F 0 "R11" V 5750 6000 50  0000 L CNN
F 1 "220R" V 5850 5950 50  0000 L CNN
F 2 "Resistor_THT:R_Axial_DIN0207_L6.3mm_D2.5mm_P7.62mm_Horizontal" V 5880 6050 50  0001 C CNN
F 3 "~" H 5950 6050 50  0001 C CNN
	1    5950 6050
	-1   0    0    1   
$EndComp
$Comp
L Device:R R12
U 1 1 5FB72E51
P 6050 6050
F 0 "R12" V 5850 6000 50  0000 L CNN
F 1 "220R" V 5950 5950 50  0000 L CNN
F 2 "Resistor_THT:R_Axial_DIN0207_L6.3mm_D2.5mm_P7.62mm_Horizontal" V 5980 6050 50  0001 C CNN
F 3 "~" H 6050 6050 50  0001 C CNN
	1    6050 6050
	-1   0    0    1   
$EndComp
$Comp
L Device:R R14
U 1 1 5FB72FDC
P 6150 6050
F 0 "R14" V 5950 6000 50  0000 L CNN
F 1 "220R" V 6050 5950 50  0000 L CNN
F 2 "Resistor_THT:R_Axial_DIN0207_L6.3mm_D2.5mm_P7.62mm_Horizontal" V 6080 6050 50  0001 C CNN
F 3 "~" H 6150 6050 50  0001 C CNN
	1    6150 6050
	-1   0    0    1   
$EndComp
$Comp
L Device:R R15
U 1 1 5FB731F0
P 6250 6050
F 0 "R15" V 6050 6000 50  0000 L CNN
F 1 "220R" V 6150 5950 50  0000 L CNN
F 2 "Resistor_THT:R_Axial_DIN0207_L6.3mm_D2.5mm_P7.62mm_Horizontal" V 6180 6050 50  0001 C CNN
F 3 "~" H 6250 6050 50  0001 C CNN
	1    6250 6050
	-1   0    0    1   
$EndComp
$Comp
L Device:R R16
U 1 1 5FB733A5
P 6350 6050
F 0 "R16" V 6150 6000 50  0000 L CNN
F 1 "220R" V 6250 5950 50  0000 L CNN
F 2 "Resistor_THT:R_Axial_DIN0207_L6.3mm_D2.5mm_P7.62mm_Horizontal" V 6280 6050 50  0001 C CNN
F 3 "~" H 6350 6050 50  0001 C CNN
	1    6350 6050
	-1   0    0    1   
$EndComp
$Comp
L Device:R R17
U 1 1 5FB734F0
P 6450 6050
F 0 "R17" V 6250 6000 50  0000 L CNN
F 1 "220R" V 6350 5950 50  0000 L CNN
F 2 "Resistor_THT:R_Axial_DIN0207_L6.3mm_D2.5mm_P7.62mm_Horizontal" V 6380 6050 50  0001 C CNN
F 3 "~" H 6450 6050 50  0001 C CNN
	1    6450 6050
	-1   0    0    1   
$EndComp
$Comp
L Device:R R18
U 1 1 5FB73661
P 6550 6050
F 0 "R18" V 6350 6000 50  0000 L CNN
F 1 "220R" V 6450 5950 50  0000 L CNN
F 2 "Resistor_THT:R_Axial_DIN0207_L6.3mm_D2.5mm_P7.62mm_Horizontal" V 6480 6050 50  0001 C CNN
F 3 "~" H 6550 6050 50  0001 C CNN
	1    6550 6050
	-1   0    0    1   
$EndComp
Text Label 5950 6350 2    50   ~ 0
a
Text Label 6050 6350 2    50   ~ 0
b
Text Label 6150 6350 2    50   ~ 0
c
Text Label 6250 6350 2    50   ~ 0
d
Text Label 6350 6350 2    50   ~ 0
e
Text Label 6450 6350 2    50   ~ 0
f
Text Label 6550 6350 2    50   ~ 0
g
Wire Wire Line
	5950 6350 5950 6200
Wire Wire Line
	6050 6350 6050 6200
Wire Wire Line
	6150 6350 6150 6200
Wire Wire Line
	6250 6350 6250 6200
Wire Wire Line
	6350 6350 6350 6200
Wire Wire Line
	6450 6350 6450 6200
Wire Wire Line
	6550 6350 6550 6200
Wire Wire Line
	5950 5900 5950 5800
Wire Wire Line
	6050 5900 6050 5800
Wire Wire Line
	6150 5900 6150 5800
Wire Wire Line
	6250 5900 6250 5800
Wire Wire Line
	6350 5900 6350 5800
Wire Wire Line
	6450 5900 6450 5800
Wire Wire Line
	6550 5900 6550 5800
Text Label 4300 2750 2    50   ~ 0
dp
Text Label 4300 2650 2    50   ~ 0
g
Text Label 4300 2550 2    50   ~ 0
f
Text Label 4300 2450 2    50   ~ 0
e
Text Label 4300 2350 2    50   ~ 0
d
Text Label 4300 2250 2    50   ~ 0
c
Text Label 4300 2150 2    50   ~ 0
b
Text Label 4300 2050 2    50   ~ 0
a
Wire Wire Line
	4300 2050 3850 2050
Wire Wire Line
	4300 2150 3850 2150
Wire Wire Line
	4300 2250 3850 2250
Wire Wire Line
	4300 2350 3850 2350
Wire Wire Line
	4300 2450 3850 2450
$Comp
L Transistor_BJT:BC557 Q3
U 1 1 5FBC2D59
P 5650 4450
F 0 "Q3" H 5841 4404 50  0000 L CNN
F 1 "BC557" H 5841 4495 50  0000 L CNN
F 2 "Package_TO_SOT_THT:TO-92L_Inline_Wide" H 5850 4375 50  0001 L CIN
F 3 "https://www.onsemi.com/pub/Collateral/BC556BTA-D.pdf" H 5650 4450 50  0001 L CNN
	1    5650 4450
	1    0    0    1   
$EndComp
$Comp
L Transistor_BJT:BC557 Q4
U 1 1 5FBC5DB7
P 6350 4450
F 0 "Q4" H 6541 4404 50  0000 L CNN
F 1 "BC557" H 6541 4495 50  0000 L CNN
F 2 "Package_TO_SOT_THT:TO-92L_Inline_Wide" H 6550 4375 50  0001 L CIN
F 3 "https://www.onsemi.com/pub/Collateral/BC556BTA-D.pdf" H 6350 4450 50  0001 L CNN
	1    6350 4450
	1    0    0    1   
$EndComp
$Comp
L Transistor_BJT:BC557 Q5
U 1 1 5FBC6610
P 7000 4450
F 0 "Q5" H 7191 4404 50  0000 L CNN
F 1 "BC557" H 7191 4495 50  0000 L CNN
F 2 "Package_TO_SOT_THT:TO-92L_Inline_Wide" H 7200 4375 50  0001 L CIN
F 3 "https://www.onsemi.com/pub/Collateral/BC556BTA-D.pdf" H 7000 4450 50  0001 L CNN
	1    7000 4450
	1    0    0    1   
$EndComp
Wire Wire Line
	6450 5000 6450 4650
Wire Wire Line
	6550 5000 6550 4750
Wire Wire Line
	6550 4750 7100 4750
Wire Wire Line
	7100 4750 7100 4650
Wire Wire Line
	6350 5000 6350 4750
Wire Wire Line
	6350 4750 5750 4750
Wire Wire Line
	5750 4750 5750 4650
$Comp
L Device:R R10
U 1 1 5FBD74F7
P 5400 4200
F 0 "R10" V 5200 4150 50  0000 L CNN
F 1 "1k" V 5300 4100 50  0000 L CNN
F 2 "Resistor_THT:R_Axial_DIN0207_L6.3mm_D2.5mm_P7.62mm_Horizontal" V 5330 4200 50  0001 C CNN
F 3 "~" H 5400 4200 50  0001 C CNN
	1    5400 4200
	1    0    0    -1  
$EndComp
$Comp
L Device:R R13
U 1 1 5FBDBB46
P 6100 4200
F 0 "R13" V 5900 4150 50  0000 L CNN
F 1 "1k" V 6000 4100 50  0000 L CNN
F 2 "Resistor_THT:R_Axial_DIN0207_L6.3mm_D2.5mm_P7.62mm_Horizontal" V 6030 4200 50  0001 C CNN
F 3 "~" H 6100 4200 50  0001 C CNN
	1    6100 4200
	1    0    0    -1  
$EndComp
$Comp
L Device:R R19
U 1 1 5FBDBECD
P 6750 4200
F 0 "R19" V 6550 4150 50  0000 L CNN
F 1 "1k" V 6650 4100 50  0000 L CNN
F 2 "Resistor_THT:R_Axial_DIN0207_L6.3mm_D2.5mm_P7.62mm_Horizontal" V 6680 4200 50  0001 C CNN
F 3 "~" H 6750 4200 50  0001 C CNN
	1    6750 4200
	1    0    0    -1  
$EndComp
$Comp
L power:+5V #PWR027
U 1 1 5FBDC405
P 5750 3900
F 0 "#PWR027" H 5750 3750 50  0001 C CNN
F 1 "+5V" H 5765 4073 50  0000 C CNN
F 2 "" H 5750 3900 50  0001 C CNN
F 3 "" H 5750 3900 50  0001 C CNN
	1    5750 3900
	1    0    0    -1  
$EndComp
$Comp
L power:+5V #PWR028
U 1 1 5FBDCC96
P 6450 3900
F 0 "#PWR028" H 6450 3750 50  0001 C CNN
F 1 "+5V" H 6465 4073 50  0000 C CNN
F 2 "" H 6450 3900 50  0001 C CNN
F 3 "" H 6450 3900 50  0001 C CNN
	1    6450 3900
	1    0    0    -1  
$EndComp
$Comp
L power:+5V #PWR029
U 1 1 5FBDD101
P 7100 3900
F 0 "#PWR029" H 7100 3750 50  0001 C CNN
F 1 "+5V" H 7115 4073 50  0000 C CNN
F 2 "" H 7100 3900 50  0001 C CNN
F 3 "" H 7100 3900 50  0001 C CNN
	1    7100 3900
	1    0    0    -1  
$EndComp
Wire Wire Line
	5750 3900 5750 4250
Wire Wire Line
	6450 3900 6450 4250
Wire Wire Line
	7100 3900 7100 4250
Wire Wire Line
	5400 4350 5400 4450
Wire Wire Line
	5400 4450 5450 4450
Wire Wire Line
	6100 4350 6100 4450
Wire Wire Line
	6100 4450 6150 4450
Wire Wire Line
	6750 4350 6750 4450
Wire Wire Line
	6750 4450 6800 4450
Text Label 5200 3800 0    50   ~ 0
SEG1
Text Label 5900 3800 0    50   ~ 0
SEG2
Text Label 6550 3800 0    50   ~ 0
SEG3
Wire Wire Line
	5400 3800 5400 4050
Wire Wire Line
	6100 3800 6100 4050
Wire Wire Line
	6750 3800 6750 4050
Text Label 1000 2050 0    50   ~ 0
RLY1
Text Label 1000 2150 0    50   ~ 0
RLY2
Text Label 1000 2250 0    50   ~ 0
Sense1
Wire Wire Line
	1000 2050 1250 2050
Wire Wire Line
	1000 2150 1250 2150
Wire Wire Line
	1000 2250 1250 2250
$Comp
L Connector:Screw_Terminal_01x03 J6
U 1 1 5FC137B1
P 10450 1350
F 0 "J6" H 10530 1392 50  0000 L CNN
F 1 "RLY1_OUT" H 10530 1301 50  0000 L CNN
F 2 "TerminalBlock:TerminalBlock_bornier-3_P5.08mm" H 10450 1350 50  0001 C CNN
F 3 "~" H 10450 1350 50  0001 C CNN
	1    10450 1350
	1    0    0    -1  
$EndComp
Text Label 5750 4950 0    50   ~ 0
dp
Wire Wire Line
	5750 4950 5950 4950
Wire Wire Line
	5950 4950 5950 5000
Wire Wire Line
	4300 2550 3850 2550
Wire Wire Line
	4000 3000 4300 3000
Wire Wire Line
	4100 2900 4300 2900
Text Label 4300 2900 2    50   ~ 0
CLK
Text Label 4300 3000 2    50   ~ 0
DAT
Wire Wire Line
	3850 2750 4000 2750
Wire Wire Line
	3850 2650 4100 2650
Wire Wire Line
	4100 2900 4100 2650
Connection ~ 4100 2650
Wire Wire Line
	4100 2650 4300 2650
Wire Wire Line
	4000 3000 4000 2750
Connection ~ 4000 2750
Wire Wire Line
	4000 2750 4300 2750
Wire Wire Line
	5200 3800 5400 3800
Wire Wire Line
	5900 3800 6100 3800
Wire Wire Line
	6550 3800 6750 3800
Text Label 9850 950  2    50   ~ 0
NO1
Text Label 9850 850  2    50   ~ 0
NC1
Text Label 9850 1750 2    50   ~ 0
COM1
Wire Wire Line
	9850 850  9450 850 
Wire Wire Line
	9450 850  9450 1050
Wire Wire Line
	9850 950  9650 950 
Wire Wire Line
	9650 950  9650 1050
Wire Wire Line
	9850 1750 9550 1750
Wire Wire Line
	9550 1750 9550 1650
Text Label 10000 1350 0    50   ~ 0
NO1
Text Label 10000 1250 0    50   ~ 0
COM1
Text Label 10000 1450 0    50   ~ 0
NC1
Wire Wire Line
	10000 1350 10250 1350
Wire Wire Line
	10000 1250 10250 1250
Wire Wire Line
	10000 1450 10250 1450
$Comp
L Relay:SANYOU_SRD_Form_C K2
U 1 1 5FC85B7F
P 9350 3350
F 0 "K2" H 9780 3396 50  0000 L CNN
F 1 "RLY1" H 9780 3305 50  0000 L CNN
F 2 "SLA-12VDC-SL-C(T93):RELAY_SLA-12VDC-SL-C" H 9800 3300 50  0001 L CNN
F 3 "http://www.sanyourelay.ca/public/products/pdf/SRD.pdf" H 9350 3350 50  0001 C CNN
	1    9350 3350
	1    0    0    -1  
$EndComp
$Comp
L Device:D D3
U 1 1 5FC85B85
P 8650 3350
F 0 "D3" V 8604 3430 50  0000 L CNN
F 1 "D" V 8695 3430 50  0000 L CNN
F 2 "Diode_THT:D_DO-41_SOD81_P7.62mm_Horizontal" H 8650 3350 50  0001 C CNN
F 3 "~" H 8650 3350 50  0001 C CNN
	1    8650 3350
	0    1    1    0   
$EndComp
$Comp
L Transistor_BJT:BC547 Q2
U 1 1 5FC85B8B
P 9050 4050
F 0 "Q2" H 9241 4096 50  0000 L CNN
F 1 "BC547" H 9241 4005 50  0000 L CNN
F 2 "Package_TO_SOT_THT:TO-92L_Inline_Wide" H 9250 3975 50  0001 L CIN
F 3 "https://www.onsemi.com/pub/Collateral/BC550-D.pdf" H 9050 4050 50  0001 L CNN
	1    9050 4050
	1    0    0    -1  
$EndComp
$Comp
L Device:R R9
U 1 1 5FC85B91
P 8550 4050
F 0 "R9" V 8350 4000 50  0000 L CNN
F 1 "1k" V 8450 3950 50  0000 L CNN
F 2 "Resistor_THT:R_Axial_DIN0207_L6.3mm_D2.5mm_P7.62mm_Horizontal" V 8480 4050 50  0001 C CNN
F 3 "~" H 8550 4050 50  0001 C CNN
	1    8550 4050
	0    1    1    0   
$EndComp
$Comp
L power:GND #PWR026
U 1 1 5FC85B97
P 9150 4350
F 0 "#PWR026" H 9150 4100 50  0001 C CNN
F 1 "GND" H 9155 4177 50  0000 C CNN
F 2 "" H 9150 4350 50  0001 C CNN
F 3 "" H 9150 4350 50  0001 C CNN
	1    9150 4350
	1    0    0    -1  
$EndComp
Wire Wire Line
	9150 4350 9150 4250
Wire Wire Line
	9150 3850 9150 3750
Wire Wire Line
	8650 3200 8650 2950
Wire Wire Line
	8650 2950 9150 2950
Connection ~ 9150 2950
Wire Wire Line
	9150 2950 9150 3050
Wire Wire Line
	8650 3500 8650 3750
Wire Wire Line
	8650 3750 9150 3750
Connection ~ 9150 3750
Wire Wire Line
	9150 3750 9150 3650
Wire Wire Line
	8700 4050 8850 4050
Text Label 8050 4050 0    50   ~ 0
RLY2
Wire Wire Line
	8050 4050 8400 4050
$Comp
L Connector:Screw_Terminal_01x03 J5
U 1 1 5FC85BB1
P 10450 3350
F 0 "J5" H 10530 3392 50  0000 L CNN
F 1 "RLY2_OUT" H 10530 3301 50  0000 L CNN
F 2 "TerminalBlock:TerminalBlock_bornier-3_P5.08mm" H 10450 3350 50  0001 C CNN
F 3 "~" H 10450 3350 50  0001 C CNN
	1    10450 3350
	1    0    0    -1  
$EndComp
Text Label 9850 2950 2    50   ~ 0
NO2
Text Label 9850 2850 2    50   ~ 0
NC2
Text Label 9850 3750 2    50   ~ 0
COM2
Wire Wire Line
	9850 2850 9450 2850
Wire Wire Line
	9450 2850 9450 3050
Wire Wire Line
	9850 2950 9650 2950
Wire Wire Line
	9650 2950 9650 3050
Wire Wire Line
	9850 3750 9550 3750
Wire Wire Line
	9550 3750 9550 3650
Text Label 10000 3350 0    50   ~ 0
NO2
Text Label 10000 3250 0    50   ~ 0
COM2
Text Label 10000 3450 0    50   ~ 0
NC2
Wire Wire Line
	10000 3350 10250 3350
Wire Wire Line
	10000 3250 10250 3250
Wire Wire Line
	10000 3450 10250 3450
Text Label 1000 2350 0    50   ~ 0
Sense2
Text Label 1000 2450 0    50   ~ 0
BUZZER
Text Label 1000 2550 0    50   ~ 0
SEG3
Text Label 1000 2750 0    50   ~ 0
SEG1
Wire Wire Line
	1000 2350 1250 2350
Wire Wire Line
	1000 2450 1250 2450
Wire Wire Line
	1000 2550 1250 2550
Wire Wire Line
	1000 2750 1250 2750
$Comp
L Device:R R20
U 1 1 5FCE9931
P 850 4600
F 0 "R20" V 650 4550 50  0000 L CNN
F 1 "10k" V 750 4500 50  0000 L CNN
F 2 "Resistor_THT:R_Axial_DIN0207_L6.3mm_D2.5mm_P7.62mm_Horizontal" V 780 4600 50  0001 C CNN
F 3 "~" H 850 4600 50  0001 C CNN
	1    850  4600
	-1   0    0    1   
$EndComp
$Comp
L Switch:SW_Push SW2
U 1 1 5FCE9937
P 1200 4950
F 0 "SW2" H 1200 5235 50  0000 C CNN
F 1 "SW_Push" H 1200 5144 50  0000 C CNN
F 2 "Button_Switch_THT:SW_PUSH-12mm" H 1200 5150 50  0001 C CNN
F 3 "~" H 1200 5150 50  0001 C CNN
	1    1200 4950
	1    0    0    -1  
$EndComp
Text Label 550  4950 0    50   ~ 0
SW1
Wire Wire Line
	550  4950 850  4950
Wire Wire Line
	850  4750 850  4950
Connection ~ 850  4950
Wire Wire Line
	850  4950 1000 4950
$Comp
L power:GND #PWR0101
U 1 1 5FCE9942
P 1500 5050
F 0 "#PWR0101" H 1500 4800 50  0001 C CNN
F 1 "GND" H 1505 4877 50  0000 C CNN
F 2 "" H 1500 5050 50  0001 C CNN
F 3 "" H 1500 5050 50  0001 C CNN
	1    1500 5050
	1    0    0    -1  
$EndComp
Wire Wire Line
	1400 4950 1500 4950
Wire Wire Line
	1500 4950 1500 5050
$Comp
L power:+5V #PWR0102
U 1 1 5FCE994A
P 850 4350
F 0 "#PWR0102" H 850 4200 50  0001 C CNN
F 1 "+5V" H 865 4523 50  0000 C CNN
F 2 "" H 850 4350 50  0001 C CNN
F 3 "" H 850 4350 50  0001 C CNN
	1    850  4350
	1    0    0    -1  
$EndComp
Wire Wire Line
	850  4350 850  4450
$Comp
L Device:R R21
U 1 1 5FCF2405
P 2000 4600
F 0 "R21" V 1800 4550 50  0000 L CNN
F 1 "10k" V 1900 4500 50  0000 L CNN
F 2 "Resistor_THT:R_Axial_DIN0207_L6.3mm_D2.5mm_P7.62mm_Horizontal" V 1930 4600 50  0001 C CNN
F 3 "~" H 2000 4600 50  0001 C CNN
	1    2000 4600
	-1   0    0    1   
$EndComp
$Comp
L Switch:SW_Push SW3
U 1 1 5FCF240B
P 2350 4950
F 0 "SW3" H 2350 5235 50  0000 C CNN
F 1 "SW_Push" H 2350 5144 50  0000 C CNN
F 2 "Button_Switch_THT:SW_PUSH-12mm" H 2350 5150 50  0001 C CNN
F 3 "~" H 2350 5150 50  0001 C CNN
	1    2350 4950
	1    0    0    -1  
$EndComp
Text Label 1700 4950 0    50   ~ 0
SW2
Wire Wire Line
	1700 4950 2000 4950
Wire Wire Line
	2000 4750 2000 4950
Connection ~ 2000 4950
Wire Wire Line
	2000 4950 2150 4950
$Comp
L power:GND #PWR0103
U 1 1 5FCF2416
P 2650 5050
F 0 "#PWR0103" H 2650 4800 50  0001 C CNN
F 1 "GND" H 2655 4877 50  0000 C CNN
F 2 "" H 2650 5050 50  0001 C CNN
F 3 "" H 2650 5050 50  0001 C CNN
	1    2650 5050
	1    0    0    -1  
$EndComp
Wire Wire Line
	2550 4950 2650 4950
Wire Wire Line
	2650 4950 2650 5050
$Comp
L power:+5V #PWR0104
U 1 1 5FCF241E
P 2000 4350
F 0 "#PWR0104" H 2000 4200 50  0001 C CNN
F 1 "+5V" H 2015 4523 50  0000 C CNN
F 2 "" H 2000 4350 50  0001 C CNN
F 3 "" H 2000 4350 50  0001 C CNN
	1    2000 4350
	1    0    0    -1  
$EndComp
Wire Wire Line
	2000 4350 2000 4450
$Comp
L Device:R R22
U 1 1 5FCFB862
P 3100 4600
F 0 "R22" V 2900 4550 50  0000 L CNN
F 1 "10k" V 3000 4500 50  0000 L CNN
F 2 "Resistor_THT:R_Axial_DIN0207_L6.3mm_D2.5mm_P7.62mm_Horizontal" V 3030 4600 50  0001 C CNN
F 3 "~" H 3100 4600 50  0001 C CNN
	1    3100 4600
	-1   0    0    1   
$EndComp
$Comp
L Switch:SW_Push SW4
U 1 1 5FCFB868
P 3450 4950
F 0 "SW4" H 3450 5235 50  0000 C CNN
F 1 "SW_Push" H 3450 5144 50  0000 C CNN
F 2 "Button_Switch_THT:SW_PUSH-12mm" H 3450 5150 50  0001 C CNN
F 3 "~" H 3450 5150 50  0001 C CNN
	1    3450 4950
	1    0    0    -1  
$EndComp
Text Label 2800 4950 0    50   ~ 0
SW3
Wire Wire Line
	2800 4950 3100 4950
Wire Wire Line
	3100 4750 3100 4950
Connection ~ 3100 4950
Wire Wire Line
	3100 4950 3250 4950
$Comp
L power:GND #PWR0105
U 1 1 5FCFB873
P 3750 5050
F 0 "#PWR0105" H 3750 4800 50  0001 C CNN
F 1 "GND" H 3755 4877 50  0000 C CNN
F 2 "" H 3750 5050 50  0001 C CNN
F 3 "" H 3750 5050 50  0001 C CNN
	1    3750 5050
	1    0    0    -1  
$EndComp
Wire Wire Line
	3650 4950 3750 4950
Wire Wire Line
	3750 4950 3750 5050
$Comp
L power:+5V #PWR0106
U 1 1 5FCFB87B
P 3100 4350
F 0 "#PWR0106" H 3100 4200 50  0001 C CNN
F 1 "+5V" H 3115 4523 50  0000 C CNN
F 2 "" H 3100 4350 50  0001 C CNN
F 3 "" H 3100 4350 50  0001 C CNN
	1    3100 4350
	1    0    0    -1  
$EndComp
Wire Wire Line
	3100 4350 3100 4450
Text Label 4250 1250 2    50   ~ 0
SW1
Text Label 4250 1350 2    50   ~ 0
SW2
Text Label 4250 1450 2    50   ~ 0
SW3
Wire Wire Line
	4250 1250 3850 1250
Wire Wire Line
	4250 1350 3850 1350
Wire Wire Line
	4250 1450 3850 1450
$Comp
L power:+12V #PWR0107
U 1 1 5FE3026E
P 9150 800
F 0 "#PWR0107" H 9150 650 50  0001 C CNN
F 1 "+12V" H 9165 973 50  0000 C CNN
F 2 "" H 9150 800 50  0001 C CNN
F 3 "" H 9150 800 50  0001 C CNN
	1    9150 800 
	1    0    0    -1  
$EndComp
$Comp
L power:+12V #PWR0108
U 1 1 5FE308D7
P 9150 2800
F 0 "#PWR0108" H 9150 2650 50  0001 C CNN
F 1 "+12V" H 9165 2973 50  0000 C CNN
F 2 "" H 9150 2800 50  0001 C CNN
F 3 "" H 9150 2800 50  0001 C CNN
	1    9150 2800
	1    0    0    -1  
$EndComp
Wire Wire Line
	9150 2800 9150 2950
Wire Wire Line
	9150 800  9150 950 
Wire Notes Line
	5200 550  5200 3400
Wire Notes Line
	5200 3400 600  3400
Wire Notes Line
	600  3400 600  550 
Wire Notes Line
	600  550  5200 550 
Text Notes 650  650  0    50   ~ 0
MCU
Wire Notes Line
	10900 550  10900 4600
Wire Notes Line
	10900 4600 8000 4600
Wire Notes Line
	8000 4600 8000 550 
Wire Notes Line
	8000 550  10900 550 
Wire Notes Line
	7900 550  7900 2950
Wire Notes Line
	7900 2950 5300 2950
Wire Notes Line
	5300 2950 5300 550 
Wire Notes Line
	5300 550  7900 550 
Text Notes 5350 650  0    50   ~ 0
Power Supply
Text Notes 8050 650  0    50   ~ 0
Relay
Wire Notes Line
	7450 3550 7450 6500
Wire Notes Line
	7450 6500 5100 6500
Wire Notes Line
	5100 6500 5100 3550
Wire Notes Line
	5100 3550 7450 3550
Text Notes 5150 3650 0    50   ~ 0
7 Segment Display\n
$Comp
L Device:LED D4
U 1 1 6000ED4E
P 8250 1500
F 0 "D4" V 8289 1382 50  0000 R CNN
F 1 "LED" V 8198 1382 50  0000 R CNN
F 2 "LED_THT:LED_D5.0mm" H 8250 1500 50  0001 C CNN
F 3 "~" H 8250 1500 50  0001 C CNN
	1    8250 1500
	0    -1   -1   0   
$EndComp
$Comp
L Device:R R23
U 1 1 600100C9
P 8250 1150
F 0 "R23" V 8050 1100 50  0000 L CNN
F 1 "1k" V 8150 1050 50  0000 L CNN
F 2 "Resistor_THT:R_Axial_DIN0207_L6.3mm_D2.5mm_P7.62mm_Horizontal" V 8180 1150 50  0001 C CNN
F 3 "~" H 8250 1150 50  0001 C CNN
	1    8250 1150
	-1   0    0    1   
$EndComp
Wire Wire Line
	8250 1000 8250 950 
Wire Wire Line
	8250 950  8650 950 
Connection ~ 8650 950 
Wire Wire Line
	8250 1300 8250 1350
Wire Wire Line
	8250 1650 8250 1750
Wire Wire Line
	8250 1750 8650 1750
Connection ~ 8650 1750
$Comp
L Device:R R24
U 1 1 60034C2B
P 8300 3150
F 0 "R24" V 8100 3100 50  0000 L CNN
F 1 "1k" V 8200 3050 50  0000 L CNN
F 2 "Resistor_THT:R_Axial_DIN0207_L6.3mm_D2.5mm_P7.62mm_Horizontal" V 8230 3150 50  0001 C CNN
F 3 "~" H 8300 3150 50  0001 C CNN
	1    8300 3150
	-1   0    0    1   
$EndComp
$Comp
L Device:LED D5
U 1 1 60035521
P 8300 3500
F 0 "D5" V 8339 3382 50  0000 R CNN
F 1 "LED" V 8248 3382 50  0000 R CNN
F 2 "LED_THT:LED_D5.0mm" H 8300 3500 50  0001 C CNN
F 3 "~" H 8300 3500 50  0001 C CNN
	1    8300 3500
	0    -1   -1   0   
$EndComp
Wire Wire Line
	8300 3000 8300 2950
Wire Wire Line
	8300 2950 8650 2950
Connection ~ 8650 2950
Wire Wire Line
	8300 3300 8300 3350
Wire Wire Line
	8300 3650 8300 3750
Wire Wire Line
	8300 3750 8650 3750
Connection ~ 8650 3750
$Comp
L Mechanical:MountingHole H1
U 1 1 60071B76
P 4650 6700
F 0 "H1" H 4750 6746 50  0000 L CNN
F 1 "MountingHole" H 4750 6655 50  0000 L CNN
F 2 "MountingHole:MountingHole_3mm_Pad_Via" H 4650 6700 50  0001 C CNN
F 3 "~" H 4650 6700 50  0001 C CNN
	1    4650 6700
	1    0    0    -1  
$EndComp
$Comp
L Mechanical:MountingHole H2
U 1 1 600722EB
P 4650 6950
F 0 "H2" H 4750 6996 50  0000 L CNN
F 1 "MountingHole" H 4750 6905 50  0000 L CNN
F 2 "MountingHole:MountingHole_3mm_Pad_Via" H 4650 6950 50  0001 C CNN
F 3 "~" H 4650 6950 50  0001 C CNN
	1    4650 6950
	1    0    0    -1  
$EndComp
$Comp
L Mechanical:MountingHole H3
U 1 1 600723F7
P 4650 7200
F 0 "H3" H 4750 7246 50  0000 L CNN
F 1 "MountingHole" H 4750 7155 50  0000 L CNN
F 2 "MountingHole:MountingHole_3mm_Pad_Via" H 4650 7200 50  0001 C CNN
F 3 "~" H 4650 7200 50  0001 C CNN
	1    4650 7200
	1    0    0    -1  
$EndComp
$Comp
L Mechanical:MountingHole H4
U 1 1 60072588
P 4650 7450
F 0 "H4" H 4750 7496 50  0000 L CNN
F 1 "MountingHole" H 4750 7405 50  0000 L CNN
F 2 "MountingHole:MountingHole_3mm_Pad_Via" H 4650 7450 50  0001 C CNN
F 3 "~" H 4650 7450 50  0001 C CNN
	1    4650 7450
	1    0    0    -1  
$EndComp
Wire Wire Line
	9750 5700 9900 5700
Wire Wire Line
	10200 5700 10300 5700
$Comp
L Transistor_BJT:BC547 Q6
U 1 1 5FBA2D8A
P 2100 6900
F 0 "Q6" H 2291 6946 50  0000 L CNN
F 1 "BC547" H 2291 6855 50  0000 L CNN
F 2 "Package_TO_SOT_THT:TO-92L_Inline_Wide" H 2300 6825 50  0001 L CIN
F 3 "https://www.onsemi.com/pub/Collateral/BC550-D.pdf" H 2100 6900 50  0001 L CNN
	1    2100 6900
	1    0    0    -1  
$EndComp
$Comp
L Device:R R25
U 1 1 5FBA2D90
P 1600 6900
F 0 "R25" V 1400 6850 50  0000 L CNN
F 1 "1k" V 1500 6800 50  0000 L CNN
F 2 "Resistor_THT:R_Axial_DIN0207_L6.3mm_D2.5mm_P7.62mm_Horizontal" V 1530 6900 50  0001 C CNN
F 3 "~" H 1600 6900 50  0001 C CNN
	1    1600 6900
	0    1    1    0   
$EndComp
$Comp
L power:GND #PWR025
U 1 1 5FBA2D96
P 2200 7200
F 0 "#PWR025" H 2200 6950 50  0001 C CNN
F 1 "GND" H 2205 7027 50  0000 C CNN
F 2 "" H 2200 7200 50  0001 C CNN
F 3 "" H 2200 7200 50  0001 C CNN
	1    2200 7200
	1    0    0    -1  
$EndComp
Wire Wire Line
	2200 7200 2200 7100
Wire Wire Line
	1750 6900 1900 6900
Text Label 1100 6900 0    50   ~ 0
BUZZER
Wire Wire Line
	1100 6900 1450 6900
$Comp
L Device:Buzzer BZ1
U 1 1 5FBB0CAE
P 2450 6350
F 0 "BZ1" H 2602 6379 50  0000 L CNN
F 1 "Buzzer" H 2602 6288 50  0000 L CNN
F 2 "Buzzer_Beeper:Buzzer_D14mm_H7mm_P10mm" V 2425 6450 50  0001 C CNN
F 3 "~" V 2425 6450 50  0001 C CNN
	1    2450 6350
	1    0    0    -1  
$EndComp
Wire Wire Line
	2350 6450 2200 6450
Wire Wire Line
	2200 6450 2200 6700
$Comp
L power:+5V #PWR023
U 1 1 5FBBF0BF
P 2200 6100
F 0 "#PWR023" H 2200 5950 50  0001 C CNN
F 1 "+5V" H 2215 6273 50  0000 C CNN
F 2 "" H 2200 6100 50  0001 C CNN
F 3 "" H 2200 6100 50  0001 C CNN
	1    2200 6100
	1    0    0    -1  
$EndComp
Wire Wire Line
	2200 6100 2200 6250
Wire Wire Line
	2200 6250 2350 6250
Text Label 1000 2650 0    50   ~ 0
SEG2
Wire Wire Line
	1250 2650 1000 2650
$EndSCHEMATC
