EESchema Schematic File Version 4
EELAYER 30 0
EELAYER END
$Descr A4 11693 8268
encoding utf-8
Sheet 1 1
Title "A9 Max485 Iso v0.2 (RSM485CT)"
Date "2021-01-26"
Rev "2"
Comp ""
Comment1 ""
Comment2 ""
Comment3 ""
Comment4 ""
$EndDescr
$Comp
L Mechanical:MountingHole H1
U 1 1 600C6DA6
P 6350 6900
F 0 "H1" H 6450 6946 50  0000 L CNN
F 1 "MountingHole" H 6450 6855 50  0000 L CNN
F 2 "MountingHole:MountingHole_3mm_Pad_Via" H 6350 6900 50  0001 C CNN
F 3 "~" H 6350 6900 50  0001 C CNN
	1    6350 6900
	1    0    0    -1  
$EndComp
$Comp
L Mechanical:MountingHole H2
U 1 1 60226889
P 6350 7150
F 0 "H2" H 6450 7196 50  0000 L CNN
F 1 "MountingHole" H 6450 7105 50  0000 L CNN
F 2 "MountingHole:MountingHole_3mm_Pad_Via" H 6350 7150 50  0001 C CNN
F 3 "~" H 6350 7150 50  0001 C CNN
	1    6350 7150
	1    0    0    -1  
$EndComp
$Comp
L Mechanical:MountingHole H3
U 1 1 60062703
P 6350 7400
F 0 "H3" H 6450 7446 50  0000 L CNN
F 1 "MountingHole" H 6450 7355 50  0000 L CNN
F 2 "MountingHole:MountingHole_3mm_Pad_Via" H 6350 7400 50  0001 C CNN
F 3 "~" H 6350 7400 50  0001 C CNN
	1    6350 7400
	1    0    0    -1  
$EndComp
$Comp
L Mechanical:MountingHole H4
U 1 1 602E7F78
P 6350 7650
F 0 "H4" H 6450 7696 50  0000 L CNN
F 1 "MountingHole" H 6450 7605 50  0000 L CNN
F 2 "MountingHole:MountingHole_3mm_Pad_Via" H 6350 7650 50  0001 C CNN
F 3 "~" H 6350 7650 50  0001 C CNN
	1    6350 7650
	1    0    0    -1  
$EndComp
$Comp
L Device:CP C5
U 1 1 602E7F73
P 2200 1900
F 0 "C5" H 2318 1946 50  0000 L CNN
F 1 "10uF" H 2318 1855 50  0000 L CNN
F 2 "Capacitor_THT:C_Radial_D6.3mm_H11.0mm_P2.50mm" H 2238 1750 50  0001 C CNN
F 3 "~" H 2200 1900 50  0001 C CNN
	1    2200 1900
	1    0    0    -1  
$EndComp
Wire Wire Line
	2050 1650 2200 1650
Wire Wire Line
	2450 1650 2450 1600
Wire Wire Line
	2200 1750 2200 1650
Connection ~ 2200 1650
Wire Wire Line
	2200 1650 2450 1650
Wire Wire Line
	1750 2150 1750 1950
Wire Wire Line
	2200 2150 2200 2050
Wire Wire Line
	700  1650 700  1600
Wire Wire Line
	850  1750 850  1650
Wire Wire Line
	850  1650 700  1650
Wire Wire Line
	1250 1750 1250 1650
Wire Wire Line
	850  2150 850  2050
Wire Wire Line
	1250 2150 1250 2050
$Comp
L Device:CP C1
U 1 1 60226886
P 850 1900
F 0 "C1" H 968 1946 50  0000 L CNN
F 1 "10uF" H 968 1855 50  0000 L CNN
F 2 "Capacitor_THT:C_Radial_D6.3mm_H11.0mm_P2.50mm" H 888 1750 50  0001 C CNN
F 3 "~" H 850 1900 50  0001 C CNN
	1    850  1900
	1    0    0    -1  
$EndComp
$Comp
L Device:C C3
U 1 1 60226887
P 1250 1900
F 0 "C3" H 1365 1946 50  0000 L CNN
F 1 "104" H 1365 1855 50  0000 L CNN
F 2 "Capacitor_THT:C_Rect_L7.0mm_W3.5mm_P5.00mm" H 1288 1750 50  0001 C CNN
F 3 "~" H 1250 1900 50  0001 C CNN
	1    1250 1900
	1    0    0    -1  
$EndComp
Wire Wire Line
	1450 1650 1250 1650
$Comp
L Connector:Screw_Terminal_01x02 J1
U 1 1 6008BAF9
P 700 1000
F 0 "J1" H 750 700 50  0000 C CNN
F 1 "PowerIN" H 650 800 50  0000 C CNN
F 2 "TerminalBlock:TerminalBlock_bornier-2_P5.08mm" H 700 1000 50  0001 C CNN
F 3 "~" H 700 1000 50  0001 C CNN
	1    700  1000
	-1   0    0    1   
$EndComp
Wire Wire Line
	2750 850  2600 850 
Wire Wire Line
	950  900  900  900 
Wire Wire Line
	2750 1050 2600 1050
Wire Wire Line
	950  1000 900  1000
Wire Wire Line
	3550 1050 3600 1050
Wire Wire Line
	3600 1050 3600 1300
$Comp
L Device:CP C7
U 1 1 607DEBD5
P 3900 1050
F 0 "C7" H 4018 1096 50  0000 L CNN
F 1 "220uF" H 4018 1005 50  0000 L CNN
F 2 "Capacitor_THT:C_Radial_D6.3mm_H11.0mm_P2.50mm" H 3938 900 50  0001 C CNN
F 3 "~" H 3900 1050 50  0001 C CNN
	1    3900 1050
	1    0    0    -1  
$EndComp
Wire Wire Line
	4050 850  4050 800 
Wire Wire Line
	3550 850  3900 850 
Wire Wire Line
	3900 900  3900 850 
Connection ~ 3900 850 
Wire Wire Line
	3900 850  4050 850 
Wire Wire Line
	3900 1300 3900 1200
$Comp
L Device:Varistor RV1
U 1 1 608BF74D
P 1550 1000
F 0 "RV1" H 1250 1050 50  0000 L CNN
F 1 "10D561" H 1150 950 50  0000 L CNN
F 2 "Diode_THT:D_DO-41_SOD81_P10.16mm_Horizontal" V 1480 1000 50  0001 C CNN
F 3 "~" H 1550 1000 50  0001 C CNN
	1    1550 1000
	1    0    0    -1  
$EndComp
$Comp
L Device:EMI_Filter_CommonMode FL1
U 1 1 600C6DC9
P 2400 950
F 0 "FL1" H 2400 1350 50  0000 C CNN
F 1 "EMI_Filter_CommonMode" H 2400 1200 50  0000 C CNN
F 2 "Inductor_THT:L_CommonMode_Toroid_Vertical_L19.3mm_W10.8mm_Px6.35mm_Py15.24mm_Bourns_8100" H 2400 990 50  0001 C CNN
F 3 "~" H 2400 990 50  0001 C CNN
	1    2400 950 
	1    0    0    -1  
$EndComp
$Comp
L Device:C C4
U 1 1 608BF759
P 1800 1000
F 0 "C4" H 1915 1046 50  0000 L CNN
F 1 "104/630V" H 1800 900 50  0000 L CNN
F 2 "Capacitor_THT:C_Rect_L19.0mm_W6.0mm_P15.00mm_MKS4" H 1838 850 50  0001 C CNN
F 3 "~" H 1800 1000 50  0001 C CNN
	1    1800 1000
	1    0    0    -1  
$EndComp
$Comp
L Device:Fuse F1
U 1 1 608BF75F
P 1250 750
F 0 "F1" V 1053 750 50  0000 C CNN
F 1 "Fuse" V 1144 750 50  0000 C CNN
F 2 "Fuse:Fuseholder_Cylinder-5x20mm_Stelvio-Kontek_PTF78_Horizontal_Open" V 1180 750 50  0001 C CNN
F 3 "~" H 1250 750 50  0001 C CNN
	1    1250 750 
	0    1    1    0   
$EndComp
Wire Wire Line
	2200 1050 2200 1250
Wire Wire Line
	2200 750  2200 850 
Wire Wire Line
	1400 750  1550 750 
Wire Wire Line
	1550 850  1550 750 
Connection ~ 1550 750 
Wire Wire Line
	1550 750  1800 750 
Wire Wire Line
	1800 850  1800 750 
Connection ~ 1800 750 
Wire Wire Line
	1800 750  2200 750 
Wire Wire Line
	2200 1250 1800 1250
Wire Wire Line
	1550 1150 1550 1250
Connection ~ 1550 1250
Wire Wire Line
	1550 1250 950  1250
Wire Wire Line
	1800 1150 1800 1250
Connection ~ 1800 1250
Wire Wire Line
	1800 1250 1550 1250
Wire Wire Line
	950  1000 950  1250
Wire Wire Line
	1100 750  950  750 
Wire Wire Line
	950  750  950  850 
Wire Notes Line
	550  500  4350 500 
$Comp
L My_Lib_KiCAD:A9_GSM_Module U11
U 1 1 60B9AC1F
P 6400 1400
F 0 "U11" H 6050 2250 50  0000 C CNN
F 1 "A9_GSM_Module" H 6150 2150 50  0000 C CNN
F 2 "BA56-12EWA(3Digit7Segment):A9_GSM_Module" H 5600 2400 50  0001 C CNN
F 3 "" H 5800 2400 50  0001 C CNN
	1    6400 1400
	1    0    0    -1  
$EndComp
$Comp
L Relay_SolidState:MOC3041M U1
U 1 1 60BC76A0
P 5400 4300
F 0 "U1" H 5500 4600 50  0000 C CNN
F 1 "MOC3041M" H 5450 4500 50  0000 C CNN
F 2 "Package_DIP:DIP-6_W7.62mm" H 5200 4100 50  0001 L CIN
F 3 "https://www.onsemi.com/pub/Collateral/MOC3043M-D.pdf" H 5400 4300 50  0001 L CNN
	1    5400 4300
	1    0    0    -1  
$EndComp
$Comp
L Triac_Thyristor:BTA16-600B Q1
U 1 1 60BC94F4
P 6400 4450
F 0 "Q1" H 6529 4496 50  0000 L CNN
F 1 "BTA16-600B" H 6529 4405 50  0000 L CNN
F 2 "Package_TO_SOT_THT:TO-220-3_Vertical" H 6600 4375 50  0001 L CIN
F 3 "https://www.st.com/resource/en/datasheet/bta16.pdf" H 6400 4450 50  0001 L CNN
	1    6400 4450
	1    0    0    -1  
$EndComp
$Comp
L Regulator_Linear:AMS1117-5.0 U4
U 1 1 60BCEE74
P 1750 1650
F 0 "U4" H 1750 1892 50  0000 C CNN
F 1 "AMS1117-5.0" H 1750 1801 50  0000 C CNN
F 2 "Package_TO_SOT_SMD:SOT-223-3_TabPin2" H 1750 1850 50  0001 C CNN
F 3 "http://www.advanced-monolithic.com/pdf/ds1117.pdf" H 1850 1400 50  0001 C CNN
	1    1750 1650
	1    0    0    -1  
$EndComp
$Comp
L power:GNDA #PWR03
U 1 1 60BE0C7F
P 850 2150
F 0 "#PWR03" H 850 1900 50  0001 C CNN
F 1 "GNDA" H 855 1977 50  0000 C CNN
F 2 "" H 850 2150 50  0001 C CNN
F 3 "" H 850 2150 50  0001 C CNN
	1    850  2150
	1    0    0    -1  
$EndComp
$Comp
L power:GNDA #PWR05
U 1 1 60BF453C
P 1250 2150
F 0 "#PWR05" H 1250 1900 50  0001 C CNN
F 1 "GNDA" H 1255 1977 50  0000 C CNN
F 2 "" H 1250 2150 50  0001 C CNN
F 3 "" H 1250 2150 50  0001 C CNN
	1    1250 2150
	1    0    0    -1  
$EndComp
$Comp
L power:GNDA #PWR010
U 1 1 60BF471E
P 1750 2150
F 0 "#PWR010" H 1750 1900 50  0001 C CNN
F 1 "GNDA" H 1755 1977 50  0000 C CNN
F 2 "" H 1750 2150 50  0001 C CNN
F 3 "" H 1750 2150 50  0001 C CNN
	1    1750 2150
	1    0    0    -1  
$EndComp
$Comp
L power:GNDA #PWR011
U 1 1 60BF4998
P 2200 2150
F 0 "#PWR011" H 2200 1900 50  0001 C CNN
F 1 "GNDA" H 2205 1977 50  0000 C CNN
F 2 "" H 2200 2150 50  0001 C CNN
F 3 "" H 2200 2150 50  0001 C CNN
	1    2200 2150
	1    0    0    -1  
$EndComp
$Comp
L power:+5VA #PWR013
U 1 1 60BF4BE1
P 2450 1600
F 0 "#PWR013" H 2450 1450 50  0001 C CNN
F 1 "+5VA" H 2465 1773 50  0000 C CNN
F 2 "" H 2450 1600 50  0001 C CNN
F 3 "" H 2450 1600 50  0001 C CNN
	1    2450 1600
	1    0    0    -1  
$EndComp
$Comp
L power:GNDA #PWR016
U 1 1 60BF56DD
P 3600 1300
F 0 "#PWR016" H 3600 1050 50  0001 C CNN
F 1 "GNDA" H 3605 1127 50  0000 C CNN
F 2 "" H 3600 1300 50  0001 C CNN
F 3 "" H 3600 1300 50  0001 C CNN
	1    3600 1300
	1    0    0    -1  
$EndComp
$Comp
L power:GNDA #PWR017
U 1 1 60BF5A83
P 3900 1300
F 0 "#PWR017" H 3900 1050 50  0001 C CNN
F 1 "GNDA" H 3905 1127 50  0000 C CNN
F 2 "" H 3900 1300 50  0001 C CNN
F 3 "" H 3900 1300 50  0001 C CNN
	1    3900 1300
	1    0    0    -1  
$EndComp
$Comp
L power:+12VA #PWR018
U 1 1 60BF61D6
P 4050 800
F 0 "#PWR018" H 4050 650 50  0001 C CNN
F 1 "+12VA" H 4065 973 50  0000 C CNN
F 2 "" H 4050 800 50  0001 C CNN
F 3 "" H 4050 800 50  0001 C CNN
	1    4050 800 
	1    0    0    -1  
$EndComp
$Comp
L power:+12VA #PWR01
U 1 1 60BF7392
P 700 1600
F 0 "#PWR01" H 700 1450 50  0001 C CNN
F 1 "+12VA" H 715 1773 50  0000 C CNN
F 2 "" H 700 1600 50  0001 C CNN
F 3 "" H 700 1600 50  0001 C CNN
	1    700  1600
	1    0    0    -1  
$EndComp
$Comp
L My_Lib_KiCAD:EVISUN U5
U 1 1 60C115E4
P 1900 2900
F 0 "U5" H 1900 3267 50  0000 C CNN
F 1 "EVISUN" H 1900 3176 50  0000 C CNN
F 2 "My_Lib_KiCAD:EVISUN_2W" H 1750 3250 50  0001 C CNN
F 3 "" H 1700 3200 50  0001 C CNN
	1    1900 2900
	1    0    0    -1  
$EndComp
$Comp
L power:+12VA #PWR02
U 1 1 60C13147
P 700 2700
F 0 "#PWR02" H 700 2550 50  0001 C CNN
F 1 "+12VA" H 715 2873 50  0000 C CNN
F 2 "" H 700 2700 50  0001 C CNN
F 3 "" H 700 2700 50  0001 C CNN
	1    700  2700
	1    0    0    -1  
$EndComp
$Comp
L Device:CP C2
U 1 1 60C13596
P 1000 3000
F 0 "C2" H 1118 3046 50  0000 L CNN
F 1 "2.2uF" H 1118 2955 50  0000 L CNN
F 2 "Capacitor_THT:C_Radial_D6.3mm_H11.0mm_P2.50mm" H 1038 2850 50  0001 C CNN
F 3 "~" H 1000 3000 50  0001 C CNN
	1    1000 3000
	1    0    0    -1  
$EndComp
Wire Wire Line
	1500 2800 1000 2800
Wire Wire Line
	700  2800 700  2700
Wire Wire Line
	1000 2850 1000 2800
Connection ~ 1000 2800
Wire Wire Line
	1000 2800 700  2800
$Comp
L Device:CP C6
U 1 1 60C20683
P 2700 3000
F 0 "C6" H 2818 3046 50  0000 L CNN
F 1 "220uF" H 2818 2955 50  0000 L CNN
F 2 "Capacitor_THT:C_Radial_D6.3mm_H11.0mm_P2.50mm" H 2738 2850 50  0001 C CNN
F 3 "~" H 2700 3000 50  0001 C CNN
	1    2700 3000
	1    0    0    -1  
$EndComp
$Comp
L power:+5V #PWR015
U 1 1 60C20EAD
P 3100 2700
F 0 "#PWR015" H 3100 2550 50  0001 C CNN
F 1 "+5V" H 3115 2873 50  0000 C CNN
F 2 "" H 3100 2700 50  0001 C CNN
F 3 "" H 3100 2700 50  0001 C CNN
	1    3100 2700
	1    0    0    -1  
$EndComp
Wire Wire Line
	2300 2800 2700 2800
Wire Wire Line
	3100 2800 3100 2700
Wire Wire Line
	2700 2850 2700 2800
Connection ~ 2700 2800
Wire Wire Line
	2700 2800 3100 2800
$Comp
L power:GND #PWR014
U 1 1 60C2EB1F
P 2700 3250
F 0 "#PWR014" H 2700 3000 50  0001 C CNN
F 1 "GND" H 2705 3077 50  0000 C CNN
F 2 "" H 2700 3250 50  0001 C CNN
F 3 "" H 2700 3250 50  0001 C CNN
	1    2700 3250
	1    0    0    -1  
$EndComp
Wire Wire Line
	1000 3250 1000 3150
Wire Wire Line
	2700 3250 2700 3150
$Comp
L power:GND #PWR012
U 1 1 60C3C272
P 2400 3250
F 0 "#PWR012" H 2400 3000 50  0001 C CNN
F 1 "GND" H 2405 3077 50  0000 C CNN
F 2 "" H 2400 3250 50  0001 C CNN
F 3 "" H 2400 3250 50  0001 C CNN
	1    2400 3250
	1    0    0    -1  
$EndComp
Wire Wire Line
	2400 3250 2400 3000
Wire Wire Line
	2400 3000 2300 3000
Wire Wire Line
	1400 3250 1400 3000
Wire Wire Line
	1400 3000 1500 3000
$Comp
L power:GNDA #PWR04
U 1 1 60C49DDE
P 1000 3250
F 0 "#PWR04" H 1000 3000 50  0001 C CNN
F 1 "GNDA" H 1005 3077 50  0000 C CNN
F 2 "" H 1000 3250 50  0001 C CNN
F 3 "" H 1000 3250 50  0001 C CNN
	1    1000 3250
	1    0    0    -1  
$EndComp
$Comp
L power:GNDA #PWR09
U 1 1 60C4A0EC
P 1400 3250
F 0 "#PWR09" H 1400 3000 50  0001 C CNN
F 1 "GNDA" H 1405 3077 50  0000 C CNN
F 2 "" H 1400 3250 50  0001 C CNN
F 3 "" H 1400 3250 50  0001 C CNN
	1    1400 3250
	1    0    0    -1  
$EndComp
$Comp
L power:GND #PWR053
U 1 1 60C4C099
P 7550 2300
F 0 "#PWR053" H 7550 2050 50  0001 C CNN
F 1 "GND" H 7555 2127 50  0000 C CNN
F 2 "" H 7550 2300 50  0001 C CNN
F 3 "" H 7550 2300 50  0001 C CNN
	1    7550 2300
	1    0    0    -1  
$EndComp
$Comp
L power:+5V #PWR054
U 1 1 60C4C4A2
P 7900 2050
F 0 "#PWR054" H 7900 1900 50  0001 C CNN
F 1 "+5V" H 7915 2223 50  0000 C CNN
F 2 "" H 7900 2050 50  0001 C CNN
F 3 "" H 7900 2050 50  0001 C CNN
	1    7900 2050
	1    0    0    -1  
$EndComp
Wire Wire Line
	7400 2100 7900 2100
Wire Wire Line
	7400 2200 7550 2200
Wire Wire Line
	7550 2200 7550 2300
Wire Wire Line
	4950 1400 5400 1400
Wire Wire Line
	5400 1300 4950 1300
$Comp
L Device:R R1
U 1 1 60C7A3BA
P 6000 4800
F 0 "R1" H 6100 4700 50  0000 L CNN
F 1 "330R" H 6050 4800 50  0000 L CNN
F 2 "Resistor_THT:R_Axial_DIN0207_L6.3mm_D2.5mm_P7.62mm_Horizontal" V 5930 4800 50  0001 C CNN
F 3 "~" H 6000 4800 50  0001 C CNN
	1    6000 4800
	-1   0    0    1   
$EndComp
$Comp
L Device:R R4
U 1 1 60C7B629
P 6100 4200
F 0 "R4" V 6300 4200 50  0000 L CNN
F 1 "470R" V 6200 4150 50  0000 L CNN
F 2 "Resistor_THT:R_Axial_DIN0207_L6.3mm_D2.5mm_P7.62mm_Horizontal" V 6030 4200 50  0001 C CNN
F 3 "~" H 6100 4200 50  0001 C CNN
	1    6100 4200
	0    -1   -1   0   
$EndComp
Text Label 8200 1500 2    50   ~ 0
HST_RX
Text Label 7800 1500 2    50   ~ 0
HST_TX
$Comp
L Connector:Screw_Terminal_01x02 J7
U 1 1 60C8BB4A
P 4700 800
F 0 "J7" H 4700 600 50  0000 C CNN
F 1 "BATT" H 4650 900 50  0000 C CNN
F 2 "TerminalBlock:TerminalBlock_bornier-2_P5.08mm" H 4700 800 50  0001 C CNN
F 3 "~" H 4700 800 50  0001 C CNN
	1    4700 800 
	-1   0    0    1   
$EndComp
Wire Wire Line
	5400 800  4900 800 
$Comp
L power:GND #PWR041
U 1 1 60C95D53
P 5000 850
F 0 "#PWR041" H 5000 600 50  0001 C CNN
F 1 "GND" H 5005 677 50  0000 C CNN
F 2 "" H 5000 850 50  0001 C CNN
F 3 "" H 5000 850 50  0001 C CNN
	1    5000 850 
	1    0    0    -1  
$EndComp
Wire Wire Line
	4700 4200 5100 4200
$Comp
L power:GND #PWR06
U 1 1 60CAEB64
P 5000 4500
F 0 "#PWR06" H 5000 4250 50  0001 C CNN
F 1 "GND" H 5005 4327 50  0000 C CNN
F 2 "" H 5000 4500 50  0001 C CNN
F 3 "" H 5000 4500 50  0001 C CNN
	1    5000 4500
	1    0    0    -1  
$EndComp
Wire Wire Line
	5000 4500 5000 4400
Wire Wire Line
	5000 4400 5100 4400
Wire Wire Line
	6250 4550 6000 4550
Wire Wire Line
	5800 4550 5800 4400
Wire Wire Line
	5800 4400 5700 4400
Wire Wire Line
	5700 4200 5950 4200
Wire Wire Line
	6000 4650 6000 4550
Connection ~ 6000 4550
Wire Wire Line
	6000 4550 5800 4550
$Comp
L Connector:Screw_Terminal_01x02 J2
U 1 1 60CD24BC
P 7350 4350
F 0 "J2" H 7350 4550 50  0000 C CNN
F 1 "L1_OUT" H 7350 4450 50  0000 C CNN
F 2 "TerminalBlock:TerminalBlock_bornier-2_P5.08mm" H 7350 4350 50  0001 C CNN
F 3 "~" H 7350 4350 50  0001 C CNN
	1    7350 4350
	1    0    0    -1  
$EndComp
Wire Wire Line
	7150 4350 7050 4350
Wire Wire Line
	7050 4350 7050 4200
Wire Wire Line
	6250 4200 6400 4200
Wire Wire Line
	7150 4450 7000 4450
Wire Wire Line
	7000 4450 7000 5050
Wire Wire Line
	7000 5050 6400 5050
Wire Wire Line
	6000 5050 6000 4950
Wire Wire Line
	6400 4300 6400 4200
Connection ~ 6400 4200
Wire Wire Line
	6400 4200 7050 4200
Wire Wire Line
	6400 4600 6400 5050
Connection ~ 6400 5050
Wire Wire Line
	6400 5050 6000 5050
$Comp
L Relay_SolidState:MOC3041M U2
U 1 1 60D14CB8
P 5400 5500
F 0 "U2" H 5400 5825 50  0000 C CNN
F 1 "MOC3041M" H 5400 5734 50  0000 C CNN
F 2 "Package_DIP:DIP-6_W7.62mm" H 5200 5300 50  0001 L CIN
F 3 "https://www.onsemi.com/pub/Collateral/MOC3043M-D.pdf" H 5400 5500 50  0001 L CNN
	1    5400 5500
	1    0    0    -1  
$EndComp
$Comp
L Triac_Thyristor:BTA16-600B Q2
U 1 1 60D14CBE
P 6400 5650
F 0 "Q2" H 6529 5696 50  0000 L CNN
F 1 "BTA16-600B" H 6529 5605 50  0000 L CNN
F 2 "Package_TO_SOT_THT:TO-220-3_Vertical" H 6600 5575 50  0001 L CIN
F 3 "https://www.st.com/resource/en/datasheet/bta16.pdf" H 6400 5650 50  0001 L CNN
	1    6400 5650
	1    0    0    -1  
$EndComp
$Comp
L Device:R R2
U 1 1 60D14CC4
P 6000 6000
F 0 "R2" H 6100 5900 50  0000 L CNN
F 1 "330R" H 6050 6000 50  0000 L CNN
F 2 "Resistor_THT:R_Axial_DIN0207_L6.3mm_D2.5mm_P7.62mm_Horizontal" V 5930 6000 50  0001 C CNN
F 3 "~" H 6000 6000 50  0001 C CNN
	1    6000 6000
	-1   0    0    1   
$EndComp
$Comp
L Device:R R5
U 1 1 60D14CCA
P 6100 5400
F 0 "R5" V 6300 5400 50  0000 L CNN
F 1 "470R" V 6200 5350 50  0000 L CNN
F 2 "Resistor_THT:R_Axial_DIN0207_L6.3mm_D2.5mm_P7.62mm_Horizontal" V 6030 5400 50  0001 C CNN
F 3 "~" H 6100 5400 50  0001 C CNN
	1    6100 5400
	0    -1   -1   0   
$EndComp
Wire Wire Line
	4700 5400 5100 5400
$Comp
L power:GND #PWR07
U 1 1 60D14CD2
P 5000 5700
F 0 "#PWR07" H 5000 5450 50  0001 C CNN
F 1 "GND" H 5005 5527 50  0000 C CNN
F 2 "" H 5000 5700 50  0001 C CNN
F 3 "" H 5000 5700 50  0001 C CNN
	1    5000 5700
	1    0    0    -1  
$EndComp
Wire Wire Line
	5000 5700 5000 5600
Wire Wire Line
	5000 5600 5100 5600
Wire Wire Line
	6250 5750 6000 5750
Wire Wire Line
	5800 5750 5800 5600
Wire Wire Line
	5800 5600 5700 5600
Wire Wire Line
	5700 5400 5950 5400
Wire Wire Line
	6000 5850 6000 5750
Connection ~ 6000 5750
Wire Wire Line
	6000 5750 5800 5750
$Comp
L Connector:Screw_Terminal_01x02 J3
U 1 1 60D14CE1
P 7350 5550
F 0 "J3" H 7350 5750 50  0000 C CNN
F 1 "L2_OUT" H 7350 5650 50  0000 C CNN
F 2 "TerminalBlock:TerminalBlock_bornier-2_P5.08mm" H 7350 5550 50  0001 C CNN
F 3 "~" H 7350 5550 50  0001 C CNN
	1    7350 5550
	1    0    0    -1  
$EndComp
Wire Wire Line
	7150 5550 7050 5550
Wire Wire Line
	7050 5550 7050 5400
Wire Wire Line
	6250 5400 6400 5400
Wire Wire Line
	7150 5650 7000 5650
Wire Wire Line
	7000 5650 7000 6250
Wire Wire Line
	7000 6250 6400 6250
Wire Wire Line
	6000 6250 6000 6150
Wire Wire Line
	6400 5500 6400 5400
Connection ~ 6400 5400
Wire Wire Line
	6400 5400 7050 5400
Wire Wire Line
	6400 5800 6400 6250
Connection ~ 6400 6250
Wire Wire Line
	6400 6250 6000 6250
Wire Wire Line
	4900 700  5000 700 
Wire Wire Line
	5000 850  5000 700 
Connection ~ 5000 700 
Wire Wire Line
	5000 700  5400 700 
Text Label 6900 3400 0    50   ~ 0
HST_RX
Text Label 6900 3500 0    50   ~ 0
HST_TX
$Comp
L power:+5V #PWR025
U 1 1 60215690
P 7150 3100
F 0 "#PWR025" H 7150 2950 50  0001 C CNN
F 1 "+5V" H 7165 3273 50  0000 C CNN
F 2 "" H 7150 3100 50  0001 C CNN
F 3 "" H 7150 3100 50  0001 C CNN
	1    7150 3100
	1    0    0    -1  
$EndComp
$Comp
L power:GND #PWR022
U 1 1 60215AE8
P 6650 3350
F 0 "#PWR022" H 6650 3100 50  0001 C CNN
F 1 "GND" H 6655 3177 50  0000 C CNN
F 2 "" H 6650 3350 50  0001 C CNN
F 3 "" H 6650 3350 50  0001 C CNN
	1    6650 3350
	1    0    0    -1  
$EndComp
Wire Wire Line
	7250 3500 6900 3500
Wire Wire Line
	7250 3400 6900 3400
$Comp
L power:+12VA #PWR027
U 1 1 602B2A58
P 8850 5050
F 0 "#PWR027" H 8850 4900 50  0001 C CNN
F 1 "+12VA" H 8865 5223 50  0000 C CNN
F 2 "" H 8850 5050 50  0001 C CNN
F 3 "" H 8850 5050 50  0001 C CNN
	1    8850 5050
	-1   0    0    -1  
$EndComp
Wire Wire Line
	8700 5150 8850 5150
Wire Wire Line
	8850 5150 8850 5050
$Comp
L Isolator:PC817 U8
U 1 1 602DF372
P 9800 5350
F 0 "U8" H 9800 5675 50  0000 C CNN
F 1 "PC817" H 9800 5584 50  0000 C CNN
F 2 "Package_DIP:DIP-4_W7.62mm" H 9600 5150 50  0001 L CIN
F 3 "http://www.soselectronic.cz/a_info/resource/d/pc817.pdf" H 9800 5350 50  0001 L CNN
	1    9800 5350
	1    0    0    -1  
$EndComp
$Comp
L Device:R R10
U 1 1 602E01B7
P 9200 5250
F 0 "R10" V 9400 5250 50  0000 L CNN
F 1 "10k" V 9300 5200 50  0000 L CNN
F 2 "Resistor_THT:R_Axial_DIN0207_L6.3mm_D2.5mm_P7.62mm_Horizontal" V 9130 5250 50  0001 C CNN
F 3 "~" H 9200 5250 50  0001 C CNN
	1    9200 5250
	0    -1   -1   0   
$EndComp
Wire Wire Line
	9500 5250 9350 5250
$Comp
L power:GNDA #PWR024
U 1 1 602F69BA
P 9400 5550
F 0 "#PWR024" H 9400 5300 50  0001 C CNN
F 1 "GNDA" H 9405 5377 50  0000 C CNN
F 2 "" H 9400 5550 50  0001 C CNN
F 3 "" H 9400 5550 50  0001 C CNN
	1    9400 5550
	1    0    0    -1  
$EndComp
Wire Wire Line
	9500 5450 9400 5450
Wire Wire Line
	9400 5450 9400 5550
$Comp
L power:+5V #PWR031
U 1 1 603029EC
P 10150 5100
F 0 "#PWR031" H 10150 4950 50  0001 C CNN
F 1 "+5V" H 10165 5273 50  0000 C CNN
F 2 "" H 10150 5100 50  0001 C CNN
F 3 "" H 10150 5100 50  0001 C CNN
	1    10150 5100
	1    0    0    -1  
$EndComp
Wire Wire Line
	10100 5250 10150 5250
Wire Wire Line
	10150 5250 10150 5100
$Comp
L Device:R R15
U 1 1 6030F2E3
P 10350 5650
F 0 "R15" H 10450 5550 50  0000 L CNN
F 1 "4.7k" H 10400 5650 50  0000 L CNN
F 2 "Resistor_THT:R_Axial_DIN0207_L6.3mm_D2.5mm_P7.62mm_Horizontal" V 10280 5650 50  0001 C CNN
F 3 "~" H 10350 5650 50  0001 C CNN
	1    10350 5650
	-1   0    0    1   
$EndComp
$Comp
L Device:R R16
U 1 1 6031B888
P 10350 6050
F 0 "R16" H 10450 5950 50  0000 L CNN
F 1 "3.3k" H 10400 6050 50  0000 L CNN
F 2 "Resistor_THT:R_Axial_DIN0207_L6.3mm_D2.5mm_P7.62mm_Horizontal" V 10280 6050 50  0001 C CNN
F 3 "~" H 10350 6050 50  0001 C CNN
	1    10350 6050
	-1   0    0    1   
$EndComp
$Comp
L power:GND #PWR032
U 1 1 6031BC07
P 10350 6200
F 0 "#PWR032" H 10350 5950 50  0001 C CNN
F 1 "GND" H 10355 6027 50  0000 C CNN
F 2 "" H 10350 6200 50  0001 C CNN
F 3 "" H 10350 6200 50  0001 C CNN
	1    10350 6200
	1    0    0    -1  
$EndComp
Text Label 10700 5850 2    50   ~ 0
IO0
$Comp
L Device:LED D3
U 1 1 60341163
P 5300 2900
F 0 "D3" V 5339 2782 50  0000 R CNN
F 1 "LED" V 5248 2782 50  0000 R CNN
F 2 "LED_THT:LED_D5.0mm" H 5300 2900 50  0001 C CNN
F 3 "~" H 5300 2900 50  0001 C CNN
	1    5300 2900
	0    -1   -1   0   
$EndComp
$Comp
L Device:LED D2
U 1 1 603433F8
P 5000 2900
F 0 "D2" V 5039 2782 50  0000 R CNN
F 1 "LED" V 4948 2782 50  0000 R CNN
F 2 "LED_THT:LED_D5.0mm" H 5000 2900 50  0001 C CNN
F 3 "~" H 5000 2900 50  0001 C CNN
	1    5000 2900
	0    -1   -1   0   
$EndComp
$Comp
L Device:LED D1
U 1 1 603437F8
P 4700 2900
F 0 "D1" V 4739 2782 50  0000 R CNN
F 1 "LED" V 4648 2782 50  0000 R CNN
F 2 "LED_THT:LED_D5.0mm" H 4700 2900 50  0001 C CNN
F 3 "~" H 4700 2900 50  0001 C CNN
	1    4700 2900
	0    -1   -1   0   
$EndComp
$Comp
L Device:R R25
U 1 1 60343CEF
P 5300 2500
F 0 "R25" H 5400 2400 50  0000 L CNN
F 1 "120R" H 5350 2500 50  0000 L CNN
F 2 "Resistor_THT:R_Axial_DIN0207_L6.3mm_D2.5mm_P2.54mm_Vertical" V 5230 2500 50  0001 C CNN
F 3 "~" H 5300 2500 50  0001 C CNN
	1    5300 2500
	-1   0    0    1   
$EndComp
$Comp
L Device:R R22
U 1 1 60344123
P 5000 2500
F 0 "R22" H 5100 2400 50  0000 L CNN
F 1 "120R" H 5050 2500 50  0000 L CNN
F 2 "Resistor_THT:R_Axial_DIN0207_L6.3mm_D2.5mm_P2.54mm_Vertical" V 4930 2500 50  0001 C CNN
F 3 "~" H 5000 2500 50  0001 C CNN
	1    5000 2500
	-1   0    0    1   
$EndComp
$Comp
L Device:R R21
U 1 1 603443CB
P 4700 2500
F 0 "R21" H 4800 2400 50  0000 L CNN
F 1 "120R" H 4750 2500 50  0000 L CNN
F 2 "Resistor_THT:R_Axial_DIN0207_L6.3mm_D2.5mm_P2.54mm_Vertical" V 4630 2500 50  0001 C CNN
F 3 "~" H 4700 2500 50  0001 C CNN
	1    4700 2500
	-1   0    0    1   
$EndComp
Wire Wire Line
	4700 2750 4700 2650
Wire Wire Line
	5000 2750 5000 2650
Wire Wire Line
	5300 2750 5300 2650
$Comp
L power:GND #PWR040
U 1 1 603A11E9
P 4700 3150
F 0 "#PWR040" H 4700 2900 50  0001 C CNN
F 1 "GND" H 4705 2977 50  0000 C CNN
F 2 "" H 4700 3150 50  0001 C CNN
F 3 "" H 4700 3150 50  0001 C CNN
	1    4700 3150
	1    0    0    -1  
$EndComp
$Comp
L power:GND #PWR042
U 1 1 603A17D9
P 5000 3150
F 0 "#PWR042" H 5000 2900 50  0001 C CNN
F 1 "GND" H 5005 2977 50  0000 C CNN
F 2 "" H 5000 3150 50  0001 C CNN
F 3 "" H 5000 3150 50  0001 C CNN
	1    5000 3150
	1    0    0    -1  
$EndComp
$Comp
L power:GND #PWR046
U 1 1 603A1990
P 5300 3150
F 0 "#PWR046" H 5300 2900 50  0001 C CNN
F 1 "GND" H 5305 2977 50  0000 C CNN
F 2 "" H 5300 3150 50  0001 C CNN
F 3 "" H 5300 3150 50  0001 C CNN
	1    5300 3150
	1    0    0    -1  
$EndComp
Wire Wire Line
	4700 3150 4700 3050
Wire Wire Line
	5000 3150 5000 3050
Wire Wire Line
	5300 3150 5300 3050
Wire Wire Line
	5400 2200 5300 2200
Wire Wire Line
	5300 2200 5300 2350
Wire Wire Line
	5400 2100 5000 2100
Wire Wire Line
	5000 2100 5000 2350
Wire Wire Line
	5400 2000 4700 2000
Wire Wire Line
	4700 2000 4700 2350
Text Label 4950 1500 0    50   ~ 0
IO0
Wire Wire Line
	4950 1500 5400 1500
Text Label 7800 900  2    50   ~ 0
BUTTON
Wire Wire Line
	7800 900  7400 900 
$Comp
L Switch:SW_Push SW1
U 1 1 60586E85
P 6000 3300
F 0 "SW1" V 5954 3448 50  0000 L CNN
F 1 "SW_Push" V 6045 3448 50  0000 L CNN
F 2 "Button_Switch_THT:SW_PUSH_6mm" H 6000 3500 50  0001 C CNN
F 3 "~" H 6000 3500 50  0001 C CNN
	1    6000 3300
	0    1    1    0   
$EndComp
$Comp
L Device:R R7
U 1 1 60589426
P 6000 2800
F 0 "R7" H 6100 2700 50  0000 L CNN
F 1 "1k" H 6050 2800 50  0000 L CNN
F 2 "Resistor_THT:R_Axial_DIN0207_L6.3mm_D2.5mm_P7.62mm_Horizontal" V 5930 2800 50  0001 C CNN
F 3 "~" H 6000 2800 50  0001 C CNN
	1    6000 2800
	-1   0    0    1   
$EndComp
$Comp
L power:+5V #PWR019
U 1 1 6059A7F8
P 6000 2550
F 0 "#PWR019" H 6000 2400 50  0001 C CNN
F 1 "+5V" H 6015 2723 50  0000 C CNN
F 2 "" H 6000 2550 50  0001 C CNN
F 3 "" H 6000 2550 50  0001 C CNN
	1    6000 2550
	1    0    0    -1  
$EndComp
Wire Wire Line
	6000 2650 6000 2550
$Comp
L power:GND #PWR020
U 1 1 605AB73D
P 6000 3600
F 0 "#PWR020" H 6000 3350 50  0001 C CNN
F 1 "GND" H 6005 3427 50  0000 C CNN
F 2 "" H 6000 3600 50  0001 C CNN
F 3 "" H 6000 3600 50  0001 C CNN
	1    6000 3600
	1    0    0    -1  
$EndComp
Wire Wire Line
	6000 3600 6000 3500
Wire Wire Line
	6000 3100 6000 3050
Text Label 5600 3050 0    50   ~ 0
BUTTON
Wire Wire Line
	5600 3050 6000 3050
Connection ~ 6000 3050
Wire Wire Line
	6000 3050 6000 2950
Wire Wire Line
	1250 1650 850  1650
Connection ~ 1250 1650
Connection ~ 850  1650
Wire Wire Line
	7800 700  7400 700 
Wire Wire Line
	7800 800  7400 800 
Wire Wire Line
	7250 3200 6650 3200
Wire Wire Line
	6650 3200 6650 3350
Wire Wire Line
	7250 3300 7150 3300
Wire Wire Line
	7150 3300 7150 3100
Text Label 7800 1300 2    50   ~ 0
TEMP1
Text Label 7800 1400 2    50   ~ 0
TEMP2
$Comp
L Device:R R17
U 1 1 60AA94CB
P 6700 2800
F 0 "R17" H 6800 2700 50  0000 L CNN
F 1 "1k" H 6750 2800 50  0000 L CNN
F 2 "Resistor_THT:R_Axial_DIN0207_L6.3mm_D2.5mm_P7.62mm_Horizontal" V 6630 2800 50  0001 C CNN
F 3 "~" H 6700 2800 50  0001 C CNN
	1    6700 2800
	-1   0    0    1   
$EndComp
$Comp
L Device:R R18
U 1 1 60AA99D3
P 6950 2800
F 0 "R18" H 7050 2700 50  0000 L CNN
F 1 "1k" H 7000 2800 50  0000 L CNN
F 2 "Resistor_THT:R_Axial_DIN0207_L6.3mm_D2.5mm_P7.62mm_Horizontal" V 6880 2800 50  0001 C CNN
F 3 "~" H 6950 2800 50  0001 C CNN
	1    6950 2800
	-1   0    0    1   
$EndComp
Text Label 6300 3150 0    50   ~ 0
TEMP2
Text Label 6300 3050 0    50   ~ 0
TEMP1
Wire Wire Line
	6700 2950 6700 3050
Wire Wire Line
	6300 3050 6700 3050
Wire Wire Line
	6950 3150 6950 2950
Wire Wire Line
	6300 3150 6950 3150
Wire Wire Line
	6700 2550 6700 2650
Wire Wire Line
	6950 2550 6950 2650
$Comp
L Device:C C8
U 1 1 5FFFB2FA
P 4550 1450
F 0 "C8" H 4665 1496 50  0000 L CNN
F 1 "104" H 4665 1405 50  0000 L CNN
F 2 "Capacitor_THT:C_Rect_L7.0mm_W3.5mm_P5.00mm" H 4588 1300 50  0001 C CNN
F 3 "~" H 4550 1450 50  0001 C CNN
	1    4550 1450
	1    0    0    -1  
$EndComp
$Comp
L power:GND #PWR036
U 1 1 5FFFC817
P 4550 1700
F 0 "#PWR036" H 4550 1450 50  0001 C CNN
F 1 "GND" H 4555 1527 50  0000 C CNN
F 2 "" H 4550 1700 50  0001 C CNN
F 3 "" H 4550 1700 50  0001 C CNN
	1    4550 1700
	1    0    0    -1  
$EndComp
$Comp
L power:+5V #PWR035
U 1 1 5FFFCAB7
P 4550 1200
F 0 "#PWR035" H 4550 1050 50  0001 C CNN
F 1 "+5V" H 4565 1373 50  0000 C CNN
F 2 "" H 4550 1200 50  0001 C CNN
F 3 "" H 4550 1200 50  0001 C CNN
	1    4550 1200
	1    0    0    -1  
$EndComp
Wire Wire Line
	4550 1300 4550 1200
Wire Wire Line
	4550 1700 4550 1600
$Comp
L power:+3.3V #PWR0101
U 1 1 604305E2
P 6700 2550
F 0 "#PWR0101" H 6700 2400 50  0001 C CNN
F 1 "+3.3V" H 6715 2723 50  0000 C CNN
F 2 "" H 6700 2550 50  0001 C CNN
F 3 "" H 6700 2550 50  0001 C CNN
	1    6700 2550
	1    0    0    -1  
$EndComp
$Comp
L power:+3.3V #PWR0102
U 1 1 60430B3C
P 6950 2550
F 0 "#PWR0102" H 6950 2400 50  0001 C CNN
F 1 "+3.3V" H 6965 2723 50  0000 C CNN
F 2 "" H 6950 2550 50  0001 C CNN
F 3 "" H 6950 2550 50  0001 C CNN
	1    6950 2550
	1    0    0    -1  
$EndComp
Text Label 7800 700  2    50   ~ 0
TX1
Text Label 7800 800  2    50   ~ 0
RX1
Text Label 4950 1300 0    50   ~ 0
TRIAC_2
Text Label 4950 1400 0    50   ~ 0
TRIAC_1
Text Label 4700 5400 0    50   ~ 0
TRIAC_2
Text Label 4700 4200 0    50   ~ 0
TRIAC_1
$Comp
L Converter_ACDC:HLK-PM12 PS1
U 1 1 60617531
P 3150 950
F 0 "PS1" H 3150 1275 50  0000 C CNN
F 1 "HLK-PM12" H 3150 1184 50  0000 C CNN
F 2 "Converter_ACDC:Converter_ACDC_HiLink_HLK-PMxx" H 3150 650 50  0001 C CNN
F 3 "http://www.hlktech.net/product_detail.php?ProId=56" H 3550 600 50  0001 C CNN
	1    3150 950 
	1    0    0    -1  
$EndComp
Text Label 7800 1000 2    50   ~ 0
STX_TFT
Wire Wire Line
	7800 1000 7400 1000
Wire Wire Line
	7900 2100 7900 2050
Wire Wire Line
	7400 1300 7800 1300
Wire Wire Line
	7400 1400 7800 1400
Text Label 7800 1600 2    50   ~ 0
RX1
Wire Wire Line
	7800 1500 7550 1500
Wire Wire Line
	7550 1500 7550 1600
Wire Wire Line
	7550 1700 7400 1700
Wire Wire Line
	7800 1600 7550 1600
Connection ~ 7550 1600
Wire Wire Line
	7550 1600 7550 1700
Text Label 8200 1600 2    50   ~ 0
TX1
Wire Wire Line
	8200 1500 7900 1500
Wire Wire Line
	7900 1500 7900 1600
Wire Wire Line
	7400 1800 7900 1800
Wire Wire Line
	8200 1600 7900 1600
Connection ~ 7900 1600
Wire Wire Line
	7900 1600 7900 1800
$Comp
L Connector:Screw_Terminal_01x02 J?
U 1 1 601B2103
P 8500 5150
F 0 "J?" H 8500 5350 50  0000 C CNN
F 1 "DI_INPUT" H 8450 5250 50  0000 C CNN
F 2 "TerminalBlock:TerminalBlock_bornier-2_P5.08mm" H 8500 5150 50  0001 C CNN
F 3 "~" H 8500 5150 50  0001 C CNN
	1    8500 5150
	-1   0    0    -1  
$EndComp
$Comp
L My_Lib_KiCAD:RSM3485CHT U5
U 1 1 5FFD71AE
P 2200 6500
F 0 "U5" H 2200 6965 50  0000 C CNN
F 1 "RSM3485CHT" H 2200 6874 50  0000 C CNN
F 2 "My_Lib_KiCAD:RSM3-485CHT" H 2200 6500 50  0001 C CNN
F 3 "" H 2200 6500 50  0001 C CNN
	1    2200 6500
	1    0    0    -1  
$EndComp
$Comp
L power:+3.3V #PWR017
U 1 1 600E65A7
P 1700 6100
F 0 "#PWR017" H 1700 5950 50  0001 C CNN
F 1 "+3.3V" H 1715 6273 50  0000 C CNN
F 2 "" H 1700 6100 50  0001 C CNN
F 3 "" H 1700 6100 50  0001 C CNN
	1    1700 6100
	1    0    0    -1  
$EndComp
Wire Wire Line
	1800 6700 1700 6700
Wire Wire Line
	1700 6700 1700 6100
$Comp
L power:GND #PWR018
U 1 1 600EE405
P 1750 6900
F 0 "#PWR018" H 1750 6650 50  0001 C CNN
F 1 "GND" H 1755 6727 50  0000 C CNN
F 2 "" H 1750 6900 50  0001 C CNN
F 3 "" H 1750 6900 50  0001 C CNN
	1    1750 6900
	1    0    0    -1  
$EndComp
Wire Wire Line
	1750 6900 1750 6600
Wire Wire Line
	1750 6600 1800 6600
Text Label 1500 6400 0    50   ~ 0
RX1
Text Label 1500 6500 0    50   ~ 0
TX1
Wire Wire Line
	1500 6500 1800 6500
Wire Wire Line
	1500 6400 1800 6400
Wire Wire Line
	2600 6500 2850 6500
Wire Wire Line
	2850 6500 2850 6350
Wire Wire Line
	2850 6750 2850 6600
Wire Wire Line
	2850 6600 2600 6600
$Comp
L Device:C C11
U 1 1 601DA68B
P 1150 6450
F 0 "C11" H 1265 6496 50  0000 L CNN
F 1 "104" H 1265 6405 50  0000 L CNN
F 2 "Capacitor_THT:C_Rect_L7.0mm_W3.5mm_P5.00mm" H 1188 6300 50  0001 C CNN
F 3 "~" H 1150 6450 50  0001 C CNN
	1    1150 6450
	1    0    0    -1  
$EndComp
$Comp
L power:+3.3V #PWR011
U 1 1 601E9427
P 1150 6200
F 0 "#PWR011" H 1150 6050 50  0001 C CNN
F 1 "+3.3V" H 1165 6373 50  0000 C CNN
F 2 "" H 1150 6200 50  0001 C CNN
F 3 "" H 1150 6200 50  0001 C CNN
	1    1150 6200
	1    0    0    -1  
$EndComp
$Comp
L power:GND #PWR014
U 1 1 601E989C
P 1150 6700
F 0 "#PWR014" H 1150 6450 50  0001 C CNN
F 1 "GND" H 1155 6527 50  0000 C CNN
F 2 "" H 1150 6700 50  0001 C CNN
F 3 "" H 1150 6700 50  0001 C CNN
	1    1150 6700
	1    0    0    -1  
$EndComp
Wire Wire Line
	1150 6300 1150 6200
Wire Wire Line
	1150 6600 1150 6700
$Comp
L Device:R R13
U 1 1 6012F234
P 3500 6550
F 0 "R13" H 3600 6500 50  0000 L CNN
F 1 "120R" H 3600 6600 50  0000 L CNN
F 2 "Resistor_THT:R_Axial_DIN0207_L6.3mm_D2.5mm_P7.62mm_Horizontal" V 3430 6550 50  0001 C CNN
F 3 "~" H 3500 6550 50  0001 C CNN
	1    3500 6550
	-1   0    0    1   
$EndComp
Wire Wire Line
	3500 6750 3500 6700
Wire Wire Line
	2600 6400 2700 6400
Wire Wire Line
	2700 6400 2700 6250
Wire Wire Line
	3500 6350 3500 6400
Wire Wire Line
	2600 6700 2700 6700
Wire Wire Line
	2700 6700 2700 6850
$Comp
L Connector:Screw_Terminal_01x04 J2
U 1 1 6027AF35
P 4050 6500
F 0 "J2" H 4130 6492 50  0000 L CNN
F 1 "RS485_OUT" H 4130 6401 50  0000 L CNN
F 2 "TerminalBlock:TerminalBlock_bornier-4_P5.08mm" H 4050 6500 50  0001 C CNN
F 3 "~" H 4050 6500 50  0001 C CNN
	1    4050 6500
	1    0    0    -1  
$EndComp
Wire Wire Line
	3850 6400 3850 6250
Wire Wire Line
	3850 6700 3850 6850
Wire Wire Line
	3850 6500 3750 6500
Wire Wire Line
	3750 6500 3750 6350
Wire Wire Line
	3750 6350 3500 6350
Connection ~ 3500 6350
Wire Wire Line
	3850 6600 3750 6600
Wire Wire Line
	3750 6600 3750 6750
Wire Wire Line
	3750 6750 3500 6750
Connection ~ 3500 6750
$Comp
L Device:CP C7
U 1 1 602B0977
P 750 6450
F 0 "C7" H 868 6496 50  0000 L CNN
F 1 "10uF" H 868 6405 50  0000 L CNN
F 2 "Capacitor_THT:C_Radial_D6.3mm_H11.0mm_P2.50mm" H 788 6300 50  0001 C CNN
F 3 "~" H 750 6450 50  0001 C CNN
	1    750  6450
	1    0    0    -1  
$EndComp
$Comp
L power:+3.3V #PWR06
U 1 1 602B1873
P 750 6200
F 0 "#PWR06" H 750 6050 50  0001 C CNN
F 1 "+3.3V" H 765 6373 50  0000 C CNN
F 2 "" H 750 6200 50  0001 C CNN
F 3 "" H 750 6200 50  0001 C CNN
	1    750  6200
	1    0    0    -1  
$EndComp
$Comp
L power:GND #PWR07
U 1 1 602B1BDC
P 750 6700
F 0 "#PWR07" H 750 6450 50  0001 C CNN
F 1 "GND" H 755 6527 50  0000 C CNN
F 2 "" H 750 6700 50  0001 C CNN
F 3 "" H 750 6700 50  0001 C CNN
	1    750  6700
	1    0    0    -1  
$EndComp
Wire Wire Line
	750  6700 750  6600
Wire Wire Line
	750  6300 750  6200
Text Label 1500 6300 0    50   ~ 0
CON
Wire Wire Line
	1500 6300 1800 6300
Wire Notes Line
	4600 5800 4600 7200
Wire Notes Line
	4600 7200 550  7200
Wire Notes Line
	550  7200 550  5800
Wire Notes Line
	550  5800 4600 5800
Text Notes 600  5900 0    50   ~ 0
RSM3485CHT\n
Wire Wire Line
	8700 5250 9050 5250
$Comp
L Device:C C?
U 1 1 605C54DE
P 8700 2400
AR Path="/6018463A/605C54DE" Ref="C?"  Part="1" 
AR Path="/605C54DE" Ref="C?"  Part="1" 
F 0 "C?" H 8815 2446 50  0000 L CNN
F 1 "104" H 8815 2355 50  0000 L CNN
F 2 "Capacitor_THT:C_Rect_L7.0mm_W3.5mm_P5.00mm" H 8738 2250 50  0001 C CNN
F 3 "~" H 8700 2400 50  0001 C CNN
	1    8700 2400
	1    0    0    -1  
$EndComp
$Comp
L power:GND #PWR?
U 1 1 605C54E4
P 8700 2600
AR Path="/6018463A/605C54E4" Ref="#PWR?"  Part="1" 
AR Path="/605C54E4" Ref="#PWR?"  Part="1" 
F 0 "#PWR?" H 8700 2350 50  0001 C CNN
F 1 "GND" H 8705 2427 50  0000 C CNN
F 2 "" H 8700 2600 50  0001 C CNN
F 3 "" H 8700 2600 50  0001 C CNN
	1    8700 2600
	1    0    0    -1  
$EndComp
Wire Wire Line
	8700 2150 8700 2250
Wire Wire Line
	8700 2550 8700 2600
Text Notes 8350 600  0    50   ~ 0
ESP\n
$Comp
L power:GND #PWR?
U 1 1 605C54ED
P 8450 2050
AR Path="/6018463A/605C54ED" Ref="#PWR?"  Part="1" 
AR Path="/605C54ED" Ref="#PWR?"  Part="1" 
F 0 "#PWR?" H 8450 1800 50  0001 C CNN
F 1 "GND" H 8455 1877 50  0000 C CNN
F 2 "" H 8450 2050 50  0001 C CNN
F 3 "" H 8450 2050 50  0001 C CNN
	1    8450 2050
	1    0    0    -1  
$EndComp
Wire Wire Line
	8450 2050 8450 1950
$Comp
L power:GND #PWR?
U 1 1 605C54F4
P 10700 1050
AR Path="/6018463A/605C54F4" Ref="#PWR?"  Part="1" 
AR Path="/605C54F4" Ref="#PWR?"  Part="1" 
F 0 "#PWR?" H 10700 800 50  0001 C CNN
F 1 "GND" H 10705 877 50  0000 C CNN
F 2 "" H 10700 1050 50  0001 C CNN
F 3 "" H 10700 1050 50  0001 C CNN
	1    10700 1050
	1    0    0    -1  
$EndComp
$Comp
L Device:R R?
U 1 1 605C54FA
P 8600 1100
AR Path="/6018463A/605C54FA" Ref="R?"  Part="1" 
AR Path="/605C54FA" Ref="R?"  Part="1" 
F 0 "R?" H 8700 1000 50  0000 L CNN
F 1 "10k" H 8650 1100 50  0000 L CNN
F 2 "Resistor_THT:R_Axial_DIN0207_L6.3mm_D2.5mm_P7.62mm_Horizontal" V 8530 1100 50  0001 C CNN
F 3 "~" H 8600 1100 50  0001 C CNN
	1    8600 1100
	-1   0    0    1   
$EndComp
$Comp
L Device:R R?
U 1 1 605C5500
P 8850 1100
AR Path="/6018463A/605C5500" Ref="R?"  Part="1" 
AR Path="/605C5500" Ref="R?"  Part="1" 
F 0 "R?" H 8950 1000 50  0000 L CNN
F 1 "10k" H 8900 1100 50  0000 L CNN
F 2 "Resistor_THT:R_Axial_DIN0207_L6.3mm_D2.5mm_P7.62mm_Horizontal" V 8780 1100 50  0001 C CNN
F 3 "~" H 8850 1100 50  0001 C CNN
	1    8850 1100
	-1   0    0    1   
$EndComp
$Comp
L power:GND #PWR?
U 1 1 605C5506
P 9500 2750
AR Path="/6018463A/605C5506" Ref="#PWR?"  Part="1" 
AR Path="/605C5506" Ref="#PWR?"  Part="1" 
F 0 "#PWR?" H 9500 2500 50  0001 C CNN
F 1 "GND" H 9505 2577 50  0000 C CNN
F 2 "" H 9500 2750 50  0001 C CNN
F 3 "" H 9500 2750 50  0001 C CNN
	1    9500 2750
	1    0    0    -1  
$EndComp
Wire Wire Line
	9500 2750 9500 2650
$Comp
L power:+3.3V #PWR?
U 1 1 605C550D
P 9500 800
AR Path="/6018463A/605C550D" Ref="#PWR?"  Part="1" 
AR Path="/605C550D" Ref="#PWR?"  Part="1" 
F 0 "#PWR?" H 9500 650 50  0001 C CNN
F 1 "+3.3V" H 9515 973 50  0000 C CNN
F 2 "" H 9500 800 50  0001 C CNN
F 3 "" H 9500 800 50  0001 C CNN
	1    9500 800 
	1    0    0    -1  
$EndComp
Wire Wire Line
	8850 1250 8850 1350
Wire Wire Line
	8850 1350 8900 1350
Wire Wire Line
	8600 1250 8600 1550
Wire Wire Line
	8600 1550 8900 1550
$Comp
L power:+3.3V #PWR?
U 1 1 605C5517
P 8850 800
AR Path="/6018463A/605C5517" Ref="#PWR?"  Part="1" 
AR Path="/605C5517" Ref="#PWR?"  Part="1" 
F 0 "#PWR?" H 8850 650 50  0001 C CNN
F 1 "+3.3V" H 8865 973 50  0000 C CNN
F 2 "" H 8850 800 50  0001 C CNN
F 3 "" H 8850 800 50  0001 C CNN
	1    8850 800 
	1    0    0    -1  
$EndComp
Wire Wire Line
	8850 950  8850 850 
Wire Wire Line
	8600 950  8600 850 
Wire Wire Line
	8600 850  8850 850 
Connection ~ 8850 850 
Wire Wire Line
	8850 850  8850 800 
Wire Wire Line
	9500 800  9500 850 
$Comp
L Regulator_Linear:AMS1117-3.3 U?
U 1 1 605C5523
P 2250 4950
AR Path="/6018463A/605C5523" Ref="U?"  Part="1" 
AR Path="/605C5523" Ref="U?"  Part="1" 
F 0 "U?" H 2250 5192 50  0000 C CNN
F 1 "AMS1117-3.3" H 2250 5101 50  0000 C CNN
F 2 "Package_TO_SOT_SMD:SOT-223-3_TabPin2" H 2250 5150 50  0001 C CNN
F 3 "http://www.advanced-monolithic.com/pdf/ds1117.pdf" H 2350 4700 50  0001 C CNN
	1    2250 4950
	1    0    0    -1  
$EndComp
$Comp
L Device:CP C?
U 1 1 605C5529
P 2700 5200
AR Path="/6018463A/605C5529" Ref="C?"  Part="1" 
AR Path="/605C5529" Ref="C?"  Part="1" 
F 0 "C?" H 2818 5246 50  0000 L CNN
F 1 "10uF" H 2818 5155 50  0000 L CNN
F 2 "Capacitor_THT:C_Radial_D6.3mm_H11.0mm_P2.50mm" H 2738 5050 50  0001 C CNN
F 3 "~" H 2700 5200 50  0001 C CNN
	1    2700 5200
	1    0    0    -1  
$EndComp
$Comp
L power:+5V #PWR?
U 1 1 605C552F
P 750 4900
AR Path="/6018463A/605C552F" Ref="#PWR?"  Part="1" 
AR Path="/605C552F" Ref="#PWR?"  Part="1" 
F 0 "#PWR?" H 750 4750 50  0001 C CNN
F 1 "+5V" H 765 5073 50  0000 C CNN
F 2 "" H 750 4900 50  0001 C CNN
F 3 "" H 750 4900 50  0001 C CNN
	1    750  4900
	1    0    0    -1  
$EndComp
$Comp
L power:+3.3V #PWR?
U 1 1 605C5535
P 2950 4900
AR Path="/6018463A/605C5535" Ref="#PWR?"  Part="1" 
AR Path="/605C5535" Ref="#PWR?"  Part="1" 
F 0 "#PWR?" H 2950 4750 50  0001 C CNN
F 1 "+3.3V" H 2965 5073 50  0000 C CNN
F 2 "" H 2950 4900 50  0001 C CNN
F 3 "" H 2950 4900 50  0001 C CNN
	1    2950 4900
	1    0    0    -1  
$EndComp
Wire Wire Line
	2550 4950 2700 4950
Wire Wire Line
	2950 4950 2950 4900
Wire Wire Line
	2700 5050 2700 4950
Connection ~ 2700 4950
Wire Wire Line
	2700 4950 2950 4950
$Comp
L power:GND #PWR?
U 1 1 605C5540
P 2250 5450
AR Path="/6018463A/605C5540" Ref="#PWR?"  Part="1" 
AR Path="/605C5540" Ref="#PWR?"  Part="1" 
F 0 "#PWR?" H 2250 5200 50  0001 C CNN
F 1 "GND" H 2255 5277 50  0000 C CNN
F 2 "" H 2250 5450 50  0001 C CNN
F 3 "" H 2250 5450 50  0001 C CNN
	1    2250 5450
	1    0    0    -1  
$EndComp
$Comp
L power:GND #PWR?
U 1 1 605C5546
P 2700 5450
AR Path="/6018463A/605C5546" Ref="#PWR?"  Part="1" 
AR Path="/605C5546" Ref="#PWR?"  Part="1" 
F 0 "#PWR?" H 2700 5200 50  0001 C CNN
F 1 "GND" H 2705 5277 50  0000 C CNN
F 2 "" H 2700 5450 50  0001 C CNN
F 3 "" H 2700 5450 50  0001 C CNN
	1    2700 5450
	1    0    0    -1  
$EndComp
Wire Wire Line
	2250 5450 2250 5250
Wire Wire Line
	2700 5450 2700 5350
Wire Wire Line
	750  4950 750  4900
Wire Wire Line
	900  5050 900  4950
Connection ~ 900  4950
Wire Wire Line
	900  4950 750  4950
Wire Wire Line
	1350 5050 1350 4950
Connection ~ 1350 4950
Wire Wire Line
	1350 4950 900  4950
Wire Wire Line
	1750 5050 1750 4950
Wire Wire Line
	1750 4950 1350 4950
$Comp
L power:GND #PWR?
U 1 1 605C5557
P 1750 5450
AR Path="/6018463A/605C5557" Ref="#PWR?"  Part="1" 
AR Path="/605C5557" Ref="#PWR?"  Part="1" 
F 0 "#PWR?" H 1750 5200 50  0001 C CNN
F 1 "GND" H 1755 5277 50  0000 C CNN
F 2 "" H 1750 5450 50  0001 C CNN
F 3 "" H 1750 5450 50  0001 C CNN
	1    1750 5450
	1    0    0    -1  
$EndComp
$Comp
L power:GND #PWR?
U 1 1 605C555D
P 1350 5450
AR Path="/6018463A/605C555D" Ref="#PWR?"  Part="1" 
AR Path="/605C555D" Ref="#PWR?"  Part="1" 
F 0 "#PWR?" H 1350 5200 50  0001 C CNN
F 1 "GND" H 1355 5277 50  0000 C CNN
F 2 "" H 1350 5450 50  0001 C CNN
F 3 "" H 1350 5450 50  0001 C CNN
	1    1350 5450
	1    0    0    -1  
$EndComp
$Comp
L power:GND #PWR?
U 1 1 605C5563
P 900 5450
AR Path="/6018463A/605C5563" Ref="#PWR?"  Part="1" 
AR Path="/605C5563" Ref="#PWR?"  Part="1" 
F 0 "#PWR?" H 900 5200 50  0001 C CNN
F 1 "GND" H 905 5277 50  0000 C CNN
F 2 "" H 900 5450 50  0001 C CNN
F 3 "" H 900 5450 50  0001 C CNN
	1    900  5450
	1    0    0    -1  
$EndComp
Wire Wire Line
	900  5450 900  5350
Wire Wire Line
	1350 5450 1350 5350
Wire Wire Line
	1750 5450 1750 5350
$Comp
L Device:CP C?
U 1 1 605C556C
P 900 5200
AR Path="/6018463A/605C556C" Ref="C?"  Part="1" 
AR Path="/605C556C" Ref="C?"  Part="1" 
F 0 "C?" H 1018 5246 50  0000 L CNN
F 1 "10uF" H 1018 5155 50  0000 L CNN
F 2 "Capacitor_THT:C_Radial_D6.3mm_H11.0mm_P2.50mm" H 938 5050 50  0001 C CNN
F 3 "~" H 900 5200 50  0001 C CNN
	1    900  5200
	1    0    0    -1  
$EndComp
$Comp
L Device:CP C?
U 1 1 605C5572
P 1350 5200
AR Path="/6018463A/605C5572" Ref="C?"  Part="1" 
AR Path="/605C5572" Ref="C?"  Part="1" 
F 0 "C?" H 1468 5246 50  0000 L CNN
F 1 "1uF" H 1468 5155 50  0000 L CNN
F 2 "Capacitor_THT:C_Radial_D6.3mm_H11.0mm_P2.50mm" H 1388 5050 50  0001 C CNN
F 3 "~" H 1350 5200 50  0001 C CNN
	1    1350 5200
	1    0    0    -1  
$EndComp
$Comp
L Device:C C?
U 1 1 605C5578
P 1750 5200
AR Path="/6018463A/605C5578" Ref="C?"  Part="1" 
AR Path="/605C5578" Ref="C?"  Part="1" 
F 0 "C?" H 1865 5246 50  0000 L CNN
F 1 "104" H 1865 5155 50  0000 L CNN
F 2 "Capacitor_THT:C_Rect_L7.0mm_W3.5mm_P5.00mm" H 1788 5050 50  0001 C CNN
F 3 "~" H 1750 5200 50  0001 C CNN
	1    1750 5200
	1    0    0    -1  
$EndComp
Wire Wire Line
	1950 4950 1750 4950
Connection ~ 1750 4950
$Comp
L Switch:SW_Push SW?
U 1 1 605C5580
P 8450 1750
AR Path="/6018463A/605C5580" Ref="SW?"  Part="1" 
AR Path="/605C5580" Ref="SW?"  Part="1" 
F 0 "SW?" V 8496 1702 50  0000 R CNN
F 1 "RST" V 8405 1702 50  0000 R CNN
F 2 "Button_Switch_THT:SW_PUSH_6mm" H 8450 1950 50  0001 C CNN
F 3 "~" H 8450 1950 50  0001 C CNN
	1    8450 1750
	0    -1   -1   0   
$EndComp
$Comp
L Device:R R?
U 1 1 605C5589
P 10400 2350
AR Path="/6018463A/605C5589" Ref="R?"  Part="1" 
AR Path="/605C5589" Ref="R?"  Part="1" 
F 0 "R?" V 10350 2100 50  0000 L CNN
F 1 "10k" V 10400 2300 50  0000 L CNN
F 2 "Resistor_THT:R_Axial_DIN0207_L6.3mm_D2.5mm_P7.62mm_Horizontal" V 10330 2350 50  0001 C CNN
F 3 "~" H 10400 2350 50  0001 C CNN
	1    10400 2350
	0    1    1    0   
$EndComp
$Comp
L power:GND #PWR?
U 1 1 605C558F
P 10950 2500
AR Path="/6018463A/605C558F" Ref="#PWR?"  Part="1" 
AR Path="/605C558F" Ref="#PWR?"  Part="1" 
F 0 "#PWR?" H 10950 2250 50  0001 C CNN
F 1 "GND" H 10955 2327 50  0000 C CNN
F 2 "" H 10950 2500 50  0001 C CNN
F 3 "" H 10950 2500 50  0001 C CNN
	1    10950 2500
	1    0    0    -1  
$EndComp
$Comp
L Device:LED D?
U 1 1 605C5595
P 10750 2350
AR Path="/6018463A/605C5595" Ref="D?"  Part="1" 
AR Path="/605C5595" Ref="D?"  Part="1" 
F 0 "D?" H 10950 2300 50  0000 R CNN
F 1 "LED" H 10800 2450 50  0000 R CNN
F 2 "LED_THT:LED_D5.0mm" H 10750 2350 50  0001 C CNN
F 3 "~" H 10750 2350 50  0001 C CNN
	1    10750 2350
	-1   0    0    1   
$EndComp
Wire Wire Line
	10600 2350 10550 2350
Wire Wire Line
	10350 1450 10100 1450
Wire Wire Line
	10350 1650 10100 1650
$Comp
L Device:R R?
U 1 1 605C559E
P 10300 1100
AR Path="/6018463A/605C559E" Ref="R?"  Part="1" 
AR Path="/605C559E" Ref="R?"  Part="1" 
F 0 "R?" H 10400 1000 50  0000 L CNN
F 1 "10k" H 10350 1100 50  0000 L CNN
F 2 "Resistor_THT:R_Axial_DIN0207_L6.3mm_D2.5mm_P7.62mm_Horizontal" V 10230 1100 50  0001 C CNN
F 3 "~" H 10300 1100 50  0001 C CNN
	1    10300 1100
	-1   0    0    1   
$EndComp
Wire Wire Line
	10100 1350 10300 1350
Wire Wire Line
	10300 1350 10300 1250
Wire Wire Line
	10300 950  10300 850 
Wire Wire Line
	10300 850  9500 850 
Connection ~ 9500 850 
Wire Wire Line
	9500 850  9500 1150
$Comp
L Device:R R?
U 1 1 605C55AA
P 10400 2250
AR Path="/6018463A/605C55AA" Ref="R?"  Part="1" 
AR Path="/605C55AA" Ref="R?"  Part="1" 
F 0 "R?" V 10350 2000 50  0000 L CNN
F 1 "10k" V 10400 2200 50  0000 L CNN
F 2 "Resistor_THT:R_Axial_DIN0207_L6.3mm_D2.5mm_P7.62mm_Horizontal" V 10330 2250 50  0001 C CNN
F 3 "~" H 10400 2250 50  0001 C CNN
	1    10400 2250
	0    1    1    0   
$EndComp
$Comp
L power:GND #PWR?
U 1 1 605C55B0
P 11100 2500
AR Path="/6018463A/605C55B0" Ref="#PWR?"  Part="1" 
AR Path="/605C55B0" Ref="#PWR?"  Part="1" 
F 0 "#PWR?" H 11100 2250 50  0001 C CNN
F 1 "GND" H 11105 2327 50  0000 C CNN
F 2 "" H 11100 2500 50  0001 C CNN
F 3 "" H 11100 2500 50  0001 C CNN
	1    11100 2500
	1    0    0    -1  
$EndComp
$Comp
L Switch:SW_Push SW?
U 1 1 605C55B6
P 10900 1600
AR Path="/6018463A/605C55B6" Ref="SW?"  Part="1" 
AR Path="/605C55B6" Ref="SW?"  Part="1" 
F 0 "SW?" V 10946 1552 50  0000 R CNN
F 1 "PG" V 10855 1552 50  0000 R CNN
F 2 "Button_Switch_THT:SW_PUSH_6mm" H 10900 1800 50  0001 C CNN
F 3 "~" H 10900 1800 50  0001 C CNN
	1    10900 1600
	0    1    1    0   
$EndComp
Wire Wire Line
	10900 1350 10900 1400
$Comp
L power:GND #PWR?
U 1 1 605C55BD
P 10900 1900
AR Path="/6018463A/605C55BD" Ref="#PWR?"  Part="1" 
AR Path="/605C55BD" Ref="#PWR?"  Part="1" 
F 0 "#PWR?" H 10900 1650 50  0001 C CNN
F 1 "GND" H 10905 1727 50  0000 C CNN
F 2 "" H 10900 1900 50  0001 C CNN
F 3 "" H 10900 1900 50  0001 C CNN
	1    10900 1900
	1    0    0    -1  
$EndComp
Wire Wire Line
	10900 1900 10900 1800
Wire Wire Line
	10950 2500 10950 2350
Wire Wire Line
	10950 2350 10900 2350
Wire Wire Line
	11100 2500 11100 2250
Wire Wire Line
	10550 2250 11100 2250
Wire Wire Line
	10250 2250 10100 2250
Wire Wire Line
	10250 2350 10100 2350
Wire Wire Line
	10550 800  10800 800 
Wire Wire Line
	10550 900  10800 900 
Wire Wire Line
	10800 1000 10700 1000
Wire Wire Line
	10700 1000 10700 1050
$Comp
L Connector_Generic:Conn_01x04 J?
U 1 1 605C55CF
P 10900 3450
AR Path="/6018463A/605C55CF" Ref="J?"  Part="1" 
AR Path="/605C55CF" Ref="J?"  Part="1" 
F 0 "J?" H 10980 3442 50  0000 L CNN
F 1 "TFT" H 10980 3351 50  0000 L CNN
F 2 "Connector_PinHeader_2.54mm:PinHeader_1x04_P2.54mm_Vertical" H 10900 3450 50  0001 C CNN
F 3 "~" H 10900 3450 50  0001 C CNN
	1    10900 3450
	1    0    0    -1  
$EndComp
$Comp
L My_Lib_KiCAD:ESP12E_My U?
U 1 1 605C55D5
P 9500 1850
AR Path="/6018463A/605C55D5" Ref="U?"  Part="1" 
AR Path="/605C55D5" Ref="U?"  Part="1" 
F 0 "U?" H 9150 2650 50  0000 C CNN
F 1 "ESP12E_My" H 9250 2550 50  0000 C CNN
F 2 "RF_Module:ESP-12E" H 9050 2650 50  0001 C CNN
F 3 "" H 10500 1050 50  0001 C CNN
	1    9500 1850
	1    0    0    -1  
$EndComp
$Comp
L power:+3.3V #PWR?
U 1 1 605C55DB
P 8700 2150
AR Path="/6018463A/605C55DB" Ref="#PWR?"  Part="1" 
AR Path="/605C55DB" Ref="#PWR?"  Part="1" 
F 0 "#PWR?" H 8700 2000 50  0001 C CNN
F 1 "+3.3V" H 8715 2323 50  0000 C CNN
F 2 "" H 8700 2150 50  0001 C CNN
F 3 "" H 8700 2150 50  0001 C CNN
	1    8700 2150
	1    0    0    -1  
$EndComp
$Comp
L Connector_Generic:Conn_01x03 J?
U 1 1 605C55E1
P 11000 900
AR Path="/6018463A/605C55E1" Ref="J?"  Part="1" 
AR Path="/605C55E1" Ref="J?"  Part="1" 
F 0 "J?" H 10900 600 50  0000 L CNN
F 1 "Program" H 10800 700 50  0000 L CNN
F 2 "Connector_PinHeader_2.54mm:PinHeader_1x03_P2.54mm_Vertical" H 11000 900 50  0001 C CNN
F 3 "~" H 11000 900 50  0001 C CNN
	1    11000 900 
	1    0    0    1   
$EndComp
$Comp
L power:+5VA #PWR?
U 1 1 605C55E7
P 10300 3300
AR Path="/6018463A/605C55E7" Ref="#PWR?"  Part="1" 
AR Path="/605C55E7" Ref="#PWR?"  Part="1" 
F 0 "#PWR?" H 10300 3150 50  0001 C CNN
F 1 "+5VA" H 10315 3473 50  0000 C CNN
F 2 "" H 10300 3300 50  0001 C CNN
F 3 "" H 10300 3300 50  0001 C CNN
	1    10300 3300
	1    0    0    -1  
$EndComp
$Comp
L Isolator:PC817 U?
U 1 1 605C55ED
P 9450 4100
AR Path="/6018463A/605C55ED" Ref="U?"  Part="1" 
AR Path="/605C55ED" Ref="U?"  Part="1" 
F 0 "U?" H 9450 4425 50  0000 C CNN
F 1 "PC817" H 9450 4334 50  0000 C CNN
F 2 "Package_DIP:DIP-4_W7.62mm" H 9250 3900 50  0001 L CIN
F 3 "http://www.soselectronic.cz/a_info/resource/d/pc817.pdf" H 9450 4100 50  0001 L CNN
	1    9450 4100
	1    0    0    -1  
$EndComp
$Comp
L Device:R R?
U 1 1 605C55F3
P 9050 3550
AR Path="/6018463A/605C55F3" Ref="R?"  Part="1" 
AR Path="/605C55F3" Ref="R?"  Part="1" 
F 0 "R?" H 9150 3450 50  0000 L CNN
F 1 "470R" H 9100 3550 50  0000 L CNN
F 2 "Resistor_THT:R_Axial_DIN0207_L6.3mm_D2.5mm_P7.62mm_Horizontal" V 8980 3550 50  0001 C CNN
F 3 "~" H 9050 3550 50  0001 C CNN
	1    9050 3550
	-1   0    0    1   
$EndComp
Wire Wire Line
	9150 4000 9050 4000
$Comp
L power:+3.3V #PWR?
U 1 1 605C55FA
P 9050 3300
AR Path="/6018463A/605C55FA" Ref="#PWR?"  Part="1" 
AR Path="/605C55FA" Ref="#PWR?"  Part="1" 
F 0 "#PWR?" H 9050 3150 50  0001 C CNN
F 1 "+3.3V" H 9065 3473 50  0000 C CNN
F 2 "" H 9050 3300 50  0001 C CNN
F 3 "" H 9050 3300 50  0001 C CNN
	1    9050 3300
	1    0    0    -1  
$EndComp
Wire Wire Line
	9050 3400 9050 3300
$Comp
L power:GNDA #PWR?
U 1 1 605C5601
P 9850 4350
AR Path="/6018463A/605C5601" Ref="#PWR?"  Part="1" 
AR Path="/605C5601" Ref="#PWR?"  Part="1" 
F 0 "#PWR?" H 9850 4100 50  0001 C CNN
F 1 "GNDA" H 9855 4177 50  0000 C CNN
F 2 "" H 9850 4350 50  0001 C CNN
F 3 "" H 9850 4350 50  0001 C CNN
	1    9850 4350
	1    0    0    -1  
$EndComp
Wire Wire Line
	9750 4200 9850 4200
Wire Wire Line
	9850 4200 9850 4350
$Comp
L Device:R R?
U 1 1 605C5609
P 10000 3550
AR Path="/6018463A/605C5609" Ref="R?"  Part="1" 
AR Path="/605C5609" Ref="R?"  Part="1" 
F 0 "R?" H 10100 3450 50  0000 L CNN
F 1 "1k" H 10050 3550 50  0000 L CNN
F 2 "Resistor_THT:R_Axial_DIN0207_L6.3mm_D2.5mm_P7.62mm_Horizontal" V 9930 3550 50  0001 C CNN
F 3 "~" H 10000 3550 50  0001 C CNN
	1    10000 3550
	-1   0    0    1   
$EndComp
$Comp
L power:+5VA #PWR?
U 1 1 605C560F
P 10000 3300
AR Path="/6018463A/605C560F" Ref="#PWR?"  Part="1" 
AR Path="/605C560F" Ref="#PWR?"  Part="1" 
F 0 "#PWR?" H 10000 3150 50  0001 C CNN
F 1 "+5VA" H 10015 3473 50  0000 C CNN
F 2 "" H 10000 3300 50  0001 C CNN
F 3 "" H 10000 3300 50  0001 C CNN
	1    10000 3300
	1    0    0    -1  
$EndComp
Wire Wire Line
	10000 3300 10000 3400
Wire Wire Line
	9750 4000 10000 4000
Text Label 10300 4000 2    50   ~ 0
RX_TFT
Wire Wire Line
	10000 3700 10000 4000
Wire Wire Line
	9050 3700 9050 4000
Wire Wire Line
	10300 4000 10000 4000
Connection ~ 10000 4000
Text Label 10400 3350 0    50   ~ 0
RX_TFT
Wire Wire Line
	10400 3350 10700 3350
$Comp
L power:GNDA #PWR?
U 1 1 605C561E
P 10600 3700
AR Path="/6018463A/605C561E" Ref="#PWR?"  Part="1" 
AR Path="/605C561E" Ref="#PWR?"  Part="1" 
F 0 "#PWR?" H 10600 3450 50  0001 C CNN
F 1 "GNDA" H 10605 3527 50  0000 C CNN
F 2 "" H 10600 3700 50  0001 C CNN
F 3 "" H 10600 3700 50  0001 C CNN
	1    10600 3700
	1    0    0    -1  
$EndComp
Wire Notes Line
	11150 3050 11150 4600
Wire Notes Line
	8550 4600 8550 3050
Text HLabel 10350 1650 2    50   Input ~ 0
RX1
Text HLabel 10350 1450 2    50   Input ~ 0
TX1
Wire Notes Line
	8550 3050 11150 3050
Wire Notes Line
	8550 4600 11150 4600
Text HLabel 10550 800  0    50   Input ~ 0
RX1
Text HLabel 10550 900  0    50   Input ~ 0
TX1
$Comp
L Connector:Screw_Terminal_01x02 J?
U 1 1 605C5636
P 700 3900
AR Path="/6018463A/605C5636" Ref="J?"  Part="1" 
AR Path="/605C5636" Ref="J?"  Part="1" 
F 0 "J?" H 750 3600 50  0000 C CNN
F 1 "DC_INPUT" H 650 3700 50  0000 C CNN
F 2 "TerminalBlock:TerminalBlock_bornier-2_P5.08mm" H 700 3900 50  0001 C CNN
F 3 "~" H 700 3900 50  0001 C CNN
	1    700  3900
	-1   0    0    1   
$EndComp
Wire Wire Line
	950  4300 950  3900
Wire Wire Line
	950  3900 900  3900
Wire Wire Line
	10300 1350 10900 1350
Connection ~ 10300 1350
$Comp
L Regulator_Linear:LM7812_TO220 U?
U 1 1 605C5645
P 2250 3800
AR Path="/6018463A/605C5645" Ref="U?"  Part="1" 
AR Path="/605C5645" Ref="U?"  Part="1" 
F 0 "U?" H 2250 4042 50  0000 C CNN
F 1 "LM7812_TO220" H 2250 3951 50  0000 C CNN
F 2 "Package_TO_SOT_THT:TO-220-3_Vertical" H 2250 4025 50  0001 C CIN
F 3 "https://www.onsemi.cn/PowerSolutions/document/MC7800-D.PDF" H 2250 3750 50  0001 C CNN
	1    2250 3800
	1    0    0    -1  
$EndComp
Text Notes 600  600  0    50   ~ 0
Power Supply
$Comp
L Device:CP C?
U 1 1 605C564C
P 2900 4100
AR Path="/6018463A/605C564C" Ref="C?"  Part="1" 
AR Path="/605C564C" Ref="C?"  Part="1" 
F 0 "C?" H 3018 4146 50  0000 L CNN
F 1 "470uF" H 3018 4055 50  0000 L CNN
F 2 "Capacitor_THT:C_Radial_D10.0mm_H12.5mm_P5.00mm" H 2938 3950 50  0001 C CNN
F 3 "~" H 2900 4100 50  0001 C CNN
	1    2900 4100
	1    0    0    -1  
$EndComp
$Comp
L Device:CP C?
U 1 1 605C5652
P 1600 4100
AR Path="/6018463A/605C5652" Ref="C?"  Part="1" 
AR Path="/605C5652" Ref="C?"  Part="1" 
F 0 "C?" H 1350 4150 50  0000 L CNN
F 1 "220uF" H 1250 4050 50  0000 L CNN
F 2 "Capacitor_THT:CP_Radial_D8.0mm_P3.50mm" H 1638 3950 50  0001 C CNN
F 3 "~" H 1600 4100 50  0001 C CNN
	1    1600 4100
	1    0    0    -1  
$EndComp
$Comp
L Device:C C?
U 1 1 605C5658
P 3400 4100
AR Path="/6018463A/605C5658" Ref="C?"  Part="1" 
AR Path="/605C5658" Ref="C?"  Part="1" 
F 0 "C?" H 3515 4146 50  0000 L CNN
F 1 "104" H 3515 4055 50  0000 L CNN
F 2 "Capacitor_THT:C_Rect_L7.0mm_W3.5mm_P5.00mm" H 3438 3950 50  0001 C CNN
F 3 "~" H 3400 4100 50  0001 C CNN
	1    3400 4100
	1    0    0    -1  
$EndComp
Wire Wire Line
	1950 3800 1600 3800
Wire Wire Line
	1600 3950 1600 3800
Connection ~ 1600 3800
Wire Wire Line
	1600 3800 900  3800
Wire Wire Line
	1600 4300 1600 4250
$Comp
L power:+12VA #PWR?
U 1 1 605C5663
P 3700 3750
AR Path="/6018463A/605C5663" Ref="#PWR?"  Part="1" 
AR Path="/605C5663" Ref="#PWR?"  Part="1" 
F 0 "#PWR?" H 3700 3600 50  0001 C CNN
F 1 "+12VA" H 3715 3923 50  0000 C CNN
F 2 "" H 3700 3750 50  0001 C CNN
F 3 "" H 3700 3750 50  0001 C CNN
	1    3700 3750
	1    0    0    -1  
$EndComp
Wire Wire Line
	2550 3800 2900 3800
Wire Wire Line
	3700 3800 3700 3750
Wire Wire Line
	2900 3950 2900 3800
Connection ~ 2900 3800
Wire Wire Line
	2900 3800 3400 3800
Wire Wire Line
	3400 3950 3400 3800
Connection ~ 3400 3800
Wire Wire Line
	3400 3800 3700 3800
Wire Wire Line
	2250 4300 2250 4100
Wire Wire Line
	2900 4300 2900 4250
Wire Wire Line
	3400 4300 3400 4250
$Comp
L power:GNDA #PWR?
U 1 1 605C5674
P 950 4300
AR Path="/6018463A/605C5674" Ref="#PWR?"  Part="1" 
AR Path="/605C5674" Ref="#PWR?"  Part="1" 
F 0 "#PWR?" H 950 4050 50  0001 C CNN
F 1 "GNDA" H 955 4127 50  0000 C CNN
F 2 "" H 950 4300 50  0001 C CNN
F 3 "" H 950 4300 50  0001 C CNN
	1    950  4300
	1    0    0    -1  
$EndComp
$Comp
L power:GNDA #PWR?
U 1 1 605C567A
P 1600 4300
AR Path="/6018463A/605C567A" Ref="#PWR?"  Part="1" 
AR Path="/605C567A" Ref="#PWR?"  Part="1" 
F 0 "#PWR?" H 1600 4050 50  0001 C CNN
F 1 "GNDA" H 1605 4127 50  0000 C CNN
F 2 "" H 1600 4300 50  0001 C CNN
F 3 "" H 1600 4300 50  0001 C CNN
	1    1600 4300
	1    0    0    -1  
$EndComp
$Comp
L power:GNDA #PWR?
U 1 1 605C5680
P 2250 4300
AR Path="/6018463A/605C5680" Ref="#PWR?"  Part="1" 
AR Path="/605C5680" Ref="#PWR?"  Part="1" 
F 0 "#PWR?" H 2250 4050 50  0001 C CNN
F 1 "GNDA" H 2255 4127 50  0000 C CNN
F 2 "" H 2250 4300 50  0001 C CNN
F 3 "" H 2250 4300 50  0001 C CNN
	1    2250 4300
	1    0    0    -1  
$EndComp
$Comp
L power:GNDA #PWR?
U 1 1 605C5686
P 2900 4300
AR Path="/6018463A/605C5686" Ref="#PWR?"  Part="1" 
AR Path="/605C5686" Ref="#PWR?"  Part="1" 
F 0 "#PWR?" H 2900 4050 50  0001 C CNN
F 1 "GNDA" H 2905 4127 50  0000 C CNN
F 2 "" H 2900 4300 50  0001 C CNN
F 3 "" H 2900 4300 50  0001 C CNN
	1    2900 4300
	1    0    0    -1  
$EndComp
$Comp
L power:GNDA #PWR?
U 1 1 605C568C
P 3400 4300
AR Path="/6018463A/605C568C" Ref="#PWR?"  Part="1" 
AR Path="/605C568C" Ref="#PWR?"  Part="1" 
F 0 "#PWR?" H 3400 4050 50  0001 C CNN
F 1 "GNDA" H 3405 4127 50  0000 C CNN
F 2 "" H 3400 4300 50  0001 C CNN
F 3 "" H 3400 4300 50  0001 C CNN
	1    3400 4300
	1    0    0    -1  
$EndComp
Wire Wire Line
	10700 3550 10600 3550
Wire Wire Line
	10600 3550 10600 3700
Wire Wire Line
	10700 3650 10300 3650
Wire Wire Line
	10300 3650 10300 3300
Wire Notes Line
	4350 5700 550  5700
Wire Notes Line
	550  500  550  5700
Wire Notes Line
	4350 500  4350 5700
Wire Wire Line
	8450 1550 8450 1350
Wire Wire Line
	8450 1350 8850 1350
Connection ~ 8850 1350
Wire Notes Line
	11150 3000 8300 3000
Wire Notes Line
	8300 3000 8300 500 
Wire Notes Line
	11150 3000 11150 500 
Wire Notes Line
	8300 500  11150 500 
Wire Notes Line
	4400 3800 4400 500 
Text Notes 4450 600  0    50   ~ 0
A9\n
Wire Notes Line
	8250 3800 8250 500 
Wire Notes Line
	4400 3800 8250 3800
Wire Notes Line
	4400 500  8250 500 
Wire Notes Line
	7550 3950 7550 6300
Wire Notes Line
	7550 6300 4650 6300
Wire Notes Line
	4650 6300 4650 3950
Wire Notes Line
	4650 3950 7550 3950
Text Notes 4650 4150 0    50   ~ 0
TRIAC OUTPUTS\n\n
Wire Wire Line
	10350 5900 10350 5850
Wire Wire Line
	10100 5450 10350 5450
Wire Wire Line
	10350 5450 10350 5500
Wire Wire Line
	10700 5850 10350 5850
Connection ~ 10350 5850
Wire Wire Line
	10350 5850 10350 5800
Wire Notes Line
	10750 4800 10750 6450
Wire Notes Line
	10750 6450 8350 6450
Wire Notes Line
	8350 6450 8350 4800
Wire Notes Line
	8350 4800 10750 4800
Text Notes 8350 5050 0    50   ~ 0
DI INPUT\n\n\n
Text Notes 8600 3250 0    50   ~ 0
TFT\n\n
Text Label 10550 1850 2    50   ~ 0
CON
Wire Wire Line
	10100 1850 10550 1850
Text Label 10550 1750 2    50   ~ 0
IO0
Wire Wire Line
	10550 1750 10100 1750
$Comp
L Connector_Generic:Conn_02x02_Counter_Clockwise J?
U 1 1 609F195F
P 7800 3050
F 0 "J?" V 7800 3250 50  0000 L CNN
F 1 "2x2 Pin Header" H 7550 3200 50  0000 L CNN
F 2 "" H 7800 3050 50  0001 C CNN
F 3 "~" H 7800 3050 50  0001 C CNN
	1    7800 3050
	0    1    1    0   
$EndComp
Text Label 8700 4200 0    50   ~ 0
STX_TFT
Wire Wire Line
	8700 4200 9150 4200
Text Label 10550 2150 2    50   ~ 0
TRIAC_1
Wire Wire Line
	10100 2150 10550 2150
Text Label 10550 1950 2    50   ~ 0
TRIAC_2
Wire Wire Line
	10100 1950 10550 1950
Text HLabel 7700 3550 3    50   Input ~ 0
TX1
Text HLabel 7800 3550 3    50   Input ~ 0
RX1
Wire Wire Line
	7700 3550 7700 3350
Wire Wire Line
	7800 3550 7800 3350
Text Label 8050 2700 2    50   ~ 0
TX1
Text Label 8050 2600 2    50   ~ 0
RX1
Wire Wire Line
	8050 2700 7800 2700
Wire Wire Line
	7800 2700 7800 2850
Wire Wire Line
	8050 2600 7700 2600
Wire Wire Line
	7700 2600 7700 2850
Text Label 7800 1100 2    50   ~ 0
CON
Wire Wire Line
	7800 1100 7400 1100
$Comp
L Connector_Generic:Conn_01x04 J?
U 1 1 60AE1704
P 7450 3300
F 0 "J?" H 7350 3600 50  0000 L CNN
F 1 "Conn_01x04" H 7150 3500 50  0000 L CNN
F 2 "" H 7450 3300 50  0001 C CNN
F 3 "~" H 7450 3300 50  0001 C CNN
	1    7450 3300
	1    0    0    -1  
$EndComp
$Comp
L Connector_Generic:Conn_01x03 J?
U 1 1 60AE35D0
P 5100 7350
F 0 "J?" H 5180 7392 50  0000 L CNN
F 1 "TEMP1" H 5180 7301 50  0000 L CNN
F 2 "" H 5100 7350 50  0001 C CNN
F 3 "~" H 5100 7350 50  0001 C CNN
	1    5100 7350
	1    0    0    -1  
$EndComp
$Comp
L Connector_Generic:Conn_01x03 J?
U 1 1 60AE506C
P 5900 7350
F 0 "J?" H 5980 7392 50  0000 L CNN
F 1 "TEMP2" H 5980 7301 50  0000 L CNN
F 2 "" H 5900 7350 50  0001 C CNN
F 3 "~" H 5900 7350 50  0001 C CNN
	1    5900 7350
	1    0    0    -1  
$EndComp
Text Label 4550 7350 0    50   ~ 0
TEMP1
Wire Wire Line
	4550 7350 4900 7350
$Comp
L power:+3.3V #PWR?
U 1 1 60AFCC34
P 4800 7200
F 0 "#PWR?" H 4800 7050 50  0001 C CNN
F 1 "+3.3V" H 4815 7373 50  0000 C CNN
F 2 "" H 4800 7200 50  0001 C CNN
F 3 "" H 4800 7200 50  0001 C CNN
	1    4800 7200
	1    0    0    -1  
$EndComp
Wire Wire Line
	4900 7250 4800 7250
Wire Wire Line
	4800 7250 4800 7200
$Comp
L power:+3.3V #PWR?
U 1 1 60B14DA7
P 5600 7200
F 0 "#PWR?" H 5600 7050 50  0001 C CNN
F 1 "+3.3V" H 5615 7373 50  0000 C CNN
F 2 "" H 5600 7200 50  0001 C CNN
F 3 "" H 5600 7200 50  0001 C CNN
	1    5600 7200
	1    0    0    -1  
$EndComp
Wire Wire Line
	5600 7200 5600 7250
Wire Wire Line
	5600 7250 5700 7250
$Comp
L power:GND #PWR?
U 1 1 60B2D07F
P 4800 7500
AR Path="/6018463A/60B2D07F" Ref="#PWR?"  Part="1" 
AR Path="/60B2D07F" Ref="#PWR?"  Part="1" 
F 0 "#PWR?" H 4800 7250 50  0001 C CNN
F 1 "GND" H 4805 7327 50  0000 C CNN
F 2 "" H 4800 7500 50  0001 C CNN
F 3 "" H 4800 7500 50  0001 C CNN
	1    4800 7500
	1    0    0    -1  
$EndComp
Wire Wire Line
	4900 7450 4800 7450
Wire Wire Line
	4800 7450 4800 7500
Text Label 5450 7350 0    50   ~ 0
TEMP2
Wire Wire Line
	5450 7350 5700 7350
$Comp
L power:GND #PWR?
U 1 1 60B9113F
P 5600 7500
AR Path="/6018463A/60B9113F" Ref="#PWR?"  Part="1" 
AR Path="/60B9113F" Ref="#PWR?"  Part="1" 
F 0 "#PWR?" H 5600 7250 50  0001 C CNN
F 1 "GND" H 5605 7327 50  0000 C CNN
F 2 "" H 5600 7500 50  0001 C CNN
F 3 "" H 5600 7500 50  0001 C CNN
	1    5600 7500
	1    0    0    -1  
$EndComp
Wire Wire Line
	5600 7500 5600 7450
Wire Wire Line
	5600 7450 5700 7450
Wire Wire Line
	2700 6250 3850 6250
Wire Wire Line
	2850 6750 3500 6750
Wire Wire Line
	2700 6850 3850 6850
Wire Wire Line
	2850 6350 3500 6350
$EndSCHEMATC
