Ref,Val,Package,PosX,PosY,Rot,Side
"C1","10uF","C_0805_2012Metric",156.855200,-98.044000,0.000000,top
"C2","10uF","C_0805_2012Metric",196.621400,-90.704200,270.000000,top
"C3","104","C_0603_1608Metric",156.680200,-100.177600,0.000000,top
"C4","100uF","CP_Elec_10x10.5",187.766000,-119.389000,270.000000,top
"C5","10uF","C_0805_2012Metric",228.269800,-101.193600,180.000000,top
"C6","4.7uF","C_0603_1608Metric",194.640200,-90.529200,270.000000,top
"C7","104","C_0603_1608Metric",186.991000,-111.032700,180.000000,top
"C8","104","C_0603_1608Metric",192.836800,-90.529200,270.000000,top
"C9","22uF","C_0805_2012Metric",200.660000,-90.704200,270.000000,top
"C10","1uF","C_0603_1608Metric",198.577200,-90.529200,270.000000,top
"C11","22uF","C_0805_2012Metric",231.927400,-120.904000,0.000000,top
"C12","104","C_0603_1608Metric",188.087000,-87.706200,0.000000,top
"C13","104","C_0603_1608Metric",209.099200,-105.638600,270.000000,top
"C14","1000uF","CP_Elec_12.5x13.5",217.627200,-110.263600,270.000000,top
"C15","22pF","C_0402_1005Metric",183.616600,-90.234200,270.000000,top
"C16","104","C_0603_1608Metric",218.998800,-65.646000,90.000000,top
"C17","104","C_0603_1608Metric",127.190200,-96.672400,180.000000,top
"C18","22uF","C_0805_2012Metric",181.965600,-90.704200,270.000000,top
"C19","104","C_0603_1608Metric",105.473000,-61.849000,0.000000,top
"C20","22uF","C_0805_2012Metric",179.730400,-90.704200,270.000000,top
"C21","104","C_0603_1608Metric",101.994000,-61.849000,0.000000,top
"C22","104","C_0603_1608Metric",177.622200,-90.529200,270.000000,top
"C23","104","C_0603_1608Metric",193.039133,-54.914800,270.000000,top
"C24","104","C_0603_1608Metric",169.865000,-50.395400,0.000000,top
"C25","104","C_0603_1608Metric",86.405720,-54.025800,180.000000,top
"C26","104","C_0603_1608Metric",169.865000,-38.555400,0.000000,top
"C27","10nF/100V","C_0402_1005Metric",154.076400,-47.253400,90.000000,top
"C28","10nF/100V","C_0402_1005Metric",154.076400,-41.443400,270.000000,top
"C29","10nF/100V","C_0402_1005Metric",154.076400,-44.348400,90.000000,top
"C30","10nF/100V","C_0402_1005Metric",150.672800,-48.775400,90.000000,top
"C31","104","C_0603_1608Metric",220.370400,-84.429600,90.000000,top
"C32","10nF/100V","C_0402_1005Metric",150.672800,-40.083800,270.000000,top
"C33","104","C_0603_1608Metric",225.538600,-94.996000,0.000000,top
"C34","10uF","C_0805_2012Metric",183.973000,-52.451000,0.000000,top
"C35","10uF","C_0805_2012Metric",178.539400,-54.121828,180.000000,top
"C36","104","C_0603_1608Metric",183.798000,-54.426371,0.000000,top
"C37","104","C_0603_1608Metric",178.714400,-56.050142,180.000000,top
"C38","104","C_0603_1608Metric",174.879000,-56.659742,180.000000,top
"C39","104","C_0603_1608Metric",194.832266,-54.914800,270.000000,top
"C40","10uF","C_0805_2012Metric",196.875400,-50.393600,90.000000,top
"C41","104","C_0603_1608Metric",184.327800,-66.700400,0.000000,top
"C42","20pF","C_0402_1005Metric",169.799000,-57.912000,180.000000,top
"C43","20pF","C_0402_1005Metric",169.824400,-63.728600,180.000000,top
"C44","10uF","C_0805_2012Metric",184.502800,-68.630800,0.000000,top
"C45","104","C_0603_1608Metric",94.691200,-76.377800,180.000000,top
"C46","104","C_0603_1608Metric",105.422000,-78.079600,180.000000,top
"C47","22pF","C_0402_1005Metric",96.621600,-80.010000,180.000000,top
"C48","22pF","C_0402_1005Metric",100.482400,-80.010000,180.000000,top
"C49","104","C_0603_1608Metric",79.334360,-54.025800,180.000000,top
"C50","104","C_0603_1608Metric",72.263000,-54.025800,180.000000,top
"D1","Green","LED_0603_1608Metric",229.184200,-103.886000,90.000000,top
"D2","Red","LED_0603_1608Metric",227.457000,-103.886000,90.000000,top
"D3","SS56","D_SMA",199.066400,-114.303500,0.000000,top
"D4","BAT60A","D_SOD-323",206.743400,-94.361000,270.000000,top
"D5","SS56","D_SMA",192.532000,-107.611400,270.000000,top
"D6","SLVU2.8-4","SOIC-8_3.9x4.9mm_P1.27mm",172.085000,-44.475400,180.000000,top
"D7","ESD9B3.3ST5G","LESD8D3.3CA",218.567000,-81.102200,180.000000,top
"D8","ESD9B3.3ST5G","LESD8D3.3CA",217.906600,-78.333600,180.000000,top
"D9","ESD9B3.3ST5G","LESD8D3.3CA",217.984400,-80.746600,0.000000,top
"D10","ESD9B3.3ST5G","LESD8D3.3CA",218.567000,-73.558400,180.000000,top
"D11","LESD5D5.0CTG1","D_SOD-523",230.149400,-98.012600,270.000000,top
"D12","LESD5D5.0CTG1","D_SOD-523",231.952800,-93.878400,90.000000,top
"D13","BAT60A","D_SOD-323",218.677200,-100.355400,180.000000,top
"D14","BAT60A","D_SOD-323",228.219000,-98.362600,90.000000,top
"D15","LESD5D5.0CTG1","D_SOD-523",231.430600,-96.037400,180.000000,top
"D16","Red","LED_0603_1608Metric",177.469800,-69.874200,180.000000,top
"D17","Green","LED_0603_1608Metric",180.985732,-66.740400,180.000000,top
"D18","1N4007","D_SMA",83.007200,-98.552000,180.000000,top
"D19","1N4007","D_SMA",100.431600,-98.552000,180.000000,top
"D20","1N4007","D_SMA",117.856000,-98.552000,180.000000,top
"D21","BAS321","D_SOD-323",142.155200,-112.268000,0.000000,top
"D22","3V3","D_SMA",87.553800,-56.896000,180.000000,top
"D23","3V3","D_SMA",80.137000,-56.896000,180.000000,top
"D24","3V3","D_SMA",72.771000,-56.896000,180.000000,top
"D25","Green","LED_0603_1608Metric",85.648800,-59.740800,0.000000,top
"D26","Green","LED_0603_1608Metric",78.485900,-59.740800,0.000000,top
"D27","Green","LED_0603_1608Metric",71.018400,-59.740800,0.000000,top
"D28","Green","LED_0603_1608Metric",85.027200,-95.576866,0.000000,top
"D29","Green","LED_0603_1608Metric",102.451600,-95.576866,0.000000,top
"D30","Green","LED_0603_1608Metric",119.989600,-95.576866,0.000000,top
"G***","LOGO","AME_Bits_Manager_Logo_17.8mmx14mm",144.602221,-61.620400,0.000000,top
"J4","BATT","XH_2.54mm_2Pin",227.685600,-124.714000,180.000000,top
"J8","USB_B_Micro","USB_Micro-B_Molex_47346-0001",235.991400,-94.716600,90.000000,top
"L1","33uH","L_Bourns_SRR1260",201.549000,-105.600200,0.000000,top
"L2","4.7uH","L_TracoPower_TCK-047_5.2x5.8mm",186.737000,-83.566000,180.000000,top
"Q1","AO3401A","SOT-23",203.758800,-90.754200,90.000000,top
"Q2","AO3401A","SOT-23",178.622200,-86.639400,0.000000,top
"Q3","S8050","SOT-23",208.153000,-90.093800,90.000000,top
"Q4","S8050","SOT-23",215.976200,-90.093800,90.000000,top
"Q5","S8050","SOT-23",212.064600,-90.093800,90.000000,top
"Q6","C945_SMD","SOT-23",81.257200,-94.576866,270.000000,top
"Q7","C945_SMD","SOT-23",98.681600,-94.576866,270.000000,top
"Q8","C945_SMD","SOT-23",116.106000,-94.576866,270.000000,top
"Q9","S8050","SOT-23",143.205200,-109.321600,270.000000,top
"R1","1k","R_0603_1608Metric",143.205200,-104.775000,0.000000,top
"R2","2k","R_0603_1608Metric",227.431600,-107.061000,270.000000,top
"R3","2k","R_0603_1608Metric",229.108000,-107.061000,270.000000,top
"R4","10k","R_0603_1608Metric",204.778800,-94.361000,90.000000,top
"R5","100k","R_0603_1608Metric",201.983800,-93.446600,180.000000,top
"R6","220R","R_0603_1608Metric",88.061800,-97.727000,90.000000,top
"R7","220R","R_0603_1608Metric",105.384600,-97.727000,90.000000,top
"R8","10k","R_0603_1608Metric",191.033400,-90.579200,270.000000,top
"R9","2k","R_0603_1608Metric",227.223000,-117.449600,180.000000,top
"R10","4k7","R_0603_1608Metric",143.205200,-106.527600,180.000000,top
"R11","4k7","R_0603_1608Metric",105.473000,-59.918600,180.000000,top
"R12","120R","R_0603_1608Metric",159.766000,-122.504200,180.000000,top
"R13","2M","R_0603_1608Metric",230.936800,-107.010200,90.000000,top
"R14","1M","R_0603_1608Metric",230.962200,-103.835200,90.000000,top
"R15","220R","R_0603_1608Metric",122.809000,-97.727000,90.000000,top
"R19","100k","R_0603_1608Metric",185.089800,-90.579200,270.000000,top
"R20","22k1","R_0603_1608Metric",185.839800,-93.294200,0.000000,top
"R21","10k","R_0603_1608Metric",220.776800,-65.596000,270.000000,top
"R22","0R","R_0603_1608Metric",177.774600,-47.244000,0.000000,top
"R23","0R","R_0603_1608Metric",177.774600,-45.389800,0.000000,top
"R24","0R","R_0603_1608Metric",177.774600,-43.535600,0.000000,top
"R25","0R","R_0603_1608Metric",177.774600,-41.681400,0.000000,top
"R26","100k","R_0603_1608Metric",175.869600,-86.514400,270.000000,top
"R27","10k","R_0603_1608Metric",193.039133,-51.626000,270.000000,top
"R28","10k","R_0603_1608Metric",217.449400,-78.105000,180.000000,top
"R29","10k","R_0603_1608Metric",217.449400,-75.285600,180.000000,top
"R30","10k","R_0603_1608Metric",217.449400,-80.924400,180.000000,top
"R31","10k","R_0603_1608Metric",194.819000,-67.970400,0.000000,top
"R32","10k","R_0603_1608Metric",217.449400,-73.329800,180.000000,top
"R33","75R","R_0603_1608Metric",152.374600,-45.948400,270.000000,top
"R34","75R","R_0603_1608Metric",152.374600,-42.748400,90.000000,top
"R35","75R","R_0603_1608Metric",150.672800,-45.948400,270.000000,top
"R36","0R","R_0603_1608Metric",228.219000,-92.577400,90.000000,top
"R37","47k5","R_0603_1608Metric",228.219000,-89.337400,90.000000,top
"R38","75R","R_0603_1608Metric",150.672800,-42.748400,90.000000,top
"R39","2k","R_0603_1608Metric",226.288600,-92.577400,90.000000,top
"R40","5k1","R_0603_1608Metric",174.879000,-63.373000,0.000000,top
"R41","5k1","R_0603_1608Metric",187.121800,-54.981428,180.000000,top
"R42","5k1","R_0603_1608Metric",187.121800,-60.016370,180.000000,top
"R43","5k1","R_0603_1608Metric",174.879000,-58.338056,0.000000,top
"R44","10k","R_0603_1608Metric",174.879000,-54.981428,0.000000,top
"R45","10k","R_0603_1608Metric",174.879000,-53.303114,180.000000,top
"R46","5k1","R_0603_1608Metric",187.121800,-61.694684,180.000000,top
"R47","5k1","R_0603_1608Metric",187.121800,-63.373000,180.000000,top
"R48","6k19","R_0603_1608Metric",183.845200,-56.151742,180.000000,top
"R49","10k","R_0603_1608Metric",210.007200,-87.350600,180.000000,top
"R50","10k","R_0603_1608Metric",215.026200,-93.573600,90.000000,top
"R51","10k","R_0603_1608Metric",211.114600,-93.573600,90.000000,top
"R52","0R","R_0603_1608Metric",187.528200,-70.688200,0.000000,top
"R53","0R","R_0603_1608Metric",178.664400,-52.247800,180.000000,top
"R54","0R","R_0603_1608Metric",184.377800,-70.688200,0.000000,top
"R55","10k","R_0603_1608Metric",194.832266,-51.626000,270.000000,top
"R56","5k1","R_0603_1608Metric",187.121800,-56.659742,180.000000,top
"R57","5k1","R_0603_1608Metric",187.121800,-58.338056,180.000000,top
"R58","0R","R_0603_1608Metric",174.879000,-60.016370,0.000000,top
"R59","0R","R_0603_1608Metric",174.879000,-61.694684,0.000000,top
"R60","5k1","R_0603_1608Metric",176.631600,-67.450400,90.000000,top
"R61","1M","R_0603_1608Metric",172.415200,-60.841370,270.000000,top
"R62","1k","R_0603_1608Metric",178.433666,-67.450400,90.000000,top
"R63","5k1","R_0603_1608Metric",180.162200,-69.164200,270.000000,top
"R64","1k","R_0603_1608Metric",181.787800,-69.164200,270.000000,top
"R65","10k","R_0603_1608Metric",105.372000,-79.756000,0.000000,top
"R66","100k","R_0603_1608Metric",94.716600,-73.406000,180.000000,top
"R67","100R","R_0603_1608Metric",80.987200,-89.636600,0.000000,top
"R68","4k7","R_0603_1608Metric",80.987200,-91.621733,180.000000,top
"R69","100R","R_0603_1608Metric",98.411600,-89.636600,0.000000,top
"R70","4k7","R_0603_1608Metric",98.411600,-91.621733,180.000000,top
"R71","100R","R_0603_1608Metric",115.836000,-89.636600,0.000000,top
"R72","4k7","R_0603_1608Metric",115.836000,-91.621733,180.000000,top
"R73","4k7","R_0603_1608Metric",101.994000,-59.918600,180.000000,top
"R74","56R","R_2512_6332Metric",87.604600,-50.241200,180.000000,top
"R75","56R","R_2512_6332Metric",78.740000,-50.241200,180.000000,top
"R76","56R","R_2512_6332Metric",71.983600,-48.895000,270.000000,top
"R77","15R","R_0603_1608Metric",88.950800,-59.740800,180.000000,top
"R78","15R","R_0603_1608Metric",81.940400,-59.740800,180.000000,top
"R79","15R","R_0603_1608Metric",74.472800,-59.740800,180.000000,top
"R80","1k","R_0603_1608Metric",89.750400,-72.339200,180.000000,top
"R81","1k","R_0603_1608Metric",82.206600,-72.339200,180.000000,top
"R82","1k","R_0603_1608Metric",74.662800,-72.339200,180.000000,top
"SW1","SW_Push","SW_SPST_TL3342",226.999800,-49.301000,270.000000,top
"SW2","SW_Push","SW_SPST_TL3342",188.976000,-49.301000,90.000000,top
"SW3","SW_DIP_x04","SW_DIP_SPSTx04_Slide_6.7x11.72mm_W8.61mm_P2.54mm_LowProfile",208.559400,-79.527400,90.000000,top
"SW4","SW_Push","SW_SPST_TL3342",109.347000,-83.693000,0.000000,top
"U2","AP5056","SOP-8_3.76x4.96mm_P1.27mm",228.473000,-112.547400,90.000000,top
"U4","LM2596S-5V","TO-263-5_TabPin3",181.991000,-103.911400,180.000000,top
"U5","SY8120","SOT-23-6",188.087000,-90.579200,0.000000,top
"U6","PC817","SMDIP-4_W7.62mm",87.655400,-66.192400,270.000000,top
"U7","PC817","SMDIP-4_W7.62mm",80.111600,-66.141600,270.000000,top
"U8","PC817","SMDIP-4_W7.62mm",72.567800,-66.167000,270.000000,top
"U9","Magnetic_Module","SOIC-16W_7.5x12.8mm_P1.27mm",161.086800,-44.475400,180.000000,top
"U10","CP2102N-A01-GQFN28","QFN-28-1EP_5x5mm_P0.5mm_EP3.35x3.35mm",222.123000,-90.957400,90.000000,top
"U11","IP101GRI","QFN-32-1EP_4x4mm_P0.4mm_EP2.9x2.9mm",181.065000,-60.999200,0.000000,top
"U12","ESP32-WROOM-32","ESP32-WROOM-32",208.026000,-58.166000,0.000000,top
"U13","STM32F030K6Tx","LQFP-32_7x7mm_P0.8mm",101.752400,-70.383400,90.000000,top
"U14","74HC14","SOIC-14_3.9x8.7mm_P1.27mm",80.416400,-77.698600,270.000000,top
"Y1","25MHz","Crystal_SMD_3225-4Pin_3.2x2.5mm",169.824400,-60.841370,270.000000,top
