EESchema Schematic File Version 4
EELAYER 30 0
EELAYER END
$Descr A4 11693 8268
encoding utf-8
Sheet 1 1
Title "Wireless Trigger (RX) V0.1"
Date "2021-03-18"
Rev "0"
Comp "Everything Electronic"
Comment1 ""
Comment2 ""
Comment3 ""
Comment4 ""
$EndDescr
$Comp
L MCU_Microchip_PIC16:PIC16F883-IP U1
U 1 1 5FABA539
P 2700 2050
F 0 "U1" H 2700 2150 50  0000 C CNN
F 1 "PIC16F1936" H 2700 2050 50  0000 C CNN
F 2 "Package_DIP:DIP-28_W7.62mm_Socket" H 2700 2050 50  0001 C CIN
F 3 "http://ww1.microchip.com/downloads/en/DeviceDoc/41291D.pdf" H 2700 1850 50  0001 C CNN
	1    2700 2050
	1    0    0    -1  
$EndComp
$Comp
L power:GND #PWR07
U 1 1 5FAC77EA
P 2700 3250
F 0 "#PWR07" H 2700 3000 50  0001 C CNN
F 1 "GND" H 2705 3077 50  0000 C CNN
F 2 "" H 2700 3250 50  0001 C CNN
F 3 "" H 2700 3250 50  0001 C CNN
	1    2700 3250
	1    0    0    -1  
$EndComp
Wire Wire Line
	2700 3250 2700 3200
Wire Wire Line
	2800 3150 2800 3200
Wire Wire Line
	2800 3200 2700 3200
Connection ~ 2700 3200
Wire Wire Line
	2700 3200 2700 3150
$Comp
L power:+5V #PWR06
U 1 1 5FAC87DD
P 2700 900
F 0 "#PWR06" H 2700 750 50  0001 C CNN
F 1 "+5V" H 2715 1073 50  0000 C CNN
F 2 "" H 2700 900 50  0001 C CNN
F 3 "" H 2700 900 50  0001 C CNN
	1    2700 900 
	1    0    0    -1  
$EndComp
$Comp
L Device:C C1
U 1 1 5FB09333
P 900 1700
F 0 "C1" H 1015 1746 50  0000 L CNN
F 1 "104" H 1015 1655 50  0000 L CNN
F 2 "Capacitor_THT:C_Rect_L7.0mm_W3.5mm_P5.00mm" H 938 1550 50  0001 C CNN
F 3 "~" H 900 1700 50  0001 C CNN
	1    900  1700
	1    0    0    -1  
$EndComp
$Comp
L power:+5V #PWR01
U 1 1 5FB0A375
P 900 1450
F 0 "#PWR01" H 900 1300 50  0001 C CNN
F 1 "+5V" H 915 1623 50  0000 C CNN
F 2 "" H 900 1450 50  0001 C CNN
F 3 "" H 900 1450 50  0001 C CNN
	1    900  1450
	1    0    0    -1  
$EndComp
$Comp
L power:GND #PWR02
U 1 1 5FB0A6B6
P 900 1900
F 0 "#PWR02" H 900 1650 50  0001 C CNN
F 1 "GND" H 905 1727 50  0000 C CNN
F 2 "" H 900 1900 50  0001 C CNN
F 3 "" H 900 1900 50  0001 C CNN
	1    900  1900
	1    0    0    -1  
$EndComp
Wire Wire Line
	900  1450 900  1550
Wire Wire Line
	900  1850 900  1900
$Comp
L Device:R R7
U 1 1 5FB0E645
P 3150 5450
F 0 "R7" V 2950 5400 50  0000 L CNN
F 1 "10k" V 3050 5350 50  0000 L CNN
F 2 "Resistor_THT:R_Axial_DIN0207_L6.3mm_D2.5mm_P7.62mm_Horizontal" V 3080 5450 50  0001 C CNN
F 3 "~" H 3150 5450 50  0001 C CNN
	1    3150 5450
	-1   0    0    1   
$EndComp
$Comp
L Switch:SW_Push SW1
U 1 1 5FB0FB05
P 3500 5800
F 0 "SW1" H 3500 6085 50  0000 C CNN
F 1 "SW_Push" H 3500 5994 50  0000 C CNN
F 2 "Button_Switch_THT:SW_PUSH_6mm" H 3500 6000 50  0001 C CNN
F 3 "~" H 3500 6000 50  0001 C CNN
	1    3500 5800
	1    0    0    -1  
$EndComp
Text Label 2850 5800 0    50   ~ 0
VPP
Wire Wire Line
	2850 5800 3150 5800
Wire Wire Line
	3150 5600 3150 5800
Connection ~ 3150 5800
Wire Wire Line
	3150 5800 3300 5800
$Comp
L power:GND #PWR016
U 1 1 5FB148DD
P 3800 5900
F 0 "#PWR016" H 3800 5650 50  0001 C CNN
F 1 "GND" H 3805 5727 50  0000 C CNN
F 2 "" H 3800 5900 50  0001 C CNN
F 3 "" H 3800 5900 50  0001 C CNN
	1    3800 5900
	1    0    0    -1  
$EndComp
Wire Wire Line
	3700 5800 3800 5800
Wire Wire Line
	3800 5800 3800 5900
$Comp
L power:+5V #PWR011
U 1 1 5FB16BC2
P 3150 5200
F 0 "#PWR011" H 3150 5050 50  0001 C CNN
F 1 "+5V" H 3165 5373 50  0000 C CNN
F 2 "" H 3150 5200 50  0001 C CNN
F 3 "" H 3150 5200 50  0001 C CNN
	1    3150 5200
	1    0    0    -1  
$EndComp
Wire Wire Line
	3150 5200 3150 5300
Text Label 1100 1250 0    50   ~ 0
VPP
Wire Wire Line
	1100 1250 1400 1250
Text Label 4550 900  0    50   ~ 0
VPP
Text Label 4550 1200 0    50   ~ 0
PGD
Text Label 4550 1300 0    50   ~ 0
PGC
Wire Wire Line
	4550 900  4800 900 
Wire Wire Line
	4550 1200 4800 1200
Wire Wire Line
	4550 1300 4800 1300
$Comp
L power:+5V #PWR012
U 1 1 5FB464EA
P 4750 800
F 0 "#PWR012" H 4750 650 50  0001 C CNN
F 1 "+5V" H 4765 973 50  0000 C CNN
F 2 "" H 4750 800 50  0001 C CNN
F 3 "" H 4750 800 50  0001 C CNN
	1    4750 800 
	1    0    0    -1  
$EndComp
$Comp
L power:GND #PWR013
U 1 1 5FB46C5E
P 4750 1500
F 0 "#PWR013" H 4750 1250 50  0001 C CNN
F 1 "GND" H 4755 1327 50  0000 C CNN
F 2 "" H 4750 1500 50  0001 C CNN
F 3 "" H 4750 1500 50  0001 C CNN
	1    4750 1500
	1    0    0    -1  
$EndComp
Wire Wire Line
	4750 1500 4750 1100
Wire Wire Line
	4750 1100 4800 1100
Wire Wire Line
	4800 1000 4750 1000
Wire Wire Line
	4750 1000 4750 800 
Wire Wire Line
	2700 900  2700 950 
Wire Wire Line
	4150 3100 4450 3100
Wire Wire Line
	4250 3000 4450 3000
Text Label 4450 3000 2    50   ~ 0
PGC
Text Label 4450 3100 2    50   ~ 0
PGD
Wire Wire Line
	4000 2850 4150 2850
Wire Wire Line
	4000 2750 4250 2750
Wire Wire Line
	4250 3000 4250 2850
Wire Wire Line
	4150 3100 4150 2850
$Comp
L Device:R R20
U 1 1 5FCE9931
P 900 5450
F 0 "R20" V 700 5400 50  0000 L CNN
F 1 "10k" V 800 5350 50  0000 L CNN
F 2 "Resistor_THT:R_Axial_DIN0207_L6.3mm_D2.5mm_P7.62mm_Horizontal" V 830 5450 50  0001 C CNN
F 3 "~" H 900 5450 50  0001 C CNN
	1    900  5450
	-1   0    0    1   
$EndComp
$Comp
L Switch:SW_Push SW2
U 1 1 5FCE9937
P 1250 5800
F 0 "SW2" H 1250 6085 50  0000 C CNN
F 1 "SW_Push" H 1250 5994 50  0000 C CNN
F 2 "Button_Switch_THT:SW_PUSH_6mm" H 1250 6000 50  0001 C CNN
F 3 "~" H 1250 6000 50  0001 C CNN
	1    1250 5800
	1    0    0    -1  
$EndComp
Text Label 600  5800 0    50   ~ 0
SW1
Wire Wire Line
	600  5800 900  5800
Wire Wire Line
	900  5600 900  5800
Connection ~ 900  5800
Wire Wire Line
	900  5800 1050 5800
$Comp
L power:GND #PWR0101
U 1 1 5FCE9942
P 1550 5900
F 0 "#PWR0101" H 1550 5650 50  0001 C CNN
F 1 "GND" H 1555 5727 50  0000 C CNN
F 2 "" H 1550 5900 50  0001 C CNN
F 3 "" H 1550 5900 50  0001 C CNN
	1    1550 5900
	1    0    0    -1  
$EndComp
Wire Wire Line
	1450 5800 1550 5800
Wire Wire Line
	1550 5800 1550 5900
$Comp
L power:+5V #PWR0102
U 1 1 5FCE994A
P 900 5200
F 0 "#PWR0102" H 900 5050 50  0001 C CNN
F 1 "+5V" H 915 5373 50  0000 C CNN
F 2 "" H 900 5200 50  0001 C CNN
F 3 "" H 900 5200 50  0001 C CNN
	1    900  5200
	1    0    0    -1  
$EndComp
Wire Wire Line
	900  5200 900  5300
$Comp
L Device:R R21
U 1 1 5FCF2405
P 2050 5450
F 0 "R21" V 1850 5400 50  0000 L CNN
F 1 "10k" V 1950 5350 50  0000 L CNN
F 2 "Resistor_THT:R_Axial_DIN0207_L6.3mm_D2.5mm_P7.62mm_Horizontal" V 1980 5450 50  0001 C CNN
F 3 "~" H 2050 5450 50  0001 C CNN
	1    2050 5450
	-1   0    0    1   
$EndComp
$Comp
L Switch:SW_Push SW3
U 1 1 5FCF240B
P 2400 5800
F 0 "SW3" H 2400 6085 50  0000 C CNN
F 1 "SW_Push" H 2400 5994 50  0000 C CNN
F 2 "Button_Switch_THT:SW_PUSH_6mm" H 2400 6000 50  0001 C CNN
F 3 "~" H 2400 6000 50  0001 C CNN
	1    2400 5800
	1    0    0    -1  
$EndComp
Text Label 1750 5800 0    50   ~ 0
SW2
Wire Wire Line
	1750 5800 2050 5800
Wire Wire Line
	2050 5600 2050 5800
Connection ~ 2050 5800
Wire Wire Line
	2050 5800 2200 5800
$Comp
L power:GND #PWR0103
U 1 1 5FCF2416
P 2700 5900
F 0 "#PWR0103" H 2700 5650 50  0001 C CNN
F 1 "GND" H 2705 5727 50  0000 C CNN
F 2 "" H 2700 5900 50  0001 C CNN
F 3 "" H 2700 5900 50  0001 C CNN
	1    2700 5900
	1    0    0    -1  
$EndComp
Wire Wire Line
	2600 5800 2700 5800
Wire Wire Line
	2700 5800 2700 5900
$Comp
L power:+5V #PWR0104
U 1 1 5FCF241E
P 2050 5200
F 0 "#PWR0104" H 2050 5050 50  0001 C CNN
F 1 "+5V" H 2065 5373 50  0000 C CNN
F 2 "" H 2050 5200 50  0001 C CNN
F 3 "" H 2050 5200 50  0001 C CNN
	1    2050 5200
	1    0    0    -1  
$EndComp
Wire Wire Line
	2050 5200 2050 5300
Text Label 4400 1550 2    50   ~ 0
SW1
Text Label 4400 1450 2    50   ~ 0
SW2
Wire Wire Line
	4400 1550 4000 1550
Text Notes 650  650  0    50   ~ 0
MCU
$Comp
L Mechanical:MountingHole H1
U 1 1 60071B76
P 6300 6900
F 0 "H1" H 6400 6946 50  0000 L CNN
F 1 "MountingHole" H 6400 6855 50  0000 L CNN
F 2 "MountingHole:MountingHole_3mm_Pad_Via" H 6300 6900 50  0001 C CNN
F 3 "~" H 6300 6900 50  0001 C CNN
	1    6300 6900
	1    0    0    -1  
$EndComp
$Comp
L Mechanical:MountingHole H2
U 1 1 600722EB
P 6300 7150
F 0 "H2" H 6400 7196 50  0000 L CNN
F 1 "MountingHole" H 6400 7105 50  0000 L CNN
F 2 "MountingHole:MountingHole_3mm_Pad_Via" H 6300 7150 50  0001 C CNN
F 3 "~" H 6300 7150 50  0001 C CNN
	1    6300 7150
	1    0    0    -1  
$EndComp
$Comp
L Mechanical:MountingHole H3
U 1 1 600723F7
P 6300 7400
F 0 "H3" H 6400 7446 50  0000 L CNN
F 1 "MountingHole" H 6400 7355 50  0000 L CNN
F 2 "MountingHole:MountingHole_3mm_Pad_Via" H 6300 7400 50  0001 C CNN
F 3 "~" H 6300 7400 50  0001 C CNN
	1    6300 7400
	1    0    0    -1  
$EndComp
$Comp
L Mechanical:MountingHole H4
U 1 1 60072588
P 6300 7650
F 0 "H4" H 6400 7696 50  0000 L CNN
F 1 "MountingHole" H 6400 7605 50  0000 L CNN
F 2 "MountingHole:MountingHole_3mm_Pad_Via" H 6300 7650 50  0001 C CNN
F 3 "~" H 6300 7650 50  0001 C CNN
	1    6300 7650
	1    0    0    -1  
$EndComp
Wire Wire Line
	4400 1450 4000 1450
$Comp
L Device:R R35
U 1 1 6065AADE
P 4700 4400
F 0 "R35" V 4500 4300 50  0000 L CNN
F 1 "1k" V 4600 4300 50  0000 L CNN
F 2 "Resistor_THT:R_Axial_DIN0207_L6.3mm_D2.5mm_P7.62mm_Horizontal" V 4630 4400 50  0001 C CNN
F 3 "~" H 4700 4400 50  0001 C CNN
	1    4700 4400
	1    0    0    -1  
$EndComp
$Comp
L Device:LED D10
U 1 1 6065B048
P 4700 4800
F 0 "D10" V 4750 5000 50  0000 R CNN
F 1 "LED" V 4650 5000 50  0000 R CNN
F 2 "LED_THT:LED_D5.0mm" H 4700 4800 50  0001 C CNN
F 3 "~" H 4700 4800 50  0001 C CNN
	1    4700 4800
	0    -1   -1   0   
$EndComp
$Comp
L Device:R R36
U 1 1 6065B797
P 5200 4400
F 0 "R36" V 5000 4300 50  0000 L CNN
F 1 "1k" V 5100 4300 50  0000 L CNN
F 2 "Resistor_THT:R_Axial_DIN0207_L6.3mm_D2.5mm_P7.62mm_Horizontal" V 5130 4400 50  0001 C CNN
F 3 "~" H 5200 4400 50  0001 C CNN
	1    5200 4400
	1    0    0    -1  
$EndComp
$Comp
L Device:LED D11
U 1 1 6065BC56
P 5200 4800
F 0 "D11" V 5250 5000 50  0000 R CNN
F 1 "LED" V 5150 5000 50  0000 R CNN
F 2 "LED_THT:LED_D5.0mm" H 5200 4800 50  0001 C CNN
F 3 "~" H 5200 4800 50  0001 C CNN
	1    5200 4800
	0    -1   -1   0   
$EndComp
Wire Wire Line
	4700 4650 4700 4550
Wire Wire Line
	5200 4650 5200 4550
$Comp
L power:+5V #PWR010
U 1 1 6069FEF3
P 4700 4150
F 0 "#PWR010" H 4700 4000 50  0001 C CNN
F 1 "+5V" H 4715 4323 50  0000 C CNN
F 2 "" H 4700 4150 50  0001 C CNN
F 3 "" H 4700 4150 50  0001 C CNN
	1    4700 4150
	1    0    0    -1  
$EndComp
$Comp
L power:+5V #PWR014
U 1 1 606A0663
P 5200 4150
F 0 "#PWR014" H 5200 4000 50  0001 C CNN
F 1 "+5V" H 5215 4323 50  0000 C CNN
F 2 "" H 5200 4150 50  0001 C CNN
F 3 "" H 5200 4150 50  0001 C CNN
	1    5200 4150
	1    0    0    -1  
$EndComp
Wire Wire Line
	4700 4150 4700 4250
Wire Wire Line
	5200 4150 5200 4250
Text Label 4300 5100 0    50   ~ 0
AL1_LED
Text Label 4850 5100 0    50   ~ 0
AL2_LED
Wire Wire Line
	4300 5100 4700 5100
Wire Wire Line
	4700 5100 4700 4950
Wire Wire Line
	4850 5100 5200 5100
Wire Wire Line
	5200 5100 5200 4950
$Comp
L Connector_Generic:Conn_01x02 J2
U 1 1 608BCD3A
P 6000 4200
F 0 "J2" H 6080 4192 50  0000 L CNN
F 1 "DEBUG" H 6080 4101 50  0000 L CNN
F 2 "Connector_PinHeader_2.54mm:PinHeader_1x02_P2.54mm_Vertical" H 6000 4200 50  0001 C CNN
F 3 "~" H 6000 4200 50  0001 C CNN
	1    6000 4200
	1    0    0    -1  
$EndComp
$Comp
L power:GND #PWR0107
U 1 1 608BE8AA
P 5700 4400
F 0 "#PWR0107" H 5700 4150 50  0001 C CNN
F 1 "GND" H 5705 4227 50  0000 C CNN
F 2 "" H 5700 4400 50  0001 C CNN
F 3 "" H 5700 4400 50  0001 C CNN
	1    5700 4400
	1    0    0    -1  
$EndComp
Wire Wire Line
	5700 4400 5700 4300
Wire Wire Line
	5700 4300 5800 4300
Text Label 5550 4200 0    50   ~ 0
DEBUG
Wire Wire Line
	5550 4200 5800 4200
Text Label 1150 2750 0    50   ~ 0
DEBUG
Wire Wire Line
	1150 2750 1400 2750
Wire Notes Line
	5400 3800 6400 3800
Wire Notes Line
	6400 3800 6400 4850
Wire Notes Line
	6400 4850 5400 4850
Wire Notes Line
	5400 4850 5400 3800
Wire Notes Line
	4250 5200 5300 5200
Wire Notes Line
	4250 3800 4250 5200
Wire Notes Line
	5300 3800 5300 5200
Wire Notes Line
	4250 3800 5300 3800
Text Notes 4300 3900 0    50   ~ 0
AL1 AL2 LEDs
Text Notes 600  4950 0    50   ~ 0
Buttons
Text Notes 5450 3900 0    50   ~ 0
Debug
$Comp
L My_Lib_KiCAD:Ra_CNT_v1.0 U5
U 1 1 606C6B0A
P 6450 1300
F 0 "U5" H 6475 1865 50  0000 C CNN
F 1 "Ra_CNT_v1.0" H 6475 1774 50  0000 C CNN
F 2 "RF_Module:Ai-Thinker-Ra-01-LoRa" H 6450 1300 50  0001 C CNN
F 3 "" H 6450 1300 50  0001 C CNN
	1    6450 1300
	1    0    0    -1  
$EndComp
Text Label 7450 1200 2    50   ~ 0
MOSI
Text Label 7450 1300 2    50   ~ 0
MISO
Text Label 7450 1400 2    50   ~ 0
SCK
$Comp
L power:GND #PWR0108
U 1 1 606D0351
P 7150 1800
F 0 "#PWR0108" H 7150 1550 50  0001 C CNN
F 1 "GND" H 7155 1627 50  0000 C CNN
F 2 "" H 7150 1800 50  0001 C CNN
F 3 "" H 7150 1800 50  0001 C CNN
	1    7150 1800
	1    0    0    -1  
$EndComp
Wire Wire Line
	7050 1700 7150 1700
Wire Wire Line
	7150 1700 7150 1800
$Comp
L power:GND #PWR0109
U 1 1 606D8A37
P 5500 1200
F 0 "#PWR0109" H 5500 950 50  0001 C CNN
F 1 "GND" H 5505 1027 50  0000 C CNN
F 2 "" H 5500 1200 50  0001 C CNN
F 3 "" H 5500 1200 50  0001 C CNN
	1    5500 1200
	1    0    0    -1  
$EndComp
Wire Wire Line
	5900 1000 5800 1000
Wire Wire Line
	5900 1100 5800 1100
Wire Wire Line
	5800 1100 5800 1000
$Comp
L power:+3.3V #PWR0110
U 1 1 606E9C3B
P 5700 800
F 0 "#PWR0110" H 5700 650 50  0001 C CNN
F 1 "+3.3V" H 5715 973 50  0000 C CNN
F 2 "" H 5700 800 50  0001 C CNN
F 3 "" H 5700 800 50  0001 C CNN
	1    5700 800 
	1    0    0    -1  
$EndComp
Wire Wire Line
	5700 800  5700 1200
Wire Wire Line
	5700 1200 5900 1200
Text Label 5650 1400 0    50   ~ 0
INT
Text Label 7450 1100 2    50   ~ 0
NSS
Text Label 5650 1300 0    50   ~ 0
RESET
Wire Wire Line
	5900 1300 5650 1300
Wire Wire Line
	5900 1400 5650 1400
Wire Wire Line
	5800 1000 5500 1000
Wire Wire Line
	5500 1000 5500 1200
Connection ~ 5800 1000
Wire Wire Line
	7050 1400 7450 1400
Wire Wire Line
	7050 1300 7450 1300
Wire Wire Line
	7050 1200 7450 1200
Wire Wire Line
	7050 1100 7450 1100
Wire Wire Line
	7150 1700 7150 1000
Wire Wire Line
	7150 1000 7050 1000
Connection ~ 7150 1700
$Comp
L Device:CP C3
U 1 1 607545FD
P 1550 4200
F 0 "C3" H 1668 4246 50  0000 L CNN
F 1 "10uF" H 1668 4155 50  0000 L CNN
F 2 "Capacitor_THT:C_Radial_D6.3mm_H11.0mm_P2.50mm" H 1588 4050 50  0001 C CNN
F 3 "~" H 1550 4200 50  0001 C CNN
	1    1550 4200
	1    0    0    -1  
$EndComp
$Comp
L Device:CP C5
U 1 1 607549B9
P 2050 4200
F 0 "C5" H 2168 4246 50  0000 L CNN
F 1 "1uF" H 2168 4155 50  0000 L CNN
F 2 "Capacitor_THT:C_Radial_D6.3mm_H11.0mm_P2.50mm" H 2088 4050 50  0001 C CNN
F 3 "~" H 2050 4200 50  0001 C CNN
	1    2050 4200
	1    0    0    -1  
$EndComp
$Comp
L Device:C C6
U 1 1 60754CDB
P 2500 4200
F 0 "C6" H 2615 4246 50  0000 L CNN
F 1 "104" H 2615 4155 50  0000 L CNN
F 2 "Capacitor_THT:C_Rect_L7.0mm_W3.5mm_P5.00mm" H 2538 4050 50  0001 C CNN
F 3 "~" H 2500 4200 50  0001 C CNN
	1    2500 4200
	1    0    0    -1  
$EndComp
$Comp
L Regulator_Linear:AMS1117-3.3 U4
U 1 1 60761340
P 3100 3950
F 0 "U4" H 3100 4192 50  0000 C CNN
F 1 "AMS1117-3.3" H 3100 4101 50  0000 C CNN
F 2 "Package_TO_SOT_SMD:SOT-223-3_TabPin2" H 3100 4150 50  0001 C CNN
F 3 "http://www.advanced-monolithic.com/pdf/ds1117.pdf" H 3200 3700 50  0001 C CNN
	1    3100 3950
	1    0    0    -1  
$EndComp
$Comp
L Device:CP C7
U 1 1 60762B2D
P 3650 4200
F 0 "C7" H 3768 4246 50  0000 L CNN
F 1 "10uF" H 3768 4155 50  0000 L CNN
F 2 "Capacitor_THT:C_Radial_D6.3mm_H11.0mm_P2.50mm" H 3688 4050 50  0001 C CNN
F 3 "~" H 3650 4200 50  0001 C CNN
	1    3650 4200
	1    0    0    -1  
$EndComp
$Comp
L power:+5V #PWR0111
U 1 1 60762F98
P 1400 3900
F 0 "#PWR0111" H 1400 3750 50  0001 C CNN
F 1 "+5V" H 1415 4073 50  0000 C CNN
F 2 "" H 1400 3900 50  0001 C CNN
F 3 "" H 1400 3900 50  0001 C CNN
	1    1400 3900
	1    0    0    -1  
$EndComp
Wire Wire Line
	2800 3950 2500 3950
Wire Wire Line
	1400 3950 1400 3900
Wire Wire Line
	1550 4050 1550 3950
Connection ~ 1550 3950
Wire Wire Line
	1550 3950 1400 3950
Wire Wire Line
	2050 4050 2050 3950
Connection ~ 2050 3950
Wire Wire Line
	2050 3950 1550 3950
Wire Wire Line
	2500 4050 2500 3950
Connection ~ 2500 3950
Wire Wire Line
	2500 3950 2050 3950
$Comp
L power:GND #PWR0113
U 1 1 607897F3
P 1550 4450
F 0 "#PWR0113" H 1550 4200 50  0001 C CNN
F 1 "GND" H 1555 4277 50  0000 C CNN
F 2 "" H 1550 4450 50  0001 C CNN
F 3 "" H 1550 4450 50  0001 C CNN
	1    1550 4450
	1    0    0    -1  
$EndComp
$Comp
L power:GND #PWR0114
U 1 1 60789A1A
P 2050 4450
F 0 "#PWR0114" H 2050 4200 50  0001 C CNN
F 1 "GND" H 2055 4277 50  0000 C CNN
F 2 "" H 2050 4450 50  0001 C CNN
F 3 "" H 2050 4450 50  0001 C CNN
	1    2050 4450
	1    0    0    -1  
$EndComp
$Comp
L power:GND #PWR0115
U 1 1 60789C00
P 2500 4450
F 0 "#PWR0115" H 2500 4200 50  0001 C CNN
F 1 "GND" H 2505 4277 50  0000 C CNN
F 2 "" H 2500 4450 50  0001 C CNN
F 3 "" H 2500 4450 50  0001 C CNN
	1    2500 4450
	1    0    0    -1  
$EndComp
$Comp
L power:GND #PWR0116
U 1 1 60789D48
P 3100 4450
F 0 "#PWR0116" H 3100 4200 50  0001 C CNN
F 1 "GND" H 3105 4277 50  0000 C CNN
F 2 "" H 3100 4450 50  0001 C CNN
F 3 "" H 3100 4450 50  0001 C CNN
	1    3100 4450
	1    0    0    -1  
$EndComp
$Comp
L power:GND #PWR0118
U 1 1 60789ED4
P 3650 4450
F 0 "#PWR0118" H 3650 4200 50  0001 C CNN
F 1 "GND" H 3655 4277 50  0000 C CNN
F 2 "" H 3650 4450 50  0001 C CNN
F 3 "" H 3650 4450 50  0001 C CNN
	1    3650 4450
	1    0    0    -1  
$EndComp
$Comp
L power:+3.3V #PWR0119
U 1 1 6078A096
P 4000 3900
F 0 "#PWR0119" H 4000 3750 50  0001 C CNN
F 1 "+3.3V" H 4015 4073 50  0000 C CNN
F 2 "" H 4000 3900 50  0001 C CNN
F 3 "" H 4000 3900 50  0001 C CNN
	1    4000 3900
	1    0    0    -1  
$EndComp
Wire Wire Line
	3400 3950 3650 3950
Wire Wire Line
	4000 3950 4000 3900
Wire Wire Line
	3650 4050 3650 3950
Connection ~ 3650 3950
Wire Wire Line
	3650 3950 4000 3950
Wire Wire Line
	3100 4450 3100 4250
Wire Wire Line
	3650 4450 3650 4350
Wire Wire Line
	2500 4450 2500 4350
Wire Wire Line
	2050 4450 2050 4350
Wire Wire Line
	1550 4450 1550 4350
$Comp
L Diode:1N4007 D1
U 1 1 607E1576
P 1150 3950
F 0 "D1" H 1150 3733 50  0000 C CNN
F 1 "1N4007" H 1150 3824 50  0000 C CNN
F 2 "Diode_THT:D_DO-41_SOD81_P10.16mm_Horizontal" H 1150 3775 50  0001 C CNN
F 3 "http://www.vishay.com/docs/88503/1n4001.pdf" H 1150 3950 50  0001 C CNN
	1    1150 3950
	-1   0    0    1   
$EndComp
Wire Wire Line
	1300 3950 1400 3950
Connection ~ 1400 3950
$Comp
L Connector:Screw_Terminal_01x02 J3
U 1 1 607ED228
P 700 4050
F 0 "J3" H 618 3725 50  0000 C CNN
F 1 "BATT" H 618 3816 50  0000 C CNN
F 2 "TerminalBlock:TerminalBlock_bornier-2_P5.08mm" H 700 4050 50  0001 C CNN
F 3 "~" H 700 4050 50  0001 C CNN
	1    700  4050
	-1   0    0    1   
$EndComp
Wire Wire Line
	900  3950 1000 3950
$Comp
L power:GND #PWR0120
U 1 1 607F9209
P 1000 4450
F 0 "#PWR0120" H 1000 4200 50  0001 C CNN
F 1 "GND" H 1005 4277 50  0000 C CNN
F 2 "" H 1000 4450 50  0001 C CNN
F 3 "" H 1000 4450 50  0001 C CNN
	1    1000 4450
	1    0    0    -1  
$EndComp
Wire Wire Line
	900  4050 1000 4050
Wire Wire Line
	1000 4050 1000 4450
Wire Notes Line
	4150 3650 4150 4700
Wire Notes Line
	600  4700 600  3650
Wire Notes Line
	600  3650 4150 3650
Wire Notes Line
	600  4700 4150 4700
Text Label 4400 1350 2    50   ~ 0
AL1_LED
Text Label 4400 1250 2    50   ~ 0
AL2_LED
Wire Wire Line
	4400 1350 4000 1350
Wire Wire Line
	4400 1250 4000 1250
$Comp
L Device:C C12
U 1 1 60A4BE69
P 7600 1300
F 0 "C12" H 7715 1346 50  0000 L CNN
F 1 "104" H 7715 1255 50  0000 L CNN
F 2 "Capacitor_THT:C_Rect_L7.0mm_W3.5mm_P5.00mm" H 7638 1150 50  0001 C CNN
F 3 "~" H 7600 1300 50  0001 C CNN
	1    7600 1300
	1    0    0    -1  
$EndComp
$Comp
L power:+3.3V #PWR08
U 1 1 60A4D155
P 7600 1050
F 0 "#PWR08" H 7600 900 50  0001 C CNN
F 1 "+3.3V" H 7615 1223 50  0000 C CNN
F 2 "" H 7600 1050 50  0001 C CNN
F 3 "" H 7600 1050 50  0001 C CNN
	1    7600 1050
	1    0    0    -1  
$EndComp
$Comp
L power:GND #PWR09
U 1 1 60A4D3C8
P 7600 1550
F 0 "#PWR09" H 7600 1300 50  0001 C CNN
F 1 "GND" H 7605 1377 50  0000 C CNN
F 2 "" H 7600 1550 50  0001 C CNN
F 3 "" H 7600 1550 50  0001 C CNN
	1    7600 1550
	1    0    0    -1  
$EndComp
Wire Wire Line
	7600 1550 7600 1450
Wire Wire Line
	7600 1150 7600 1050
$Comp
L Connector_Generic:Conn_01x05 J4
U 1 1 60C04068
P 5000 1100
F 0 "J4" H 5080 1142 50  0000 L CNN
F 1 "Program" H 4850 800 50  0000 L CNN
F 2 "Connector_PinHeader_2.54mm:PinHeader_1x05_P2.54mm_Vertical" H 5000 1100 50  0001 C CNN
F 3 "~" H 5000 1100 50  0001 C CNN
	1    5000 1100
	1    0    0    -1  
$EndComp
Wire Notes Line
	7900 550  7900 2050
Wire Notes Line
	7900 2050 5400 2050
Wire Notes Line
	5400 2050 5400 550 
Wire Notes Line
	5400 550  7900 550 
Wire Notes Line
	3900 4850 3900 6150
Wire Notes Line
	3900 6150 600  6150
Wire Notes Line
	600  6150 600  4850
Wire Notes Line
	600  4850 3900 4850
Wire Notes Line
	600  550  600  3500
$Comp
L Transistor_FET:IRF3205 Q1
U 1 1 60F0740C
P 6350 3100
F 0 "Q1" H 6500 3250 50  0000 L CNN
F 1 "IRF3205" H 6500 2950 50  0000 L CNN
F 2 "Package_TO_SOT_THT:TO-220-3_Vertical" H 6600 3025 50  0001 L CIN
F 3 "http://www.irf.com/product-info/datasheets/data/irf3205.pdf" H 6350 3100 50  0001 L CNN
	1    6350 3100
	1    0    0    -1  
$EndComp
$Comp
L Device:R R1
U 1 1 60F2EEF6
P 5900 3100
F 0 "R1" V 6000 3100 50  0000 L CNN
F 1 "220R" V 5900 3000 50  0000 L CNN
F 2 "Resistor_THT:R_Axial_DIN0207_L6.3mm_D2.5mm_P7.62mm_Horizontal" V 5830 3100 50  0001 C CNN
F 3 "~" H 5900 3100 50  0001 C CNN
	1    5900 3100
	0    -1   -1   0   
$EndComp
Text Label 5450 3100 0    50   ~ 0
TRIG
Wire Wire Line
	5450 3100 5750 3100
Wire Wire Line
	6050 3100 6150 3100
$Comp
L Connector_Generic:Conn_01x02 J5
U 1 1 60F3BE18
P 6700 2650
F 0 "J5" H 6780 2642 50  0000 L CNN
F 1 "SW" H 6780 2551 50  0000 L CNN
F 2 "Connector_PinHeader_2.54mm:PinHeader_1x02_P2.54mm_Vertical" H 6700 2650 50  0001 C CNN
F 3 "~" H 6700 2650 50  0001 C CNN
	1    6700 2650
	1    0    0    -1  
$EndComp
Wire Wire Line
	6450 2900 6450 2750
Wire Wire Line
	6450 2750 6500 2750
$Comp
L Connector:Screw_Terminal_01x02 J1
U 1 1 60F3F849
P 6700 2350
F 0 "J1" H 6850 2350 50  0000 C CNN
F 1 "COIL" H 6850 2250 50  0000 C CNN
F 2 "TerminalBlock:TerminalBlock_bornier-2_P5.08mm" H 6700 2350 50  0001 C CNN
F 3 "~" H 6700 2350 50  0001 C CNN
	1    6700 2350
	1    0    0    -1  
$EndComp
Wire Wire Line
	6500 2650 6450 2650
Wire Wire Line
	6450 2650 6450 2450
Wire Wire Line
	6450 2450 6500 2450
$Comp
L Connector:Screw_Terminal_01x02 J6
U 1 1 60F49AA0
P 7450 2650
F 0 "J6" H 7600 2650 50  0000 C CNN
F 1 "BH" H 7600 2550 50  0000 C CNN
F 2 "TerminalBlock:TerminalBlock_bornier-2_P5.08mm" H 7450 2650 50  0001 C CNN
F 3 "~" H 7450 2650 50  0001 C CNN
	1    7450 2650
	1    0    0    -1  
$EndComp
Wire Wire Line
	6500 2350 6450 2350
Wire Wire Line
	6450 2350 6450 2200
Wire Wire Line
	6450 2200 7200 2200
Wire Wire Line
	7200 2200 7200 2650
Wire Wire Line
	7200 2650 7250 2650
$Comp
L power:GND #PWR0105
U 1 1 60F4E6F0
P 6450 3450
F 0 "#PWR0105" H 6450 3200 50  0001 C CNN
F 1 "GND" H 6455 3277 50  0000 C CNN
F 2 "" H 6450 3450 50  0001 C CNN
F 3 "" H 6450 3450 50  0001 C CNN
	1    6450 3450
	1    0    0    -1  
$EndComp
Wire Wire Line
	6450 3450 6450 3400
Wire Wire Line
	7250 2750 7200 2750
Wire Wire Line
	7200 2750 7200 3400
Wire Wire Line
	7200 3400 6450 3400
Connection ~ 6450 3400
Wire Wire Line
	6450 3400 6450 3300
Wire Notes Line
	5400 2150 7750 2150
Wire Notes Line
	7750 2150 7750 3700
Wire Notes Line
	7750 3700 5400 3700
Wire Notes Line
	5400 3700 5400 2150
Text Label 4650 2850 2    50   ~ 0
TRIG
Wire Wire Line
	4650 2850 4250 2850
$Comp
L Device:R R6
U 1 1 60FB154F
P 4250 2150
F 0 "R6" V 4300 2300 50  0000 L CNN
F 1 "470R" V 4250 2050 50  0000 L CNN
F 2 "Resistor_THT:R_Axial_DIN0207_L6.3mm_D2.5mm_P7.62mm_Horizontal" V 4180 2150 50  0001 C CNN
F 3 "~" H 4250 2150 50  0001 C CNN
	1    4250 2150
	0    -1   -1   0   
$EndComp
$Comp
L Device:R R5
U 1 1 60FB94AD
P 1100 2850
F 0 "R5" V 1150 2650 50  0000 L CNN
F 1 "470R" V 1100 2750 50  0000 L CNN
F 2 "Resistor_THT:R_Axial_DIN0207_L6.3mm_D2.5mm_P7.62mm_Horizontal" V 1030 2850 50  0001 C CNN
F 3 "~" H 1100 2850 50  0001 C CNN
	1    1100 2850
	0    -1   -1   0   
$EndComp
Wire Wire Line
	1250 2850 1400 2850
Text Label 650  2850 0    50   ~ 0
RESET
Wire Wire Line
	650  2850 950  2850
$Comp
L Device:R R4
U 1 1 60FC1404
P 1100 2650
F 0 "R4" V 1150 2450 50  0000 L CNN
F 1 "470R" V 1100 2550 50  0000 L CNN
F 2 "Resistor_THT:R_Axial_DIN0207_L6.3mm_D2.5mm_P7.62mm_Horizontal" V 1030 2650 50  0001 C CNN
F 3 "~" H 1100 2650 50  0001 C CNN
	1    1100 2650
	0    -1   -1   0   
$EndComp
$Comp
L Device:R R3
U 1 1 60FC1AF7
P 1100 2550
F 0 "R3" V 1150 2350 50  0000 L CNN
F 1 "470R" V 1100 2450 50  0000 L CNN
F 2 "Resistor_THT:R_Axial_DIN0207_L6.3mm_D2.5mm_P7.62mm_Horizontal" V 1030 2550 50  0001 C CNN
F 3 "~" H 1100 2550 50  0001 C CNN
	1    1100 2550
	0    -1   -1   0   
$EndComp
$Comp
L Device:R R2
U 1 1 60FC1C03
P 1100 2450
F 0 "R2" V 1150 2250 50  0000 L CNN
F 1 "470R" V 1100 2350 50  0000 L CNN
F 2 "Resistor_THT:R_Axial_DIN0207_L6.3mm_D2.5mm_P7.62mm_Horizontal" V 1030 2450 50  0001 C CNN
F 3 "~" H 1100 2450 50  0001 C CNN
	1    1100 2450
	0    -1   -1   0   
$EndComp
Text Label 650  2650 0    50   ~ 0
MOSI
Text Label 650  2550 0    50   ~ 0
MISO
Text Label 650  2450 0    50   ~ 0
SCK
Wire Wire Line
	1250 2650 1400 2650
Wire Wire Line
	1250 2550 1400 2550
Wire Wire Line
	1250 2450 1400 2450
Wire Wire Line
	950  2450 650  2450
Wire Wire Line
	950  2550 650  2550
Wire Wire Line
	950  2650 650  2650
Text Label 4600 2150 2    50   ~ 0
INT
Wire Wire Line
	4100 2150 4000 2150
$Comp
L Switch:SW_DIP_x04 SW4
U 1 1 60FE0907
P 4800 2450
F 0 "SW4" H 4800 2800 50  0000 C CNN
F 1 "SW_DIP_x04" H 4800 2200 50  0000 C CNN
F 2 "Button_Switch_THT:SW_DIP_SPSTx04_Slide_9.78x12.34mm_W7.62mm_P2.54mm" H 4800 2450 50  0001 C CNN
F 3 "~" H 4800 2450 50  0001 C CNN
	1    4800 2450
	1    0    0    1   
$EndComp
Wire Wire Line
	4600 2150 4400 2150
$Comp
L Device:R R8
U 1 1 60FE682F
P 4250 2250
F 0 "R8" V 4300 2400 50  0000 L CNN
F 1 "470R" V 4250 2150 50  0000 L CNN
F 2 "Resistor_THT:R_Axial_DIN0207_L6.3mm_D2.5mm_P7.62mm_Horizontal" V 4180 2250 50  0001 C CNN
F 3 "~" H 4250 2250 50  0001 C CNN
	1    4250 2250
	0    -1   -1   0   
$EndComp
Text Label 4600 2250 2    50   ~ 0
NSS
Wire Wire Line
	4100 2250 4000 2250
Wire Wire Line
	4600 2250 4400 2250
Wire Wire Line
	4500 2350 4000 2350
Wire Wire Line
	4500 2450 4000 2450
Wire Wire Line
	4500 2550 4000 2550
Wire Wire Line
	4500 2650 4000 2650
$Comp
L power:GND #PWR0106
U 1 1 610079FD
P 5150 2850
F 0 "#PWR0106" H 5150 2600 50  0001 C CNN
F 1 "GND" H 5155 2677 50  0000 C CNN
F 2 "" H 5150 2850 50  0001 C CNN
F 3 "" H 5150 2850 50  0001 C CNN
	1    5150 2850
	1    0    0    -1  
$EndComp
Wire Wire Line
	5150 2850 5150 2650
Wire Wire Line
	5150 2350 5100 2350
Wire Wire Line
	5100 2450 5150 2450
Connection ~ 5150 2450
Wire Wire Line
	5150 2450 5150 2350
Wire Wire Line
	5100 2550 5150 2550
Connection ~ 5150 2550
Wire Wire Line
	5150 2550 5150 2450
Wire Wire Line
	5100 2650 5150 2650
Connection ~ 5150 2650
Wire Wire Line
	5150 2650 5150 2550
Wire Notes Line
	5300 3500 5300 550 
Wire Notes Line
	600  550  5300 550 
Wire Notes Line
	600  3500 5300 3500
Connection ~ 4250 2850
Wire Wire Line
	4250 2850 4250 2750
$EndSCHEMATC
