EESchema Schematic File Version 4
EELAYER 30 0
EELAYER END
$Descr A3 16535 11693
encoding utf-8
Sheet 1 1
Title "A9 Max485 Relay v0.1"
Date "2022-01-30"
Rev "0"
Comp ""
Comment1 ""
Comment2 ""
Comment3 ""
Comment4 ""
$EndDescr
$Comp
L Mechanical:MountingHole H1
U 1 1 60062701
P 11050 10200
F 0 "H1" H 11150 10246 50  0000 L CNN
F 1 "MountingHole" H 11150 10155 50  0000 L CNN
F 2 "MountingHole:MountingHole_3mm_Pad_Via" H 11050 10200 50  0001 C CNN
F 3 "~" H 11050 10200 50  0001 C CNN
	1    11050 10200
	1    0    0    -1  
$EndComp
$Comp
L Mechanical:MountingHole H2
U 1 1 61FD5EA1
P 11050 10450
F 0 "H2" H 11150 10496 50  0000 L CNN
F 1 "MountingHole" H 11150 10405 50  0000 L CNN
F 2 "MountingHole:MountingHole_3mm_Pad_Via" H 11050 10450 50  0001 C CNN
F 3 "~" H 11050 10450 50  0001 C CNN
	1    11050 10450
	1    0    0    -1  
$EndComp
$Comp
L Mechanical:MountingHole H3
U 1 1 61FD5EA0
P 11050 10700
F 0 "H3" H 11150 10746 50  0000 L CNN
F 1 "MountingHole" H 11150 10655 50  0000 L CNN
F 2 "MountingHole:MountingHole_3mm_Pad_Via" H 11050 10700 50  0001 C CNN
F 3 "~" H 11050 10700 50  0001 C CNN
	1    11050 10700
	1    0    0    -1  
$EndComp
$Comp
L Mechanical:MountingHole H4
U 1 1 60072588
P 11050 10950
F 0 "H4" H 11150 10996 50  0000 L CNN
F 1 "MountingHole" H 11150 10905 50  0000 L CNN
F 2 "MountingHole:MountingHole_3mm_Pad_Via" H 11050 10950 50  0001 C CNN
F 3 "~" H 11050 10950 50  0001 C CNN
	1    11050 10950
	1    0    0    -1  
$EndComp
$Comp
L Device:C C9
U 1 1 601DA68B
P 9500 3500
F 0 "C9" H 9615 3546 50  0000 L CNN
F 1 "104" H 9615 3455 50  0000 L CNN
F 2 "Capacitor_THT:C_Rect_L7.0mm_W3.5mm_P5.00mm" H 9538 3350 50  0001 C CNN
F 3 "~" H 9500 3500 50  0001 C CNN
	1    9500 3500
	1    0    0    -1  
$EndComp
Wire Wire Line
	9500 3350 9500 3250
Wire Wire Line
	9500 3650 9500 3750
$Comp
L Connector:Screw_Terminal_01x02 J2
U 1 1 6008BAF9
P 2500 2400
F 0 "J2" H 2550 2100 50  0000 C CNN
F 1 "PowerIN" H 2450 2200 50  0000 C CNN
F 2 "TerminalBlock:TerminalBlock_bornier-2_P5.08mm" H 2500 2400 50  0001 C CNN
F 3 "~" H 2500 2400 50  0001 C CNN
	1    2500 2400
	-1   0    0    1   
$EndComp
Wire Wire Line
	4550 2250 4400 2250
Wire Wire Line
	2750 2300 2700 2300
Wire Wire Line
	4550 2450 4400 2450
Wire Wire Line
	2750 2400 2700 2400
Wire Wire Line
	5350 2450 5400 2450
Wire Wire Line
	5400 2450 5400 2700
$Comp
L Interface_UART:MAX485E U9
U 1 1 61FD5EA3
P 8050 2800
F 0 "U9" H 7650 3350 50  0000 C CNN
F 1 "MAX485E" H 7750 3250 50  0000 C CNN
F 2 "Package_DIP:DIP-8_W7.62mm" H 8050 2100 50  0001 C CNN
F 3 "https://datasheets.maximintegrated.com/en/ds/MAX1487E-MAX491E.pdf" H 8050 2850 50  0001 C CNN
	1    8050 2800
	1    0    0    -1  
$EndComp
Text Label 7300 3000 0    50   ~ 0
TX1
Text Label 7300 2800 0    50   ~ 0
DE,RE
Wire Wire Line
	7650 2800 7550 2800
Wire Wire Line
	7650 2900 7550 2900
Wire Wire Line
	7550 2900 7550 2800
Wire Wire Line
	8050 3500 8050 3400
Wire Wire Line
	8050 2300 8050 2150
Wire Wire Line
	7300 3000 7650 3000
Wire Wire Line
	7300 2700 7650 2700
Text Label 7300 2700 0    50   ~ 0
RX1
$Comp
L Connector:Screw_Terminal_01x02 J8
U 1 1 6046F2D7
P 9550 2800
F 0 "J8" H 9500 3050 50  0000 C CNN
F 1 "Mobus_OUT" H 9500 2950 50  0000 C CNN
F 2 "TerminalBlock:TerminalBlock_bornier-2_P5.08mm" H 9550 2800 50  0001 C CNN
F 3 "~" H 9550 2800 50  0001 C CNN
	1    9550 2800
	1    0    0    -1  
$EndComp
$Comp
L Device:R R25
U 1 1 604A62E9
P 8650 2400
F 0 "R25" H 8750 2300 50  0000 L CNN
F 1 "20k" H 8700 2400 50  0000 L CNN
F 2 "Resistor_THT:R_Axial_DIN0207_L6.3mm_D2.5mm_P7.62mm_Horizontal" V 8580 2400 50  0001 C CNN
F 3 "~" H 8650 2400 50  0001 C CNN
	1    8650 2400
	-1   0    0    1   
$EndComp
Wire Wire Line
	8650 2250 8650 2150
$Comp
L Device:R R26
U 1 1 604F489D
P 8750 3250
F 0 "R26" H 8850 3150 50  0000 L CNN
F 1 "20k" H 8800 3250 50  0000 L CNN
F 2 "Resistor_THT:R_Axial_DIN0207_L6.3mm_D2.5mm_P7.62mm_Horizontal" V 8680 3250 50  0001 C CNN
F 3 "~" H 8750 3250 50  0001 C CNN
	1    8750 3250
	-1   0    0    1   
$EndComp
$Comp
L Device:R R27
U 1 1 61FD5EB0
P 9150 2850
F 0 "R27" H 9250 2750 50  0000 L CNN
F 1 "120R" H 9200 2850 50  0000 L CNN
F 2 "Resistor_THT:R_Axial_DIN0207_L6.3mm_D2.5mm_P7.62mm_Horizontal" V 9080 2850 50  0001 C CNN
F 3 "~" H 9150 2850 50  0001 C CNN
	1    9150 2850
	-1   0    0    1   
$EndComp
Wire Wire Line
	8650 2550 8650 3000
Wire Wire Line
	8650 3000 8450 3000
Wire Wire Line
	8450 2700 8750 2700
Wire Wire Line
	8750 2700 8750 3100
Wire Wire Line
	9150 2700 8750 2700
Connection ~ 8750 2700
Wire Wire Line
	9150 3000 8650 3000
Connection ~ 8650 3000
Wire Wire Line
	9150 2700 9350 2700
Wire Wire Line
	9350 2700 9350 2800
Connection ~ 9150 2700
Wire Wire Line
	9350 2900 9350 3000
Wire Wire Line
	9350 3000 9150 3000
Connection ~ 9150 3000
$Comp
L Device:CP C7
U 1 1 61FD5EB8
P 5700 2450
F 0 "C7" H 5818 2496 50  0000 L CNN
F 1 "220uF" H 5818 2405 50  0000 L CNN
F 2 "Capacitor_THT:C_Radial_D6.3mm_H11.0mm_P2.50mm" H 5738 2300 50  0001 C CNN
F 3 "~" H 5700 2450 50  0001 C CNN
	1    5700 2450
	1    0    0    -1  
$EndComp
Wire Wire Line
	5850 2250 5850 2200
Wire Wire Line
	5350 2250 5700 2250
Wire Wire Line
	5700 2300 5700 2250
Connection ~ 5700 2250
Wire Wire Line
	5700 2250 5850 2250
Wire Wire Line
	5700 2700 5700 2600
$Comp
L Device:Varistor RV1
U 1 1 61FD5EB9
P 3350 2400
F 0 "RV1" H 3050 2450 50  0000 L CNN
F 1 "10D561" H 2950 2350 50  0000 L CNN
F 2 "Diode_THT:D_DO-41_SOD81_P10.16mm_Horizontal" V 3280 2400 50  0001 C CNN
F 3 "~" H 3350 2400 50  0001 C CNN
	1    3350 2400
	1    0    0    -1  
$EndComp
$Comp
L Device:EMI_Filter_CommonMode FL1
U 1 1 608BF753
P 4200 2350
F 0 "FL1" H 4200 2750 50  0000 C CNN
F 1 "EMI_Filter_CommonMode" H 4200 2600 50  0000 C CNN
F 2 "Inductor_THT:L_CommonMode_Toroid_Vertical_L19.3mm_W10.8mm_Px6.35mm_Py15.24mm_Bourns_8100" H 4200 2390 50  0001 C CNN
F 3 "~" H 4200 2390 50  0001 C CNN
	1    4200 2350
	1    0    0    -1  
$EndComp
$Comp
L Device:C C4
U 1 1 61FD5EBA
P 3600 2400
F 0 "C4" H 3715 2446 50  0000 L CNN
F 1 "104/630V" H 3600 2300 50  0000 L CNN
F 2 "Capacitor_THT:C_Rect_L19.0mm_W6.0mm_P15.00mm_MKS4" H 3638 2250 50  0001 C CNN
F 3 "~" H 3600 2400 50  0001 C CNN
	1    3600 2400
	1    0    0    -1  
$EndComp
$Comp
L Device:Fuse F1
U 1 1 61FD5EBB
P 3050 2150
F 0 "F1" V 2853 2150 50  0000 C CNN
F 1 "Fuse" V 2944 2150 50  0000 C CNN
F 2 "Fuse:Fuseholder_Cylinder-5x20mm_Stelvio-Kontek_PTF78_Horizontal_Open" V 2980 2150 50  0001 C CNN
F 3 "~" H 3050 2150 50  0001 C CNN
	1    3050 2150
	0    1    1    0   
$EndComp
Wire Wire Line
	4000 2450 4000 2650
Wire Wire Line
	4000 2150 4000 2250
Wire Wire Line
	3200 2150 3350 2150
Wire Wire Line
	3350 2250 3350 2150
Connection ~ 3350 2150
Wire Wire Line
	3350 2150 3600 2150
Wire Wire Line
	3600 2250 3600 2150
Connection ~ 3600 2150
Wire Wire Line
	3600 2150 4000 2150
Wire Wire Line
	4000 2650 3600 2650
Wire Wire Line
	3350 2550 3350 2650
Connection ~ 3350 2650
Wire Wire Line
	3350 2650 2750 2650
Wire Wire Line
	3600 2550 3600 2650
Connection ~ 3600 2650
Wire Wire Line
	3600 2650 3350 2650
Wire Wire Line
	2750 2400 2750 2650
Wire Wire Line
	2900 2150 2750 2150
Wire Wire Line
	2750 2150 2750 2300
$Comp
L My_Lib_KiCAD:A9_GSM_Module U8
U 1 1 60B9AC1F
P 4450 5100
F 0 "U8" H 4450 6065 50  0000 C CNN
F 1 "A9_GSM_Module" H 4450 5974 50  0000 C CNN
F 2 "BA56-12EWA(3Digit7Segment):A9_GSM_Module" H 3650 6100 50  0001 C CNN
F 3 "" H 3850 6100 50  0001 C CNN
	1    4450 5100
	1    0    0    -1  
$EndComp
$Comp
L power:GNDA #PWR019
U 1 1 60BF56DD
P 5400 2700
F 0 "#PWR019" H 5400 2450 50  0001 C CNN
F 1 "GNDA" H 5405 2527 50  0000 C CNN
F 2 "" H 5400 2700 50  0001 C CNN
F 3 "" H 5400 2700 50  0001 C CNN
	1    5400 2700
	1    0    0    -1  
$EndComp
$Comp
L power:GNDA #PWR020
U 1 1 61FD5EC3
P 5700 2700
F 0 "#PWR020" H 5700 2450 50  0001 C CNN
F 1 "GNDA" H 5705 2527 50  0000 C CNN
F 2 "" H 5700 2700 50  0001 C CNN
F 3 "" H 5700 2700 50  0001 C CNN
	1    5700 2700
	1    0    0    -1  
$EndComp
$Comp
L power:+12VA #PWR021
U 1 1 61FD5EC4
P 5850 2200
F 0 "#PWR021" H 5850 2050 50  0001 C CNN
F 1 "+12VA" H 5865 2373 50  0000 C CNN
F 2 "" H 5850 2200 50  0001 C CNN
F 3 "" H 5850 2200 50  0001 C CNN
	1    5850 2200
	1    0    0    -1  
$EndComp
$Comp
L My_Lib_KiCAD:EVISUN U2
U 1 1 60C115E4
P 3800 3200
F 0 "U2" H 3800 3567 50  0000 C CNN
F 1 "EVISUN" H 3800 3476 50  0000 C CNN
F 2 "My_Lib_KiCAD:EVISUN_2W" H 3650 3550 50  0001 C CNN
F 3 "" H 3600 3500 50  0001 C CNN
	1    3800 3200
	1    0    0    -1  
$EndComp
$Comp
L power:+12VA #PWR04
U 1 1 60C13147
P 2600 3000
F 0 "#PWR04" H 2600 2850 50  0001 C CNN
F 1 "+12VA" H 2615 3173 50  0000 C CNN
F 2 "" H 2600 3000 50  0001 C CNN
F 3 "" H 2600 3000 50  0001 C CNN
	1    2600 3000
	1    0    0    -1  
$EndComp
$Comp
L Device:CP C2
U 1 1 60C13596
P 2900 3300
F 0 "C2" H 3018 3346 50  0000 L CNN
F 1 "2.2uF" H 3018 3255 50  0000 L CNN
F 2 "Capacitor_THT:C_Radial_D6.3mm_H11.0mm_P2.50mm" H 2938 3150 50  0001 C CNN
F 3 "~" H 2900 3300 50  0001 C CNN
	1    2900 3300
	1    0    0    -1  
$EndComp
Wire Wire Line
	3400 3100 2900 3100
Wire Wire Line
	2600 3100 2600 3000
Wire Wire Line
	2900 3150 2900 3100
Connection ~ 2900 3100
Wire Wire Line
	2900 3100 2600 3100
$Comp
L power:+5V #PWR018
U 1 1 60C20EAD
P 5000 3000
F 0 "#PWR018" H 5000 2850 50  0001 C CNN
F 1 "+5V" H 5015 3173 50  0000 C CNN
F 2 "" H 5000 3000 50  0001 C CNN
F 3 "" H 5000 3000 50  0001 C CNN
	1    5000 3000
	1    0    0    -1  
$EndComp
Wire Wire Line
	4200 3100 4600 3100
Wire Wire Line
	5000 3100 5000 3000
Wire Wire Line
	4600 3150 4600 3100
Connection ~ 4600 3100
Wire Wire Line
	4600 3100 5000 3100
$Comp
L power:GND #PWR017
U 1 1 61FD5ECB
P 4600 3550
F 0 "#PWR017" H 4600 3300 50  0001 C CNN
F 1 "GND" H 4605 3377 50  0000 C CNN
F 2 "" H 4600 3550 50  0001 C CNN
F 3 "" H 4600 3550 50  0001 C CNN
	1    4600 3550
	1    0    0    -1  
$EndComp
Wire Wire Line
	2900 3550 2900 3450
Wire Wire Line
	4600 3550 4600 3450
$Comp
L power:GND #PWR011
U 1 1 60C3C272
P 4300 3550
F 0 "#PWR011" H 4300 3300 50  0001 C CNN
F 1 "GND" H 4305 3377 50  0000 C CNN
F 2 "" H 4300 3550 50  0001 C CNN
F 3 "" H 4300 3550 50  0001 C CNN
	1    4300 3550
	1    0    0    -1  
$EndComp
Wire Wire Line
	4300 3550 4300 3300
Wire Wire Line
	4300 3300 4200 3300
Wire Wire Line
	3300 3550 3300 3300
Wire Wire Line
	3300 3300 3400 3300
$Comp
L power:GNDA #PWR06
U 1 1 60C49DDE
P 2900 3550
F 0 "#PWR06" H 2900 3300 50  0001 C CNN
F 1 "GNDA" H 2905 3377 50  0000 C CNN
F 2 "" H 2900 3550 50  0001 C CNN
F 3 "" H 2900 3550 50  0001 C CNN
	1    2900 3550
	1    0    0    -1  
$EndComp
$Comp
L power:GNDA #PWR08
U 1 1 60C4A0EC
P 3300 3550
F 0 "#PWR08" H 3300 3300 50  0001 C CNN
F 1 "GNDA" H 3305 3377 50  0000 C CNN
F 2 "" H 3300 3550 50  0001 C CNN
F 3 "" H 3300 3550 50  0001 C CNN
	1    3300 3550
	1    0    0    -1  
$EndComp
$Comp
L power:GND #PWR056
U 1 1 60C4C099
P 5600 6000
F 0 "#PWR056" H 5600 5750 50  0001 C CNN
F 1 "GND" H 5605 5827 50  0000 C CNN
F 2 "" H 5600 6000 50  0001 C CNN
F 3 "" H 5600 6000 50  0001 C CNN
	1    5600 6000
	1    0    0    -1  
$EndComp
$Comp
L power:+5V #PWR057
U 1 1 60C4C4A2
P 5950 5600
F 0 "#PWR057" H 5950 5450 50  0001 C CNN
F 1 "+5V" H 5965 5773 50  0000 C CNN
F 2 "" H 5950 5600 50  0001 C CNN
F 3 "" H 5950 5600 50  0001 C CNN
	1    5950 5600
	1    0    0    -1  
$EndComp
Wire Wire Line
	5450 5800 5950 5800
Wire Wire Line
	5950 5800 5950 5600
Wire Wire Line
	5450 5900 5600 5900
Wire Wire Line
	5600 5900 5600 6000
Text Label 3000 5100 0    50   ~ 0
RLY1
Wire Wire Line
	3000 5100 3450 5100
Text Label 3000 5000 0    50   ~ 0
RLY2
Wire Wire Line
	3450 5000 3000 5000
Text Label 3000 4900 0    50   ~ 0
RLY3
Wire Wire Line
	3450 4900 3000 4900
Text Label 5800 5500 2    50   ~ 0
HST_RX
Text Label 5800 5400 2    50   ~ 0
HST_TX
Wire Wire Line
	5800 5400 5450 5400
Wire Wire Line
	5800 5500 5450 5500
$Comp
L Connector:Screw_Terminal_01x02 J7
U 1 1 60C8BB4A
P 2750 4500
F 0 "J7" H 2800 4200 50  0000 C CNN
F 1 "BATT" H 2700 4300 50  0000 C CNN
F 2 "TerminalBlock:TerminalBlock_bornier-2_P5.08mm" H 2750 4500 50  0001 C CNN
F 3 "~" H 2750 4500 50  0001 C CNN
	1    2750 4500
	-1   0    0    1   
$EndComp
Wire Wire Line
	3450 4500 2950 4500
$Comp
L power:GND #PWR044
U 1 1 60C95D53
P 3050 4550
F 0 "#PWR044" H 3050 4300 50  0001 C CNN
F 1 "GND" H 3055 4377 50  0000 C CNN
F 2 "" H 3050 4550 50  0001 C CNN
F 3 "" H 3050 4550 50  0001 C CNN
	1    3050 4550
	1    0    0    -1  
$EndComp
Text Label 10050 3200 0    50   ~ 0
RLY1
$Comp
L Connector:Screw_Terminal_01x02 J3
U 1 1 60CD24BC
P 13800 2650
F 0 "J3" H 13800 2850 50  0000 C CNN
F 1 "L1_OUT" H 13800 2750 50  0000 C CNN
F 2 "TerminalBlock:TerminalBlock_bornier-2_P5.08mm" H 13800 2650 50  0001 C CNN
F 3 "~" H 13800 2650 50  0001 C CNN
	1    13800 2650
	1    0    0    -1  
$EndComp
Text Label 10050 5200 0    50   ~ 0
RLY2
$Comp
L Connector:Screw_Terminal_01x02 J4
U 1 1 60D14CE1
P 13800 4650
F 0 "J4" H 13800 4850 50  0000 C CNN
F 1 "L2_OUT" H 13800 4750 50  0000 C CNN
F 2 "TerminalBlock:TerminalBlock_bornier-2_P5.08mm" H 13800 4650 50  0001 C CNN
F 3 "~" H 13800 4650 50  0001 C CNN
	1    13800 4650
	1    0    0    -1  
$EndComp
Text Label 10050 7300 0    50   ~ 0
RLY3
Wire Wire Line
	2950 4400 3050 4400
Wire Wire Line
	3050 4550 3050 4400
Connection ~ 3050 4400
Wire Wire Line
	3050 4400 3450 4400
Text Label 4150 8150 0    50   ~ 0
HST_TX
Text Label 4150 8250 0    50   ~ 0
HST_RX
$Comp
L power:+5V #PWR028
U 1 1 60215690
P 4400 7650
F 0 "#PWR028" H 4400 7500 50  0001 C CNN
F 1 "+5V" H 4415 7823 50  0000 C CNN
F 2 "" H 4400 7650 50  0001 C CNN
F 3 "" H 4400 7650 50  0001 C CNN
	1    4400 7650
	1    0    0    -1  
$EndComp
$Comp
L power:GND #PWR025
U 1 1 60215AE8
P 3900 7900
F 0 "#PWR025" H 3900 7650 50  0001 C CNN
F 1 "GND" H 3905 7727 50  0000 C CNN
F 2 "" H 3900 7900 50  0001 C CNN
F 3 "" H 3900 7900 50  0001 C CNN
	1    3900 7900
	1    0    0    -1  
$EndComp
Wire Wire Line
	4500 8250 4150 8250
Wire Wire Line
	4500 8150 4150 8150
$Comp
L Connector:Screw_Terminal_01x04 J6
U 1 1 602B0E45
P 7050 4950
F 0 "J6" H 7130 4942 50  0000 L CNN
F 1 "DI_INPUTs" H 7130 4851 50  0000 L CNN
F 2 "TerminalBlock:TerminalBlock_bornier-4_P5.08mm" H 7050 4950 50  0001 C CNN
F 3 "~" H 7050 4950 50  0001 C CNN
	1    7050 4950
	1    0    0    -1  
$EndComp
$Comp
L power:+12VA #PWR030
U 1 1 602B2A58
P 6700 4750
F 0 "#PWR030" H 6700 4600 50  0001 C CNN
F 1 "+12VA" H 6715 4923 50  0000 C CNN
F 2 "" H 6700 4750 50  0001 C CNN
F 3 "" H 6700 4750 50  0001 C CNN
	1    6700 4750
	1    0    0    -1  
$EndComp
Wire Wire Line
	6850 4850 6700 4850
Wire Wire Line
	6700 4850 6700 4750
Text Label 6450 4950 0    50   ~ 0
DI0
Wire Wire Line
	6450 4950 6850 4950
Text Label 6450 5050 0    50   ~ 0
DI1
Text Label 6450 5150 0    50   ~ 0
DI2
Wire Wire Line
	6450 5050 6850 5050
Wire Wire Line
	6450 5150 6850 5150
$Comp
L Isolator:PC817 U5
U 1 1 602DF372
P 8450 4650
F 0 "U5" H 8450 4975 50  0000 C CNN
F 1 "PC817" H 8450 4884 50  0000 C CNN
F 2 "Package_DIP:DIP-4_W7.62mm" H 8250 4450 50  0001 L CIN
F 3 "http://www.soselectronic.cz/a_info/resource/d/pc817.pdf" H 8450 4650 50  0001 L CNN
	1    8450 4650
	1    0    0    -1  
$EndComp
$Comp
L Device:R R7
U 1 1 602E01B7
P 7850 4550
F 0 "R7" V 8050 4550 50  0000 L CNN
F 1 "10k" V 7950 4500 50  0000 L CNN
F 2 "Resistor_THT:R_Axial_DIN0207_L6.3mm_D2.5mm_P7.62mm_Horizontal" V 7780 4550 50  0001 C CNN
F 3 "~" H 7850 4550 50  0001 C CNN
	1    7850 4550
	0    -1   -1   0   
$EndComp
Wire Wire Line
	8150 4550 8000 4550
Text Label 7450 4550 0    50   ~ 0
DI0
Wire Wire Line
	7450 4550 7700 4550
$Comp
L power:GNDA #PWR027
U 1 1 602F69BA
P 8050 4850
F 0 "#PWR027" H 8050 4600 50  0001 C CNN
F 1 "GNDA" H 8055 4677 50  0000 C CNN
F 2 "" H 8050 4850 50  0001 C CNN
F 3 "" H 8050 4850 50  0001 C CNN
	1    8050 4850
	1    0    0    -1  
$EndComp
Wire Wire Line
	8150 4750 8050 4750
Wire Wire Line
	8050 4750 8050 4850
$Comp
L power:+5V #PWR034
U 1 1 603029EC
P 8800 4400
F 0 "#PWR034" H 8800 4250 50  0001 C CNN
F 1 "+5V" H 8815 4573 50  0000 C CNN
F 2 "" H 8800 4400 50  0001 C CNN
F 3 "" H 8800 4400 50  0001 C CNN
	1    8800 4400
	1    0    0    -1  
$EndComp
Wire Wire Line
	8750 4550 8800 4550
Wire Wire Line
	8800 4550 8800 4400
$Comp
L Device:R R12
U 1 1 6030F2E3
P 9000 5050
F 0 "R12" H 9100 4950 50  0000 L CNN
F 1 "4.7k" H 9050 5050 50  0000 L CNN
F 2 "Resistor_THT:R_Axial_DIN0207_L6.3mm_D2.5mm_P7.62mm_Horizontal" V 8930 5050 50  0001 C CNN
F 3 "~" H 9000 5050 50  0001 C CNN
	1    9000 5050
	-1   0    0    1   
$EndComp
Wire Wire Line
	8750 4750 9000 4750
Wire Wire Line
	9000 4750 9000 4900
$Comp
L Device:R R13
U 1 1 6031B888
P 9000 5550
F 0 "R13" H 9100 5450 50  0000 L CNN
F 1 "3.3k" H 9050 5550 50  0000 L CNN
F 2 "Resistor_THT:R_Axial_DIN0207_L6.3mm_D2.5mm_P7.62mm_Horizontal" V 8930 5550 50  0001 C CNN
F 3 "~" H 9000 5550 50  0001 C CNN
	1    9000 5550
	-1   0    0    1   
$EndComp
$Comp
L power:GND #PWR035
U 1 1 6031BC07
P 9000 5800
F 0 "#PWR035" H 9000 5550 50  0001 C CNN
F 1 "GND" H 9005 5627 50  0000 C CNN
F 2 "" H 9000 5800 50  0001 C CNN
F 3 "" H 9000 5800 50  0001 C CNN
	1    9000 5800
	1    0    0    -1  
$EndComp
Wire Wire Line
	9000 5800 9000 5700
Wire Wire Line
	9000 5400 9000 5300
Text Label 9350 5300 2    50   ~ 0
IO0
Wire Wire Line
	9350 5300 9000 5300
Connection ~ 9000 5300
Wire Wire Line
	9000 5300 9000 5200
$Comp
L Device:LED D6
U 1 1 60341163
P 3350 6600
F 0 "D6" V 3389 6482 50  0000 R CNN
F 1 "LED" V 3298 6482 50  0000 R CNN
F 2 "LED_THT:LED_D5.0mm" H 3350 6600 50  0001 C CNN
F 3 "~" H 3350 6600 50  0001 C CNN
	1    3350 6600
	0    -1   -1   0   
$EndComp
$Comp
L Device:LED D5
U 1 1 603433F8
P 3050 6600
F 0 "D5" V 3089 6482 50  0000 R CNN
F 1 "LED" V 2998 6482 50  0000 R CNN
F 2 "LED_THT:LED_D5.0mm" H 3050 6600 50  0001 C CNN
F 3 "~" H 3050 6600 50  0001 C CNN
	1    3050 6600
	0    -1   -1   0   
$EndComp
$Comp
L Device:LED D4
U 1 1 603437F8
P 2750 6600
F 0 "D4" V 2789 6482 50  0000 R CNN
F 1 "LED" V 2698 6482 50  0000 R CNN
F 2 "LED_THT:LED_D5.0mm" H 2750 6600 50  0001 C CNN
F 3 "~" H 2750 6600 50  0001 C CNN
	1    2750 6600
	0    -1   -1   0   
$EndComp
$Comp
L Device:R R22
U 1 1 60343CEF
P 3350 6200
F 0 "R22" H 3450 6100 50  0000 L CNN
F 1 "120R" H 3400 6200 50  0000 L CNN
F 2 "Resistor_THT:R_Axial_DIN0207_L6.3mm_D2.5mm_P2.54mm_Vertical" V 3280 6200 50  0001 C CNN
F 3 "~" H 3350 6200 50  0001 C CNN
	1    3350 6200
	-1   0    0    1   
$EndComp
$Comp
L Device:R R19
U 1 1 60344123
P 3050 6200
F 0 "R19" H 3150 6100 50  0000 L CNN
F 1 "120R" H 3100 6200 50  0000 L CNN
F 2 "Resistor_THT:R_Axial_DIN0207_L6.3mm_D2.5mm_P2.54mm_Vertical" V 2980 6200 50  0001 C CNN
F 3 "~" H 3050 6200 50  0001 C CNN
	1    3050 6200
	-1   0    0    1   
$EndComp
$Comp
L Device:R R18
U 1 1 603443CB
P 2750 6200
F 0 "R18" H 2850 6100 50  0000 L CNN
F 1 "120R" H 2800 6200 50  0000 L CNN
F 2 "Resistor_THT:R_Axial_DIN0207_L6.3mm_D2.5mm_P2.54mm_Vertical" V 2680 6200 50  0001 C CNN
F 3 "~" H 2750 6200 50  0001 C CNN
	1    2750 6200
	-1   0    0    1   
$EndComp
Wire Wire Line
	2750 6450 2750 6350
Wire Wire Line
	3050 6450 3050 6350
Wire Wire Line
	3350 6450 3350 6350
$Comp
L power:GND #PWR043
U 1 1 603A11E9
P 2750 6850
F 0 "#PWR043" H 2750 6600 50  0001 C CNN
F 1 "GND" H 2755 6677 50  0000 C CNN
F 2 "" H 2750 6850 50  0001 C CNN
F 3 "" H 2750 6850 50  0001 C CNN
	1    2750 6850
	1    0    0    -1  
$EndComp
$Comp
L power:GND #PWR045
U 1 1 603A17D9
P 3050 6850
F 0 "#PWR045" H 3050 6600 50  0001 C CNN
F 1 "GND" H 3055 6677 50  0000 C CNN
F 2 "" H 3050 6850 50  0001 C CNN
F 3 "" H 3050 6850 50  0001 C CNN
	1    3050 6850
	1    0    0    -1  
$EndComp
$Comp
L power:GND #PWR049
U 1 1 603A1990
P 3350 6850
F 0 "#PWR049" H 3350 6600 50  0001 C CNN
F 1 "GND" H 3355 6677 50  0000 C CNN
F 2 "" H 3350 6850 50  0001 C CNN
F 3 "" H 3350 6850 50  0001 C CNN
	1    3350 6850
	1    0    0    -1  
$EndComp
Wire Wire Line
	2750 6850 2750 6750
Wire Wire Line
	3050 6850 3050 6750
Wire Wire Line
	3350 6850 3350 6750
$Comp
L Isolator:PC817 U4
U 1 1 603FBF27
P 8050 5850
F 0 "U4" H 8050 6175 50  0000 C CNN
F 1 "PC817" H 8050 6084 50  0000 C CNN
F 2 "Package_DIP:DIP-4_W7.62mm" H 7850 5650 50  0001 L CIN
F 3 "http://www.soselectronic.cz/a_info/resource/d/pc817.pdf" H 8050 5850 50  0001 L CNN
	1    8050 5850
	1    0    0    -1  
$EndComp
$Comp
L Device:R R6
U 1 1 603FBF2D
P 7450 5750
F 0 "R6" V 7650 5750 50  0000 L CNN
F 1 "10k" V 7550 5700 50  0000 L CNN
F 2 "Resistor_THT:R_Axial_DIN0207_L6.3mm_D2.5mm_P7.62mm_Horizontal" V 7380 5750 50  0001 C CNN
F 3 "~" H 7450 5750 50  0001 C CNN
	1    7450 5750
	0    -1   -1   0   
$EndComp
Wire Wire Line
	7750 5750 7600 5750
Text Label 7050 5750 0    50   ~ 0
DI1
Wire Wire Line
	7050 5750 7300 5750
$Comp
L power:GNDA #PWR026
U 1 1 603FBF36
P 7650 6050
F 0 "#PWR026" H 7650 5800 50  0001 C CNN
F 1 "GNDA" H 7655 5877 50  0000 C CNN
F 2 "" H 7650 6050 50  0001 C CNN
F 3 "" H 7650 6050 50  0001 C CNN
	1    7650 6050
	1    0    0    -1  
$EndComp
Wire Wire Line
	7750 5950 7650 5950
Wire Wire Line
	7650 5950 7650 6050
$Comp
L power:+5V #PWR031
U 1 1 603FBF3E
P 8400 5600
F 0 "#PWR031" H 8400 5450 50  0001 C CNN
F 1 "+5V" H 8415 5773 50  0000 C CNN
F 2 "" H 8400 5600 50  0001 C CNN
F 3 "" H 8400 5600 50  0001 C CNN
	1    8400 5600
	1    0    0    -1  
$EndComp
Wire Wire Line
	8350 5750 8400 5750
Wire Wire Line
	8400 5750 8400 5600
$Comp
L Device:R R10
U 1 1 603FBF46
P 8600 6250
F 0 "R10" H 8700 6150 50  0000 L CNN
F 1 "4.7k" H 8650 6250 50  0000 L CNN
F 2 "Resistor_THT:R_Axial_DIN0207_L6.3mm_D2.5mm_P7.62mm_Horizontal" V 8530 6250 50  0001 C CNN
F 3 "~" H 8600 6250 50  0001 C CNN
	1    8600 6250
	-1   0    0    1   
$EndComp
Wire Wire Line
	8350 5950 8600 5950
Wire Wire Line
	8600 5950 8600 6100
$Comp
L Device:R R11
U 1 1 603FBF4E
P 8600 6750
F 0 "R11" H 8700 6650 50  0000 L CNN
F 1 "3.3k" H 8650 6750 50  0000 L CNN
F 2 "Resistor_THT:R_Axial_DIN0207_L6.3mm_D2.5mm_P7.62mm_Horizontal" V 8530 6750 50  0001 C CNN
F 3 "~" H 8600 6750 50  0001 C CNN
	1    8600 6750
	-1   0    0    1   
$EndComp
$Comp
L power:GND #PWR033
U 1 1 603FBF54
P 8600 7000
F 0 "#PWR033" H 8600 6750 50  0001 C CNN
F 1 "GND" H 8605 6827 50  0000 C CNN
F 2 "" H 8600 7000 50  0001 C CNN
F 3 "" H 8600 7000 50  0001 C CNN
	1    8600 7000
	1    0    0    -1  
$EndComp
Wire Wire Line
	8600 7000 8600 6900
Wire Wire Line
	8600 6600 8600 6500
Text Label 8950 6500 2    50   ~ 0
IO1
Wire Wire Line
	8950 6500 8600 6500
Connection ~ 8600 6500
Wire Wire Line
	8600 6500 8600 6400
$Comp
L Isolator:PC817 U3
U 1 1 6040D403
P 7900 7350
F 0 "U3" H 7900 7675 50  0000 C CNN
F 1 "PC817" H 7900 7584 50  0000 C CNN
F 2 "Package_DIP:DIP-4_W7.62mm" H 7700 7150 50  0001 L CIN
F 3 "http://www.soselectronic.cz/a_info/resource/d/pc817.pdf" H 7900 7350 50  0001 L CNN
	1    7900 7350
	1    0    0    -1  
$EndComp
$Comp
L Device:R R5
U 1 1 6040D409
P 7300 7250
F 0 "R5" V 7500 7250 50  0000 L CNN
F 1 "10k" V 7400 7200 50  0000 L CNN
F 2 "Resistor_THT:R_Axial_DIN0207_L6.3mm_D2.5mm_P7.62mm_Horizontal" V 7230 7250 50  0001 C CNN
F 3 "~" H 7300 7250 50  0001 C CNN
	1    7300 7250
	0    -1   -1   0   
$EndComp
Wire Wire Line
	7600 7250 7450 7250
Text Label 6900 7250 0    50   ~ 0
DI2
Wire Wire Line
	6900 7250 7150 7250
$Comp
L power:GNDA #PWR024
U 1 1 6040D412
P 7500 7550
F 0 "#PWR024" H 7500 7300 50  0001 C CNN
F 1 "GNDA" H 7505 7377 50  0000 C CNN
F 2 "" H 7500 7550 50  0001 C CNN
F 3 "" H 7500 7550 50  0001 C CNN
	1    7500 7550
	1    0    0    -1  
$EndComp
Wire Wire Line
	7600 7450 7500 7450
Wire Wire Line
	7500 7450 7500 7550
$Comp
L power:+5V #PWR029
U 1 1 6040D41A
P 8250 7100
F 0 "#PWR029" H 8250 6950 50  0001 C CNN
F 1 "+5V" H 8265 7273 50  0000 C CNN
F 2 "" H 8250 7100 50  0001 C CNN
F 3 "" H 8250 7100 50  0001 C CNN
	1    8250 7100
	1    0    0    -1  
$EndComp
Wire Wire Line
	8200 7250 8250 7250
Wire Wire Line
	8250 7250 8250 7100
$Comp
L Device:R R8
U 1 1 6040D422
P 8450 7750
F 0 "R8" H 8550 7650 50  0000 L CNN
F 1 "4.7k" H 8500 7750 50  0000 L CNN
F 2 "Resistor_THT:R_Axial_DIN0207_L6.3mm_D2.5mm_P7.62mm_Horizontal" V 8380 7750 50  0001 C CNN
F 3 "~" H 8450 7750 50  0001 C CNN
	1    8450 7750
	-1   0    0    1   
$EndComp
Wire Wire Line
	8200 7450 8450 7450
Wire Wire Line
	8450 7450 8450 7600
$Comp
L Device:R R9
U 1 1 6040D42A
P 8450 8250
F 0 "R9" H 8550 8150 50  0000 L CNN
F 1 "3.3k" H 8500 8250 50  0000 L CNN
F 2 "Resistor_THT:R_Axial_DIN0207_L6.3mm_D2.5mm_P7.62mm_Horizontal" V 8380 8250 50  0001 C CNN
F 3 "~" H 8450 8250 50  0001 C CNN
	1    8450 8250
	-1   0    0    1   
$EndComp
$Comp
L power:GND #PWR032
U 1 1 61FD5EAF
P 8450 8500
F 0 "#PWR032" H 8450 8250 50  0001 C CNN
F 1 "GND" H 8455 8327 50  0000 C CNN
F 2 "" H 8450 8500 50  0001 C CNN
F 3 "" H 8450 8500 50  0001 C CNN
	1    8450 8500
	1    0    0    -1  
$EndComp
Wire Wire Line
	8450 8500 8450 8400
Wire Wire Line
	8450 8100 8450 8000
Text Label 8800 8000 2    50   ~ 0
IO2
Wire Wire Line
	8800 8000 8450 8000
Connection ~ 8450 8000
Wire Wire Line
	8450 8000 8450 7900
Wire Wire Line
	3450 5900 3350 5900
Wire Wire Line
	3350 5900 3350 6050
Wire Wire Line
	3450 5800 3050 5800
Wire Wire Line
	3050 5800 3050 6050
Wire Wire Line
	3450 5700 2750 5700
Wire Wire Line
	2750 5700 2750 6050
Text Label 3000 5400 0    50   ~ 0
IO2
Wire Wire Line
	3000 5400 3450 5400
Text Label 3000 5300 0    50   ~ 0
IO1
Text Label 3000 5200 0    50   ~ 0
IO0
Wire Wire Line
	3000 5300 3450 5300
Wire Wire Line
	3000 5200 3450 5200
Text Label 5850 4600 2    50   ~ 0
BUTTON
Wire Wire Line
	5850 4600 5450 4600
$Comp
L Switch:SW_Push SW1
U 1 1 61FD5EB2
P 5500 8050
F 0 "SW1" V 5454 8198 50  0000 L CNN
F 1 "BTN" V 5545 8198 50  0000 L CNN
F 2 "Button_Switch_THT:SW_PUSH_6mm" H 5500 8250 50  0001 C CNN
F 3 "~" H 5500 8250 50  0001 C CNN
	1    5500 8050
	0    1    1    0   
$EndComp
$Comp
L Device:R R4
U 1 1 61FD5EB3
P 5500 7550
F 0 "R4" H 5600 7450 50  0000 L CNN
F 1 "1k" H 5550 7550 50  0000 L CNN
F 2 "Resistor_THT:R_Axial_DIN0207_L6.3mm_D2.5mm_P7.62mm_Horizontal" V 5430 7550 50  0001 C CNN
F 3 "~" H 5500 7550 50  0001 C CNN
	1    5500 7550
	-1   0    0    1   
$EndComp
$Comp
L power:+5V #PWR022
U 1 1 6059A7F8
P 5500 7300
F 0 "#PWR022" H 5500 7150 50  0001 C CNN
F 1 "+5V" H 5515 7473 50  0000 C CNN
F 2 "" H 5500 7300 50  0001 C CNN
F 3 "" H 5500 7300 50  0001 C CNN
	1    5500 7300
	1    0    0    -1  
$EndComp
Wire Wire Line
	5500 7400 5500 7300
$Comp
L power:GND #PWR023
U 1 1 605AB73D
P 5500 8350
F 0 "#PWR023" H 5500 8100 50  0001 C CNN
F 1 "GND" H 5505 8177 50  0000 C CNN
F 2 "" H 5500 8350 50  0001 C CNN
F 3 "" H 5500 8350 50  0001 C CNN
	1    5500 8350
	1    0    0    -1  
$EndComp
Wire Wire Line
	5500 8350 5500 8250
Wire Wire Line
	5500 7850 5500 7800
Text Label 5100 7800 0    50   ~ 0
BUTTON
Wire Wire Line
	5100 7800 5500 7800
Connection ~ 5500 7800
Wire Wire Line
	5500 7800 5500 7700
Text Label 5850 4400 2    50   ~ 0
TX1
Wire Wire Line
	5850 4400 5450 4400
Text Label 5850 4500 2    50   ~ 0
RX1
Wire Wire Line
	5850 4500 5450 4500
Wire Wire Line
	4500 7750 3900 7750
Wire Wire Line
	3900 7750 3900 7900
Wire Wire Line
	4500 7850 4400 7850
Wire Wire Line
	4400 7850 4400 7650
$Comp
L Connector_Generic:Conn_01x06 J5
U 1 1 609F137C
P 4700 7950
F 0 "J5" H 4780 7942 50  0000 L CNN
F 1 "CONN" H 4780 7851 50  0000 L CNN
F 2 "Connector_PinHeader_2.54mm:PinHeader_1x06_P2.54mm_Vertical" H 4700 7950 50  0001 C CNN
F 3 "~" H 4700 7950 50  0001 C CNN
	1    4700 7950
	1    0    0    -1  
$EndComp
Text Label 4150 8050 0    50   ~ 0
TEMP2
Text Label 4150 7950 0    50   ~ 0
TEMP1
Wire Wire Line
	4500 7950 4150 7950
Wire Wire Line
	4500 8050 4150 8050
Text Label 5800 5000 2    50   ~ 0
TEMP1
Text Label 5800 5100 2    50   ~ 0
TEMP2
Wire Wire Line
	5800 5000 5450 5000
Wire Wire Line
	5800 5100 5450 5100
$Comp
L Device:R R14
U 1 1 60AA94CB
P 4950 6600
F 0 "R14" H 5050 6500 50  0000 L CNN
F 1 "1k" H 5000 6600 50  0000 L CNN
F 2 "Resistor_THT:R_Axial_DIN0207_L6.3mm_D2.5mm_P7.62mm_Horizontal" V 4880 6600 50  0001 C CNN
F 3 "~" H 4950 6600 50  0001 C CNN
	1    4950 6600
	-1   0    0    1   
$EndComp
$Comp
L Device:R R15
U 1 1 60AA99D3
P 5200 6600
F 0 "R15" H 5300 6500 50  0000 L CNN
F 1 "1k" H 5250 6600 50  0000 L CNN
F 2 "Resistor_THT:R_Axial_DIN0207_L6.3mm_D2.5mm_P7.62mm_Horizontal" V 5130 6600 50  0001 C CNN
F 3 "~" H 5200 6600 50  0001 C CNN
	1    5200 6600
	-1   0    0    1   
$EndComp
Text Label 4550 6950 0    50   ~ 0
TEMP2
Text Label 4550 6850 0    50   ~ 0
TEMP1
Wire Wire Line
	4950 6750 4950 6850
Wire Wire Line
	4550 6850 4950 6850
Wire Wire Line
	5200 6950 5200 6750
Wire Wire Line
	4550 6950 5200 6950
$Comp
L power:+5V #PWR036
U 1 1 60ADF995
P 4950 6350
F 0 "#PWR036" H 4950 6200 50  0001 C CNN
F 1 "+5V" H 4965 6523 50  0000 C CNN
F 2 "" H 4950 6350 50  0001 C CNN
F 3 "" H 4950 6350 50  0001 C CNN
	1    4950 6350
	1    0    0    -1  
$EndComp
$Comp
L power:+5V #PWR037
U 1 1 60AE00D4
P 5200 6350
F 0 "#PWR037" H 5200 6200 50  0001 C CNN
F 1 "+5V" H 5215 6523 50  0000 C CNN
F 2 "" H 5200 6350 50  0001 C CNN
F 3 "" H 5200 6350 50  0001 C CNN
	1    5200 6350
	1    0    0    -1  
$EndComp
Wire Wire Line
	4950 6350 4950 6450
Wire Wire Line
	5200 6350 5200 6450
$Comp
L Device:C C8
U 1 1 5FFFB2FA
P 2550 5150
F 0 "C8" H 2665 5196 50  0000 L CNN
F 1 "104" H 2665 5105 50  0000 L CNN
F 2 "Capacitor_THT:C_Rect_L7.0mm_W3.5mm_P5.00mm" H 2588 5000 50  0001 C CNN
F 3 "~" H 2550 5150 50  0001 C CNN
	1    2550 5150
	1    0    0    -1  
$EndComp
$Comp
L power:GND #PWR039
U 1 1 5FFFC817
P 2550 5400
F 0 "#PWR039" H 2550 5150 50  0001 C CNN
F 1 "GND" H 2555 5227 50  0000 C CNN
F 2 "" H 2550 5400 50  0001 C CNN
F 3 "" H 2550 5400 50  0001 C CNN
	1    2550 5400
	1    0    0    -1  
$EndComp
$Comp
L power:+5V #PWR038
U 1 1 5FFFCAB7
P 2550 4900
F 0 "#PWR038" H 2550 4750 50  0001 C CNN
F 1 "+5V" H 2565 5073 50  0000 C CNN
F 2 "" H 2550 4900 50  0001 C CNN
F 3 "" H 2550 4900 50  0001 C CNN
	1    2550 4900
	1    0    0    -1  
$EndComp
Wire Wire Line
	2550 5000 2550 4900
Wire Wire Line
	2550 5400 2550 5300
$Comp
L Converter_ACDC:HLK-PM12 PS1
U 1 1 6013B373
P 4950 2350
F 0 "PS1" H 4950 2675 50  0000 C CNN
F 1 "HLK-PM12" H 4950 2584 50  0000 C CNN
F 2 "Converter_ACDC:Converter_ACDC_HiLink_HLK-PMxx" H 4950 2050 50  0001 C CNN
F 3 "http://www.hlktech.net/product_detail.php?ProId=56" H 5350 2000 50  0001 C CNN
	1    4950 2350
	1    0    0    -1  
$EndComp
$Comp
L HLS6-4100H:SANYOU_SRD_Form_C K2
U 1 1 61C186D8
P 12800 2750
F 0 "K2" H 12371 2704 50  0000 R CNN
F 1 "RLY1" H 12371 2795 50  0000 R CNN
F 2 "Relay_THT:Relay_SPDT_SANYOU_SRD_Series_Form_C" H 13250 2700 50  0001 L CNN
F 3 "http://www.sanyourelay.ca/public/products/pdf/SRD.pdf" H 12800 2750 50  0001 C CNN
	1    12800 2750
	1    0    0    -1  
$EndComp
$Comp
L Device:R R2
U 1 1 61C19286
P 12050 3400
F 0 "R2" V 12250 3400 50  0000 L CNN
F 1 "10k" V 12150 3350 50  0000 L CNN
F 2 "My_Lib_KiCAD:R_0.125W_MY" V 11980 3400 50  0001 C CNN
F 3 "~" H 12050 3400 50  0001 C CNN
	1    12050 3400
	0    -1   -1   0   
$EndComp
$Comp
L Transistor_BJT:BC547 Q2
U 1 1 61C19645
P 12500 3400
F 0 "Q2" H 12691 3446 50  0000 L CNN
F 1 "BC547" H 12691 3355 50  0000 L CNN
F 2 "My_Lib_KiCAD:TO-92L_MY" H 12700 3325 50  0001 L CIN
F 3 "https://www.onsemi.com/pub/Collateral/BC550-D.pdf" H 12500 3400 50  0001 L CNN
	1    12500 3400
	1    0    0    -1  
$EndComp
Wire Wire Line
	11500 3400 11700 3400
Wire Wire Line
	12200 3400 12300 3400
Wire Wire Line
	12600 3200 12600 3100
Wire Wire Line
	12600 3700 12600 3600
$Comp
L Diode:1N4007 D2
U 1 1 61C4B258
P 12200 2750
F 0 "D2" V 12150 2550 50  0000 L CNN
F 1 "1N4007" V 12250 2350 50  0000 L CNN
F 2 "Diode_THT:D_DO-41_SOD81_P10.16mm_Horizontal" H 12200 2575 50  0001 C CNN
F 3 "http://www.vishay.com/docs/88503/1n4001.pdf" H 12200 2750 50  0001 C CNN
	1    12200 2750
	0    1    1    0   
$EndComp
Wire Wire Line
	12200 2900 12200 3100
Wire Wire Line
	12200 3100 12600 3100
Connection ~ 12600 3100
Wire Wire Line
	12600 3100 12600 3050
$Comp
L power:+12VA #PWR012
U 1 1 61C52624
P 12600 2200
F 0 "#PWR012" H 12600 2050 50  0001 C CNN
F 1 "+12VA" H 12615 2373 50  0000 C CNN
F 2 "" H 12600 2200 50  0001 C CNN
F 3 "" H 12600 2200 50  0001 C CNN
	1    12600 2200
	1    0    0    -1  
$EndComp
Wire Wire Line
	12600 2450 12600 2350
Wire Wire Line
	12200 2600 12200 2350
Wire Wire Line
	12200 2350 12600 2350
Connection ~ 12600 2350
Wire Wire Line
	12600 2350 12600 2200
Wire Wire Line
	13600 2650 13450 2650
Wire Wire Line
	13450 2650 13450 2350
Wire Wire Line
	13450 3150 13450 2750
Wire Wire Line
	13450 2750 13600 2750
$Comp
L Device:R R3
U 1 1 61C72496
P 12050 5400
F 0 "R3" V 12250 5400 50  0000 L CNN
F 1 "10k" V 12150 5350 50  0000 L CNN
F 2 "My_Lib_KiCAD:R_0.125W_MY" V 11980 5400 50  0001 C CNN
F 3 "~" H 12050 5400 50  0001 C CNN
	1    12050 5400
	0    -1   -1   0   
$EndComp
$Comp
L Transistor_BJT:BC547 Q3
U 1 1 61C7249C
P 12500 5400
F 0 "Q3" H 12691 5446 50  0000 L CNN
F 1 "BC547" H 12691 5355 50  0000 L CNN
F 2 "My_Lib_KiCAD:TO-92L_MY" H 12700 5325 50  0001 L CIN
F 3 "https://www.onsemi.com/pub/Collateral/BC550-D.pdf" H 12500 5400 50  0001 L CNN
	1    12500 5400
	1    0    0    -1  
$EndComp
Wire Wire Line
	12200 5400 12300 5400
Wire Wire Line
	12600 5200 12600 5100
Wire Wire Line
	12600 5700 12600 5600
$Comp
L Diode:1N4007 D3
U 1 1 61C724A6
P 12200 4750
F 0 "D3" V 12150 4550 50  0000 L CNN
F 1 "1N4007" V 12250 4350 50  0000 L CNN
F 2 "Diode_THT:D_DO-41_SOD81_P10.16mm_Horizontal" H 12200 4575 50  0001 C CNN
F 3 "http://www.vishay.com/docs/88503/1n4001.pdf" H 12200 4750 50  0001 C CNN
	1    12200 4750
	0    1    1    0   
$EndComp
Wire Wire Line
	12200 4900 12200 5100
Wire Wire Line
	12200 5100 12600 5100
Connection ~ 12600 5100
Wire Wire Line
	12600 5100 12600 5050
$Comp
L power:+12VA #PWR014
U 1 1 61C724B0
P 12600 4200
F 0 "#PWR014" H 12600 4050 50  0001 C CNN
F 1 "+12VA" H 12615 4373 50  0000 C CNN
F 2 "" H 12600 4200 50  0001 C CNN
F 3 "" H 12600 4200 50  0001 C CNN
	1    12600 4200
	1    0    0    -1  
$EndComp
Wire Wire Line
	12600 4450 12600 4350
Wire Wire Line
	12200 4600 12200 4350
Wire Wire Line
	12200 4350 12600 4350
Connection ~ 12600 4350
Wire Wire Line
	12600 4350 12600 4200
Wire Wire Line
	13600 4650 13450 4650
Wire Wire Line
	13450 4650 13450 4350
Wire Wire Line
	13450 5150 13450 4750
Wire Wire Line
	13450 4750 13600 4750
$Comp
L power:GNDA #PWR013
U 1 1 61CB6029
P 12600 3700
F 0 "#PWR013" H 12600 3450 50  0001 C CNN
F 1 "GNDA" H 12605 3527 50  0000 C CNN
F 2 "" H 12600 3700 50  0001 C CNN
F 3 "" H 12600 3700 50  0001 C CNN
	1    12600 3700
	1    0    0    -1  
$EndComp
$Comp
L power:GNDA #PWR015
U 1 1 61CB6740
P 12600 5700
F 0 "#PWR015" H 12600 5450 50  0001 C CNN
F 1 "GNDA" H 12605 5527 50  0000 C CNN
F 2 "" H 12600 5700 50  0001 C CNN
F 3 "" H 12600 5700 50  0001 C CNN
	1    12600 5700
	1    0    0    -1  
$EndComp
Wire Wire Line
	13450 4350 13100 4350
Wire Wire Line
	13000 5150 13450 5150
Wire Wire Line
	13000 5050 13000 5150
Wire Wire Line
	13100 4350 13100 4450
$Comp
L HLS6-4100H:SANYOU_SRD_Form_C K3
U 1 1 61C72490
P 12800 4750
F 0 "K3" H 13230 4796 50  0000 L CNN
F 1 "RLY2" H 13230 4705 50  0000 L CNN
F 2 "Relay_THT:Relay_SPDT_SANYOU_SRD_Series_Form_C" H 13250 4700 50  0001 L CNN
F 3 "http://www.sanyourelay.ca/public/products/pdf/SRD.pdf" H 12800 4750 50  0001 C CNN
	1    12800 4750
	1    0    0    -1  
$EndComp
$Comp
L Device:R R1
U 1 1 6224D00A
P 12050 7500
F 0 "R1" V 12250 7500 50  0000 L CNN
F 1 "10k" V 12150 7450 50  0000 L CNN
F 2 "My_Lib_KiCAD:R_0.125W_MY" V 11980 7500 50  0001 C CNN
F 3 "~" H 12050 7500 50  0001 C CNN
	1    12050 7500
	0    -1   -1   0   
$EndComp
$Comp
L Transistor_BJT:BC547 Q1
U 1 1 6224D010
P 12500 7500
F 0 "Q1" H 12691 7546 50  0000 L CNN
F 1 "BC547" H 12691 7455 50  0000 L CNN
F 2 "My_Lib_KiCAD:TO-92L_MY" H 12700 7425 50  0001 L CIN
F 3 "https://www.onsemi.com/pub/Collateral/BC550-D.pdf" H 12500 7500 50  0001 L CNN
	1    12500 7500
	1    0    0    -1  
$EndComp
Wire Wire Line
	12200 7500 12300 7500
Wire Wire Line
	12600 7300 12600 7200
Wire Wire Line
	12600 7800 12600 7700
$Comp
L Diode:1N4007 D1
U 1 1 6224D01A
P 12200 6850
F 0 "D1" V 12150 6650 50  0000 L CNN
F 1 "1N4007" V 12250 6450 50  0000 L CNN
F 2 "Diode_THT:D_DO-41_SOD81_P10.16mm_Horizontal" H 12200 6675 50  0001 C CNN
F 3 "http://www.vishay.com/docs/88503/1n4001.pdf" H 12200 6850 50  0001 C CNN
	1    12200 6850
	0    1    1    0   
$EndComp
Wire Wire Line
	12200 7000 12200 7200
Wire Wire Line
	12200 7200 12600 7200
Connection ~ 12600 7200
Wire Wire Line
	12600 7200 12600 7150
$Comp
L power:+12VA #PWR01
U 1 1 6224D024
P 12600 6300
F 0 "#PWR01" H 12600 6150 50  0001 C CNN
F 1 "+12VA" H 12615 6473 50  0000 C CNN
F 2 "" H 12600 6300 50  0001 C CNN
F 3 "" H 12600 6300 50  0001 C CNN
	1    12600 6300
	1    0    0    -1  
$EndComp
Wire Wire Line
	12600 6550 12600 6450
Wire Wire Line
	12200 6700 12200 6450
Wire Wire Line
	12200 6450 12600 6450
Connection ~ 12600 6450
Wire Wire Line
	12600 6450 12600 6300
Wire Wire Line
	13450 6750 13450 6450
Wire Wire Line
	13450 7250 13450 6850
$Comp
L power:GNDA #PWR02
U 1 1 6224D033
P 12600 7800
F 0 "#PWR02" H 12600 7550 50  0001 C CNN
F 1 "GNDA" H 12605 7627 50  0000 C CNN
F 2 "" H 12600 7800 50  0001 C CNN
F 3 "" H 12600 7800 50  0001 C CNN
	1    12600 7800
	1    0    0    -1  
$EndComp
Wire Wire Line
	13450 6450 13100 6450
Wire Wire Line
	13000 7250 13450 7250
Wire Wire Line
	13000 7150 13000 7250
Wire Wire Line
	13100 6450 13100 6550
$Comp
L HLS6-4100H:SANYOU_SRD_Form_C K1
U 1 1 6224D03D
P 12800 6850
F 0 "K1" H 13230 6896 50  0000 L CNN
F 1 "RLY3" H 13230 6805 50  0000 L CNN
F 2 "Relay_THT:Relay_SPDT_SANYOU_SRD_Series_Form_C" H 13250 6800 50  0001 L CNN
F 3 "http://www.sanyourelay.ca/public/products/pdf/SRD.pdf" H 12800 6850 50  0001 C CNN
	1    12800 6850
	1    0    0    -1  
$EndComp
Wire Wire Line
	13450 6850 13600 6850
Wire Wire Line
	13600 6750 13450 6750
$Comp
L Connector:Screw_Terminal_01x02 J1
U 1 1 60D24D9F
P 13800 6750
F 0 "J1" H 13800 6950 50  0000 C CNN
F 1 "L3_OUT" H 13800 6850 50  0000 C CNN
F 2 "TerminalBlock:TerminalBlock_bornier-2_P5.08mm" H 13800 6750 50  0001 C CNN
F 3 "~" H 13800 6750 50  0001 C CNN
	1    13800 6750
	1    0    0    -1  
$EndComp
$Comp
L Isolator:PC817 U10
U 1 1 6230F1EB
P 11200 3300
F 0 "U10" H 11200 3625 50  0000 C CNN
F 1 "PC817" H 11200 3534 50  0000 C CNN
F 2 "Package_DIP:DIP-4_W7.62mm" H 11000 3100 50  0001 L CIN
F 3 "http://www.soselectronic.cz/a_info/resource/d/pc817.pdf" H 11200 3300 50  0001 L CNN
	1    11200 3300
	1    0    0    -1  
$EndComp
$Comp
L Device:R R29
U 1 1 62310AA9
P 11700 3650
F 0 "R29" V 11900 3650 50  0000 L CNN
F 1 "47k" V 11800 3600 50  0000 L CNN
F 2 "My_Lib_KiCAD:R_0.125W_MY" V 11630 3650 50  0001 C CNN
F 3 "~" H 11700 3650 50  0001 C CNN
	1    11700 3650
	1    0    0    -1  
$EndComp
Wire Wire Line
	11700 3500 11700 3400
Connection ~ 11700 3400
Wire Wire Line
	11700 3400 11900 3400
$Comp
L power:GNDA #PWR061
U 1 1 623255E5
P 11700 3900
F 0 "#PWR061" H 11700 3650 50  0001 C CNN
F 1 "GNDA" H 11705 3727 50  0000 C CNN
F 2 "" H 11700 3900 50  0001 C CNN
F 3 "" H 11700 3900 50  0001 C CNN
	1    11700 3900
	1    0    0    -1  
$EndComp
Wire Wire Line
	11700 3800 11700 3900
$Comp
L power:+12VA #PWR060
U 1 1 6233B943
P 11550 3000
F 0 "#PWR060" H 11550 2850 50  0001 C CNN
F 1 "+12VA" H 11565 3173 50  0000 C CNN
F 2 "" H 11550 3000 50  0001 C CNN
F 3 "" H 11550 3000 50  0001 C CNN
	1    11550 3000
	1    0    0    -1  
$EndComp
Wire Wire Line
	11550 3000 11550 3200
Wire Wire Line
	11550 3200 11500 3200
$Comp
L Device:R R28
U 1 1 623510C2
P 10600 3200
F 0 "R28" V 10800 3200 50  0000 L CNN
F 1 "220R" V 10700 3150 50  0000 L CNN
F 2 "My_Lib_KiCAD:R_0.125W_MY" V 10530 3200 50  0001 C CNN
F 3 "~" H 10600 3200 50  0001 C CNN
	1    10600 3200
	0    -1   -1   0   
$EndComp
Wire Wire Line
	10050 3200 10450 3200
Wire Wire Line
	10750 3200 10900 3200
$Comp
L power:GND #PWR0101
U 1 1 6237D13E
P 10800 3450
F 0 "#PWR0101" H 10800 3200 50  0001 C CNN
F 1 "GND" H 10805 3277 50  0000 C CNN
F 2 "" H 10800 3450 50  0001 C CNN
F 3 "" H 10800 3450 50  0001 C CNN
	1    10800 3450
	1    0    0    -1  
$EndComp
Wire Wire Line
	10900 3400 10800 3400
Wire Wire Line
	10800 3400 10800 3450
Wire Wire Line
	11500 5400 11700 5400
$Comp
L Isolator:PC817 U12
U 1 1 623CE9BB
P 11200 5300
F 0 "U12" H 11200 5625 50  0000 C CNN
F 1 "PC817" H 11200 5534 50  0000 C CNN
F 2 "Package_DIP:DIP-4_W7.62mm" H 11000 5100 50  0001 L CIN
F 3 "http://www.soselectronic.cz/a_info/resource/d/pc817.pdf" H 11200 5300 50  0001 L CNN
	1    11200 5300
	1    0    0    -1  
$EndComp
$Comp
L Device:R R33
U 1 1 623CE9C1
P 11700 5650
F 0 "R33" V 11900 5650 50  0000 L CNN
F 1 "47k" V 11800 5600 50  0000 L CNN
F 2 "My_Lib_KiCAD:R_0.125W_MY" V 11630 5650 50  0001 C CNN
F 3 "~" H 11700 5650 50  0001 C CNN
	1    11700 5650
	1    0    0    -1  
$EndComp
Wire Wire Line
	11700 5500 11700 5400
Connection ~ 11700 5400
Wire Wire Line
	11700 5400 11900 5400
$Comp
L power:GNDA #PWR067
U 1 1 623CE9CA
P 11700 5900
F 0 "#PWR067" H 11700 5650 50  0001 C CNN
F 1 "GNDA" H 11705 5727 50  0000 C CNN
F 2 "" H 11700 5900 50  0001 C CNN
F 3 "" H 11700 5900 50  0001 C CNN
	1    11700 5900
	1    0    0    -1  
$EndComp
Wire Wire Line
	11700 5800 11700 5900
$Comp
L power:+12VA #PWR066
U 1 1 623CE9D1
P 11550 5000
F 0 "#PWR066" H 11550 4850 50  0001 C CNN
F 1 "+12VA" H 11565 5173 50  0000 C CNN
F 2 "" H 11550 5000 50  0001 C CNN
F 3 "" H 11550 5000 50  0001 C CNN
	1    11550 5000
	1    0    0    -1  
$EndComp
Wire Wire Line
	11550 5000 11550 5200
Wire Wire Line
	11550 5200 11500 5200
$Comp
L Device:R R32
U 1 1 623CE9D9
P 10600 5200
F 0 "R32" V 10800 5200 50  0000 L CNN
F 1 "220R" V 10700 5150 50  0000 L CNN
F 2 "My_Lib_KiCAD:R_0.125W_MY" V 10530 5200 50  0001 C CNN
F 3 "~" H 10600 5200 50  0001 C CNN
	1    10600 5200
	0    -1   -1   0   
$EndComp
Wire Wire Line
	10050 5200 10450 5200
Wire Wire Line
	10750 5200 10900 5200
$Comp
L power:GND #PWR065
U 1 1 623CE9E1
P 10800 5450
F 0 "#PWR065" H 10800 5200 50  0001 C CNN
F 1 "GND" H 10805 5277 50  0000 C CNN
F 2 "" H 10800 5450 50  0001 C CNN
F 3 "" H 10800 5450 50  0001 C CNN
	1    10800 5450
	1    0    0    -1  
$EndComp
Wire Wire Line
	10900 5400 10800 5400
Wire Wire Line
	10800 5400 10800 5450
Wire Wire Line
	11500 7500 11700 7500
$Comp
L Isolator:PC817 U11
U 1 1 62403B5E
P 11200 7400
F 0 "U11" H 11200 7725 50  0000 C CNN
F 1 "PC817" H 11200 7634 50  0000 C CNN
F 2 "Package_DIP:DIP-4_W7.62mm" H 11000 7200 50  0001 L CIN
F 3 "http://www.soselectronic.cz/a_info/resource/d/pc817.pdf" H 11200 7400 50  0001 L CNN
	1    11200 7400
	1    0    0    -1  
$EndComp
$Comp
L Device:R R31
U 1 1 62403B64
P 11700 7750
F 0 "R31" V 11900 7750 50  0000 L CNN
F 1 "47k" V 11800 7700 50  0000 L CNN
F 2 "My_Lib_KiCAD:R_0.125W_MY" V 11630 7750 50  0001 C CNN
F 3 "~" H 11700 7750 50  0001 C CNN
	1    11700 7750
	1    0    0    -1  
$EndComp
Wire Wire Line
	11700 7600 11700 7500
Connection ~ 11700 7500
Wire Wire Line
	11700 7500 11900 7500
$Comp
L power:GNDA #PWR064
U 1 1 62403B6D
P 11700 8000
F 0 "#PWR064" H 11700 7750 50  0001 C CNN
F 1 "GNDA" H 11705 7827 50  0000 C CNN
F 2 "" H 11700 8000 50  0001 C CNN
F 3 "" H 11700 8000 50  0001 C CNN
	1    11700 8000
	1    0    0    -1  
$EndComp
Wire Wire Line
	11700 7900 11700 8000
$Comp
L power:+12VA #PWR063
U 1 1 62403B74
P 11550 7100
F 0 "#PWR063" H 11550 6950 50  0001 C CNN
F 1 "+12VA" H 11565 7273 50  0000 C CNN
F 2 "" H 11550 7100 50  0001 C CNN
F 3 "" H 11550 7100 50  0001 C CNN
	1    11550 7100
	1    0    0    -1  
$EndComp
Wire Wire Line
	11550 7100 11550 7300
Wire Wire Line
	11550 7300 11500 7300
$Comp
L Device:R R30
U 1 1 62403B7C
P 10600 7300
F 0 "R30" V 10800 7300 50  0000 L CNN
F 1 "220R" V 10700 7250 50  0000 L CNN
F 2 "My_Lib_KiCAD:R_0.125W_MY" V 10530 7300 50  0001 C CNN
F 3 "~" H 10600 7300 50  0001 C CNN
	1    10600 7300
	0    -1   -1   0   
$EndComp
Wire Wire Line
	10050 7300 10450 7300
Wire Wire Line
	10750 7300 10900 7300
$Comp
L power:GND #PWR062
U 1 1 62403B84
P 10800 7550
F 0 "#PWR062" H 10800 7300 50  0001 C CNN
F 1 "GND" H 10805 7377 50  0000 C CNN
F 2 "" H 10800 7550 50  0001 C CNN
F 3 "" H 10800 7550 50  0001 C CNN
	1    10800 7550
	1    0    0    -1  
$EndComp
Wire Wire Line
	10900 7500 10800 7500
Wire Wire Line
	10800 7500 10800 7550
Wire Wire Line
	13000 3150 13000 3050
Wire Wire Line
	13000 3150 13450 3150
Wire Wire Line
	13100 2450 13100 2350
Wire Wire Line
	13100 2350 13450 2350
$Comp
L power:+5V #PWR0102
U 1 1 61FE3208
P 8050 2150
F 0 "#PWR0102" H 8050 2000 50  0001 C CNN
F 1 "+5V" H 8065 2323 50  0000 C CNN
F 2 "" H 8050 2150 50  0001 C CNN
F 3 "" H 8050 2150 50  0001 C CNN
	1    8050 2150
	1    0    0    -1  
$EndComp
$Comp
L power:+5V #PWR0103
U 1 1 61FE3B5C
P 8650 2150
F 0 "#PWR0103" H 8650 2000 50  0001 C CNN
F 1 "+5V" H 8665 2323 50  0000 C CNN
F 2 "" H 8650 2150 50  0001 C CNN
F 3 "" H 8650 2150 50  0001 C CNN
	1    8650 2150
	1    0    0    -1  
$EndComp
$Comp
L power:GND #PWR0104
U 1 1 61FE3E6B
P 8050 3500
F 0 "#PWR0104" H 8050 3250 50  0001 C CNN
F 1 "GND" H 8055 3327 50  0000 C CNN
F 2 "" H 8050 3500 50  0001 C CNN
F 3 "" H 8050 3500 50  0001 C CNN
	1    8050 3500
	1    0    0    -1  
$EndComp
Wire Wire Line
	8750 3500 8750 3400
$Comp
L power:GND #PWR0105
U 1 1 61FE5147
P 8750 3500
F 0 "#PWR0105" H 8750 3250 50  0001 C CNN
F 1 "GND" H 8755 3327 50  0000 C CNN
F 2 "" H 8750 3500 50  0001 C CNN
F 3 "" H 8750 3500 50  0001 C CNN
	1    8750 3500
	1    0    0    -1  
$EndComp
$Comp
L power:GND #PWR0106
U 1 1 61FE5913
P 9500 3750
F 0 "#PWR0106" H 9500 3500 50  0001 C CNN
F 1 "GND" H 9505 3577 50  0000 C CNN
F 2 "" H 9500 3750 50  0001 C CNN
F 3 "" H 9500 3750 50  0001 C CNN
	1    9500 3750
	1    0    0    -1  
$EndComp
$Comp
L power:+5V #PWR0107
U 1 1 61FE5BED
P 9500 3250
F 0 "#PWR0107" H 9500 3100 50  0001 C CNN
F 1 "+5V" H 9515 3423 50  0000 C CNN
F 2 "" H 9500 3250 50  0001 C CNN
F 3 "" H 9500 3250 50  0001 C CNN
	1    9500 3250
	1    0    0    -1  
$EndComp
$Comp
L Device:R R16
U 1 1 62021EB1
P 6650 2500
F 0 "R16" H 6750 2400 50  0000 L CNN
F 1 "10k" H 6700 2500 50  0000 L CNN
F 2 "Resistor_THT:R_Axial_DIN0207_L6.3mm_D2.5mm_P7.62mm_Horizontal" V 6580 2500 50  0001 C CNN
F 3 "~" H 6650 2500 50  0001 C CNN
	1    6650 2500
	-1   0    0    1   
$EndComp
$Comp
L Device:R R17
U 1 1 620223BA
P 6900 2500
F 0 "R17" H 7000 2400 50  0000 L CNN
F 1 "10k" H 6950 2500 50  0000 L CNN
F 2 "Resistor_THT:R_Axial_DIN0207_L6.3mm_D2.5mm_P7.62mm_Horizontal" V 6830 2500 50  0001 C CNN
F 3 "~" H 6900 2500 50  0001 C CNN
	1    6900 2500
	-1   0    0    1   
$EndComp
$Comp
L Device:R R20
U 1 1 62022908
P 7150 2500
F 0 "R20" H 7250 2400 50  0000 L CNN
F 1 "10k" H 7200 2500 50  0000 L CNN
F 2 "Resistor_THT:R_Axial_DIN0207_L6.3mm_D2.5mm_P7.62mm_Horizontal" V 7080 2500 50  0001 C CNN
F 3 "~" H 7150 2500 50  0001 C CNN
	1    7150 2500
	-1   0    0    1   
$EndComp
$Comp
L power:+5V #PWR0109
U 1 1 62038AC0
P 6900 2150
F 0 "#PWR0109" H 6900 2000 50  0001 C CNN
F 1 "+5V" H 6915 2323 50  0000 C CNN
F 2 "" H 6900 2150 50  0001 C CNN
F 3 "" H 6900 2150 50  0001 C CNN
	1    6900 2150
	1    0    0    -1  
$EndComp
Wire Wire Line
	6650 2350 6650 2250
Wire Wire Line
	6650 2250 6900 2250
Wire Wire Line
	7150 2250 7150 2350
Wire Wire Line
	6900 2350 6900 2250
Connection ~ 6900 2250
Wire Wire Line
	6900 2250 7150 2250
Wire Wire Line
	6900 2150 6900 2250
Text Label 6350 2800 0    50   ~ 0
TX1
Text Label 6350 3000 0    50   ~ 0
RX1
Text Label 6350 3200 0    50   ~ 0
DE,RE
Wire Wire Line
	6350 2800 6650 2800
Wire Wire Line
	6650 2800 6650 2650
Wire Wire Line
	6350 3000 6900 3000
Wire Wire Line
	6900 3000 6900 2650
Wire Wire Line
	6350 3200 7150 3200
Wire Wire Line
	7150 3200 7150 2650
$Comp
L Device:CP C6
U 1 1 60C20683
P 4600 3300
F 0 "C6" H 4718 3346 50  0000 L CNN
F 1 "220uF" H 4718 3255 50  0000 L CNN
F 2 "Capacitor_THT:C_Radial_D6.3mm_H11.0mm_P2.50mm" H 4638 3150 50  0001 C CNN
F 3 "~" H 4600 3300 50  0001 C CNN
	1    4600 3300
	1    0    0    -1  
$EndComp
Wire Wire Line
	7300 2800 7550 2800
Connection ~ 7550 2800
Text Label 5800 4800 2    50   ~ 0
DE,RE
Wire Wire Line
	5800 4800 5450 4800
Wire Notes Line
	9750 1900 9750 4000
Wire Notes Line
	9750 4000 6300 4000
Wire Notes Line
	6300 4000 6300 1900
Wire Notes Line
	6300 1900 9750 1900
Wire Notes Line
	6150 1850 6150 3800
Wire Notes Line
	6150 3800 2350 3800
Wire Notes Line
	2350 3800 2350 1850
Wire Notes Line
	2350 1850 6150 1850
Wire Notes Line
	2350 8800 2350 3950
Wire Notes Line
	9450 4150 9450 8800
Wire Notes Line
	9450 8800 6300 8800
Wire Notes Line
	6300 8800 6300 4150
Wire Notes Line
	6300 4150 9450 4150
Wire Notes Line
	14050 1900 14050 8400
Wire Notes Line
	14050 8400 9900 8400
Wire Notes Line
	9900 8400 9900 1900
Wire Notes Line
	9900 1900 14050 1900
Wire Notes Line
	6150 8800 6150 3950
Wire Notes Line
	2350 8800 6150 8800
Wire Notes Line
	2350 3950 6150 3950
$EndSCHEMATC
