EESchema Schematic File Version 4
EELAYER 30 0
EELAYER END
$Descr A4 11693 8268
encoding utf-8
Sheet 1 1
Title "A9 Max485 Iso v0.1"
Date "2021-01-11"
Rev "0"
Comp ""
Comment1 ""
Comment2 ""
Comment3 ""
Comment4 ""
$EndDescr
$Comp
L Mechanical:MountingHole H1
U 1 1 60062701
P 6300 6900
F 0 "H1" H 6400 6946 50  0000 L CNN
F 1 "MountingHole" H 6400 6855 50  0000 L CNN
F 2 "MountingHole:MountingHole_3mm_Pad_Via" H 6300 6900 50  0001 C CNN
F 3 "~" H 6300 6900 50  0001 C CNN
	1    6300 6900
	1    0    0    -1  
$EndComp
$Comp
L Mechanical:MountingHole H2
U 1 1 600722EB
P 6300 7150
F 0 "H2" H 6400 7196 50  0000 L CNN
F 1 "MountingHole" H 6400 7105 50  0000 L CNN
F 2 "MountingHole:MountingHole_3mm_Pad_Via" H 6300 7150 50  0001 C CNN
F 3 "~" H 6300 7150 50  0001 C CNN
	1    6300 7150
	1    0    0    -1  
$EndComp
$Comp
L Mechanical:MountingHole H3
U 1 1 60062703
P 6300 7400
F 0 "H3" H 6400 7446 50  0000 L CNN
F 1 "MountingHole" H 6400 7355 50  0000 L CNN
F 2 "MountingHole:MountingHole_3mm_Pad_Via" H 6300 7400 50  0001 C CNN
F 3 "~" H 6300 7400 50  0001 C CNN
	1    6300 7400
	1    0    0    -1  
$EndComp
$Comp
L Mechanical:MountingHole H4
U 1 1 60072588
P 6300 7650
F 0 "H4" H 6400 7696 50  0000 L CNN
F 1 "MountingHole" H 6400 7605 50  0000 L CNN
F 2 "MountingHole:MountingHole_3mm_Pad_Via" H 6300 7650 50  0001 C CNN
F 3 "~" H 6300 7650 50  0001 C CNN
	1    6300 7650
	1    0    0    -1  
$EndComp
$Comp
L Device:CP C13
U 1 1 5FF5739D
P 2250 2000
F 0 "C13" H 2368 2046 50  0000 L CNN
F 1 "10uF" H 2368 1955 50  0000 L CNN
F 2 "Capacitor_THT:C_Radial_D6.3mm_H11.0mm_P2.50mm" H 2288 1850 50  0001 C CNN
F 3 "~" H 2250 2000 50  0001 C CNN
	1    2250 2000
	1    0    0    -1  
$EndComp
Wire Wire Line
	2100 1750 2250 1750
Wire Wire Line
	2500 1750 2500 1700
Wire Wire Line
	2250 1850 2250 1750
Connection ~ 2250 1750
Wire Wire Line
	2250 1750 2500 1750
Wire Wire Line
	1800 2250 1800 2050
Wire Wire Line
	2250 2250 2250 2150
Wire Wire Line
	750  1750 750  1700
Wire Wire Line
	900  1850 900  1750
Wire Wire Line
	900  1750 750  1750
Wire Wire Line
	1300 1850 1300 1750
Wire Wire Line
	900  2250 900  2150
Wire Wire Line
	1300 2250 1300 2150
$Comp
L Device:CP C4
U 1 1 5FFBDF70
P 900 2000
F 0 "C4" H 1018 2046 50  0000 L CNN
F 1 "10uF" H 1018 1955 50  0000 L CNN
F 2 "Capacitor_THT:C_Radial_D6.3mm_H11.0mm_P2.50mm" H 938 1850 50  0001 C CNN
F 3 "~" H 900 2000 50  0001 C CNN
	1    900  2000
	1    0    0    -1  
$EndComp
$Comp
L Device:C C12
U 1 1 5FFBDF7C
P 1300 2000
F 0 "C12" H 1415 2046 50  0000 L CNN
F 1 "104" H 1415 1955 50  0000 L CNN
F 2 "Capacitor_THT:C_Rect_L7.0mm_W3.5mm_P5.00mm" H 1338 1850 50  0001 C CNN
F 3 "~" H 1300 2000 50  0001 C CNN
	1    1300 2000
	1    0    0    -1  
$EndComp
Wire Wire Line
	1500 1750 1300 1750
$Comp
L Device:C C11
U 1 1 601DA68B
P 10800 2300
F 0 "C11" H 10915 2346 50  0000 L CNN
F 1 "104" H 10915 2255 50  0000 L CNN
F 2 "Capacitor_THT:C_Rect_L7.0mm_W3.5mm_P5.00mm" H 10838 2150 50  0001 C CNN
F 3 "~" H 10800 2300 50  0001 C CNN
	1    10800 2300
	1    0    0    -1  
$EndComp
Wire Wire Line
	10800 2150 10800 2050
Wire Wire Line
	10800 2450 10800 2550
$Comp
L Connector:Screw_Terminal_01x02 J8
U 1 1 6008BAF9
P 750 1100
F 0 "J8" H 800 800 50  0000 C CNN
F 1 "PowerIN" H 700 900 50  0000 C CNN
F 2 "TerminalBlock:TerminalBlock_bornier-2_P5.08mm" H 750 1100 50  0001 C CNN
F 3 "~" H 750 1100 50  0001 C CNN
	1    750  1100
	-1   0    0    1   
$EndComp
Wire Wire Line
	2800 950  2650 950 
Wire Wire Line
	1000 1000 950  1000
Wire Wire Line
	2800 1150 2650 1150
Wire Wire Line
	1000 1100 950  1100
Wire Wire Line
	3600 1150 3650 1150
Wire Wire Line
	3650 1150 3650 1400
$Comp
L Interface_UART:MAX485E U9
U 1 1 600F0FB5
P 9350 1500
F 0 "U9" H 8950 2050 50  0000 C CNN
F 1 "MAX485E" H 9050 1950 50  0000 C CNN
F 2 "Package_DIP:DIP-8_W7.62mm" H 9350 800 50  0001 C CNN
F 3 "https://datasheets.maximintegrated.com/en/ds/MAX1487E-MAX491E.pdf" H 9350 1550 50  0001 C CNN
	1    9350 1500
	1    0    0    -1  
$EndComp
$Comp
L Isolator:PC817 U7
U 1 1 600F3191
P 7450 3150
F 0 "U7" H 7450 3475 50  0000 C CNN
F 1 "PC817" H 7450 3384 50  0000 C CNN
F 2 "Package_DIP:DIP-4_W7.62mm" H 7250 2950 50  0001 L CIN
F 3 "http://www.soselectronic.cz/a_info/resource/d/pc817.pdf" H 7450 3150 50  0001 L CNN
	1    7450 3150
	1    0    0    -1  
$EndComp
Text Label 6750 3250 0    50   ~ 0
TX1
Wire Wire Line
	6750 3250 7150 3250
$Comp
L Device:R R21
U 1 1 60123C96
P 7050 2600
F 0 "R21" H 7150 2500 50  0000 L CNN
F 1 "120R" H 7100 2600 50  0000 L CNN
F 2 "Resistor_THT:R_Axial_DIN0207_L6.3mm_D2.5mm_P7.62mm_Horizontal" V 6980 2600 50  0001 C CNN
F 3 "~" H 7050 2600 50  0001 C CNN
	1    7050 2600
	-1   0    0    1   
$EndComp
Wire Wire Line
	7150 3050 7050 3050
Wire Wire Line
	7050 2450 7050 2350
$Comp
L power:GNDA #PWR055
U 1 1 6014F9C4
P 7850 3400
F 0 "#PWR055" H 7850 3150 50  0001 C CNN
F 1 "GNDA" H 7855 3227 50  0000 C CNN
F 2 "" H 7850 3400 50  0001 C CNN
F 3 "" H 7850 3400 50  0001 C CNN
	1    7850 3400
	1    0    0    -1  
$EndComp
Wire Wire Line
	7750 3250 7850 3250
Wire Wire Line
	7850 3250 7850 3400
$Comp
L Device:R R24
U 1 1 6016565F
P 8000 2600
F 0 "R24" H 8100 2500 50  0000 L CNN
F 1 "1k" H 8050 2600 50  0000 L CNN
F 2 "Resistor_THT:R_Axial_DIN0207_L6.3mm_D2.5mm_P7.62mm_Horizontal" V 7930 2600 50  0001 C CNN
F 3 "~" H 8000 2600 50  0001 C CNN
	1    8000 2600
	-1   0    0    1   
$EndComp
$Comp
L Device:R R25
U 1 1 60165AAE
P 8300 3050
F 0 "R25" V 8500 3050 50  0000 L CNN
F 1 "10k" V 8400 3000 50  0000 L CNN
F 2 "Resistor_THT:R_Axial_DIN0207_L6.3mm_D2.5mm_P7.62mm_Horizontal" V 8230 3050 50  0001 C CNN
F 3 "~" H 8300 3050 50  0001 C CNN
	1    8300 3050
	0    -1   -1   0   
$EndComp
Connection ~ 8000 3050
Wire Wire Line
	8000 3050 8150 3050
$Comp
L power:+5VA #PWR057
U 1 1 601913C4
P 8000 2350
F 0 "#PWR057" H 8000 2200 50  0001 C CNN
F 1 "+5VA" H 8015 2523 50  0000 C CNN
F 2 "" H 8000 2350 50  0001 C CNN
F 3 "" H 8000 2350 50  0001 C CNN
	1    8000 2350
	1    0    0    -1  
$EndComp
Wire Wire Line
	8000 2350 8000 2450
Wire Wire Line
	8550 3050 8450 3050
$Comp
L power:GNDA #PWR060
U 1 1 601BEE04
P 8850 3400
F 0 "#PWR060" H 8850 3150 50  0001 C CNN
F 1 "GNDA" H 8855 3227 50  0000 C CNN
F 2 "" H 8850 3400 50  0001 C CNN
F 3 "" H 8850 3400 50  0001 C CNN
	1    8850 3400
	1    0    0    -1  
$EndComp
Wire Wire Line
	8850 3400 8850 3250
Wire Wire Line
	7750 3050 8000 3050
Text Label 8300 3300 2    50   ~ 0
DI
Wire Wire Line
	8300 3300 8000 3300
Wire Wire Line
	8000 3300 8000 3050
$Comp
L Device:R R26
U 1 1 6022E61E
P 8850 2600
F 0 "R26" H 8950 2500 50  0000 L CNN
F 1 "1k" H 8900 2600 50  0000 L CNN
F 2 "Resistor_THT:R_Axial_DIN0207_L6.3mm_D2.5mm_P7.62mm_Horizontal" V 8780 2600 50  0001 C CNN
F 3 "~" H 8850 2600 50  0001 C CNN
	1    8850 2600
	-1   0    0    1   
$EndComp
Wire Wire Line
	8850 2850 8850 2800
$Comp
L power:+5VA #PWR059
U 1 1 60244D75
P 8850 2350
F 0 "#PWR059" H 8850 2200 50  0001 C CNN
F 1 "+5VA" H 8865 2523 50  0000 C CNN
F 2 "" H 8850 2350 50  0001 C CNN
F 3 "" H 8850 2350 50  0001 C CNN
	1    8850 2350
	1    0    0    -1  
$EndComp
Wire Wire Line
	8850 2450 8850 2350
Wire Wire Line
	8000 2750 8000 3050
Wire Wire Line
	7050 2750 7050 3050
Text Label 9150 2800 2    50   ~ 0
DE,RE
Wire Wire Line
	9150 2800 8850 2800
Connection ~ 8850 2800
Wire Wire Line
	8850 2800 8850 2750
Text Label 8600 1500 0    50   ~ 0
DE,RE
Wire Wire Line
	8950 1500 8850 1500
Wire Wire Line
	8950 1600 8850 1600
Wire Wire Line
	8850 1600 8850 1500
Connection ~ 8850 1500
Wire Wire Line
	8850 1500 8600 1500
$Comp
L power:GNDA #PWR063
U 1 1 60312CD1
P 9350 2200
F 0 "#PWR063" H 9350 1950 50  0001 C CNN
F 1 "GNDA" H 9355 2027 50  0000 C CNN
F 2 "" H 9350 2200 50  0001 C CNN
F 3 "" H 9350 2200 50  0001 C CNN
	1    9350 2200
	1    0    0    -1  
$EndComp
Wire Wire Line
	9350 2200 9350 2100
$Comp
L power:+5VA #PWR062
U 1 1 6032A577
P 9350 850
F 0 "#PWR062" H 9350 700 50  0001 C CNN
F 1 "+5VA" H 9365 1023 50  0000 C CNN
F 2 "" H 9350 850 50  0001 C CNN
F 3 "" H 9350 850 50  0001 C CNN
	1    9350 850 
	1    0    0    -1  
$EndComp
Wire Wire Line
	9350 1000 9350 850 
Text Label 8600 1700 0    50   ~ 0
DI
Wire Wire Line
	8600 1700 8950 1700
Text Label 8600 1400 0    50   ~ 0
RO
Wire Wire Line
	8600 1400 8950 1400
$Comp
L Isolator:PC817 U8
U 1 1 603BE359
P 7500 1600
F 0 "U8" H 7500 1925 50  0000 C CNN
F 1 "PC817" H 7500 1834 50  0000 C CNN
F 2 "Package_DIP:DIP-4_W7.62mm" H 7300 1400 50  0001 L CIN
F 3 "http://www.soselectronic.cz/a_info/resource/d/pc817.pdf" H 7500 1600 50  0001 L CNN
	1    7500 1600
	-1   0    0    -1  
$EndComp
Text Label 8100 1700 2    50   ~ 0
RO
Wire Wire Line
	8100 1700 7800 1700
$Comp
L Device:R R27
U 1 1 603D713C
P 7950 1250
F 0 "R27" H 8050 1150 50  0000 L CNN
F 1 "330R" H 8000 1250 50  0000 L CNN
F 2 "Resistor_THT:R_Axial_DIN0207_L6.3mm_D2.5mm_P7.62mm_Horizontal" V 7880 1250 50  0001 C CNN
F 3 "~" H 7950 1250 50  0001 C CNN
	1    7950 1250
	-1   0    0    1   
$EndComp
Wire Wire Line
	7800 1500 7950 1500
Wire Wire Line
	7950 1500 7950 1400
$Comp
L power:+5VA #PWR061
U 1 1 603F0247
P 7950 1000
F 0 "#PWR061" H 7950 850 50  0001 C CNN
F 1 "+5VA" H 7965 1173 50  0000 C CNN
F 2 "" H 7950 1000 50  0001 C CNN
F 3 "" H 7950 1000 50  0001 C CNN
	1    7950 1000
	1    0    0    -1  
$EndComp
Wire Wire Line
	7950 1100 7950 1000
$Comp
L power:GND #PWR058
U 1 1 60409332
P 7100 1800
F 0 "#PWR058" H 7100 1550 50  0001 C CNN
F 1 "GND" H 7105 1627 50  0000 C CNN
F 2 "" H 7100 1800 50  0001 C CNN
F 3 "" H 7100 1800 50  0001 C CNN
	1    7100 1800
	1    0    0    -1  
$EndComp
Wire Wire Line
	7100 1800 7100 1700
Wire Wire Line
	7100 1700 7200 1700
Text Label 6750 1500 0    50   ~ 0
RX1
Wire Wire Line
	7200 1500 7050 1500
$Comp
L Device:R R22
U 1 1 6043B508
P 7050 1250
F 0 "R22" H 7150 1150 50  0000 L CNN
F 1 "470R" H 7100 1250 50  0000 L CNN
F 2 "Resistor_THT:R_Axial_DIN0207_L6.3mm_D2.5mm_P7.62mm_Horizontal" V 6980 1250 50  0001 C CNN
F 3 "~" H 7050 1250 50  0001 C CNN
	1    7050 1250
	-1   0    0    1   
$EndComp
Wire Wire Line
	7050 1400 7050 1500
Connection ~ 7050 1500
Wire Wire Line
	7050 1500 6750 1500
Wire Wire Line
	7050 1100 7050 1000
$Comp
L Connector:Screw_Terminal_01x02 J9
U 1 1 6046F2D7
P 10850 1500
F 0 "J9" H 10800 1750 50  0000 C CNN
F 1 "Mobus_OUT" H 10800 1650 50  0000 C CNN
F 2 "TerminalBlock:TerminalBlock_bornier-2_P5.08mm" H 10850 1500 50  0001 C CNN
F 3 "~" H 10850 1500 50  0001 C CNN
	1    10850 1500
	1    0    0    -1  
$EndComp
$Comp
L power:+5VA #PWR06
U 1 1 604A6C47
P 9950 850
F 0 "#PWR06" H 9950 700 50  0001 C CNN
F 1 "+5VA" H 9965 1023 50  0000 C CNN
F 2 "" H 9950 850 50  0001 C CNN
F 3 "" H 9950 850 50  0001 C CNN
	1    9950 850 
	1    0    0    -1  
$EndComp
$Comp
L Device:R R28
U 1 1 604A62E9
P 9950 1100
F 0 "R28" H 10050 1000 50  0000 L CNN
F 1 "20k" H 10000 1100 50  0000 L CNN
F 2 "Resistor_THT:R_Axial_DIN0207_L6.3mm_D2.5mm_P7.62mm_Horizontal" V 9880 1100 50  0001 C CNN
F 3 "~" H 9950 1100 50  0001 C CNN
	1    9950 1100
	-1   0    0    1   
$EndComp
Wire Wire Line
	9950 950  9950 850 
$Comp
L Device:R R29
U 1 1 604F489D
P 10050 1950
F 0 "R29" H 10150 1850 50  0000 L CNN
F 1 "20k" H 10100 1950 50  0000 L CNN
F 2 "Resistor_THT:R_Axial_DIN0207_L6.3mm_D2.5mm_P7.62mm_Horizontal" V 9980 1950 50  0001 C CNN
F 3 "~" H 10050 1950 50  0001 C CNN
	1    10050 1950
	-1   0    0    1   
$EndComp
$Comp
L Device:R R30
U 1 1 604A58F5
P 10450 1550
F 0 "R30" H 10550 1450 50  0000 L CNN
F 1 "120R" H 10500 1550 50  0000 L CNN
F 2 "Resistor_THT:R_Axial_DIN0207_L6.3mm_D2.5mm_P7.62mm_Horizontal" V 10380 1550 50  0001 C CNN
F 3 "~" H 10450 1550 50  0001 C CNN
	1    10450 1550
	-1   0    0    1   
$EndComp
Wire Wire Line
	9950 1250 9950 1700
Wire Wire Line
	9950 1700 9750 1700
Wire Wire Line
	9750 1400 10050 1400
Wire Wire Line
	10050 1400 10050 1800
Wire Wire Line
	10450 1400 10050 1400
Connection ~ 10050 1400
Wire Wire Line
	10450 1700 9950 1700
Connection ~ 9950 1700
Wire Wire Line
	10450 1400 10650 1400
Wire Wire Line
	10650 1400 10650 1500
Connection ~ 10450 1400
Wire Wire Line
	10650 1600 10650 1700
Wire Wire Line
	10650 1700 10450 1700
Connection ~ 10450 1700
$Comp
L power:GNDA #PWR011
U 1 1 605C62AB
P 10050 2200
F 0 "#PWR011" H 10050 1950 50  0001 C CNN
F 1 "GNDA" H 10055 2027 50  0000 C CNN
F 2 "" H 10050 2200 50  0001 C CNN
F 3 "" H 10050 2200 50  0001 C CNN
	1    10050 2200
	1    0    0    -1  
$EndComp
Wire Wire Line
	10050 2200 10050 2100
$Comp
L power:+5VA #PWR065
U 1 1 60601F9B
P 10800 2050
F 0 "#PWR065" H 10800 1900 50  0001 C CNN
F 1 "+5VA" H 10815 2223 50  0000 C CNN
F 2 "" H 10800 2050 50  0001 C CNN
F 3 "" H 10800 2050 50  0001 C CNN
	1    10800 2050
	1    0    0    -1  
$EndComp
$Comp
L power:GNDA #PWR0103
U 1 1 6079AC1D
P 10800 2550
F 0 "#PWR0103" H 10800 2300 50  0001 C CNN
F 1 "GNDA" H 10805 2377 50  0000 C CNN
F 2 "" H 10800 2550 50  0001 C CNN
F 3 "" H 10800 2550 50  0001 C CNN
	1    10800 2550
	1    0    0    -1  
$EndComp
$Comp
L Transistor_BJT:BC547 Q1
U 1 1 607C9C5F
P 8750 3050
F 0 "Q1" H 8941 3096 50  0000 L CNN
F 1 "BC547" H 8941 3005 50  0000 L CNN
F 2 "Package_TO_SOT_THT:TO-92_Inline_Wide" H 8950 2975 50  0001 L CIN
F 3 "https://www.onsemi.com/pub/Collateral/BC550-D.pdf" H 8750 3050 50  0001 L CNN
	1    8750 3050
	1    0    0    -1  
$EndComp
$Comp
L Device:CP C5
U 1 1 607DEBD5
P 3950 1150
F 0 "C5" H 4068 1196 50  0000 L CNN
F 1 "220uF" H 4068 1105 50  0000 L CNN
F 2 "Capacitor_THT:C_Radial_D6.3mm_H11.0mm_P2.50mm" H 3988 1000 50  0001 C CNN
F 3 "~" H 3950 1150 50  0001 C CNN
	1    3950 1150
	1    0    0    -1  
$EndComp
Wire Wire Line
	4100 950  4100 900 
Wire Wire Line
	3600 950  3950 950 
Wire Wire Line
	3950 1000 3950 950 
Connection ~ 3950 950 
Wire Wire Line
	3950 950  4100 950 
Wire Wire Line
	3950 1400 3950 1300
$Comp
L Device:Varistor RV2
U 1 1 608BF74D
P 1600 1100
F 0 "RV2" H 1300 1150 50  0000 L CNN
F 1 "10D561" H 1200 1050 50  0000 L CNN
F 2 "Diode_THT:D_DO-41_SOD81_P10.16mm_Horizontal" V 1530 1100 50  0001 C CNN
F 3 "~" H 1600 1100 50  0001 C CNN
	1    1600 1100
	1    0    0    -1  
$EndComp
$Comp
L Device:EMI_Filter_CommonMode FL2
U 1 1 608BF753
P 2450 1050
F 0 "FL2" H 2450 1450 50  0000 C CNN
F 1 "EMI_Filter_CommonMode" H 2450 1300 50  0000 C CNN
F 2 "Inductor_THT:L_CommonMode_Toroid_Vertical_L19.3mm_W10.8mm_Px6.35mm_Py15.24mm_Bourns_8100" H 2450 1090 50  0001 C CNN
F 3 "~" H 2450 1090 50  0001 C CNN
	1    2450 1050
	1    0    0    -1  
$EndComp
$Comp
L Device:C C3
U 1 1 608BF759
P 1850 1100
F 0 "C3" H 1965 1146 50  0000 L CNN
F 1 "104/630V" H 1850 1000 50  0000 L CNN
F 2 "Capacitor_THT:C_Rect_L19.0mm_W6.0mm_P15.00mm_MKS4" H 1888 950 50  0001 C CNN
F 3 "~" H 1850 1100 50  0001 C CNN
	1    1850 1100
	1    0    0    -1  
$EndComp
$Comp
L Device:Fuse F2
U 1 1 608BF75F
P 1300 850
F 0 "F2" V 1103 850 50  0000 C CNN
F 1 "Fuse" V 1194 850 50  0000 C CNN
F 2 "Fuse:Fuseholder_Cylinder-5x20mm_Stelvio-Kontek_PTF78_Horizontal_Open" V 1230 850 50  0001 C CNN
F 3 "~" H 1300 850 50  0001 C CNN
	1    1300 850 
	0    1    1    0   
$EndComp
Wire Wire Line
	2250 1150 2250 1350
Wire Wire Line
	2250 850  2250 950 
Wire Wire Line
	1450 850  1600 850 
Wire Wire Line
	1600 950  1600 850 
Connection ~ 1600 850 
Wire Wire Line
	1600 850  1850 850 
Wire Wire Line
	1850 950  1850 850 
Connection ~ 1850 850 
Wire Wire Line
	1850 850  2250 850 
Wire Wire Line
	2250 1350 1850 1350
Wire Wire Line
	1600 1250 1600 1350
Connection ~ 1600 1350
Wire Wire Line
	1600 1350 1000 1350
Wire Wire Line
	1850 1250 1850 1350
Connection ~ 1850 1350
Wire Wire Line
	1850 1350 1600 1350
Wire Wire Line
	1000 1100 1000 1350
Wire Wire Line
	1150 850  1000 850 
Wire Wire Line
	1000 850  1000 1000
Wire Notes Line
	600  2550 600  600 
Wire Notes Line
	600  600  4400 600 
Wire Notes Line
	4400 600  4400 2550
Wire Notes Line
	600  2550 4400 2550
Wire Notes Line
	11100 600  11100 3650
Wire Notes Line
	11100 3650 6700 3650
Wire Notes Line
	6700 3650 6700 600 
Wire Notes Line
	6700 600  11100 600 
$Comp
L My_Lib_KiCAD:A9_GSM_Module U1
U 1 1 60B9AC1F
P 9150 4850
F 0 "U1" H 9150 5815 50  0000 C CNN
F 1 "A9_GSM_Module" H 9150 5724 50  0000 C CNN
F 2 "BA56-12EWA(3Digit7Segment):A9_GSM_Module" H 8350 5850 50  0001 C CNN
F 3 "" H 8550 5850 50  0001 C CNN
	1    9150 4850
	1    0    0    -1  
$EndComp
$Comp
L Relay_SolidState:MOC3041M U5
U 1 1 60BC76A0
P 1700 4400
F 0 "U5" H 1700 4725 50  0000 C CNN
F 1 "MOC3041M" H 1700 4634 50  0000 C CNN
F 2 "Package_DIP:DIP-6_W7.62mm" H 1500 4200 50  0001 L CIN
F 3 "https://www.onsemi.com/pub/Collateral/MOC3043M-D.pdf" H 1700 4400 50  0001 L CNN
	1    1700 4400
	1    0    0    -1  
$EndComp
$Comp
L Triac_Thyristor:BTA16-600B Q2
U 1 1 60BC94F4
P 2700 4550
F 0 "Q2" H 2829 4596 50  0000 L CNN
F 1 "BTA16-600B" H 2829 4505 50  0000 L CNN
F 2 "Package_TO_SOT_THT:TO-220-3_Vertical" H 2900 4475 50  0001 L CIN
F 3 "https://www.st.com/resource/en/datasheet/bta16.pdf" H 2700 4550 50  0001 L CNN
	1    2700 4550
	1    0    0    -1  
$EndComp
$Comp
L Regulator_Linear:AMS1117-5.0 U3
U 1 1 60BCEE74
P 1800 1750
F 0 "U3" H 1800 1992 50  0000 C CNN
F 1 "AMS1117-5.0" H 1800 1901 50  0000 C CNN
F 2 "Package_TO_SOT_SMD:SOT-223-3_TabPin2" H 1800 1950 50  0001 C CNN
F 3 "http://www.advanced-monolithic.com/pdf/ds1117.pdf" H 1900 1500 50  0001 C CNN
	1    1800 1750
	1    0    0    -1  
$EndComp
$Comp
L power:GNDA #PWR04
U 1 1 60BE0C7F
P 900 2250
F 0 "#PWR04" H 900 2000 50  0001 C CNN
F 1 "GNDA" H 905 2077 50  0000 C CNN
F 2 "" H 900 2250 50  0001 C CNN
F 3 "" H 900 2250 50  0001 C CNN
	1    900  2250
	1    0    0    -1  
$EndComp
$Comp
L power:GNDA #PWR07
U 1 1 60BF453C
P 1300 2250
F 0 "#PWR07" H 1300 2000 50  0001 C CNN
F 1 "GNDA" H 1305 2077 50  0000 C CNN
F 2 "" H 1300 2250 50  0001 C CNN
F 3 "" H 1300 2250 50  0001 C CNN
	1    1300 2250
	1    0    0    -1  
$EndComp
$Comp
L power:GNDA #PWR010
U 1 1 60BF471E
P 1800 2250
F 0 "#PWR010" H 1800 2000 50  0001 C CNN
F 1 "GNDA" H 1805 2077 50  0000 C CNN
F 2 "" H 1800 2250 50  0001 C CNN
F 3 "" H 1800 2250 50  0001 C CNN
	1    1800 2250
	1    0    0    -1  
$EndComp
$Comp
L power:GNDA #PWR012
U 1 1 60BF4998
P 2250 2250
F 0 "#PWR012" H 2250 2000 50  0001 C CNN
F 1 "GNDA" H 2255 2077 50  0000 C CNN
F 2 "" H 2250 2250 50  0001 C CNN
F 3 "" H 2250 2250 50  0001 C CNN
	1    2250 2250
	1    0    0    -1  
$EndComp
$Comp
L power:+5VA #PWR014
U 1 1 60BF4BE1
P 2500 1700
F 0 "#PWR014" H 2500 1550 50  0001 C CNN
F 1 "+5VA" H 2515 1873 50  0000 C CNN
F 2 "" H 2500 1700 50  0001 C CNN
F 3 "" H 2500 1700 50  0001 C CNN
	1    2500 1700
	1    0    0    -1  
$EndComp
$Comp
L power:GNDA #PWR015
U 1 1 60BF56DD
P 3650 1400
F 0 "#PWR015" H 3650 1150 50  0001 C CNN
F 1 "GNDA" H 3655 1227 50  0000 C CNN
F 2 "" H 3650 1400 50  0001 C CNN
F 3 "" H 3650 1400 50  0001 C CNN
	1    3650 1400
	1    0    0    -1  
$EndComp
$Comp
L power:GNDA #PWR020
U 1 1 60BF5A83
P 3950 1400
F 0 "#PWR020" H 3950 1150 50  0001 C CNN
F 1 "GNDA" H 3955 1227 50  0000 C CNN
F 2 "" H 3950 1400 50  0001 C CNN
F 3 "" H 3950 1400 50  0001 C CNN
	1    3950 1400
	1    0    0    -1  
$EndComp
$Comp
L power:+12VA #PWR021
U 1 1 60BF61D6
P 4100 900
F 0 "#PWR021" H 4100 750 50  0001 C CNN
F 1 "+12VA" H 4115 1073 50  0000 C CNN
F 2 "" H 4100 900 50  0001 C CNN
F 3 "" H 4100 900 50  0001 C CNN
	1    4100 900 
	1    0    0    -1  
$EndComp
$Comp
L power:+12VA #PWR01
U 1 1 60BF7392
P 750 1700
F 0 "#PWR01" H 750 1550 50  0001 C CNN
F 1 "+12VA" H 765 1873 50  0000 C CNN
F 2 "" H 750 1700 50  0001 C CNN
F 3 "" H 750 1700 50  0001 C CNN
	1    750  1700
	1    0    0    -1  
$EndComp
$Comp
L My_Lib_KiCAD:EVISUN U2
U 1 1 60C115E4
P 1950 3150
F 0 "U2" H 1950 3517 50  0000 C CNN
F 1 "EVISUN" H 1950 3426 50  0000 C CNN
F 2 "My_Lib_KiCAD:EVISUN_2W" H 1800 3500 50  0001 C CNN
F 3 "" H 1750 3450 50  0001 C CNN
	1    1950 3150
	1    0    0    -1  
$EndComp
$Comp
L power:+12VA #PWR02
U 1 1 60C13147
P 750 2950
F 0 "#PWR02" H 750 2800 50  0001 C CNN
F 1 "+12VA" H 765 3123 50  0000 C CNN
F 2 "" H 750 2950 50  0001 C CNN
F 3 "" H 750 2950 50  0001 C CNN
	1    750  2950
	1    0    0    -1  
$EndComp
$Comp
L Device:CP C1
U 1 1 60C13596
P 1050 3250
F 0 "C1" H 1168 3296 50  0000 L CNN
F 1 "2.2uF" H 1168 3205 50  0000 L CNN
F 2 "Capacitor_THT:C_Radial_D6.3mm_H11.0mm_P2.50mm" H 1088 3100 50  0001 C CNN
F 3 "~" H 1050 3250 50  0001 C CNN
	1    1050 3250
	1    0    0    -1  
$EndComp
Wire Wire Line
	1550 3050 1050 3050
Wire Wire Line
	750  3050 750  2950
Wire Wire Line
	1050 3100 1050 3050
Connection ~ 1050 3050
Wire Wire Line
	1050 3050 750  3050
$Comp
L Device:CP C2
U 1 1 60C20683
P 2750 3250
F 0 "C2" H 2868 3296 50  0000 L CNN
F 1 "220uF" H 2868 3205 50  0000 L CNN
F 2 "Capacitor_THT:C_Radial_D6.3mm_H11.0mm_P2.50mm" H 2788 3100 50  0001 C CNN
F 3 "~" H 2750 3250 50  0001 C CNN
	1    2750 3250
	1    0    0    -1  
$EndComp
$Comp
L power:+5V #PWR017
U 1 1 60C20EAD
P 3150 2950
F 0 "#PWR017" H 3150 2800 50  0001 C CNN
F 1 "+5V" H 3165 3123 50  0000 C CNN
F 2 "" H 3150 2950 50  0001 C CNN
F 3 "" H 3150 2950 50  0001 C CNN
	1    3150 2950
	1    0    0    -1  
$EndComp
Wire Wire Line
	2350 3050 2750 3050
Wire Wire Line
	3150 3050 3150 2950
Wire Wire Line
	2750 3100 2750 3050
Connection ~ 2750 3050
Wire Wire Line
	2750 3050 3150 3050
$Comp
L power:GND #PWR016
U 1 1 60C2EB1F
P 2750 3500
F 0 "#PWR016" H 2750 3250 50  0001 C CNN
F 1 "GND" H 2755 3327 50  0000 C CNN
F 2 "" H 2750 3500 50  0001 C CNN
F 3 "" H 2750 3500 50  0001 C CNN
	1    2750 3500
	1    0    0    -1  
$EndComp
Wire Wire Line
	1050 3500 1050 3400
Wire Wire Line
	2750 3500 2750 3400
$Comp
L power:GND #PWR013
U 1 1 60C3C272
P 2450 3500
F 0 "#PWR013" H 2450 3250 50  0001 C CNN
F 1 "GND" H 2455 3327 50  0000 C CNN
F 2 "" H 2450 3500 50  0001 C CNN
F 3 "" H 2450 3500 50  0001 C CNN
	1    2450 3500
	1    0    0    -1  
$EndComp
Wire Wire Line
	2450 3500 2450 3250
Wire Wire Line
	2450 3250 2350 3250
Wire Wire Line
	1450 3500 1450 3250
Wire Wire Line
	1450 3250 1550 3250
$Comp
L power:GNDA #PWR03
U 1 1 60C49DDE
P 1050 3500
F 0 "#PWR03" H 1050 3250 50  0001 C CNN
F 1 "GNDA" H 1055 3327 50  0000 C CNN
F 2 "" H 1050 3500 50  0001 C CNN
F 3 "" H 1050 3500 50  0001 C CNN
	1    1050 3500
	1    0    0    -1  
$EndComp
$Comp
L power:GNDA #PWR09
U 1 1 60C4A0EC
P 1450 3500
F 0 "#PWR09" H 1450 3250 50  0001 C CNN
F 1 "GNDA" H 1455 3327 50  0000 C CNN
F 2 "" H 1450 3500 50  0001 C CNN
F 3 "" H 1450 3500 50  0001 C CNN
	1    1450 3500
	1    0    0    -1  
$EndComp
$Comp
L power:GND #PWR018
U 1 1 60C4C099
P 10300 5750
F 0 "#PWR018" H 10300 5500 50  0001 C CNN
F 1 "GND" H 10305 5577 50  0000 C CNN
F 2 "" H 10300 5750 50  0001 C CNN
F 3 "" H 10300 5750 50  0001 C CNN
	1    10300 5750
	1    0    0    -1  
$EndComp
$Comp
L power:+5V #PWR019
U 1 1 60C4C4A2
P 10650 5350
F 0 "#PWR019" H 10650 5200 50  0001 C CNN
F 1 "+5V" H 10665 5523 50  0000 C CNN
F 2 "" H 10650 5350 50  0001 C CNN
F 3 "" H 10650 5350 50  0001 C CNN
	1    10650 5350
	1    0    0    -1  
$EndComp
Wire Wire Line
	10150 5550 10650 5550
Wire Wire Line
	10650 5550 10650 5350
Wire Wire Line
	10150 5650 10300 5650
Wire Wire Line
	10300 5650 10300 5750
Text Label 7700 4850 0    50   ~ 0
TRIAC_1
Wire Wire Line
	7700 4850 8150 4850
Text Label 7700 4750 0    50   ~ 0
TRIAC_2
Wire Wire Line
	8150 4750 7700 4750
Text Label 7700 4650 0    50   ~ 0
TRIAC_3
Wire Wire Line
	8150 4650 7700 4650
$Comp
L Device:R R1
U 1 1 60C7A3BA
P 2300 4900
F 0 "R1" H 2400 4800 50  0000 L CNN
F 1 "330R" H 2350 4900 50  0000 L CNN
F 2 "Resistor_THT:R_Axial_DIN0207_L6.3mm_D2.5mm_P7.62mm_Horizontal" V 2230 4900 50  0001 C CNN
F 3 "~" H 2300 4900 50  0001 C CNN
	1    2300 4900
	-1   0    0    1   
$EndComp
$Comp
L Device:R R4
U 1 1 60C7B629
P 2400 4300
F 0 "R4" V 2600 4300 50  0000 L CNN
F 1 "470R" V 2500 4250 50  0000 L CNN
F 2 "Resistor_THT:R_Axial_DIN0207_L6.3mm_D2.5mm_P7.62mm_Horizontal" V 2330 4300 50  0001 C CNN
F 3 "~" H 2400 4300 50  0001 C CNN
	1    2400 4300
	0    -1   -1   0   
$EndComp
Text Label 10500 5250 2    50   ~ 0
HST_RX
Text Label 10500 5150 2    50   ~ 0
HST_TX
Wire Wire Line
	10500 5150 10150 5150
Wire Wire Line
	10500 5250 10150 5250
$Comp
L Connector:Screw_Terminal_01x02 J1
U 1 1 60C8BB4A
P 7450 4250
F 0 "J1" H 7500 3950 50  0000 C CNN
F 1 "BATT" H 7400 4050 50  0000 C CNN
F 2 "TerminalBlock:TerminalBlock_bornier-2_P5.08mm" H 7450 4250 50  0001 C CNN
F 3 "~" H 7450 4250 50  0001 C CNN
	1    7450 4250
	-1   0    0    1   
$EndComp
Wire Wire Line
	8150 4250 7650 4250
$Comp
L power:GND #PWR08
U 1 1 60C95D53
P 7750 4300
F 0 "#PWR08" H 7750 4050 50  0001 C CNN
F 1 "GND" H 7755 4127 50  0000 C CNN
F 2 "" H 7750 4300 50  0001 C CNN
F 3 "" H 7750 4300 50  0001 C CNN
	1    7750 4300
	1    0    0    -1  
$EndComp
Text Label 1000 4300 0    50   ~ 0
TRIAC_1
Wire Wire Line
	1000 4300 1400 4300
$Comp
L power:GND #PWR022
U 1 1 60CAEB64
P 1300 4600
F 0 "#PWR022" H 1300 4350 50  0001 C CNN
F 1 "GND" H 1305 4427 50  0000 C CNN
F 2 "" H 1300 4600 50  0001 C CNN
F 3 "" H 1300 4600 50  0001 C CNN
	1    1300 4600
	1    0    0    -1  
$EndComp
Wire Wire Line
	1300 4600 1300 4500
Wire Wire Line
	1300 4500 1400 4500
Wire Wire Line
	2550 4650 2300 4650
Wire Wire Line
	2100 4650 2100 4500
Wire Wire Line
	2100 4500 2000 4500
Wire Wire Line
	2000 4300 2250 4300
Wire Wire Line
	2300 4750 2300 4650
Connection ~ 2300 4650
Wire Wire Line
	2300 4650 2100 4650
$Comp
L Connector:Screw_Terminal_01x02 J2
U 1 1 60CD24BC
P 3650 4450
F 0 "J2" H 3650 4650 50  0000 C CNN
F 1 "L1_OUT" H 3650 4550 50  0000 C CNN
F 2 "TerminalBlock:TerminalBlock_bornier-2_P5.08mm" H 3650 4450 50  0001 C CNN
F 3 "~" H 3650 4450 50  0001 C CNN
	1    3650 4450
	1    0    0    -1  
$EndComp
Wire Wire Line
	3450 4450 3350 4450
Wire Wire Line
	3350 4450 3350 4300
Wire Wire Line
	2550 4300 2700 4300
Wire Wire Line
	3450 4550 3300 4550
Wire Wire Line
	3300 4550 3300 5150
Wire Wire Line
	3300 5150 2700 5150
Wire Wire Line
	2300 5150 2300 5050
Wire Wire Line
	2700 4400 2700 4300
Connection ~ 2700 4300
Wire Wire Line
	2700 4300 3350 4300
Wire Wire Line
	2700 4700 2700 5150
Connection ~ 2700 5150
Wire Wire Line
	2700 5150 2300 5150
$Comp
L Relay_SolidState:MOC3041M U4
U 1 1 60D14CB8
P 1700 5600
F 0 "U4" H 1700 5925 50  0000 C CNN
F 1 "MOC3041M" H 1700 5834 50  0000 C CNN
F 2 "Package_DIP:DIP-6_W7.62mm" H 1500 5400 50  0001 L CIN
F 3 "https://www.onsemi.com/pub/Collateral/MOC3043M-D.pdf" H 1700 5600 50  0001 L CNN
	1    1700 5600
	1    0    0    -1  
$EndComp
$Comp
L Triac_Thyristor:BTA16-600B Q3
U 1 1 60D14CBE
P 2700 5750
F 0 "Q3" H 2829 5796 50  0000 L CNN
F 1 "BTA16-600B" H 2829 5705 50  0000 L CNN
F 2 "Package_TO_SOT_THT:TO-220-3_Vertical" H 2900 5675 50  0001 L CIN
F 3 "https://www.st.com/resource/en/datasheet/bta16.pdf" H 2700 5750 50  0001 L CNN
	1    2700 5750
	1    0    0    -1  
$EndComp
$Comp
L Device:R R2
U 1 1 60D14CC4
P 2300 6100
F 0 "R2" H 2400 6000 50  0000 L CNN
F 1 "330R" H 2350 6100 50  0000 L CNN
F 2 "Resistor_THT:R_Axial_DIN0207_L6.3mm_D2.5mm_P7.62mm_Horizontal" V 2230 6100 50  0001 C CNN
F 3 "~" H 2300 6100 50  0001 C CNN
	1    2300 6100
	-1   0    0    1   
$EndComp
$Comp
L Device:R R5
U 1 1 60D14CCA
P 2400 5500
F 0 "R5" V 2600 5500 50  0000 L CNN
F 1 "470R" V 2500 5450 50  0000 L CNN
F 2 "Resistor_THT:R_Axial_DIN0207_L6.3mm_D2.5mm_P7.62mm_Horizontal" V 2330 5500 50  0001 C CNN
F 3 "~" H 2400 5500 50  0001 C CNN
	1    2400 5500
	0    -1   -1   0   
$EndComp
Text Label 1000 5500 0    50   ~ 0
TRIAC_2
Wire Wire Line
	1000 5500 1400 5500
$Comp
L power:GND #PWR023
U 1 1 60D14CD2
P 1300 5800
F 0 "#PWR023" H 1300 5550 50  0001 C CNN
F 1 "GND" H 1305 5627 50  0000 C CNN
F 2 "" H 1300 5800 50  0001 C CNN
F 3 "" H 1300 5800 50  0001 C CNN
	1    1300 5800
	1    0    0    -1  
$EndComp
Wire Wire Line
	1300 5800 1300 5700
Wire Wire Line
	1300 5700 1400 5700
Wire Wire Line
	2550 5850 2300 5850
Wire Wire Line
	2100 5850 2100 5700
Wire Wire Line
	2100 5700 2000 5700
Wire Wire Line
	2000 5500 2250 5500
Wire Wire Line
	2300 5950 2300 5850
Connection ~ 2300 5850
Wire Wire Line
	2300 5850 2100 5850
$Comp
L Connector:Screw_Terminal_01x02 J3
U 1 1 60D14CE1
P 3650 5650
F 0 "J3" H 3650 5850 50  0000 C CNN
F 1 "L2_OUT" H 3650 5750 50  0000 C CNN
F 2 "TerminalBlock:TerminalBlock_bornier-2_P5.08mm" H 3650 5650 50  0001 C CNN
F 3 "~" H 3650 5650 50  0001 C CNN
	1    3650 5650
	1    0    0    -1  
$EndComp
Wire Wire Line
	3450 5650 3350 5650
Wire Wire Line
	3350 5650 3350 5500
Wire Wire Line
	2550 5500 2700 5500
Wire Wire Line
	3450 5750 3300 5750
Wire Wire Line
	3300 5750 3300 6350
Wire Wire Line
	3300 6350 2700 6350
Wire Wire Line
	2300 6350 2300 6250
Wire Wire Line
	2700 5600 2700 5500
Connection ~ 2700 5500
Wire Wire Line
	2700 5500 3350 5500
Wire Wire Line
	2700 5900 2700 6350
Connection ~ 2700 6350
Wire Wire Line
	2700 6350 2300 6350
$Comp
L Relay_SolidState:MOC3041M U6
U 1 1 60D24D76
P 1700 6800
F 0 "U6" H 1700 7125 50  0000 C CNN
F 1 "MOC3041M" H 1700 7034 50  0000 C CNN
F 2 "Package_DIP:DIP-6_W7.62mm" H 1500 6600 50  0001 L CIN
F 3 "https://www.onsemi.com/pub/Collateral/MOC3043M-D.pdf" H 1700 6800 50  0001 L CNN
	1    1700 6800
	1    0    0    -1  
$EndComp
$Comp
L Triac_Thyristor:BTA16-600B Q4
U 1 1 60D24D7C
P 2700 6950
F 0 "Q4" H 2829 6996 50  0000 L CNN
F 1 "BTA16-600B" H 2829 6905 50  0000 L CNN
F 2 "Package_TO_SOT_THT:TO-220-3_Vertical" H 2900 6875 50  0001 L CIN
F 3 "https://www.st.com/resource/en/datasheet/bta16.pdf" H 2700 6950 50  0001 L CNN
	1    2700 6950
	1    0    0    -1  
$EndComp
$Comp
L Device:R R3
U 1 1 60D24D82
P 2300 7300
F 0 "R3" H 2400 7200 50  0000 L CNN
F 1 "330R" H 2350 7300 50  0000 L CNN
F 2 "Resistor_THT:R_Axial_DIN0207_L6.3mm_D2.5mm_P7.62mm_Horizontal" V 2230 7300 50  0001 C CNN
F 3 "~" H 2300 7300 50  0001 C CNN
	1    2300 7300
	-1   0    0    1   
$EndComp
$Comp
L Device:R R6
U 1 1 60D24D88
P 2400 6700
F 0 "R6" V 2600 6700 50  0000 L CNN
F 1 "470R" V 2500 6650 50  0000 L CNN
F 2 "Resistor_THT:R_Axial_DIN0207_L6.3mm_D2.5mm_P7.62mm_Horizontal" V 2330 6700 50  0001 C CNN
F 3 "~" H 2400 6700 50  0001 C CNN
	1    2400 6700
	0    -1   -1   0   
$EndComp
Text Label 1000 6700 0    50   ~ 0
TRIAC_3
Wire Wire Line
	1000 6700 1400 6700
$Comp
L power:GND #PWR024
U 1 1 60D24D90
P 1300 7000
F 0 "#PWR024" H 1300 6750 50  0001 C CNN
F 1 "GND" H 1305 6827 50  0000 C CNN
F 2 "" H 1300 7000 50  0001 C CNN
F 3 "" H 1300 7000 50  0001 C CNN
	1    1300 7000
	1    0    0    -1  
$EndComp
Wire Wire Line
	1300 7000 1300 6900
Wire Wire Line
	1300 6900 1400 6900
Wire Wire Line
	2550 7050 2300 7050
Wire Wire Line
	2100 7050 2100 6900
Wire Wire Line
	2100 6900 2000 6900
Wire Wire Line
	2000 6700 2250 6700
Wire Wire Line
	2300 7150 2300 7050
Connection ~ 2300 7050
Wire Wire Line
	2300 7050 2100 7050
$Comp
L Connector:Screw_Terminal_01x02 J4
U 1 1 60D24D9F
P 3650 6850
F 0 "J4" H 3650 7050 50  0000 C CNN
F 1 "L3_OUT" H 3650 6950 50  0000 C CNN
F 2 "TerminalBlock:TerminalBlock_bornier-2_P5.08mm" H 3650 6850 50  0001 C CNN
F 3 "~" H 3650 6850 50  0001 C CNN
	1    3650 6850
	1    0    0    -1  
$EndComp
Wire Wire Line
	3450 6850 3350 6850
Wire Wire Line
	3350 6850 3350 6700
Wire Wire Line
	2550 6700 2700 6700
Wire Wire Line
	3450 6950 3300 6950
Wire Wire Line
	3300 6950 3300 7550
Wire Wire Line
	3300 7550 2700 7550
Wire Wire Line
	2300 7550 2300 7450
Wire Wire Line
	2700 6800 2700 6700
Connection ~ 2700 6700
Wire Wire Line
	2700 6700 3350 6700
Wire Wire Line
	2700 7100 2700 7550
Connection ~ 2700 7550
Wire Wire Line
	2700 7550 2300 7550
$Comp
L power:+5V #PWR0101
U 1 1 60103A68
P 7050 1000
F 0 "#PWR0101" H 7050 850 50  0001 C CNN
F 1 "+5V" H 7065 1173 50  0000 C CNN
F 2 "" H 7050 1000 50  0001 C CNN
F 3 "" H 7050 1000 50  0001 C CNN
	1    7050 1000
	1    0    0    -1  
$EndComp
$Comp
L power:+5V #PWR0104
U 1 1 60104613
P 7050 2350
F 0 "#PWR0104" H 7050 2200 50  0001 C CNN
F 1 "+5V" H 7065 2523 50  0000 C CNN
F 2 "" H 7050 2350 50  0001 C CNN
F 3 "" H 7050 2350 50  0001 C CNN
	1    7050 2350
	1    0    0    -1  
$EndComp
Wire Wire Line
	7650 4150 7750 4150
Wire Wire Line
	7750 4300 7750 4150
Connection ~ 7750 4150
Wire Wire Line
	7750 4150 8150 4150
Text Label 5000 6950 0    50   ~ 0
HST_TX
Text Label 5000 7050 0    50   ~ 0
HST_RX
$Comp
L power:+5V #PWR025
U 1 1 60215690
P 5250 6450
F 0 "#PWR025" H 5250 6300 50  0001 C CNN
F 1 "+5V" H 5265 6623 50  0000 C CNN
F 2 "" H 5250 6450 50  0001 C CNN
F 3 "" H 5250 6450 50  0001 C CNN
	1    5250 6450
	1    0    0    -1  
$EndComp
$Comp
L power:GND #PWR026
U 1 1 60215AE8
P 4750 6700
F 0 "#PWR026" H 4750 6450 50  0001 C CNN
F 1 "GND" H 4755 6527 50  0000 C CNN
F 2 "" H 4750 6700 50  0001 C CNN
F 3 "" H 4750 6700 50  0001 C CNN
	1    4750 6700
	1    0    0    -1  
$EndComp
Wire Wire Line
	5350 7050 5000 7050
Wire Wire Line
	5350 6950 5000 6950
$Comp
L Connector:Screw_Terminal_01x04 J6
U 1 1 602B0E45
P 5850 1050
F 0 "J6" H 5930 1042 50  0000 L CNN
F 1 "DI_INPUTs" H 5930 951 50  0000 L CNN
F 2 "TerminalBlock:TerminalBlock_bornier-4_P5.08mm" H 5850 1050 50  0001 C CNN
F 3 "~" H 5850 1050 50  0001 C CNN
	1    5850 1050
	1    0    0    -1  
$EndComp
$Comp
L power:+12VA #PWR027
U 1 1 602B2A58
P 5500 850
F 0 "#PWR027" H 5500 700 50  0001 C CNN
F 1 "+12VA" H 5515 1023 50  0000 C CNN
F 2 "" H 5500 850 50  0001 C CNN
F 3 "" H 5500 850 50  0001 C CNN
	1    5500 850 
	1    0    0    -1  
$EndComp
Wire Wire Line
	5650 950  5500 950 
Wire Wire Line
	5500 950  5500 850 
Text Label 5250 1050 0    50   ~ 0
DI0
Wire Wire Line
	5250 1050 5650 1050
Text Label 5250 1150 0    50   ~ 0
DI1
Text Label 5250 1250 0    50   ~ 0
DI2
Wire Wire Line
	5250 1150 5650 1150
Wire Wire Line
	5250 1250 5650 1250
$Comp
L Isolator:PC817 U10
U 1 1 602DF372
P 5600 2100
F 0 "U10" H 5600 2425 50  0000 C CNN
F 1 "PC817" H 5600 2334 50  0000 C CNN
F 2 "Package_DIP:DIP-4_W7.62mm" H 5400 1900 50  0001 L CIN
F 3 "http://www.soselectronic.cz/a_info/resource/d/pc817.pdf" H 5600 2100 50  0001 L CNN
	1    5600 2100
	1    0    0    -1  
$EndComp
$Comp
L Device:R R7
U 1 1 602E01B7
P 5000 2000
F 0 "R7" V 5200 2000 50  0000 L CNN
F 1 "10k" V 5100 1950 50  0000 L CNN
F 2 "Resistor_THT:R_Axial_DIN0207_L6.3mm_D2.5mm_P7.62mm_Horizontal" V 4930 2000 50  0001 C CNN
F 3 "~" H 5000 2000 50  0001 C CNN
	1    5000 2000
	0    -1   -1   0   
$EndComp
Wire Wire Line
	5300 2000 5150 2000
Text Label 4600 2000 0    50   ~ 0
DI0
Wire Wire Line
	4600 2000 4850 2000
$Comp
L power:GNDA #PWR028
U 1 1 602F69BA
P 5200 2300
F 0 "#PWR028" H 5200 2050 50  0001 C CNN
F 1 "GNDA" H 5205 2127 50  0000 C CNN
F 2 "" H 5200 2300 50  0001 C CNN
F 3 "" H 5200 2300 50  0001 C CNN
	1    5200 2300
	1    0    0    -1  
$EndComp
Wire Wire Line
	5300 2200 5200 2200
Wire Wire Line
	5200 2200 5200 2300
$Comp
L power:+5V #PWR029
U 1 1 603029EC
P 5950 1850
F 0 "#PWR029" H 5950 1700 50  0001 C CNN
F 1 "+5V" H 5965 2023 50  0000 C CNN
F 2 "" H 5950 1850 50  0001 C CNN
F 3 "" H 5950 1850 50  0001 C CNN
	1    5950 1850
	1    0    0    -1  
$EndComp
Wire Wire Line
	5900 2000 5950 2000
Wire Wire Line
	5950 2000 5950 1850
$Comp
L Device:R R8
U 1 1 6030F2E3
P 6150 2500
F 0 "R8" H 6250 2400 50  0000 L CNN
F 1 "4.7k" H 6200 2500 50  0000 L CNN
F 2 "Resistor_THT:R_Axial_DIN0207_L6.3mm_D2.5mm_P7.62mm_Horizontal" V 6080 2500 50  0001 C CNN
F 3 "~" H 6150 2500 50  0001 C CNN
	1    6150 2500
	-1   0    0    1   
$EndComp
Wire Wire Line
	5900 2200 6150 2200
Wire Wire Line
	6150 2200 6150 2350
$Comp
L Device:R R9
U 1 1 6031B888
P 6150 3000
F 0 "R9" H 6250 2900 50  0000 L CNN
F 1 "3.3k" H 6200 3000 50  0000 L CNN
F 2 "Resistor_THT:R_Axial_DIN0207_L6.3mm_D2.5mm_P7.62mm_Horizontal" V 6080 3000 50  0001 C CNN
F 3 "~" H 6150 3000 50  0001 C CNN
	1    6150 3000
	-1   0    0    1   
$EndComp
$Comp
L power:GND #PWR030
U 1 1 6031BC07
P 6150 3250
F 0 "#PWR030" H 6150 3000 50  0001 C CNN
F 1 "GND" H 6155 3077 50  0000 C CNN
F 2 "" H 6150 3250 50  0001 C CNN
F 3 "" H 6150 3250 50  0001 C CNN
	1    6150 3250
	1    0    0    -1  
$EndComp
Wire Wire Line
	6150 3250 6150 3150
Wire Wire Line
	6150 2850 6150 2750
Text Label 6500 2750 2    50   ~ 0
IO0
Wire Wire Line
	6500 2750 6150 2750
Connection ~ 6150 2750
Wire Wire Line
	6150 2750 6150 2650
$Comp
L Device:LED D3
U 1 1 60341163
P 8050 6350
F 0 "D3" V 8089 6232 50  0000 R CNN
F 1 "LED" V 7998 6232 50  0000 R CNN
F 2 "LED_THT:LED_D5.0mm" H 8050 6350 50  0001 C CNN
F 3 "~" H 8050 6350 50  0001 C CNN
	1    8050 6350
	0    -1   -1   0   
$EndComp
$Comp
L Device:LED D2
U 1 1 603433F8
P 7750 6350
F 0 "D2" V 7789 6232 50  0000 R CNN
F 1 "LED" V 7698 6232 50  0000 R CNN
F 2 "LED_THT:LED_D5.0mm" H 7750 6350 50  0001 C CNN
F 3 "~" H 7750 6350 50  0001 C CNN
	1    7750 6350
	0    -1   -1   0   
$EndComp
$Comp
L Device:LED D1
U 1 1 603437F8
P 7450 6350
F 0 "D1" V 7489 6232 50  0000 R CNN
F 1 "LED" V 7398 6232 50  0000 R CNN
F 2 "LED_THT:LED_D5.0mm" H 7450 6350 50  0001 C CNN
F 3 "~" H 7450 6350 50  0001 C CNN
	1    7450 6350
	0    -1   -1   0   
$EndComp
$Comp
L Device:R R12
U 1 1 60343CEF
P 8050 5950
F 0 "R12" H 8150 5850 50  0000 L CNN
F 1 "120R" H 8100 5950 50  0000 L CNN
F 2 "Resistor_THT:R_Axial_DIN0207_L6.3mm_D2.5mm_P2.54mm_Vertical" V 7980 5950 50  0001 C CNN
F 3 "~" H 8050 5950 50  0001 C CNN
	1    8050 5950
	-1   0    0    1   
$EndComp
$Comp
L Device:R R11
U 1 1 60344123
P 7750 5950
F 0 "R11" H 7850 5850 50  0000 L CNN
F 1 "120R" H 7800 5950 50  0000 L CNN
F 2 "Resistor_THT:R_Axial_DIN0207_L6.3mm_D2.5mm_P2.54mm_Vertical" V 7680 5950 50  0001 C CNN
F 3 "~" H 7750 5950 50  0001 C CNN
	1    7750 5950
	-1   0    0    1   
$EndComp
$Comp
L Device:R R10
U 1 1 603443CB
P 7450 5950
F 0 "R10" H 7550 5850 50  0000 L CNN
F 1 "120R" H 7500 5950 50  0000 L CNN
F 2 "Resistor_THT:R_Axial_DIN0207_L6.3mm_D2.5mm_P2.54mm_Vertical" V 7380 5950 50  0001 C CNN
F 3 "~" H 7450 5950 50  0001 C CNN
	1    7450 5950
	-1   0    0    1   
$EndComp
Wire Wire Line
	7450 6200 7450 6100
Wire Wire Line
	7750 6200 7750 6100
Wire Wire Line
	8050 6200 8050 6100
$Comp
L power:GND #PWR031
U 1 1 603A11E9
P 7450 6600
F 0 "#PWR031" H 7450 6350 50  0001 C CNN
F 1 "GND" H 7455 6427 50  0000 C CNN
F 2 "" H 7450 6600 50  0001 C CNN
F 3 "" H 7450 6600 50  0001 C CNN
	1    7450 6600
	1    0    0    -1  
$EndComp
$Comp
L power:GND #PWR032
U 1 1 603A17D9
P 7750 6600
F 0 "#PWR032" H 7750 6350 50  0001 C CNN
F 1 "GND" H 7755 6427 50  0000 C CNN
F 2 "" H 7750 6600 50  0001 C CNN
F 3 "" H 7750 6600 50  0001 C CNN
	1    7750 6600
	1    0    0    -1  
$EndComp
$Comp
L power:GND #PWR033
U 1 1 603A1990
P 8050 6600
F 0 "#PWR033" H 8050 6350 50  0001 C CNN
F 1 "GND" H 8055 6427 50  0000 C CNN
F 2 "" H 8050 6600 50  0001 C CNN
F 3 "" H 8050 6600 50  0001 C CNN
	1    8050 6600
	1    0    0    -1  
$EndComp
Wire Wire Line
	7450 6600 7450 6500
Wire Wire Line
	7750 6600 7750 6500
Wire Wire Line
	8050 6600 8050 6500
$Comp
L Isolator:PC817 U12
U 1 1 603FBF27
P 5200 3300
F 0 "U12" H 5200 3625 50  0000 C CNN
F 1 "PC817" H 5200 3534 50  0000 C CNN
F 2 "Package_DIP:DIP-4_W7.62mm" H 5000 3100 50  0001 L CIN
F 3 "http://www.soselectronic.cz/a_info/resource/d/pc817.pdf" H 5200 3300 50  0001 L CNN
	1    5200 3300
	1    0    0    -1  
$EndComp
$Comp
L Device:R R14
U 1 1 603FBF2D
P 4600 3200
F 0 "R14" V 4800 3200 50  0000 L CNN
F 1 "10k" V 4700 3150 50  0000 L CNN
F 2 "Resistor_THT:R_Axial_DIN0207_L6.3mm_D2.5mm_P7.62mm_Horizontal" V 4530 3200 50  0001 C CNN
F 3 "~" H 4600 3200 50  0001 C CNN
	1    4600 3200
	0    -1   -1   0   
$EndComp
Wire Wire Line
	4900 3200 4750 3200
Text Label 4200 3200 0    50   ~ 0
DI1
Wire Wire Line
	4200 3200 4450 3200
$Comp
L power:GNDA #PWR035
U 1 1 603FBF36
P 4800 3500
F 0 "#PWR035" H 4800 3250 50  0001 C CNN
F 1 "GNDA" H 4805 3327 50  0000 C CNN
F 2 "" H 4800 3500 50  0001 C CNN
F 3 "" H 4800 3500 50  0001 C CNN
	1    4800 3500
	1    0    0    -1  
$EndComp
Wire Wire Line
	4900 3400 4800 3400
Wire Wire Line
	4800 3400 4800 3500
$Comp
L power:+5V #PWR038
U 1 1 603FBF3E
P 5550 3050
F 0 "#PWR038" H 5550 2900 50  0001 C CNN
F 1 "+5V" H 5565 3223 50  0000 C CNN
F 2 "" H 5550 3050 50  0001 C CNN
F 3 "" H 5550 3050 50  0001 C CNN
	1    5550 3050
	1    0    0    -1  
$EndComp
Wire Wire Line
	5500 3200 5550 3200
Wire Wire Line
	5550 3200 5550 3050
$Comp
L Device:R R17
U 1 1 603FBF46
P 5750 3700
F 0 "R17" H 5850 3600 50  0000 L CNN
F 1 "4.7k" H 5800 3700 50  0000 L CNN
F 2 "Resistor_THT:R_Axial_DIN0207_L6.3mm_D2.5mm_P7.62mm_Horizontal" V 5680 3700 50  0001 C CNN
F 3 "~" H 5750 3700 50  0001 C CNN
	1    5750 3700
	-1   0    0    1   
$EndComp
Wire Wire Line
	5500 3400 5750 3400
Wire Wire Line
	5750 3400 5750 3550
$Comp
L Device:R R18
U 1 1 603FBF4E
P 5750 4200
F 0 "R18" H 5850 4100 50  0000 L CNN
F 1 "3.3k" H 5800 4200 50  0000 L CNN
F 2 "Resistor_THT:R_Axial_DIN0207_L6.3mm_D2.5mm_P7.62mm_Horizontal" V 5680 4200 50  0001 C CNN
F 3 "~" H 5750 4200 50  0001 C CNN
	1    5750 4200
	-1   0    0    1   
$EndComp
$Comp
L power:GND #PWR039
U 1 1 603FBF54
P 5750 4450
F 0 "#PWR039" H 5750 4200 50  0001 C CNN
F 1 "GND" H 5755 4277 50  0000 C CNN
F 2 "" H 5750 4450 50  0001 C CNN
F 3 "" H 5750 4450 50  0001 C CNN
	1    5750 4450
	1    0    0    -1  
$EndComp
Wire Wire Line
	5750 4450 5750 4350
Wire Wire Line
	5750 4050 5750 3950
Text Label 6100 3950 2    50   ~ 0
IO1
Wire Wire Line
	6100 3950 5750 3950
Connection ~ 5750 3950
Wire Wire Line
	5750 3950 5750 3850
$Comp
L Isolator:PC817 U11
U 1 1 6040D403
P 5050 4800
F 0 "U11" H 5050 5125 50  0000 C CNN
F 1 "PC817" H 5050 5034 50  0000 C CNN
F 2 "Package_DIP:DIP-4_W7.62mm" H 4850 4600 50  0001 L CIN
F 3 "http://www.soselectronic.cz/a_info/resource/d/pc817.pdf" H 5050 4800 50  0001 L CNN
	1    5050 4800
	1    0    0    -1  
$EndComp
$Comp
L Device:R R13
U 1 1 6040D409
P 4450 4700
F 0 "R13" V 4650 4700 50  0000 L CNN
F 1 "10k" V 4550 4650 50  0000 L CNN
F 2 "Resistor_THT:R_Axial_DIN0207_L6.3mm_D2.5mm_P7.62mm_Horizontal" V 4380 4700 50  0001 C CNN
F 3 "~" H 4450 4700 50  0001 C CNN
	1    4450 4700
	0    -1   -1   0   
$EndComp
Wire Wire Line
	4750 4700 4600 4700
Text Label 4050 4700 0    50   ~ 0
DI2
Wire Wire Line
	4050 4700 4300 4700
$Comp
L power:GNDA #PWR034
U 1 1 6040D412
P 4650 5000
F 0 "#PWR034" H 4650 4750 50  0001 C CNN
F 1 "GNDA" H 4655 4827 50  0000 C CNN
F 2 "" H 4650 5000 50  0001 C CNN
F 3 "" H 4650 5000 50  0001 C CNN
	1    4650 5000
	1    0    0    -1  
$EndComp
Wire Wire Line
	4750 4900 4650 4900
Wire Wire Line
	4650 4900 4650 5000
$Comp
L power:+5V #PWR036
U 1 1 6040D41A
P 5400 4550
F 0 "#PWR036" H 5400 4400 50  0001 C CNN
F 1 "+5V" H 5415 4723 50  0000 C CNN
F 2 "" H 5400 4550 50  0001 C CNN
F 3 "" H 5400 4550 50  0001 C CNN
	1    5400 4550
	1    0    0    -1  
$EndComp
Wire Wire Line
	5350 4700 5400 4700
Wire Wire Line
	5400 4700 5400 4550
$Comp
L Device:R R15
U 1 1 6040D422
P 5600 5200
F 0 "R15" H 5700 5100 50  0000 L CNN
F 1 "4.7k" H 5650 5200 50  0000 L CNN
F 2 "Resistor_THT:R_Axial_DIN0207_L6.3mm_D2.5mm_P7.62mm_Horizontal" V 5530 5200 50  0001 C CNN
F 3 "~" H 5600 5200 50  0001 C CNN
	1    5600 5200
	-1   0    0    1   
$EndComp
Wire Wire Line
	5350 4900 5600 4900
Wire Wire Line
	5600 4900 5600 5050
$Comp
L Device:R R16
U 1 1 6040D42A
P 5600 5700
F 0 "R16" H 5700 5600 50  0000 L CNN
F 1 "3.3k" H 5650 5700 50  0000 L CNN
F 2 "Resistor_THT:R_Axial_DIN0207_L6.3mm_D2.5mm_P7.62mm_Horizontal" V 5530 5700 50  0001 C CNN
F 3 "~" H 5600 5700 50  0001 C CNN
	1    5600 5700
	-1   0    0    1   
$EndComp
$Comp
L power:GND #PWR037
U 1 1 6040D430
P 5600 5950
F 0 "#PWR037" H 5600 5700 50  0001 C CNN
F 1 "GND" H 5605 5777 50  0000 C CNN
F 2 "" H 5600 5950 50  0001 C CNN
F 3 "" H 5600 5950 50  0001 C CNN
	1    5600 5950
	1    0    0    -1  
$EndComp
Wire Wire Line
	5600 5950 5600 5850
Wire Wire Line
	5600 5550 5600 5450
Text Label 5950 5450 2    50   ~ 0
IO2
Wire Wire Line
	5950 5450 5600 5450
Connection ~ 5600 5450
Wire Wire Line
	5600 5450 5600 5350
Wire Wire Line
	8150 5650 8050 5650
Wire Wire Line
	8050 5650 8050 5800
Wire Wire Line
	8150 5550 7750 5550
Wire Wire Line
	7750 5550 7750 5800
Wire Wire Line
	8150 5450 7450 5450
Wire Wire Line
	7450 5450 7450 5800
Text Label 7700 5150 0    50   ~ 0
IO2
Wire Wire Line
	7700 5150 8150 5150
Text Label 7700 5050 0    50   ~ 0
IO1
Text Label 7700 4950 0    50   ~ 0
IO0
Wire Wire Line
	7700 5050 8150 5050
Wire Wire Line
	7700 4950 8150 4950
Text Label 10550 4350 2    50   ~ 0
BUTTON
Wire Wire Line
	10550 4350 10150 4350
$Comp
L Switch:SW_Push SW1
U 1 1 60586E85
P 4200 6300
F 0 "SW1" V 4154 6448 50  0000 L CNN
F 1 "SW_Push" V 4245 6448 50  0000 L CNN
F 2 "Button_Switch_THT:SW_PUSH_6mm" H 4200 6500 50  0001 C CNN
F 3 "~" H 4200 6500 50  0001 C CNN
	1    4200 6300
	0    1    1    0   
$EndComp
$Comp
L Device:R R19
U 1 1 60589426
P 4200 5800
F 0 "R19" H 4300 5700 50  0000 L CNN
F 1 "1k" H 4250 5800 50  0000 L CNN
F 2 "Resistor_THT:R_Axial_DIN0207_L6.3mm_D2.5mm_P7.62mm_Horizontal" V 4130 5800 50  0001 C CNN
F 3 "~" H 4200 5800 50  0001 C CNN
	1    4200 5800
	-1   0    0    1   
$EndComp
$Comp
L power:+5V #PWR040
U 1 1 6059A7F8
P 4200 5550
F 0 "#PWR040" H 4200 5400 50  0001 C CNN
F 1 "+5V" H 4215 5723 50  0000 C CNN
F 2 "" H 4200 5550 50  0001 C CNN
F 3 "" H 4200 5550 50  0001 C CNN
	1    4200 5550
	1    0    0    -1  
$EndComp
Wire Wire Line
	4200 5650 4200 5550
$Comp
L power:GND #PWR041
U 1 1 605AB73D
P 4200 6600
F 0 "#PWR041" H 4200 6350 50  0001 C CNN
F 1 "GND" H 4205 6427 50  0000 C CNN
F 2 "" H 4200 6600 50  0001 C CNN
F 3 "" H 4200 6600 50  0001 C CNN
	1    4200 6600
	1    0    0    -1  
$EndComp
Wire Wire Line
	4200 6600 4200 6500
Wire Wire Line
	4200 6100 4200 6050
Text Label 3800 6050 0    50   ~ 0
BUTTON
Wire Wire Line
	3800 6050 4200 6050
Connection ~ 4200 6050
Wire Wire Line
	4200 6050 4200 5950
Wire Wire Line
	1300 1750 900  1750
Connection ~ 1300 1750
Connection ~ 900  1750
Text Label 10550 4150 2    50   ~ 0
TX1
Wire Wire Line
	10550 4150 10150 4150
Text Label 10550 4250 2    50   ~ 0
RX1
Wire Wire Line
	10550 4250 10150 4250
Wire Wire Line
	5350 6550 4750 6550
Wire Wire Line
	4750 6550 4750 6700
Wire Wire Line
	5350 6650 5250 6650
Wire Wire Line
	5250 6650 5250 6450
$Comp
L Connector_Generic:Conn_01x06 J5
U 1 1 609F137C
P 5550 6750
F 0 "J5" H 5630 6742 50  0000 L CNN
F 1 "CONN" H 5630 6651 50  0000 L CNN
F 2 "Connector_PinHeader_2.54mm:PinHeader_1x06_P2.54mm_Vertical" H 5550 6750 50  0001 C CNN
F 3 "~" H 5550 6750 50  0001 C CNN
	1    5550 6750
	1    0    0    -1  
$EndComp
Text Label 5000 6850 0    50   ~ 0
TEMP2
Text Label 5000 6750 0    50   ~ 0
TEMP1
Wire Wire Line
	5350 6750 5000 6750
Wire Wire Line
	5350 6850 5000 6850
Text Label 10500 4750 2    50   ~ 0
TEMP1
Text Label 10500 4850 2    50   ~ 0
TEMP2
Wire Wire Line
	10500 4750 10150 4750
Wire Wire Line
	10500 4850 10150 4850
$Comp
L Device:R R20
U 1 1 60AA94CB
P 6300 6100
F 0 "R20" H 6400 6000 50  0000 L CNN
F 1 "1k" H 6350 6100 50  0000 L CNN
F 2 "Resistor_THT:R_Axial_DIN0207_L6.3mm_D2.5mm_P7.62mm_Horizontal" V 6230 6100 50  0001 C CNN
F 3 "~" H 6300 6100 50  0001 C CNN
	1    6300 6100
	-1   0    0    1   
$EndComp
$Comp
L Device:R R23
U 1 1 60AA99D3
P 6550 6100
F 0 "R23" H 6650 6000 50  0000 L CNN
F 1 "1k" H 6600 6100 50  0000 L CNN
F 2 "Resistor_THT:R_Axial_DIN0207_L6.3mm_D2.5mm_P7.62mm_Horizontal" V 6480 6100 50  0001 C CNN
F 3 "~" H 6550 6100 50  0001 C CNN
	1    6550 6100
	-1   0    0    1   
$EndComp
Text Label 5900 6450 0    50   ~ 0
TEMP2
Text Label 5900 6350 0    50   ~ 0
TEMP1
Wire Wire Line
	6300 6250 6300 6350
Wire Wire Line
	5900 6350 6300 6350
Wire Wire Line
	6550 6450 6550 6250
Wire Wire Line
	5900 6450 6550 6450
$Comp
L power:+5V #PWR05
U 1 1 60ADF995
P 6300 5850
F 0 "#PWR05" H 6300 5700 50  0001 C CNN
F 1 "+5V" H 6315 6023 50  0000 C CNN
F 2 "" H 6300 5850 50  0001 C CNN
F 3 "" H 6300 5850 50  0001 C CNN
	1    6300 5850
	1    0    0    -1  
$EndComp
$Comp
L power:+5V #PWR042
U 1 1 60AE00D4
P 6550 5850
F 0 "#PWR042" H 6550 5700 50  0001 C CNN
F 1 "+5V" H 6565 6023 50  0000 C CNN
F 2 "" H 6550 5850 50  0001 C CNN
F 3 "" H 6550 5850 50  0001 C CNN
	1    6550 5850
	1    0    0    -1  
$EndComp
Wire Wire Line
	6300 5850 6300 5950
Wire Wire Line
	6550 5850 6550 5950
$Comp
L Device:C C6
U 1 1 5FFFB2FA
P 6950 4800
F 0 "C6" H 7065 4846 50  0000 L CNN
F 1 "104" H 7065 4755 50  0000 L CNN
F 2 "Capacitor_THT:C_Rect_L7.0mm_W3.5mm_P5.00mm" H 6988 4650 50  0001 C CNN
F 3 "~" H 6950 4800 50  0001 C CNN
	1    6950 4800
	1    0    0    -1  
$EndComp
$Comp
L power:GND #PWR044
U 1 1 5FFFC817
P 6950 5050
F 0 "#PWR044" H 6950 4800 50  0001 C CNN
F 1 "GND" H 6955 4877 50  0000 C CNN
F 2 "" H 6950 5050 50  0001 C CNN
F 3 "" H 6950 5050 50  0001 C CNN
	1    6950 5050
	1    0    0    -1  
$EndComp
$Comp
L power:+5V #PWR043
U 1 1 5FFFCAB7
P 6950 4550
F 0 "#PWR043" H 6950 4400 50  0001 C CNN
F 1 "+5V" H 6965 4723 50  0000 C CNN
F 2 "" H 6950 4550 50  0001 C CNN
F 3 "" H 6950 4550 50  0001 C CNN
	1    6950 4550
	1    0    0    -1  
$EndComp
Wire Wire Line
	6950 4650 6950 4550
Wire Wire Line
	6950 5050 6950 4950
$Comp
L Converter_ACDC:HLK-PM12 PS1
U 1 1 6013B373
P 3200 1050
F 0 "PS1" H 3200 1375 50  0000 C CNN
F 1 "HLK-PM12" H 3200 1284 50  0000 C CNN
F 2 "Converter_ACDC:Converter_ACDC_HiLink_HLK-PMxx" H 3200 750 50  0001 C CNN
F 3 "http://www.hlktech.net/product_detail.php?ProId=56" H 3600 700 50  0001 C CNN
	1    3200 1050
	1    0    0    -1  
$EndComp
$EndSCHEMATC
