(module L0603 (layer F.Cu) (tedit 0)
  (fp_text reference L2 (at -1.397 -0.762) (layer F.SilkS)
    (effects (font (size 0.60325 0.60325) (thickness 0.0635)) (justify right top))
  )
  (fp_text value 82nH (at -1.651 1.4605) (layer F.Fab)
    (effects (font (size 0.60325 0.60325) (thickness 0.0635)) (justify right top))
  )
  (fp_line (start -1.397 -0.635) (end 1.397 -0.635) (layer F.SilkS) (width 0.127))
  (fp_line (start 1.397 -0.635) (end 1.397 0.635) (layer F.SilkS) (width 0.127))
  (fp_line (start 1.397 0.635) (end -1.397 0.635) (layer F.SilkS) (width 0.127))
  (fp_line (start -1.397 0.635) (end -1.397 -0.635) (layer F.SilkS) (width 0.127))
  (pad 1 smd roundrect (at -0.762 0) (size 0.889 0.889) (layers F.Cu F.Paste F.Mask) (roundrect_rratio 0.125)
    (solder_mask_margin 0.0508))
  (pad 2 smd roundrect (at 0.762 0) (size 0.889 0.889) (layers F.Cu F.Paste F.Mask) (roundrect_rratio 0.125)
    (solder_mask_margin 0.0508))
)
