(module PH2.0-2P-90-DIP (layer F.Cu) (tedit 0)
  (fp_text reference J1 (at -3.048 0.127) (layer F.SilkS)
    (effects (font (size 0.77216 0.77216) (thickness 0.092659)) (justify left bottom))
  )
  (fp_text value PH2.0-2P-90-DIP (at -6.35 -3.81) (layer F.Fab)
    (effects (font (size 0.77216 0.77216) (thickness 0.092659)) (justify left bottom))
  )
  (fp_line (start 0 3) (end -6.2 3) (layer F.SilkS) (width 0.127))
  (fp_line (start -6.2 3) (end -6.2 -3) (layer F.SilkS) (width 0.127))
  (fp_line (start -6.2 -3) (end 0 -3) (layer F.SilkS) (width 0.127))
  (fp_line (start 0 -3) (end 0 -2) (layer F.SilkS) (width 0.127))
  (fp_line (start 0 -2) (end -1 -2) (layer F.SilkS) (width 0.127))
  (fp_line (start -1 -2) (end -1 2) (layer F.SilkS) (width 0.127))
  (fp_line (start -1 2) (end 0 2) (layer F.SilkS) (width 0.127))
  (fp_line (start 0 2) (end 0 3) (layer F.SilkS) (width 0.127))
  (fp_line (start -5.08 -1.27) (end -2.54 -1.27) (layer F.SilkS) (width 0.127))
  (fp_line (start -2.54 -1.27) (end -2.54 -2.54) (layer F.SilkS) (width 0.127))
  (fp_line (start -2.54 -2.54) (end -5.08 -2.54) (layer F.SilkS) (width 0.127))
  (fp_line (start -5.08 -2.54) (end -5.08 -1.27) (layer F.SilkS) (width 0.127))
  (fp_line (start -5.08 1.27) (end -2.54 1.27) (layer F.SilkS) (width 0.127))
  (fp_line (start -2.54 1.27) (end -2.54 2.54) (layer F.SilkS) (width 0.127))
  (fp_line (start -2.54 2.54) (end -5.08 2.54) (layer F.SilkS) (width 0.127))
  (fp_line (start -5.08 2.54) (end -5.08 1.27) (layer F.SilkS) (width 0.127))
  (pad 1 thru_hole rect (at 0 -1) (size 1.308 1.308) (drill 0.8) (layers *.Cu *.Mask)
    (solder_mask_margin 0.0508))
  (pad 2 thru_hole circle (at 0 1) (size 1.308 1.308) (drill 0.8) (layers *.Cu *.Mask)
    (solder_mask_margin 0.0508))
)
