EESchema Schematic File Version 4
EELAYER 30 0
EELAYER END
$Descr A4 11693 8268
encoding utf-8
Sheet 1 1
Title "Wireless Trigger A9 V0.1"
Date "2021-03-23"
Rev "0"
Comp "Everything Electronic"
Comment1 ""
Comment2 ""
Comment3 ""
Comment4 ""
$EndDescr
$Comp
L power:+5V #PWR06
U 1 1 5FAC87DD
P 1300 950
F 0 "#PWR06" H 1300 800 50  0001 C CNN
F 1 "+5V" H 1315 1123 50  0000 C CNN
F 2 "" H 1300 950 50  0001 C CNN
F 3 "" H 1300 950 50  0001 C CNN
	1    1300 950 
	1    0    0    -1  
$EndComp
$Comp
L Device:C C1
U 1 1 5FB09333
P 700 1900
F 0 "C1" H 815 1946 50  0000 L CNN
F 1 "104" H 815 1855 50  0000 L CNN
F 2 "Capacitor_THT:C_Rect_L7.0mm_W3.5mm_P5.00mm" H 738 1750 50  0001 C CNN
F 3 "~" H 700 1900 50  0001 C CNN
	1    700  1900
	1    0    0    -1  
$EndComp
$Comp
L power:+5V #PWR01
U 1 1 5FB0A375
P 700 1650
F 0 "#PWR01" H 700 1500 50  0001 C CNN
F 1 "+5V" H 715 1823 50  0000 C CNN
F 2 "" H 700 1650 50  0001 C CNN
F 3 "" H 700 1650 50  0001 C CNN
	1    700  1650
	1    0    0    -1  
$EndComp
$Comp
L power:GND #PWR02
U 1 1 5FB0A6B6
P 700 2100
F 0 "#PWR02" H 700 1850 50  0001 C CNN
F 1 "GND" H 705 1927 50  0000 C CNN
F 2 "" H 700 2100 50  0001 C CNN
F 3 "" H 700 2100 50  0001 C CNN
	1    700  2100
	1    0    0    -1  
$EndComp
Wire Wire Line
	700  1650 700  1750
Wire Wire Line
	700  2050 700  2100
$Comp
L Device:R R20
U 1 1 5FCE9931
P 950 4200
F 0 "R20" V 750 4150 50  0000 L CNN
F 1 "10k" V 850 4100 50  0000 L CNN
F 2 "Resistor_THT:R_Axial_DIN0207_L6.3mm_D2.5mm_P7.62mm_Horizontal" V 880 4200 50  0001 C CNN
F 3 "~" H 950 4200 50  0001 C CNN
	1    950  4200
	-1   0    0    1   
$EndComp
$Comp
L Switch:SW_Push SW2
U 1 1 5FCE9937
P 1300 4550
F 0 "SW2" H 1300 4835 50  0000 C CNN
F 1 "SW_Push" H 1300 4744 50  0000 C CNN
F 2 "Button_Switch_THT:SW_PUSH_6mm" H 1300 4750 50  0001 C CNN
F 3 "~" H 1300 4750 50  0001 C CNN
	1    1300 4550
	1    0    0    -1  
$EndComp
Text Label 650  4550 0    50   ~ 0
SW1
Wire Wire Line
	650  4550 950  4550
Wire Wire Line
	950  4350 950  4550
Connection ~ 950  4550
Wire Wire Line
	950  4550 1100 4550
$Comp
L power:GND #PWR0101
U 1 1 5FCE9942
P 1600 4650
F 0 "#PWR0101" H 1600 4400 50  0001 C CNN
F 1 "GND" H 1605 4477 50  0000 C CNN
F 2 "" H 1600 4650 50  0001 C CNN
F 3 "" H 1600 4650 50  0001 C CNN
	1    1600 4650
	1    0    0    -1  
$EndComp
Wire Wire Line
	1500 4550 1600 4550
Wire Wire Line
	1600 4550 1600 4650
$Comp
L power:+5V #PWR0102
U 1 1 5FCE994A
P 950 3950
F 0 "#PWR0102" H 950 3800 50  0001 C CNN
F 1 "+5V" H 965 4123 50  0000 C CNN
F 2 "" H 950 3950 50  0001 C CNN
F 3 "" H 950 3950 50  0001 C CNN
	1    950  3950
	1    0    0    -1  
$EndComp
Wire Wire Line
	950  3950 950  4050
$Comp
L Device:R R21
U 1 1 5FCF2405
P 2100 4200
F 0 "R21" V 1900 4150 50  0000 L CNN
F 1 "10k" V 2000 4100 50  0000 L CNN
F 2 "Resistor_THT:R_Axial_DIN0207_L6.3mm_D2.5mm_P7.62mm_Horizontal" V 2030 4200 50  0001 C CNN
F 3 "~" H 2100 4200 50  0001 C CNN
	1    2100 4200
	-1   0    0    1   
$EndComp
$Comp
L Switch:SW_Push SW3
U 1 1 5FCF240B
P 2450 4550
F 0 "SW3" H 2450 4835 50  0000 C CNN
F 1 "SW_Push" H 2450 4744 50  0000 C CNN
F 2 "Button_Switch_THT:SW_PUSH_6mm" H 2450 4750 50  0001 C CNN
F 3 "~" H 2450 4750 50  0001 C CNN
	1    2450 4550
	1    0    0    -1  
$EndComp
Text Label 1800 4550 0    50   ~ 0
SW2
Wire Wire Line
	1800 4550 2100 4550
Wire Wire Line
	2100 4350 2100 4550
Connection ~ 2100 4550
Wire Wire Line
	2100 4550 2250 4550
$Comp
L power:GND #PWR0103
U 1 1 5FCF2416
P 2750 4650
F 0 "#PWR0103" H 2750 4400 50  0001 C CNN
F 1 "GND" H 2755 4477 50  0000 C CNN
F 2 "" H 2750 4650 50  0001 C CNN
F 3 "" H 2750 4650 50  0001 C CNN
	1    2750 4650
	1    0    0    -1  
$EndComp
Wire Wire Line
	2650 4550 2750 4550
Wire Wire Line
	2750 4550 2750 4650
$Comp
L power:+5V #PWR0104
U 1 1 5FCF241E
P 2100 3950
F 0 "#PWR0104" H 2100 3800 50  0001 C CNN
F 1 "+5V" H 2115 4123 50  0000 C CNN
F 2 "" H 2100 3950 50  0001 C CNN
F 3 "" H 2100 3950 50  0001 C CNN
	1    2100 3950
	1    0    0    -1  
$EndComp
Wire Wire Line
	2100 3950 2100 4050
Text Notes 650  650  0    50   ~ 0
MCU
$Comp
L Mechanical:MountingHole H2
U 1 1 600722EB
P 6300 7150
F 0 "H2" H 6400 7196 50  0000 L CNN
F 1 "MountingHole" H 6400 7105 50  0000 L CNN
F 2 "MountingHole:MountingHole_3mm_Pad_Via" H 6300 7150 50  0001 C CNN
F 3 "~" H 6300 7150 50  0001 C CNN
	1    6300 7150
	1    0    0    -1  
$EndComp
$Comp
L Mechanical:MountingHole H3
U 1 1 600723F7
P 6300 7400
F 0 "H3" H 6400 7446 50  0000 L CNN
F 1 "MountingHole" H 6400 7355 50  0000 L CNN
F 2 "MountingHole:MountingHole_3mm_Pad_Via" H 6300 7400 50  0001 C CNN
F 3 "~" H 6300 7400 50  0001 C CNN
	1    6300 7400
	1    0    0    -1  
$EndComp
$Comp
L Device:R R35
U 1 1 6065AADE
P 3550 4200
F 0 "R35" V 3350 4100 50  0000 L CNN
F 1 "1k" V 3450 4100 50  0000 L CNN
F 2 "Resistor_THT:R_Axial_DIN0207_L6.3mm_D2.5mm_P7.62mm_Horizontal" V 3480 4200 50  0001 C CNN
F 3 "~" H 3550 4200 50  0001 C CNN
	1    3550 4200
	1    0    0    -1  
$EndComp
$Comp
L Device:LED D10
U 1 1 6065B048
P 3550 4600
F 0 "D10" V 3600 4800 50  0000 R CNN
F 1 "LED" V 3500 4800 50  0000 R CNN
F 2 "LED_THT:LED_D5.0mm" H 3550 4600 50  0001 C CNN
F 3 "~" H 3550 4600 50  0001 C CNN
	1    3550 4600
	0    -1   -1   0   
$EndComp
$Comp
L Device:R R36
U 1 1 6065B797
P 4050 4200
F 0 "R36" V 3850 4100 50  0000 L CNN
F 1 "1k" V 3950 4100 50  0000 L CNN
F 2 "Resistor_THT:R_Axial_DIN0207_L6.3mm_D2.5mm_P7.62mm_Horizontal" V 3980 4200 50  0001 C CNN
F 3 "~" H 4050 4200 50  0001 C CNN
	1    4050 4200
	1    0    0    -1  
$EndComp
$Comp
L Device:LED D11
U 1 1 6065BC56
P 4050 4600
F 0 "D11" V 4100 4800 50  0000 R CNN
F 1 "LED" V 4000 4800 50  0000 R CNN
F 2 "LED_THT:LED_D5.0mm" H 4050 4600 50  0001 C CNN
F 3 "~" H 4050 4600 50  0001 C CNN
	1    4050 4600
	0    -1   -1   0   
$EndComp
Wire Wire Line
	3550 4450 3550 4350
Wire Wire Line
	4050 4450 4050 4350
$Comp
L power:+5V #PWR010
U 1 1 6069FEF3
P 3550 3950
F 0 "#PWR010" H 3550 3800 50  0001 C CNN
F 1 "+5V" H 3565 4123 50  0000 C CNN
F 2 "" H 3550 3950 50  0001 C CNN
F 3 "" H 3550 3950 50  0001 C CNN
	1    3550 3950
	1    0    0    -1  
$EndComp
$Comp
L power:+5V #PWR014
U 1 1 606A0663
P 4050 3950
F 0 "#PWR014" H 4050 3800 50  0001 C CNN
F 1 "+5V" H 4065 4123 50  0000 C CNN
F 2 "" H 4050 3950 50  0001 C CNN
F 3 "" H 4050 3950 50  0001 C CNN
	1    4050 3950
	1    0    0    -1  
$EndComp
Wire Wire Line
	3550 3950 3550 4050
Wire Wire Line
	4050 3950 4050 4050
Text Label 3150 4900 0    50   ~ 0
AL1_LED
Text Label 3700 4900 0    50   ~ 0
AL2_LED
Wire Wire Line
	3150 4900 3550 4900
Wire Wire Line
	3550 4900 3550 4750
Wire Wire Line
	3700 4900 4050 4900
Wire Wire Line
	4050 4900 4050 4750
$Comp
L Connector_Generic:Conn_01x02 J2
U 1 1 608BCD3A
P 4850 2900
F 0 "J2" H 4930 2892 50  0000 L CNN
F 1 "DEBUG" H 4930 2801 50  0000 L CNN
F 2 "Connector_PinHeader_2.54mm:PinHeader_1x02_P2.54mm_Vertical" H 4850 2900 50  0001 C CNN
F 3 "~" H 4850 2900 50  0001 C CNN
	1    4850 2900
	1    0    0    -1  
$EndComp
$Comp
L power:GND #PWR0107
U 1 1 608BE8AA
P 4550 3100
F 0 "#PWR0107" H 4550 2850 50  0001 C CNN
F 1 "GND" H 4555 2927 50  0000 C CNN
F 2 "" H 4550 3100 50  0001 C CNN
F 3 "" H 4550 3100 50  0001 C CNN
	1    4550 3100
	1    0    0    -1  
$EndComp
Wire Wire Line
	4550 3100 4550 3000
Wire Wire Line
	4550 3000 4650 3000
Text Label 4400 2900 0    50   ~ 0
DEBUG
Wire Wire Line
	4400 2900 4650 2900
Wire Notes Line
	4250 2500 5250 2500
Wire Notes Line
	5250 2500 5250 3550
Wire Notes Line
	5250 3550 4250 3550
Wire Notes Line
	4250 3550 4250 2500
Wire Notes Line
	3100 5000 4150 5000
Wire Notes Line
	3100 3600 3100 5000
Wire Notes Line
	4150 3600 4150 5000
Wire Notes Line
	3100 3600 4150 3600
Text Notes 3150 3700 0    50   ~ 0
AL1 AL2 LEDs
Text Notes 650  3700 0    50   ~ 0
Buttons
Text Notes 4300 2600 0    50   ~ 0
Debug
$Comp
L power:+5V #PWR0111
U 1 1 60762F98
P 1050 2950
F 0 "#PWR0111" H 1050 2800 50  0001 C CNN
F 1 "+5V" H 1065 3123 50  0000 C CNN
F 2 "" H 1050 2950 50  0001 C CNN
F 3 "" H 1050 2950 50  0001 C CNN
	1    1050 2950
	1    0    0    -1  
$EndComp
$Comp
L Connector:Screw_Terminal_01x02 J3
U 1 1 607ED228
P 750 3150
F 0 "J3" H 668 2825 50  0000 C CNN
F 1 "BATT" H 668 2916 50  0000 C CNN
F 2 "TerminalBlock:TerminalBlock_bornier-2_P5.08mm" H 750 3150 50  0001 C CNN
F 3 "~" H 750 3150 50  0001 C CNN
	1    750  3150
	-1   0    0    1   
$EndComp
Wire Wire Line
	950  3050 1050 3050
$Comp
L power:GND #PWR0120
U 1 1 607F9209
P 1050 3250
F 0 "#PWR0120" H 1050 3000 50  0001 C CNN
F 1 "GND" H 1055 3077 50  0000 C CNN
F 2 "" H 1050 3250 50  0001 C CNN
F 3 "" H 1050 3250 50  0001 C CNN
	1    1050 3250
	1    0    0    -1  
$EndComp
Wire Wire Line
	950  3150 1050 3150
Wire Notes Line
	600  550  600  3500
$Comp
L Device:R R1
U 1 1 60F2EEF6
P 4750 1900
F 0 "R1" V 4850 1900 50  0000 L CNN
F 1 "56R" V 4750 1800 50  0000 L CNN
F 2 "Resistor_THT:R_Axial_DIN0207_L6.3mm_D2.5mm_P7.62mm_Horizontal" V 4680 1900 50  0001 C CNN
F 3 "~" H 4750 1900 50  0001 C CNN
	1    4750 1900
	0    -1   -1   0   
$EndComp
Text Label 4300 1900 0    50   ~ 0
TRIG
Wire Wire Line
	4300 1900 4600 1900
$Comp
L Connector:Screw_Terminal_01x02 J1
U 1 1 60F3F849
P 6600 900
F 0 "J1" H 6750 900 50  0000 C CNN
F 1 "COIL" H 6750 800 50  0000 C CNN
F 2 "TerminalBlock:TerminalBlock_bornier-2_P5.08mm" H 6600 900 50  0001 C CNN
F 3 "~" H 6600 900 50  0001 C CNN
	1    6600 900 
	1    0    0    -1  
$EndComp
Wire Wire Line
	6400 1200 6350 1200
Wire Wire Line
	6350 1200 6350 1000
Wire Wire Line
	6350 1000 6400 1000
$Comp
L Connector:Screw_Terminal_01x02 J6
U 1 1 60F49AA0
P 7350 1200
F 0 "J6" H 7500 1200 50  0000 C CNN
F 1 "BH" H 7500 1100 50  0000 C CNN
F 2 "TerminalBlock:TerminalBlock_bornier-2_P5.08mm" H 7350 1200 50  0001 C CNN
F 3 "~" H 7350 1200 50  0001 C CNN
	1    7350 1200
	1    0    0    -1  
$EndComp
Wire Wire Line
	6400 900  6350 900 
Wire Wire Line
	6350 900  6350 750 
Wire Wire Line
	6350 750  7100 750 
Wire Wire Line
	7100 750  7100 1200
Wire Wire Line
	7100 1200 7150 1200
$Comp
L My_Lib_KiCAD:A9_GSM_Module U1
U 1 1 605A21EC
P 2500 1850
F 0 "U1" H 2500 2815 50  0000 C CNN
F 1 "A9_GSM_Module" H 2500 2724 50  0000 C CNN
F 2 "BA56-12EWA(3Digit7Segment):A9_GSM_Module" H 1700 2850 50  0001 C CNN
F 3 "" H 1900 2850 50  0001 C CNN
	1    2500 1850
	1    0    0    -1  
$EndComp
$Comp
L Relay:SANYOU_SRD_Form_C K1
U 1 1 605EE9F8
P 5500 1300
F 0 "K1" H 5930 1346 50  0000 L CNN
F 1 "RLY" H 5930 1255 50  0000 L CNN
F 2 "Relay_THT:Relay_SPDT_SANYOU_SRD_Series_Form_C" H 5950 1250 50  0001 L CNN
F 3 "http://www.sanyourelay.ca/public/products/pdf/SRD.pdf" H 5500 1300 50  0001 C CNN
	1    5500 1300
	1    0    0    -1  
$EndComp
$Comp
L Transistor_BJT:BC547 Q1
U 1 1 605EF60F
P 5200 1900
F 0 "Q1" H 5391 1946 50  0000 L CNN
F 1 "BC547" H 5391 1855 50  0000 L CNN
F 2 "Package_TO_SOT_THT:TO-92_Inline_Wide" H 5400 1825 50  0001 L CIN
F 3 "https://www.onsemi.com/pub/Collateral/BC550-D.pdf" H 5200 1900 50  0001 L CNN
	1    5200 1900
	1    0    0    -1  
$EndComp
Wire Wire Line
	4900 1900 5000 1900
Wire Wire Line
	5300 1700 5300 1650
$Comp
L power:GND #PWR04
U 1 1 605F3DA7
P 5300 2150
F 0 "#PWR04" H 5300 1900 50  0001 C CNN
F 1 "GND" H 5305 1977 50  0000 C CNN
F 2 "" H 5300 2150 50  0001 C CNN
F 3 "" H 5300 2150 50  0001 C CNN
	1    5300 2150
	1    0    0    -1  
$EndComp
Wire Wire Line
	5300 2150 5300 2100
Wire Wire Line
	1500 1250 1300 1250
Wire Wire Line
	1300 1250 1300 950 
$Comp
L power:GND #PWR03
U 1 1 605F6986
P 950 1300
F 0 "#PWR03" H 950 1050 50  0001 C CNN
F 1 "GND" H 955 1127 50  0000 C CNN
F 2 "" H 950 1300 50  0001 C CNN
F 3 "" H 950 1300 50  0001 C CNN
	1    950  1300
	1    0    0    -1  
$EndComp
Wire Wire Line
	1050 2950 1050 3050
Wire Wire Line
	1050 3250 1050 3150
$Comp
L Connector:Screw_Terminal_01x02 J4
U 1 1 6060DBBB
P 6600 1200
F 0 "J4" H 6750 1200 50  0000 C CNN
F 1 "SW" H 6750 1100 50  0000 C CNN
F 2 "TerminalBlock:TerminalBlock_bornier-2_P5.08mm" H 6600 1200 50  0001 C CNN
F 3 "~" H 6600 1200 50  0001 C CNN
	1    6600 1200
	1    0    0    -1  
$EndComp
Text Label 6000 1700 2    50   ~ 0
COM
Wire Wire Line
	6000 1700 5700 1700
Wire Wire Line
	5700 1700 5700 1600
Text Label 6000 800  2    50   ~ 0
NO
Wire Wire Line
	6000 800  5800 800 
Wire Wire Line
	5800 800  5800 1000
Text Label 6200 1300 0    50   ~ 0
COM
Text Label 6200 1450 0    50   ~ 0
NO
Wire Notes Line
	600  3600 2950 3600
Wire Notes Line
	2950 3600 2950 4900
Wire Notes Line
	2950 4900 600  4900
Wire Notes Line
	600  4900 600  3600
$Comp
L power:+5V #PWR07
U 1 1 606293B8
P 5300 900
F 0 "#PWR07" H 5300 750 50  0001 C CNN
F 1 "+5V" H 5315 1073 50  0000 C CNN
F 2 "" H 5300 900 50  0001 C CNN
F 3 "" H 5300 900 50  0001 C CNN
	1    5300 900 
	1    0    0    -1  
$EndComp
Wire Wire Line
	5300 900  5300 950 
$Comp
L Connector_Generic:Conn_01x04 J7
U 1 1 6062AC53
P 3900 2250
F 0 "J7" H 3980 2242 50  0000 L CNN
F 1 "PROGRAM" H 3650 1950 50  0000 L CNN
F 2 "Connector_PinHeader_2.54mm:PinHeader_1x04_P2.54mm_Vertical" H 3900 2250 50  0001 C CNN
F 3 "~" H 3900 2250 50  0001 C CNN
	1    3900 2250
	1    0    0    -1  
$EndComp
Wire Notes Line
	4100 3500 4100 550 
Wire Notes Line
	600  3500 4100 3500
Wire Notes Line
	600  550  4100 550 
Wire Wire Line
	3700 2150 3500 2150
Wire Wire Line
	3700 2250 3500 2250
Wire Wire Line
	3500 2550 3600 2550
Wire Wire Line
	3600 2550 3600 2350
Wire Wire Line
	3600 2350 3700 2350
Wire Wire Line
	3500 2650 3650 2650
Wire Wire Line
	3650 2650 3650 2450
Wire Wire Line
	3650 2450 3700 2450
Text Label 3850 1150 2    50   ~ 0
DEBUG
Wire Wire Line
	3850 1150 3500 1150
Text Label 1200 2550 0    50   ~ 0
TRIG
Wire Wire Line
	1200 2550 1500 2550
Wire Notes Line
	4250 550  7650 550 
Wire Notes Line
	7650 550  7650 2400
Wire Notes Line
	7650 2400 4250 2400
Wire Notes Line
	4250 2400 4250 550 
$Comp
L Diode:1N4007 D1
U 1 1 60649BAF
P 4700 1250
F 0 "D1" V 4654 1330 50  0000 L CNN
F 1 "1N4007" V 4745 1330 50  0000 L CNN
F 2 "Diode_THT:D_DO-41_SOD81_P10.16mm_Horizontal" H 4700 1075 50  0001 C CNN
F 3 "http://www.vishay.com/docs/88503/1n4001.pdf" H 4700 1250 50  0001 C CNN
	1    4700 1250
	0    1    1    0   
$EndComp
Wire Wire Line
	4700 1400 4700 1650
Wire Wire Line
	4700 1650 5300 1650
Connection ~ 5300 1650
Wire Wire Line
	5300 1650 5300 1600
Wire Wire Line
	4700 1100 4700 950 
Wire Wire Line
	4700 950  5300 950 
Connection ~ 5300 950 
Wire Wire Line
	5300 950  5300 1000
Wire Wire Line
	7150 1300 7100 1300
Wire Wire Line
	7100 1300 7100 1450
Wire Wire Line
	7100 1450 6200 1450
Wire Wire Line
	6200 1300 6400 1300
Text Label 3850 1350 2    50   ~ 0
AL1_LED
Text Label 3850 1450 2    50   ~ 0
AL2_LED
Wire Wire Line
	3850 1350 3500 1350
Wire Wire Line
	3850 1450 3500 1450
Text Label 3850 1550 2    50   ~ 0
SW1
Text Label 3850 1650 2    50   ~ 0
SW2
Wire Wire Line
	3850 1550 3500 1550
Wire Wire Line
	3850 1650 3500 1650
$Comp
L Connector_Generic:Conn_01x12 J5
U 1 1 606A457C
P 1200 1950
F 0 "J5" H 1118 1125 50  0000 C CNN
F 1 "PinHeaders" V 1300 1950 50  0000 C CNN
F 2 "Connector_PinHeader_2.54mm:PinHeader_1x12_P2.54mm_Vertical" H 1200 1950 50  0001 C CNN
F 3 "~" H 1200 1950 50  0001 C CNN
	1    1200 1950
	-1   0    0    1   
$EndComp
Wire Wire Line
	1500 1150 950  1150
Wire Wire Line
	950  1150 950  1300
Wire Wire Line
	1400 1350 1500 1350
Wire Wire Line
	1400 1450 1500 1450
Wire Wire Line
	1400 1550 1500 1550
Wire Wire Line
	1400 1650 1500 1650
Wire Wire Line
	1400 1750 1500 1750
Wire Wire Line
	1400 1850 1500 1850
Wire Wire Line
	1400 1950 1500 1950
Wire Wire Line
	1400 2050 1500 2050
Wire Wire Line
	1400 2150 1500 2150
Wire Wire Line
	1400 2250 1500 2250
Wire Wire Line
	1400 2350 1500 2350
Wire Wire Line
	1400 2450 1500 2450
$EndSCHEMATC
