EESchema Schematic File Version 4
EELAYER 30 0
EELAYER END
$Descr A4 11693 8268
encoding utf-8
Sheet 1 1
Title "Wireless Trigger Tx SMD v0.1"
Date "2021-11-10"
Rev "0"
Comp ""
Comment1 ""
Comment2 ""
Comment3 ""
Comment4 ""
$EndDescr
$Comp
L Device:C C5
U 1 1 600626EF
P 3700 2350
F 0 "C5" H 3815 2396 50  0000 L CNN
F 1 "104" H 3815 2305 50  0000 L CNN
F 2 "Capacitor_SMD:C_0603_1608Metric" H 3738 2200 50  0001 C CNN
F 3 "~" H 3700 2350 50  0001 C CNN
	1    3700 2350
	1    0    0    -1  
$EndComp
$Comp
L power:GND #PWR024
U 1 1 5FB0A6B6
P 3700 2550
F 0 "#PWR024" H 3700 2300 50  0001 C CNN
F 1 "GND" H 3705 2377 50  0000 C CNN
F 2 "" H 3700 2550 50  0001 C CNN
F 3 "" H 3700 2550 50  0001 C CNN
	1    3700 2550
	1    0    0    -1  
$EndComp
Wire Wire Line
	3700 2100 3700 2200
Wire Wire Line
	3700 2500 3700 2550
$Comp
L power:GND #PWR03
U 1 1 5FEB5C8B
P 850 2050
F 0 "#PWR03" H 850 1800 50  0001 C CNN
F 1 "GND" H 855 1877 50  0000 C CNN
F 2 "" H 850 2050 50  0001 C CNN
F 3 "" H 850 2050 50  0001 C CNN
	1    850  2050
	1    0    0    -1  
$EndComp
Wire Wire Line
	850  2050 850  1950
$Comp
L power:GND #PWR021
U 1 1 600626F4
P 3550 1350
F 0 "#PWR021" H 3550 1100 50  0001 C CNN
F 1 "GND" H 3555 1177 50  0000 C CNN
F 2 "" H 3550 1350 50  0001 C CNN
F 3 "" H 3550 1350 50  0001 C CNN
	1    3550 1350
	1    0    0    -1  
$EndComp
Text Label 3400 1100 0    50   ~ 0
RXD
Text Label 3400 1200 0    50   ~ 0
TXD
$Comp
L Device:R R1
U 1 1 5FEE94B5
P 850 1250
F 0 "R1" H 950 1150 50  0000 L CNN
F 1 "10k" H 900 1250 50  0000 L CNN
F 2 "Resistor_SMD:R_0603_1608Metric" V 780 1250 50  0001 C CNN
F 3 "~" H 850 1250 50  0001 C CNN
	1    850  1250
	-1   0    0    1   
$EndComp
$Comp
L Device:R R3
U 1 1 5FEEA206
P 1250 1250
F 0 "R3" H 1350 1150 50  0000 L CNN
F 1 "10k" H 1300 1250 50  0000 L CNN
F 2 "Resistor_SMD:R_0603_1608Metric" V 1180 1250 50  0001 C CNN
F 3 "~" H 1250 1250 50  0001 C CNN
	1    1250 1250
	-1   0    0    1   
$EndComp
$Comp
L power:GND #PWR010
U 1 1 5FEEA735
P 2000 2900
F 0 "#PWR010" H 2000 2650 50  0001 C CNN
F 1 "GND" H 2005 2727 50  0000 C CNN
F 2 "" H 2000 2900 50  0001 C CNN
F 3 "" H 2000 2900 50  0001 C CNN
	1    2000 2900
	1    0    0    -1  
$EndComp
Wire Wire Line
	2000 2900 2000 2800
$Comp
L power:+3.3V #PWR09
U 1 1 5FEEE3E8
P 2000 950
F 0 "#PWR09" H 2000 800 50  0001 C CNN
F 1 "+3.3V" H 2015 1123 50  0000 C CNN
F 2 "" H 2000 950 50  0001 C CNN
F 3 "" H 2000 950 50  0001 C CNN
	1    2000 950 
	1    0    0    -1  
$EndComp
$Comp
L power:+3.3V #PWR04
U 1 1 5FEFEF6B
P 1250 950
F 0 "#PWR04" H 1250 800 50  0001 C CNN
F 1 "+3.3V" H 1265 1123 50  0000 C CNN
F 2 "" H 1250 950 50  0001 C CNN
F 3 "" H 1250 950 50  0001 C CNN
	1    1250 950 
	1    0    0    -1  
$EndComp
$Comp
L Regulator_Linear:AMS1117-3.3 U2
U 1 1 5FF50324
P 2950 3650
F 0 "U2" H 2950 3892 50  0000 C CNN
F 1 "AMS1117-3.3" H 2950 3801 50  0000 C CNN
F 2 "Package_TO_SOT_SMD:SOT-223-3_TabPin2" H 2950 3850 50  0001 C CNN
F 3 "http://www.advanced-monolithic.com/pdf/ds1117.pdf" H 3050 3400 50  0001 C CNN
	1    2950 3650
	1    0    0    -1  
$EndComp
$Comp
L Device:CP C4
U 1 1 5FF5739D
P 3400 4000
F 0 "C4" H 3518 4046 50  0000 L CNN
F 1 "10uF" H 3518 3955 50  0000 L CNN
F 2 "Capacitor_SMD:C_0805_2012Metric" H 3438 3850 50  0001 C CNN
F 3 "~" H 3400 4000 50  0001 C CNN
	1    3400 4000
	1    0    0    -1  
$EndComp
$Comp
L power:+3.3V #PWR022
U 1 1 5FF584A5
P 3650 3600
F 0 "#PWR022" H 3650 3450 50  0001 C CNN
F 1 "+3.3V" H 3665 3773 50  0000 C CNN
F 2 "" H 3650 3600 50  0001 C CNN
F 3 "" H 3650 3600 50  0001 C CNN
	1    3650 3600
	1    0    0    -1  
$EndComp
Wire Wire Line
	3250 3650 3400 3650
Wire Wire Line
	3650 3650 3650 3600
Wire Wire Line
	3400 3850 3400 3650
Connection ~ 3400 3650
Wire Wire Line
	3400 3650 3650 3650
$Comp
L power:GND #PWR013
U 1 1 5FF68240
P 2950 4300
F 0 "#PWR013" H 2950 4050 50  0001 C CNN
F 1 "GND" H 2955 4127 50  0000 C CNN
F 2 "" H 2950 4300 50  0001 C CNN
F 3 "" H 2950 4300 50  0001 C CNN
	1    2950 4300
	1    0    0    -1  
$EndComp
$Comp
L power:GND #PWR019
U 1 1 5FF6851C
P 3400 4300
F 0 "#PWR019" H 3400 4050 50  0001 C CNN
F 1 "GND" H 3405 4127 50  0000 C CNN
F 2 "" H 3400 4300 50  0001 C CNN
F 3 "" H 3400 4300 50  0001 C CNN
	1    3400 4300
	1    0    0    -1  
$EndComp
Wire Wire Line
	1600 3850 1600 3650
Connection ~ 1600 3650
Wire Wire Line
	2050 3850 2050 3650
Connection ~ 2050 3650
Wire Wire Line
	2050 3650 1600 3650
Wire Wire Line
	2450 3850 2450 3650
Wire Wire Line
	2450 3650 2050 3650
$Comp
L power:GND #PWR012
U 1 1 5FFA7244
P 2450 4300
F 0 "#PWR012" H 2450 4050 50  0001 C CNN
F 1 "GND" H 2455 4127 50  0000 C CNN
F 2 "" H 2450 4300 50  0001 C CNN
F 3 "" H 2450 4300 50  0001 C CNN
	1    2450 4300
	1    0    0    -1  
$EndComp
$Comp
L power:GND #PWR011
U 1 1 5FFA744B
P 2050 4300
F 0 "#PWR011" H 2050 4050 50  0001 C CNN
F 1 "GND" H 2055 4127 50  0000 C CNN
F 2 "" H 2050 4300 50  0001 C CNN
F 3 "" H 2050 4300 50  0001 C CNN
	1    2050 4300
	1    0    0    -1  
$EndComp
$Comp
L power:GND #PWR06
U 1 1 5FFA75F4
P 1600 4300
F 0 "#PWR06" H 1600 4050 50  0001 C CNN
F 1 "GND" H 1605 4127 50  0000 C CNN
F 2 "" H 1600 4300 50  0001 C CNN
F 3 "" H 1600 4300 50  0001 C CNN
	1    1600 4300
	1    0    0    -1  
$EndComp
$Comp
L Device:CP C1
U 1 1 5FFBDF70
P 1600 4000
F 0 "C1" H 1718 4046 50  0000 L CNN
F 1 "10uF" H 1718 3955 50  0000 L CNN
F 2 "Capacitor_SMD:C_0805_2012Metric" H 1638 3850 50  0001 C CNN
F 3 "~" H 1600 4000 50  0001 C CNN
	1    1600 4000
	1    0    0    -1  
$EndComp
$Comp
L Device:CP C2
U 1 1 5FFBDF76
P 2050 4000
F 0 "C2" H 2168 4046 50  0000 L CNN
F 1 "1uF" H 2168 3955 50  0000 L CNN
F 2 "Capacitor_SMD:C_0603_1608Metric" H 2088 3850 50  0001 C CNN
F 3 "~" H 2050 4000 50  0001 C CNN
	1    2050 4000
	1    0    0    -1  
$EndComp
$Comp
L Device:C C3
U 1 1 5FFBDF7C
P 2450 4000
F 0 "C3" H 2565 4046 50  0000 L CNN
F 1 "104" H 2565 3955 50  0000 L CNN
F 2 "Capacitor_SMD:C_0603_1608Metric" H 2488 3850 50  0001 C CNN
F 3 "~" H 2450 4000 50  0001 C CNN
	1    2450 4000
	1    0    0    -1  
$EndComp
Wire Wire Line
	2650 3650 2450 3650
Connection ~ 2450 3650
$Comp
L Switch:SW_Push SW1
U 1 1 5FEA2066
P 850 1750
F 0 "SW1" V 896 1702 50  0000 R CNN
F 1 "RST" V 805 1702 50  0000 R CNN
F 2 "Button_Switch_SMD:SW_SPST_TL3342" H 850 1950 50  0001 C CNN
F 3 "~" H 850 1950 50  0001 C CNN
	1    850  1750
	0    -1   -1   0   
$EndComp
Text Label 2900 1600 2    50   ~ 0
TXD
Text Label 2900 1800 2    50   ~ 0
RXD
$Comp
L Device:R R5
U 1 1 6010D408
P 3200 1200
F 0 "R5" H 3300 1100 50  0000 L CNN
F 1 "10k" H 3250 1200 50  0000 L CNN
F 2 "Resistor_SMD:R_0603_1608Metric" V 3130 1200 50  0001 C CNN
F 3 "~" H 3200 1200 50  0001 C CNN
	1    3200 1200
	-1   0    0    1   
$EndComp
Wire Wire Line
	3200 1500 3200 1350
$Comp
L power:GND #PWR016
U 1 1 601260D7
P 3200 2550
F 0 "#PWR016" H 3200 2300 50  0001 C CNN
F 1 "GND" H 3205 2377 50  0000 C CNN
F 2 "" H 3200 2550 50  0001 C CNN
F 3 "" H 3200 2550 50  0001 C CNN
	1    3200 2550
	1    0    0    -1  
$EndComp
$Comp
L Switch:SW_Push SW3
U 1 1 601440B4
P 3200 1750
F 0 "SW3" V 3246 1702 50  0000 R CNN
F 1 "PG" V 3155 1702 50  0000 R CNN
F 2 "Button_Switch_SMD:SW_SPST_TL3342" H 3200 1950 50  0001 C CNN
F 3 "~" H 3200 1950 50  0001 C CNN
	1    3200 1750
	0    1    1    0   
$EndComp
$Comp
L power:GND #PWR015
U 1 1 601596F6
P 3200 2050
F 0 "#PWR015" H 3200 1800 50  0001 C CNN
F 1 "GND" H 3205 1877 50  0000 C CNN
F 2 "" H 3200 2050 50  0001 C CNN
F 3 "" H 3200 2050 50  0001 C CNN
	1    3200 2050
	1    0    0    -1  
$EndComp
Wire Wire Line
	3200 2050 3200 1950
Wire Wire Line
	2850 2400 2600 2400
Wire Wire Line
	3400 1100 3650 1100
Wire Wire Line
	3400 1200 3650 1200
Wire Wire Line
	3650 1300 3550 1300
Wire Wire Line
	3550 1300 3550 1350
$Comp
L power:+3.3V #PWR023
U 1 1 608FF5A0
P 3700 2100
F 0 "#PWR023" H 3700 1950 50  0001 C CNN
F 1 "+3.3V" H 3715 2273 50  0000 C CNN
F 2 "" H 3700 2100 50  0001 C CNN
F 3 "" H 3700 2100 50  0001 C CNN
	1    3700 2100
	1    0    0    -1  
$EndComp
Text Label 7200 1700 2    50   ~ 0
NSS
Text Label 7200 2000 2    50   ~ 0
SCK
Text Label 7200 1800 2    50   ~ 0
MOSI
Text Label 7200 1900 2    50   ~ 0
MISO
Text Label 5350 1900 0    50   ~ 0
RESET
$Comp
L power:+3.3V #PWR031
U 1 1 608FF159
P 5550 1400
F 0 "#PWR031" H 5550 1250 50  0001 C CNN
F 1 "+3.3V" H 5565 1573 50  0000 C CNN
F 2 "" H 5550 1400 50  0001 C CNN
F 3 "" H 5550 1400 50  0001 C CNN
	1    5550 1400
	1    0    0    -1  
$EndComp
$Comp
L power:GND #PWR028
U 1 1 6091D14B
P 5200 2000
F 0 "#PWR028" H 5200 1750 50  0001 C CNN
F 1 "GND" H 5205 1827 50  0000 C CNN
F 2 "" H 5200 2000 50  0001 C CNN
F 3 "" H 5200 2000 50  0001 C CNN
	1    5200 2000
	1    0    0    -1  
$EndComp
Wire Wire Line
	3200 1500 3200 1550
Connection ~ 3200 1500
Text Notes 650  700  0    50   ~ 0
ESP8266
$Comp
L My_Lib_KiCAD:Ra_CNT_v1.0 U6
U 1 1 619CCCCB
P 6250 1900
F 0 "U6" H 6275 2465 50  0000 C CNN
F 1 "Ra_CNT_v1.0" H 6275 2374 50  0000 C CNN
F 2 "RF_Module:Ai-Thinker-Ra-01-LoRa" H 6250 1900 50  0001 C CNN
F 3 "" H 6250 1900 50  0001 C CNN
	1    6250 1900
	1    0    0    -1  
$EndComp
$Comp
L Device:C C10
U 1 1 619D4002
P 7450 1650
F 0 "C10" H 7565 1696 50  0000 L CNN
F 1 "104" H 7565 1605 50  0000 L CNN
F 2 "Capacitor_SMD:C_0603_1608Metric" H 7488 1500 50  0001 C CNN
F 3 "~" H 7450 1650 50  0001 C CNN
	1    7450 1650
	1    0    0    -1  
$EndComp
Wire Wire Line
	5700 1800 5550 1800
Wire Wire Line
	5550 1800 5550 1400
Wire Wire Line
	5700 1700 5200 1700
Wire Wire Line
	5200 2000 5200 1700
Connection ~ 5200 1700
Wire Wire Line
	5200 1700 5000 1700
Wire Wire Line
	7200 1700 6850 1700
Wire Wire Line
	7200 1800 6850 1800
Wire Wire Line
	7200 1900 6850 1900
Wire Wire Line
	7200 2000 6850 2000
$Comp
L power:GND #PWR034
U 1 1 619F5A99
P 6950 2450
F 0 "#PWR034" H 6950 2200 50  0001 C CNN
F 1 "GND" H 6955 2277 50  0000 C CNN
F 2 "" H 6950 2450 50  0001 C CNN
F 3 "" H 6950 2450 50  0001 C CNN
	1    6950 2450
	1    0    0    -1  
$EndComp
Wire Wire Line
	6950 2450 6950 2300
Wire Wire Line
	6950 1600 6850 1600
Wire Wire Line
	6850 2300 6950 2300
Connection ~ 6950 2300
Wire Wire Line
	6950 2300 6950 1600
Wire Wire Line
	5350 1900 5700 1900
Text Label 5350 2000 0    50   ~ 0
INT
Wire Wire Line
	5350 2000 5700 2000
$Comp
L power:+3.3V #PWR035
U 1 1 61A00AEB
P 7450 1400
F 0 "#PWR035" H 7450 1250 50  0001 C CNN
F 1 "+3.3V" H 7465 1573 50  0000 C CNN
F 2 "" H 7450 1400 50  0001 C CNN
F 3 "" H 7450 1400 50  0001 C CNN
	1    7450 1400
	1    0    0    -1  
$EndComp
$Comp
L power:GND #PWR036
U 1 1 61A02F50
P 7450 1900
F 0 "#PWR036" H 7450 1650 50  0001 C CNN
F 1 "GND" H 7455 1727 50  0000 C CNN
F 2 "" H 7450 1900 50  0001 C CNN
F 3 "" H 7450 1900 50  0001 C CNN
	1    7450 1900
	1    0    0    -1  
$EndComp
Wire Wire Line
	7450 1900 7450 1800
Wire Wire Line
	7450 1500 7450 1400
$Comp
L Device:R R4
U 1 1 6011D8D0
P 3000 2400
F 0 "R4" V 2950 2150 50  0000 L CNN
F 1 "10k" V 3000 2350 50  0000 L CNN
F 2 "Resistor_SMD:R_0603_1608Metric" V 2930 2400 50  0001 C CNN
F 3 "~" H 3000 2400 50  0001 C CNN
	1    3000 2400
	0    1    1    0   
$EndComp
$Comp
L Connector_Generic:Conn_01x04 J1
U 1 1 61A0F3EB
P 3850 1100
F 0 "J1" H 3950 1100 50  0000 L CNN
F 1 "ESP_Program" H 3950 1000 50  0000 L CNN
F 2 "Connector_PinHeader_2.54mm:PinHeader_1x04_P2.54mm_Vertical" H 3850 1100 50  0001 C CNN
F 3 "~" H 3850 1100 50  0001 C CNN
	1    3850 1100
	1    0    0    -1  
$EndComp
Wire Wire Line
	3550 950  3550 1000
Wire Wire Line
	3550 1000 3650 1000
Wire Wire Line
	2000 950  2000 1300
$Comp
L power:+3.3V #PWR014
U 1 1 61A2B2FB
P 3200 950
F 0 "#PWR014" H 3200 800 50  0001 C CNN
F 1 "+3.3V" H 3215 1123 50  0000 C CNN
F 2 "" H 3200 950 50  0001 C CNN
F 3 "" H 3200 950 50  0001 C CNN
	1    3200 950 
	1    0    0    -1  
$EndComp
Wire Wire Line
	3200 950  3200 1050
$Comp
L power:+3.3V #PWR020
U 1 1 61A304D5
P 3550 950
F 0 "#PWR020" H 3550 800 50  0001 C CNN
F 1 "+3.3V" H 3565 1123 50  0000 C CNN
F 2 "" H 3550 950 50  0001 C CNN
F 3 "" H 3550 950 50  0001 C CNN
	1    3550 950 
	1    0    0    -1  
$EndComp
Wire Wire Line
	2600 1500 3200 1500
Text Label 2900 2500 2    50   ~ 0
NSS
Text Label 2900 2300 2    50   ~ 0
SCK
Text Label 2900 2200 2    50   ~ 0
MOSI
Text Label 2900 2100 2    50   ~ 0
MISO
Wire Wire Line
	2600 1600 2900 1600
Wire Wire Line
	2600 1800 2900 1800
Wire Wire Line
	2900 2100 2600 2100
Wire Wire Line
	2900 2200 2600 2200
Wire Wire Line
	2900 2300 2600 2300
Wire Wire Line
	2900 2500 2600 2500
Wire Wire Line
	1250 950  1250 1100
Wire Wire Line
	850  1400 850  1500
Wire Wire Line
	1400 1500 850  1500
Connection ~ 850  1500
Wire Wire Line
	850  1500 850  1550
Wire Wire Line
	1400 1700 1250 1700
Wire Wire Line
	1250 1700 1250 1400
$Comp
L power:+3.3V #PWR02
U 1 1 61A57B4E
P 850 950
F 0 "#PWR02" H 850 800 50  0001 C CNN
F 1 "+3.3V" H 865 1123 50  0000 C CNN
F 2 "" H 850 950 50  0001 C CNN
F 3 "" H 850 950 50  0001 C CNN
	1    850  950 
	1    0    0    -1  
$EndComp
Wire Wire Line
	850  950  850  1100
Wire Wire Line
	3150 2400 3200 2400
Wire Wire Line
	3200 2400 3200 2550
Text Label 2900 1900 2    50   ~ 0
INT
Text Label 2900 2000 2    50   ~ 0
RESET
Wire Wire Line
	2900 1900 2600 1900
Wire Wire Line
	2900 2000 2600 2000
$Comp
L BH-18650-PC:BH-18650-PC BT1
U 1 1 61A659D2
P 7550 5650
F 0 "BT1" V 7300 5450 50  0000 L CNN
F 1 "BH-18650-PC" H 7200 5850 50  0000 L CNN
F 2 "My_Lib_KiCAD:BAT_BH-18650_MY_2" H 7550 5650 50  0001 L BNN
F 3 "" H 7550 5650 50  0001 L BNN
F 4 "Manufacturer Recommendation" H 7550 5650 50  0001 L BNN "STANDARD"
F 5 "21.31mm" H 7550 5650 50  0001 L BNN "MAXIMUM_PACKAGE_HEIGHT"
F 6 "05/17/19" H 7550 5650 50  0001 L BNN "PARTREV"
F 7 "MPD" H 7550 5650 50  0001 L BNN "MANUFACTURER"
	1    7550 5650
	0    1    1    0   
$EndComp
Wire Wire Line
	1600 4150 1600 4300
Wire Wire Line
	2050 4150 2050 4300
Wire Wire Line
	2450 4150 2450 4300
Wire Wire Line
	2950 3950 2950 4300
Wire Wire Line
	3400 4150 3400 4300
Wire Notes Line
	4500 600  4500 3150
Wire Notes Line
	4500 3150 600  3150
Wire Notes Line
	600  3150 600  600 
Wire Notes Line
	600  600  4500 600 
Wire Notes Line
	4600 600  7850 600 
Wire Notes Line
	4600 3150 7850 3150
Wire Notes Line
	7850 600  7850 3150
Wire Notes Line
	4600 600  4600 3150
Text Notes 4650 700  0    50   ~ 0
LoRa Module
Text Notes 650  3350 0    50   ~ 0
Regulator
$Comp
L My_Lib_KiCAD:TP4056_MY U3
U 1 1 61AEF22A
P 5850 4400
F 0 "U3" H 5850 4815 50  0000 C CNN
F 1 "TP4056_MY" H 5850 4724 50  0000 C CNN
F 2 "Package_SO:SOP-8_3.9x4.9mm_P1.27mm" H 5750 4700 50  0001 C CNN
F 3 "" H 5750 4700 50  0001 C CNN
	1    5850 4400
	1    0    0    -1  
$EndComp
$Comp
L Connector:USB_B_Micro J4
U 1 1 61AF0A0A
P 4450 4050
F 0 "J4" H 4507 4517 50  0000 C CNN
F 1 "USB_B_Micro" H 4507 4426 50  0000 C CNN
F 2 "Connector_USB:USB_Micro-B_Molex_47346-0001" H 4600 4000 50  0001 C CNN
F 3 "~" H 4600 4000 50  0001 C CNN
	1    4450 4050
	1    0    0    -1  
$EndComp
$Comp
L My_Lib_KiCAD:DW01A U4
U 1 1 61AF61A5
P 5850 5250
F 0 "U4" H 5850 5615 50  0000 C CNN
F 1 "DW01A" H 5850 5524 50  0000 C CNN
F 2 "Package_TO_SOT_SMD:TSOT-23-6" H 5800 5500 50  0001 C CNN
F 3 "" H 5800 5500 50  0001 C CNN
	1    5850 5250
	1    0    0    -1  
$EndComp
$Comp
L My_Lib_KiCAD:FS8205 U5
U 1 1 61AF67A3
P 5850 6050
F 0 "U5" H 5850 6415 50  0000 C CNN
F 1 "FS8205" H 5850 6324 50  0000 C CNN
F 2 "Package_TO_SOT_SMD:TSOT-23-6" H 5800 6300 50  0001 C CNN
F 3 "" H 5800 6300 50  0001 C CNN
	1    5850 6050
	-1   0    0    -1  
$EndComp
$Comp
L Connector_Generic:Conn_01x01 J2
U 1 1 61AF981A
P 4100 3500
F 0 "J2" H 4150 3600 50  0000 R CNN
F 1 "IN+" H 4150 3400 50  0000 R CNN
F 2 "TestPoint:TestPoint_THTPad_3.0x3.0mm_Drill1.5mm" H 4100 3500 50  0001 C CNN
F 3 "~" H 4100 3500 50  0001 C CNN
	1    4100 3500
	-1   0    0    1   
$EndComp
$Comp
L Connector_Generic:Conn_01x01 J3
U 1 1 61AF9D56
P 4100 4600
F 0 "J3" H 4150 4700 50  0000 R CNN
F 1 "IN-" H 4150 4500 50  0000 R CNN
F 2 "TestPoint:TestPoint_THTPad_3.0x3.0mm_Drill1.5mm" H 4100 4600 50  0001 C CNN
F 3 "~" H 4100 4600 50  0001 C CNN
	1    4100 4600
	-1   0    0    1   
$EndComp
$Comp
L power:GND #PWR025
U 1 1 61AFB131
P 4450 4750
F 0 "#PWR025" H 4450 4500 50  0001 C CNN
F 1 "GND" H 4455 4577 50  0000 C CNN
F 2 "" H 4450 4750 50  0001 C CNN
F 3 "" H 4450 4750 50  0001 C CNN
	1    4450 4750
	1    0    0    -1  
$EndComp
Wire Wire Line
	4450 4450 4450 4600
Wire Wire Line
	4300 4600 4450 4600
Connection ~ 4450 4600
Wire Wire Line
	4450 4600 4450 4750
$Comp
L Device:C C6
U 1 1 61B01A9B
P 5050 3700
F 0 "C6" H 5165 3746 50  0000 L CNN
F 1 "104" H 5165 3655 50  0000 L CNN
F 2 "Capacitor_SMD:C_0603_1608Metric" H 5088 3550 50  0001 C CNN
F 3 "~" H 5050 3700 50  0001 C CNN
	1    5050 3700
	1    0    0    -1  
$EndComp
$Comp
L Device:R R11
U 1 1 61B04B3E
P 6950 4050
F 0 "R11" H 7050 3950 50  0000 L CNN
F 1 "1k" H 7000 4050 50  0000 L CNN
F 2 "Resistor_SMD:R_0603_1608Metric" V 6880 4050 50  0001 C CNN
F 3 "~" H 6950 4050 50  0001 C CNN
	1    6950 4050
	-1   0    0    1   
$EndComp
$Comp
L Device:R R9
U 1 1 61B053E3
P 6600 4050
F 0 "R9" H 6700 3950 50  0000 L CNN
F 1 "1k" H 6650 4050 50  0000 L CNN
F 2 "Resistor_SMD:R_0603_1608Metric" V 6530 4050 50  0001 C CNN
F 3 "~" H 6600 4050 50  0001 C CNN
	1    6600 4050
	-1   0    0    1   
$EndComp
Wire Wire Line
	6250 4350 6600 4350
Wire Wire Line
	6600 4350 6600 4200
Wire Wire Line
	6250 4450 6950 4450
Wire Wire Line
	6950 4450 6950 4200
$Comp
L power:GND #PWR026
U 1 1 61B163FD
P 5050 3900
F 0 "#PWR026" H 5050 3650 50  0001 C CNN
F 1 "GND" H 5055 3727 50  0000 C CNN
F 2 "" H 5050 3900 50  0001 C CNN
F 3 "" H 5050 3900 50  0001 C CNN
	1    5050 3900
	1    0    0    -1  
$EndComp
Wire Wire Line
	5450 4550 5350 4550
$Comp
L power:GND #PWR030
U 1 1 61B289E2
P 5400 4750
F 0 "#PWR030" H 5400 4500 50  0001 C CNN
F 1 "GND" H 5405 4577 50  0000 C CNN
F 2 "" H 5400 4750 50  0001 C CNN
F 3 "" H 5400 4750 50  0001 C CNN
	1    5400 4750
	1    0    0    -1  
$EndComp
Wire Wire Line
	5400 4750 5400 4450
Wire Wire Line
	5400 4450 5450 4450
Wire Wire Line
	6250 4250 6350 4250
Wire Wire Line
	5450 4250 5400 4250
Wire Wire Line
	5400 4250 5400 4450
Connection ~ 5400 4450
$Comp
L Device:R R7
U 1 1 61B36B3B
P 5050 4550
F 0 "R7" H 5150 4450 50  0000 L CNN
F 1 "1k2" H 5100 4550 50  0000 L CNN
F 2 "Resistor_SMD:R_0603_1608Metric" V 4980 4550 50  0001 C CNN
F 3 "~" H 5050 4550 50  0001 C CNN
	1    5050 4550
	-1   0    0    1   
$EndComp
$Comp
L power:GND #PWR027
U 1 1 61B39FB7
P 5050 4750
F 0 "#PWR027" H 5050 4500 50  0001 C CNN
F 1 "GND" H 5055 4577 50  0000 C CNN
F 2 "" H 5050 4750 50  0001 C CNN
F 3 "" H 5050 4750 50  0001 C CNN
	1    5050 4750
	1    0    0    -1  
$EndComp
Wire Wire Line
	5450 4350 5050 4350
Wire Wire Line
	5050 4350 5050 4400
Wire Wire Line
	5050 4750 5050 4700
Wire Wire Line
	4750 3850 4850 3850
$Comp
L Device:C C8
U 1 1 61B5559F
P 6400 5550
F 0 "C8" H 6515 5596 50  0000 L CNN
F 1 "104" H 6515 5505 50  0000 L CNN
F 2 "Capacitor_SMD:C_0603_1608Metric" H 6438 5400 50  0001 C CNN
F 3 "~" H 6400 5550 50  0001 C CNN
	1    6400 5550
	1    0    0    -1  
$EndComp
$Comp
L Device:R R8
U 1 1 61B55CDE
P 5200 5550
F 0 "R8" H 5300 5450 50  0000 L CNN
F 1 "1k" H 5250 5550 50  0000 L CNN
F 2 "Resistor_SMD:R_0603_1608Metric" V 5130 5550 50  0001 C CNN
F 3 "~" H 5200 5550 50  0001 C CNN
	1    5200 5550
	-1   0    0    1   
$EndComp
$Comp
L Device:R R10
U 1 1 61B5ECD9
P 6800 5250
F 0 "R10" V 6700 5200 50  0000 L CNN
F 1 "100R" V 6900 5150 50  0000 L CNN
F 2 "Resistor_SMD:R_0603_1608Metric" V 6730 5250 50  0001 C CNN
F 3 "~" H 6800 5250 50  0001 C CNN
	1    6800 5250
	0    -1   -1   0   
$EndComp
$Comp
L Device:CP C9
U 1 1 61B6116A
P 7100 5550
F 0 "C9" H 7150 5650 50  0000 L CNN
F 1 "10uF" H 7150 5450 50  0000 L CNN
F 2 "Capacitor_SMD:C_0805_2012Metric" H 7138 5400 50  0001 C CNN
F 3 "~" H 7100 5550 50  0001 C CNN
	1    7100 5550
	1    0    0    -1  
$EndComp
Wire Wire Line
	5550 5250 5200 5250
Wire Wire Line
	5200 5250 5200 5400
Wire Wire Line
	6150 5950 6400 5950
Wire Wire Line
	7550 5950 7550 5850
$Comp
L power:GND #PWR032
U 1 1 61B6DA20
P 6250 6200
F 0 "#PWR032" H 6250 5950 50  0001 C CNN
F 1 "GND" H 6255 6027 50  0000 C CNN
F 2 "" H 6250 6200 50  0001 C CNN
F 3 "" H 6250 6200 50  0001 C CNN
	1    6250 6200
	1    0    0    -1  
$EndComp
$Comp
L power:GND #PWR029
U 1 1 61B7C4F0
P 5200 5850
F 0 "#PWR029" H 5200 5600 50  0001 C CNN
F 1 "GND" H 5205 5677 50  0000 C CNN
F 2 "" H 5200 5850 50  0001 C CNN
F 3 "" H 5200 5850 50  0001 C CNN
	1    5200 5850
	1    0    0    -1  
$EndComp
Wire Wire Line
	5200 5850 5200 5700
Wire Wire Line
	6250 4550 6400 4550
Wire Wire Line
	7550 4550 7550 5250
Wire Wire Line
	6950 5250 7100 5250
Connection ~ 7550 5250
Wire Wire Line
	7550 5250 7550 5350
Wire Wire Line
	7100 5400 7100 5250
Connection ~ 7100 5250
Wire Wire Line
	7100 5250 7550 5250
Wire Wire Line
	7100 5700 7100 5950
Connection ~ 7100 5950
Wire Wire Line
	7100 5950 7550 5950
Wire Wire Line
	5550 6150 5350 6150
Wire Wire Line
	5350 6150 5350 5150
Wire Wire Line
	5350 5150 5550 5150
Wire Wire Line
	5450 5950 5450 5350
Wire Wire Line
	5450 5350 5550 5350
Wire Wire Line
	5450 5950 5550 5950
Wire Wire Line
	6150 5250 6400 5250
Wire Wire Line
	6400 5400 6400 5250
Connection ~ 6400 5250
Wire Wire Line
	6400 5250 6650 5250
Wire Wire Line
	6400 5700 6400 5950
Connection ~ 6400 5950
Wire Wire Line
	6400 5950 7100 5950
$Comp
L Connector_Generic:Conn_01x01 J7
U 1 1 61BC7531
P 8100 4550
F 0 "J7" H 8150 4650 50  0000 R CNN
F 1 "OUT+" H 8200 4450 50  0000 R CNN
F 2 "TestPoint:TestPoint_THTPad_3.0x3.0mm_Drill1.5mm" H 8100 4550 50  0001 C CNN
F 3 "~" H 8100 4550 50  0001 C CNN
	1    8100 4550
	1    0    0    -1  
$EndComp
$Comp
L Connector_Generic:Conn_01x01 J8
U 1 1 61BC7E60
P 8100 4900
F 0 "J8" H 8150 5000 50  0000 R CNN
F 1 "OUT-" H 8200 4800 50  0000 R CNN
F 2 "TestPoint:TestPoint_THTPad_3.0x3.0mm_Drill1.5mm" H 8100 4900 50  0001 C CNN
F 3 "~" H 8100 4900 50  0001 C CNN
	1    8100 4900
	1    0    0    -1  
$EndComp
Wire Wire Line
	7900 4550 7550 4550
Connection ~ 7550 4550
$Comp
L power:GND #PWR038
U 1 1 61BCD439
P 7800 4950
F 0 "#PWR038" H 7800 4700 50  0001 C CNN
F 1 "GND" H 7805 4777 50  0000 C CNN
F 2 "" H 7800 4950 50  0001 C CNN
F 3 "" H 7800 4950 50  0001 C CNN
	1    7800 4950
	1    0    0    -1  
$EndComp
Wire Wire Line
	7800 4950 7800 4900
Wire Wire Line
	7800 4900 7900 4900
Wire Wire Line
	7550 4400 7550 4550
Wire Notes Line
	3900 3250 8450 3250
Wire Notes Line
	8450 3250 8450 6450
Wire Notes Line
	8450 6450 3900 6450
Wire Notes Line
	3900 6450 3900 3250
Wire Wire Line
	6150 6150 6250 6150
Wire Wire Line
	6250 6150 6250 6200
Text Notes 3950 3350 0    50   ~ 0
Battery Charging / Over Charge and Over Discharge Protection
$Comp
L Device:LED D2
U 1 1 61B030A9
P 6950 3700
F 0 "D2" V 6989 3582 50  0000 R CNN
F 1 "Green" V 6898 3582 50  0000 R CNN
F 2 "LED_SMD:LED_0603_1608Metric" H 6950 3700 50  0001 C CNN
F 3 "~" H 6950 3700 50  0001 C CNN
	1    6950 3700
	0    -1   -1   0   
$EndComp
$Comp
L Device:LED D1
U 1 1 61B03BFB
P 6600 3700
F 0 "D1" V 6639 3582 50  0000 R CNN
F 1 "Red" V 6548 3582 50  0000 R CNN
F 2 "LED_SMD:LED_0603_1608Metric" H 6600 3700 50  0001 C CNN
F 3 "~" H 6600 3700 50  0001 C CNN
	1    6600 3700
	0    -1   -1   0   
$EndComp
Wire Wire Line
	4300 3500 4850 3500
Wire Wire Line
	6950 3500 6950 3550
Wire Wire Line
	6600 3550 6600 3500
Connection ~ 6600 3500
Wire Wire Line
	6600 3500 6950 3500
Wire Wire Line
	5050 3550 5050 3500
Connection ~ 5050 3500
Wire Wire Line
	5050 3500 5350 3500
Wire Wire Line
	4850 3850 4850 3500
Connection ~ 4850 3500
Wire Wire Line
	4850 3500 5050 3500
Wire Wire Line
	6600 3850 6600 3900
Wire Wire Line
	6950 3850 6950 3900
Wire Wire Line
	6350 4250 6350 3500
Connection ~ 6350 3500
Wire Wire Line
	6350 3500 6600 3500
Wire Wire Line
	5350 4550 5350 3500
Connection ~ 5350 3500
Wire Wire Line
	5350 3500 6350 3500
$Comp
L Switch:SW_SPDT SW2
U 1 1 61C5A010
P 1100 3850
F 0 "SW2" H 1100 4135 50  0000 C CNN
F 1 "SW_SPDT" H 1100 4044 50  0000 C CNN
F 2 "Button_Switch_SMD:SW_SPDT_PCM12" H 1100 3850 50  0001 C CNN
F 3 "~" H 1100 3850 50  0001 C CNN
	1    1100 3850
	-1   0    0    -1  
$EndComp
Wire Wire Line
	750  3750 750  3650
Wire Wire Line
	1350 3650 1600 3650
Wire Notes Line
	3800 3250 3800 4600
Wire Notes Line
	3800 4600 600  4600
Wire Notes Line
	600  4600 600  3250
Wire Notes Line
	600  3250 3800 3250
$Comp
L Device:CP C7
U 1 1 61D2B4F4
P 6400 4750
F 0 "C7" H 6450 4850 50  0000 L CNN
F 1 "10uF" H 6450 4650 50  0000 L CNN
F 2 "Capacitor_SMD:C_0805_2012Metric" H 6438 4600 50  0001 C CNN
F 3 "~" H 6400 4750 50  0001 C CNN
	1    6400 4750
	1    0    0    -1  
$EndComp
Wire Wire Line
	6400 4600 6400 4550
Connection ~ 6400 4550
Wire Wire Line
	6400 4550 7550 4550
$Comp
L power:GND #PWR033
U 1 1 61D30719
P 6400 4950
F 0 "#PWR033" H 6400 4700 50  0001 C CNN
F 1 "GND" H 6405 4777 50  0000 C CNN
F 2 "" H 6400 4950 50  0001 C CNN
F 3 "" H 6400 4950 50  0001 C CNN
	1    6400 4950
	1    0    0    -1  
$EndComp
Wire Wire Line
	6400 4950 6400 4900
Text Label 1050 2400 0    50   ~ 0
BUZZER
Wire Wire Line
	1050 2400 1400 2400
Text Label 650  5800 0    50   ~ 0
BUZZER
$Comp
L Device:R R2
U 1 1 61D4AA0A
P 1200 5800
F 0 "R2" V 1100 5750 50  0000 L CNN
F 1 "220R" V 1300 5700 50  0000 L CNN
F 2 "Resistor_SMD:R_0603_1608Metric" V 1130 5800 50  0001 C CNN
F 3 "~" H 1200 5800 50  0001 C CNN
	1    1200 5800
	0    -1   -1   0   
$EndComp
$Comp
L Device:Buzzer BZ1
U 1 1 61D4C294
P 1900 5300
F 0 "BZ1" H 2052 5329 50  0000 L CNN
F 1 "Buzzer" H 2052 5238 50  0000 L CNN
F 2 "Buzzer_Beeper:Buzzer_12x9.5RM7.6" V 1875 5400 50  0001 C CNN
F 3 "~" V 1875 5400 50  0001 C CNN
	1    1900 5300
	1    0    0    -1  
$EndComp
$Comp
L power:GND #PWR08
U 1 1 61D52C81
P 1750 6100
F 0 "#PWR08" H 1750 5850 50  0001 C CNN
F 1 "GND" H 1755 5927 50  0000 C CNN
F 2 "" H 1750 6100 50  0001 C CNN
F 3 "" H 1750 6100 50  0001 C CNN
	1    1750 6100
	1    0    0    -1  
$EndComp
Wire Wire Line
	1050 5800 650  5800
Wire Wire Line
	1450 5800 1350 5800
Wire Wire Line
	1800 5400 1750 5400
Wire Wire Line
	1750 5400 1750 5600
Wire Wire Line
	1800 5200 1750 5200
Wire Wire Line
	1750 5200 1750 5050
Wire Wire Line
	1750 6100 1750 6000
$Comp
L Device:Q_NPN_BEC Q1
U 1 1 61D77316
P 1650 5800
F 0 "Q1" H 1840 5846 50  0000 L CNN
F 1 "C945_SMD" H 1840 5755 50  0000 L CNN
F 2 "Package_TO_SOT_SMD:SOT-23" H 1850 5900 50  0001 C CNN
F 3 "~" H 1650 5800 50  0001 C CNN
	1    1650 5800
	1    0    0    -1  
$EndComp
Wire Notes Line
	600  4700 2400 4700
Wire Notes Line
	600  6450 2400 6450
Wire Notes Line
	2400 4700 2400 6450
Wire Notes Line
	600  4700 600  6450
Text Notes 650  4800 0    50   ~ 0
Buzzer
$Comp
L power:+4V #PWR05
U 1 1 61D973C8
P 1600 3550
F 0 "#PWR05" H 1600 3400 50  0001 C CNN
F 1 "+4V" H 1615 3723 50  0000 C CNN
F 2 "" H 1600 3550 50  0001 C CNN
F 3 "" H 1600 3550 50  0001 C CNN
	1    1600 3550
	1    0    0    -1  
$EndComp
$Comp
L power:+BATT #PWR037
U 1 1 61D9891A
P 7550 4400
F 0 "#PWR037" H 7550 4250 50  0001 C CNN
F 1 "+BATT" H 7565 4573 50  0000 C CNN
F 2 "" H 7550 4400 50  0001 C CNN
F 3 "" H 7550 4400 50  0001 C CNN
	1    7550 4400
	1    0    0    -1  
$EndComp
$Comp
L power:+BATT #PWR01
U 1 1 61D99572
P 750 3650
F 0 "#PWR01" H 750 3500 50  0001 C CNN
F 1 "+BATT" H 765 3823 50  0000 C CNN
F 2 "" H 750 3650 50  0001 C CNN
F 3 "" H 750 3650 50  0001 C CNN
	1    750  3650
	1    0    0    -1  
$EndComp
Wire Wire Line
	1600 3550 1600 3650
$Comp
L power:+4V #PWR07
U 1 1 61DA0186
P 1750 5050
F 0 "#PWR07" H 1750 4900 50  0001 C CNN
F 1 "+4V" H 1765 5223 50  0000 C CNN
F 2 "" H 1750 5050 50  0001 C CNN
F 3 "" H 1750 5050 50  0001 C CNN
	1    1750 5050
	1    0    0    -1  
$EndComp
Wire Wire Line
	900  3750 750  3750
Wire Wire Line
	1300 3850 1350 3850
Wire Wire Line
	1350 3850 1350 3650
Wire Wire Line
	5200 1600 5000 1600
Wire Wire Line
	5700 1600 5200 1600
Connection ~ 5200 1600
Wire Wire Line
	5200 1400 5200 1600
$Comp
L Connector_Generic:Conn_01x02 J5
U 1 1 619E236C
P 4800 1700
F 0 "J5" H 4718 1375 50  0000 C CNN
F 1 "JP_ANT" H 4718 1466 50  0000 C CNN
F 2 "Connector_PinHeader_2.54mm:PinHeader_1x02_P2.54mm_Vertical" H 4800 1700 50  0001 C CNN
F 3 "~" H 4800 1700 50  0001 C CNN
	1    4800 1700
	-1   0    0    1   
$EndComp
$Comp
L Connector_Generic:Conn_01x01 J6
U 1 1 619E3165
P 5200 1200
F 0 "J6" V 5400 1250 50  0000 R CNN
F 1 "ANT" V 5300 1250 50  0000 R CNN
F 2 "Connector_PinHeader_2.54mm:PinHeader_1x01_P2.54mm_Vertical" H 5200 1200 50  0001 C CNN
F 3 "~" H 5200 1200 50  0001 C CNN
	1    5200 1200
	0    -1   -1   0   
$EndComp
$Comp
L RF_Module:ESP-12F U1
U 1 1 61F4EE9C
P 2000 2100
F 0 "U1" H 1600 2950 50  0000 C CNN
F 1 "ESP-12F" H 1700 2850 50  0000 C CNN
F 2 "RF_Module:ESP-12E" H 2000 2100 50  0001 C CNN
F 3 "http://wiki.ai-thinker.com/_media/esp8266/esp8266_series_modules_user_manual_v1.1.pdf" H 1650 2200 50  0001 C CNN
	1    2000 2100
	1    0    0    -1  
$EndComp
Text Label 1050 2300 0    50   ~ 0
BUTTON
Wire Wire Line
	1050 2300 1400 2300
Text Label 2750 5550 0    50   ~ 0
BUTTON
$Comp
L Switch:SW_Push SW4
U 1 1 61F5C254
P 3250 5800
F 0 "SW4" V 3296 5752 50  0000 R CNN
F 1 "BUTTON" V 3205 5752 50  0000 R CNN
F 2 "Button_Switch_THT:SW_PUSH_6mm" H 3250 6000 50  0001 C CNN
F 3 "~" H 3250 6000 50  0001 C CNN
	1    3250 5800
	0    1    1    0   
$EndComp
$Comp
L Device:R R6
U 1 1 61F5C7AE
P 3250 5350
F 0 "R6" H 3350 5250 50  0000 L CNN
F 1 "10k" H 3300 5350 50  0000 L CNN
F 2 "Resistor_SMD:R_0603_1608Metric" V 3180 5350 50  0001 C CNN
F 3 "~" H 3250 5350 50  0001 C CNN
	1    3250 5350
	-1   0    0    1   
$EndComp
$Comp
L power:+3.3V #PWR017
U 1 1 61F5CBEF
P 3250 5150
F 0 "#PWR017" H 3250 5000 50  0001 C CNN
F 1 "+3.3V" H 3265 5323 50  0000 C CNN
F 2 "" H 3250 5150 50  0001 C CNN
F 3 "" H 3250 5150 50  0001 C CNN
	1    3250 5150
	1    0    0    -1  
$EndComp
$Comp
L power:GND #PWR018
U 1 1 61F5D34B
P 3250 6050
F 0 "#PWR018" H 3250 5800 50  0001 C CNN
F 1 "GND" H 3255 5877 50  0000 C CNN
F 2 "" H 3250 6050 50  0001 C CNN
F 3 "" H 3250 6050 50  0001 C CNN
	1    3250 6050
	1    0    0    -1  
$EndComp
Wire Wire Line
	3250 5600 3250 5550
Wire Wire Line
	3250 5200 3250 5150
Wire Wire Line
	3250 6000 3250 6050
Wire Wire Line
	2750 5550 3250 5550
Connection ~ 3250 5550
Wire Wire Line
	3250 5550 3250 5500
Wire Notes Line
	2500 4700 3800 4700
Wire Notes Line
	3800 4700 3800 6450
Wire Notes Line
	3800 6450 2500 6450
Wire Notes Line
	2500 6450 2500 4700
Text Notes 2550 4800 0    50   ~ 0
External Button
$EndSCHEMATC
