EESchema Schematic File Version 4
EELAYER 30 0
EELAYER END
$Descr A4 11693 8268
encoding utf-8
Sheet 2 2
Title ""
Date ""
Rev ""
Comp ""
Comment1 ""
Comment2 ""
Comment3 ""
Comment4 ""
$EndDescr
$Comp
L Regulator_Linear:AMS1117-3.3 U?
U 1 1 608DAF31
P 4550 5150
AR Path="/608DAF31" Ref="U?"  Part="1" 
AR Path="/6187C30E/608DAF31" Ref="U?"  Part="1" 
F 0 "U?" H 4550 5392 50  0000 C CNN
F 1 "AMS1117-3.3" H 4550 5301 50  0000 C CNN
F 2 "Package_TO_SOT_SMD:SOT-223-3_TabPin2" H 4550 5350 50  0001 C CNN
F 3 "http://www.advanced-monolithic.com/pdf/ds1117.pdf" H 4650 4900 50  0001 C CNN
F 4 "C351784" H 4550 5150 50  0001 C CNN "LCSC"
	1    4550 5150
	1    0    0    -1  
$EndComp
$Comp
L Regulator_Linear:AMS1117-3.3 U?
U 1 1 608DDAEE
P 3200 6100
AR Path="/608DDAEE" Ref="U?"  Part="1" 
AR Path="/6187C30E/608DDAEE" Ref="U?"  Part="1" 
F 0 "U?" H 3200 6342 50  0000 C CNN
F 1 "AMS1117-3.3" H 3200 6251 50  0000 C CNN
F 2 "Package_TO_SOT_SMD:SOT-223-3_TabPin2" H 3200 6300 50  0001 C CNN
F 3 "http://www.advanced-monolithic.com/pdf/ds1117.pdf" H 3300 5850 50  0001 C CNN
F 4 "C351784" H 3200 6100 50  0001 C CNN "LCSC"
	1    3200 6100
	1    0    0    -1  
$EndComp
$Comp
L Device:CP C?
U 1 1 608DDAF5
P 3650 6350
AR Path="/608DDAF5" Ref="C?"  Part="1" 
AR Path="/6187C30E/608DDAF5" Ref="C?"  Part="1" 
F 0 "C?" H 3768 6396 50  0000 L CNN
F 1 "10uF" H 3768 6305 50  0000 L CNN
F 2 "Capacitor_Tantalum_SMD:CP_EIA-6032-15_Kemet-U" H 3688 6200 50  0001 C CNN
F 3 "~" H 3650 6350 50  0001 C CNN
F 4 "C7209" H 3650 6350 50  0001 C CNN "LCSC"
	1    3650 6350
	1    0    0    -1  
$EndComp
$Comp
L power:GND #PWR?
U 1 1 608DDAFB
P 3200 6600
AR Path="/608DDAFB" Ref="#PWR?"  Part="1" 
AR Path="/6187C30E/608DDAFB" Ref="#PWR?"  Part="1" 
F 0 "#PWR?" H 3200 6350 50  0001 C CNN
F 1 "GND" H 3205 6427 50  0000 C CNN
F 2 "" H 3200 6600 50  0001 C CNN
F 3 "" H 3200 6600 50  0001 C CNN
	1    3200 6600
	1    0    0    -1  
$EndComp
$Comp
L power:GND #PWR?
U 1 1 608DDB01
P 3650 6600
AR Path="/608DDB01" Ref="#PWR?"  Part="1" 
AR Path="/6187C30E/608DDB01" Ref="#PWR?"  Part="1" 
F 0 "#PWR?" H 3650 6350 50  0001 C CNN
F 1 "GND" H 3655 6427 50  0000 C CNN
F 2 "" H 3650 6600 50  0001 C CNN
F 3 "" H 3650 6600 50  0001 C CNN
	1    3650 6600
	1    0    0    -1  
$EndComp
Wire Wire Line
	3200 6600 3200 6400
Wire Wire Line
	3650 6600 3650 6500
$Comp
L power:GND #PWR?
U 1 1 608DDB09
P 2700 6600
AR Path="/608DDB09" Ref="#PWR?"  Part="1" 
AR Path="/6187C30E/608DDB09" Ref="#PWR?"  Part="1" 
F 0 "#PWR?" H 2700 6350 50  0001 C CNN
F 1 "GND" H 2705 6427 50  0000 C CNN
F 2 "" H 2700 6600 50  0001 C CNN
F 3 "" H 2700 6600 50  0001 C CNN
	1    2700 6600
	1    0    0    -1  
$EndComp
$Comp
L power:GND #PWR?
U 1 1 608DDB0F
P 2300 6600
AR Path="/608DDB0F" Ref="#PWR?"  Part="1" 
AR Path="/6187C30E/608DDB0F" Ref="#PWR?"  Part="1" 
F 0 "#PWR?" H 2300 6350 50  0001 C CNN
F 1 "GND" H 2305 6427 50  0000 C CNN
F 2 "" H 2300 6600 50  0001 C CNN
F 3 "" H 2300 6600 50  0001 C CNN
	1    2300 6600
	1    0    0    -1  
$EndComp
$Comp
L power:GND #PWR?
U 1 1 608DDB15
P 1850 6600
AR Path="/608DDB15" Ref="#PWR?"  Part="1" 
AR Path="/6187C30E/608DDB15" Ref="#PWR?"  Part="1" 
F 0 "#PWR?" H 1850 6350 50  0001 C CNN
F 1 "GND" H 1855 6427 50  0000 C CNN
F 2 "" H 1850 6600 50  0001 C CNN
F 3 "" H 1850 6600 50  0001 C CNN
	1    1850 6600
	1    0    0    -1  
$EndComp
Wire Wire Line
	1850 6600 1850 6500
Wire Wire Line
	2300 6600 2300 6500
Wire Wire Line
	2700 6600 2700 6500
$Comp
L Device:CP C?
U 1 1 608DDB1F
P 1850 6350
AR Path="/608DDB1F" Ref="C?"  Part="1" 
AR Path="/6187C30E/608DDB1F" Ref="C?"  Part="1" 
F 0 "C?" H 1968 6396 50  0000 L CNN
F 1 "10uF" H 1968 6305 50  0000 L CNN
F 2 "Capacitor_Tantalum_SMD:CP_EIA-6032-15_Kemet-U" H 1888 6200 50  0001 C CNN
F 3 "~" H 1850 6350 50  0001 C CNN
F 4 "C7209" H 1850 6350 50  0001 C CNN "LCSC"
	1    1850 6350
	1    0    0    -1  
$EndComp
$Comp
L Device:CP C?
U 1 1 608DDB26
P 2300 6350
AR Path="/608DDB26" Ref="C?"  Part="1" 
AR Path="/6187C30E/608DDB26" Ref="C?"  Part="1" 
F 0 "C?" H 2418 6396 50  0000 L CNN
F 1 "1uF" H 2418 6305 50  0000 L CNN
F 2 "Capacitor_SMD:C_0805_2012Metric" H 2338 6200 50  0001 C CNN
F 3 "~" H 2300 6350 50  0001 C CNN
F 4 "C50683" H 2300 6350 50  0001 C CNN "LCSC"
	1    2300 6350
	1    0    0    -1  
$EndComp
$Comp
L Device:C C?
U 1 1 608DDB2C
P 2700 6350
AR Path="/608DDB2C" Ref="C?"  Part="1" 
AR Path="/6187C30E/608DDB2C" Ref="C?"  Part="1" 
F 0 "C?" H 2815 6396 50  0000 L CNN
F 1 "104" H 2815 6305 50  0000 L CNN
F 2 "Capacitor_SMD:C_0805_2012Metric" H 2738 6200 50  0001 C CNN
F 3 "~" H 2700 6350 50  0001 C CNN
	1    2700 6350
	1    0    0    -1  
$EndComp
$Comp
L Device:LED D?
U 1 1 608E221E
P 5300 6550
AR Path="/608E221E" Ref="D?"  Part="1" 
AR Path="/6187C30E/608E221E" Ref="D?"  Part="1" 
F 0 "D?" V 5350 6750 50  0000 R CNN
F 1 "LED" V 5250 6800 50  0000 R CNN
F 2 "LED_SMD:LED_1206_3216Metric" H 5300 6550 50  0001 C CNN
F 3 "~" H 5300 6550 50  0001 C CNN
F 4 "C192677" V 5300 6550 50  0001 C CNN "LCSC"
	1    5300 6550
	0    -1   -1   0   
$EndComp
$Comp
L Device:LED D?
U 1 1 608E2687
P 5350 6000
AR Path="/608E2687" Ref="D?"  Part="1" 
AR Path="/6187C30E/608E2687" Ref="D?"  Part="1" 
F 0 "D?" V 5400 6200 50  0000 R CNN
F 1 "LED" V 5300 6250 50  0000 R CNN
F 2 "LED_SMD:LED_1206_3216Metric" H 5350 6000 50  0001 C CNN
F 3 "~" H 5350 6000 50  0001 C CNN
F 4 "C192677" V 5350 6000 50  0001 C CNN "LCSC"
	1    5350 6000
	0    -1   -1   0   
$EndComp
$Comp
L Relay:SANYOU_SRD_Form_C K?
U 1 1 608E2C9B
P 6400 5600
AR Path="/608E2C9B" Ref="K?"  Part="1" 
AR Path="/6187C30E/608E2C9B" Ref="K?"  Part="1" 
F 0 "K?" H 6830 5646 50  0000 L CNN
F 1 "T93" H 6830 5555 50  0000 L CNN
F 2 "SLA-12VDC-SL-C(T93):RELAY_SLA-12VDC-SL-C" H 6850 5550 50  0001 L CNN
F 3 "http://www.sanyourelay.ca/public/products/pdf/SRD.pdf" H 6400 5600 50  0001 C CNN
	1    6400 5600
	1    0    0    -1  
$EndComp
$EndSCHEMATC
