EESchema Schematic File Version 4
EELAYER 30 0
EELAYER END
$Descr A4 11693 8268
encoding utf-8
Sheet 1 1
Title "Wireless Trigger (RX) RLY SMD v0.1"
Date "2021-04-29"
Rev "0"
Comp ""
Comment1 ""
Comment2 ""
Comment3 ""
Comment4 ""
$EndDescr
$Comp
L Connector_Generic:Conn_01x05 J8
U 1 1 6058F993
P 4000 2750
F 0 "J8" H 3950 3150 50  0000 L CNN
F 1 "Program" H 3850 3050 50  0000 L CNN
F 2 "Connector_PinHeader_2.54mm:PinHeader_1x05_P2.54mm_Vertical" H 4000 2750 50  0001 C CNN
F 3 "~" H 4000 2750 50  0001 C CNN
	1    4000 2750
	1    0    0    -1  
$EndComp
Text Label 3600 2550 0    50   ~ 0
VPP
Wire Wire Line
	3600 2550 3800 2550
Text Label 3600 2850 0    50   ~ 0
PGD
Text Label 3600 2950 0    50   ~ 0
PGC
Wire Wire Line
	3600 2850 3800 2850
Wire Wire Line
	3600 2950 3800 2950
Wire Wire Line
	3800 2650 3450 2650
Wire Wire Line
	3450 2650 3450 2500
$Comp
L power:GND #PWR047
U 1 1 606545B3
P 3450 2950
F 0 "#PWR047" H 3450 2700 50  0001 C CNN
F 1 "GND" H 3455 2777 50  0000 C CNN
F 2 "" H 3450 2950 50  0001 C CNN
F 3 "" H 3450 2950 50  0001 C CNN
	1    3450 2950
	1    0    0    -1  
$EndComp
Wire Wire Line
	3800 2750 3450 2750
Wire Wire Line
	3450 2750 3450 2950
$Comp
L Device:C C18
U 1 1 60832942
P 850 1550
F 0 "C18" H 850 1650 50  0000 L CNN
F 1 "104" H 850 1450 50  0000 L CNN
F 2 "Capacitor_SMD:C_0805_2012Metric" H 888 1400 50  0001 C CNN
F 3 "~" H 850 1550 50  0001 C CNN
	1    850  1550
	1    0    0    -1  
$EndComp
$Comp
L power:GND #PWR062
U 1 1 60834636
P 850 1750
F 0 "#PWR062" H 850 1500 50  0001 C CNN
F 1 "GND" H 855 1577 50  0000 C CNN
F 2 "" H 850 1750 50  0001 C CNN
F 3 "" H 850 1750 50  0001 C CNN
	1    850  1750
	1    0    0    -1  
$EndComp
Wire Wire Line
	850  1750 850  1700
Wire Wire Line
	850  1400 850  1350
$Comp
L MCU_Microchip_PIC16:PIC16F1512-IMV U3
U 1 1 602B5B79
P 2500 2050
F 0 "U3" H 1750 3250 50  0000 C CNN
F 1 "PIC16F1936-QFN" H 2000 3150 50  0000 C CNN
F 2 "Package_DFN_QFN:QFN-28-1EP_4x4mm_P0.4mm_EP2.3x2.3mm" H 2500 2050 50  0001 C CNN
F 3 "http://ww1.microchip.com/downloads/en/DeviceDoc/41624A.pdf" H 2500 2050 50  0001 C CNN
	1    2500 2050
	1    0    0    -1  
$EndComp
$Comp
L power:GND #PWR029
U 1 1 602EFED8
P 2500 3350
F 0 "#PWR029" H 2500 3100 50  0001 C CNN
F 1 "GND" H 2505 3177 50  0000 C CNN
F 2 "" H 2500 3350 50  0001 C CNN
F 3 "" H 2500 3350 50  0001 C CNN
	1    2500 3350
	1    0    0    -1  
$EndComp
Wire Wire Line
	2500 3350 2500 3300
Wire Wire Line
	2600 3250 2600 3300
Wire Wire Line
	2600 3300 2500 3300
Connection ~ 2500 3300
Wire Wire Line
	2500 3300 2500 3250
Text Label 3850 1250 2    50   ~ 0
TRIG
Text Label 3850 1550 2    50   ~ 0
SCK
Text Label 3850 1650 2    50   ~ 0
MISO
Text Label 3850 2150 2    50   ~ 0
VPP
Text Label 1100 3000 0    50   ~ 0
PGC
Text Label 1100 3100 0    50   ~ 0
PGD
Text Label 3850 1750 2    50   ~ 0
MOSI
Wire Wire Line
	3500 1250 3850 1250
Wire Wire Line
	3500 1550 3850 1550
Wire Wire Line
	3500 1650 3850 1650
Wire Wire Line
	3850 1750 3500 1750
Text Label 3850 1850 2    50   ~ 0
DEBUG
Text Label 3850 1950 2    50   ~ 0
RESET
Wire Wire Line
	3850 1850 3500 1850
Wire Wire Line
	3850 1950 3500 1950
Text Label 1100 1250 0    50   ~ 0
AL2_LED
Wire Wire Line
	1100 1250 1500 1250
Text Label 1100 1350 0    50   ~ 0
AL1_LED
Wire Wire Line
	1500 1350 1100 1350
Text Label 1100 1450 0    50   ~ 0
SW2
Wire Wire Line
	1100 1450 1500 1450
Text Label 1100 1550 0    50   ~ 0
SW1
Wire Wire Line
	1100 1550 1500 1550
$Comp
L Connector_Generic:Conn_01x02 J6
U 1 1 60B19608
P 2900 3900
F 0 "J6" H 2850 4100 50  0000 L CNN
F 1 "Debug" H 2800 4000 50  0000 L CNN
F 2 "Connector_PinHeader_2.54mm:PinHeader_1x02_P2.54mm_Vertical" H 2900 3900 50  0001 C CNN
F 3 "~" H 2900 3900 50  0001 C CNN
	1    2900 3900
	1    0    0    -1  
$EndComp
Text Label 2400 3900 0    50   ~ 0
DEBUG
Wire Wire Line
	2400 3900 2700 3900
$Comp
L power:GND #PWR038
U 1 1 60B4BB9A
P 2650 4050
F 0 "#PWR038" H 2650 3800 50  0001 C CNN
F 1 "GND" H 2655 3877 50  0000 C CNN
F 2 "" H 2650 4050 50  0001 C CNN
F 3 "" H 2650 4050 50  0001 C CNN
	1    2650 4050
	1    0    0    -1  
$EndComp
Wire Wire Line
	2650 4050 2650 4000
Wire Wire Line
	2650 4000 2700 4000
Wire Wire Line
	1500 2750 1350 2750
Wire Wire Line
	1500 2850 1450 2850
Wire Wire Line
	1100 3000 1350 3000
Wire Wire Line
	1350 3000 1350 2750
Connection ~ 1350 2750
Wire Wire Line
	1350 2750 1300 2750
Wire Wire Line
	1100 3100 1450 3100
Wire Wire Line
	1450 3100 1450 2850
Connection ~ 1450 2850
Wire Wire Line
	1450 2850 1300 2850
Wire Wire Line
	2500 850  2500 800 
Wire Notes Line
	4200 550  4200 3550
Wire Notes Line
	4200 3550 550  3550
Wire Notes Line
	550  3550 550  550 
Wire Notes Line
	550  550  4200 550 
Text Notes 600  650  0    50   ~ 0
MCU
Wire Notes Line
	3100 3650 3100 4300
Wire Notes Line
	3100 4300 2300 4300
Wire Notes Line
	2300 4300 2300 3650
Wire Notes Line
	2300 3650 3100 3650
Text Notes 2350 3750 0    50   ~ 0
Debug
$Comp
L Transistor_BJT:BC847 Q1
U 1 1 608D7B7B
P 5250 3700
F 0 "Q1" H 5441 3746 50  0000 L CNN
F 1 "BC847" H 5441 3655 50  0000 L CNN
F 2 "Package_TO_SOT_SMD:SOT-23" H 5450 3625 50  0001 L CIN
F 3 "http://www.infineon.com/dgdl/Infineon-BC847SERIES_BC848SERIES_BC849SERIES_BC850SERIES-DS-v01_01-en.pdf?fileId=db3a304314dca389011541d4630a1657" H 5250 3700 50  0001 L CNN
F 4 "C475630" H 5250 3700 50  0001 C CNN "LCSC"
	1    5250 3700
	1    0    0    -1  
$EndComp
$Comp
L Diode:1N4148 D3
U 1 1 608D8AAE
P 4950 3000
F 0 "D3" V 4900 2800 50  0000 L CNN
F 1 "1N4148" V 5000 2650 50  0000 L CNN
F 2 "Diode_SMD:D_SOD-123" H 4950 2825 50  0001 C CNN
F 3 "https://assets.nexperia.com/documents/data-sheet/1N4148_1N4448.pdf" H 4950 3000 50  0001 C CNN
F 4 "C2099" V 4950 3000 50  0001 C CNN "LCSC"
	1    4950 3000
	0    1    1    0   
$EndComp
$Comp
L Switch:SW_Push SW2
U 1 1 608D944E
P 7700 2850
F 0 "SW2" V 7746 2802 50  0000 R CNN
F 1 "RST" V 7655 2802 50  0000 R CNN
F 2 "Button_Switch_THT:SW_PUSH_6mm" H 7700 3050 50  0001 C CNN
F 3 "~" H 7700 3050 50  0001 C CNN
	1    7700 2850
	0    -1   -1   0   
$EndComp
$Comp
L Device:LED D1
U 1 1 608D9800
P 3700 4650
F 0 "D1" H 3900 4600 50  0000 R CNN
F 1 "LED" H 3750 4750 50  0000 R CNN
F 2 "LED_SMD:LED_0805_2012Metric" H 3700 4650 50  0001 C CNN
F 3 "~" H 3700 4650 50  0001 C CNN
	1    3700 4650
	0    -1   -1   0   
$EndComp
$Comp
L Regulator_Linear:AMS1117-3.3 U2
U 1 1 608FAA86
P 9050 900
AR Path="/608FAA86" Ref="U2"  Part="1" 
AR Path="/6187C30E/608FAA86" Ref="U?"  Part="1" 
F 0 "U2" H 9050 1142 50  0000 C CNN
F 1 "AMS1117-3.3" H 9050 1051 50  0000 C CNN
F 2 "Package_TO_SOT_SMD:SOT-223-3_TabPin2" H 9050 1100 50  0001 C CNN
F 3 "http://www.advanced-monolithic.com/pdf/ds1117.pdf" H 9150 650 50  0001 C CNN
F 4 "C351784" H 9050 900 50  0001 C CNN "LCSC"
	1    9050 900 
	1    0    0    -1  
$EndComp
$Comp
L Device:CP C7
U 1 1 608FAA8D
P 9500 1150
AR Path="/608FAA8D" Ref="C7"  Part="1" 
AR Path="/6187C30E/608FAA8D" Ref="C?"  Part="1" 
F 0 "C7" H 9618 1196 50  0000 L CNN
F 1 "10uF" H 9618 1105 50  0000 L CNN
F 2 "Capacitor_Tantalum_SMD:CP_EIA-6032-15_Kemet-U" H 9538 1000 50  0001 C CNN
F 3 "~" H 9500 1150 50  0001 C CNN
F 4 "C7209" H 9500 1150 50  0001 C CNN "LCSC"
	1    9500 1150
	1    0    0    -1  
$EndComp
$Comp
L power:GND #PWR022
U 1 1 608FAA93
P 9050 1400
AR Path="/608FAA93" Ref="#PWR022"  Part="1" 
AR Path="/6187C30E/608FAA93" Ref="#PWR?"  Part="1" 
F 0 "#PWR022" H 9050 1150 50  0001 C CNN
F 1 "GND" H 9055 1227 50  0000 C CNN
F 2 "" H 9050 1400 50  0001 C CNN
F 3 "" H 9050 1400 50  0001 C CNN
	1    9050 1400
	1    0    0    -1  
$EndComp
$Comp
L power:GND #PWR023
U 1 1 608FAA99
P 9500 1400
AR Path="/608FAA99" Ref="#PWR023"  Part="1" 
AR Path="/6187C30E/608FAA99" Ref="#PWR?"  Part="1" 
F 0 "#PWR023" H 9500 1150 50  0001 C CNN
F 1 "GND" H 9505 1227 50  0000 C CNN
F 2 "" H 9500 1400 50  0001 C CNN
F 3 "" H 9500 1400 50  0001 C CNN
	1    9500 1400
	1    0    0    -1  
$EndComp
Wire Wire Line
	9050 1400 9050 1200
Wire Wire Line
	9500 1400 9500 1300
$Comp
L power:GND #PWR020
U 1 1 608FAAA1
P 8550 1400
AR Path="/608FAAA1" Ref="#PWR020"  Part="1" 
AR Path="/6187C30E/608FAAA1" Ref="#PWR?"  Part="1" 
F 0 "#PWR020" H 8550 1150 50  0001 C CNN
F 1 "GND" H 8555 1227 50  0000 C CNN
F 2 "" H 8550 1400 50  0001 C CNN
F 3 "" H 8550 1400 50  0001 C CNN
	1    8550 1400
	1    0    0    -1  
$EndComp
$Comp
L power:GND #PWR017
U 1 1 608FAAA7
P 8150 1400
AR Path="/608FAAA7" Ref="#PWR017"  Part="1" 
AR Path="/6187C30E/608FAAA7" Ref="#PWR?"  Part="1" 
F 0 "#PWR017" H 8150 1150 50  0001 C CNN
F 1 "GND" H 8155 1227 50  0000 C CNN
F 2 "" H 8150 1400 50  0001 C CNN
F 3 "" H 8150 1400 50  0001 C CNN
	1    8150 1400
	1    0    0    -1  
$EndComp
$Comp
L power:GND #PWR015
U 1 1 608FAAAD
P 7700 1400
AR Path="/608FAAAD" Ref="#PWR015"  Part="1" 
AR Path="/6187C30E/608FAAAD" Ref="#PWR?"  Part="1" 
F 0 "#PWR015" H 7700 1150 50  0001 C CNN
F 1 "GND" H 7705 1227 50  0000 C CNN
F 2 "" H 7700 1400 50  0001 C CNN
F 3 "" H 7700 1400 50  0001 C CNN
	1    7700 1400
	1    0    0    -1  
$EndComp
Wire Wire Line
	7700 1400 7700 1300
Wire Wire Line
	8150 1400 8150 1300
Wire Wire Line
	8550 1400 8550 1300
$Comp
L Device:CP C4
U 1 1 608FAAB7
P 7700 1150
AR Path="/608FAAB7" Ref="C4"  Part="1" 
AR Path="/6187C30E/608FAAB7" Ref="C?"  Part="1" 
F 0 "C4" H 7818 1196 50  0000 L CNN
F 1 "10uF" H 7818 1105 50  0000 L CNN
F 2 "Capacitor_Tantalum_SMD:CP_EIA-6032-15_Kemet-U" H 7738 1000 50  0001 C CNN
F 3 "~" H 7700 1150 50  0001 C CNN
F 4 "C7209" H 7700 1150 50  0001 C CNN "LCSC"
	1    7700 1150
	1    0    0    -1  
$EndComp
$Comp
L Device:CP C5
U 1 1 608FAABE
P 8150 1150
AR Path="/608FAABE" Ref="C5"  Part="1" 
AR Path="/6187C30E/608FAABE" Ref="C?"  Part="1" 
F 0 "C5" H 8268 1196 50  0000 L CNN
F 1 "1uF" H 8268 1105 50  0000 L CNN
F 2 "Capacitor_SMD:C_0805_2012Metric" H 8188 1000 50  0001 C CNN
F 3 "~" H 8150 1150 50  0001 C CNN
F 4 "C50683" H 8150 1150 50  0001 C CNN "LCSC"
	1    8150 1150
	1    0    0    -1  
$EndComp
$Comp
L Device:C C6
U 1 1 608FAAC4
P 8550 1150
AR Path="/608FAAC4" Ref="C6"  Part="1" 
AR Path="/6187C30E/608FAAC4" Ref="C?"  Part="1" 
F 0 "C6" H 8665 1196 50  0000 L CNN
F 1 "104" H 8665 1105 50  0000 L CNN
F 2 "Capacitor_SMD:C_0805_2012Metric" H 8588 1000 50  0001 C CNN
F 3 "~" H 8550 1150 50  0001 C CNN
	1    8550 1150
	1    0    0    -1  
$EndComp
$Comp
L power:+3.3V #PWR03
U 1 1 609376CA
P 2500 800
F 0 "#PWR03" H 2500 650 50  0001 C CNN
F 1 "+3.3V" H 2515 973 50  0000 C CNN
F 2 "" H 2500 800 50  0001 C CNN
F 3 "" H 2500 800 50  0001 C CNN
	1    2500 800 
	1    0    0    -1  
$EndComp
$Comp
L power:+3.3V #PWR02
U 1 1 60937FAB
P 850 1350
F 0 "#PWR02" H 850 1200 50  0001 C CNN
F 1 "+3.3V" H 865 1523 50  0000 C CNN
F 2 "" H 850 1350 50  0001 C CNN
F 3 "" H 850 1350 50  0001 C CNN
	1    850  1350
	1    0    0    -1  
$EndComp
$Comp
L Switch:SW_DIP_x04 SW1
U 1 1 6093F7FA
P 1100 2550
F 0 "SW1" H 850 3000 50  0000 C CNN
F 1 "SW_DIP_x04" H 850 2900 50  0000 C CNN
F 2 "Button_Switch_THT:SW_DIP_SPSTx04_Slide_9.78x12.34mm_W7.62mm_P2.54mm" H 1100 2550 50  0001 C CNN
F 3 "~" H 1100 2550 50  0001 C CNN
	1    1100 2550
	1    0    0    -1  
$EndComp
Wire Wire Line
	1400 2350 1500 2350
Wire Wire Line
	1400 2450 1500 2450
Wire Wire Line
	1400 2550 1500 2550
Wire Wire Line
	1400 2650 1500 2650
$Comp
L power:GND #PWR01
U 1 1 60948E43
P 700 2750
F 0 "#PWR01" H 700 2500 50  0001 C CNN
F 1 "GND" H 705 2577 50  0000 C CNN
F 2 "" H 700 2750 50  0001 C CNN
F 3 "" H 700 2750 50  0001 C CNN
	1    700  2750
	1    0    0    -1  
$EndComp
Wire Wire Line
	800  2350 700  2350
Wire Wire Line
	700  2350 700  2450
Wire Wire Line
	800  2450 700  2450
Connection ~ 700  2450
Wire Wire Line
	700  2450 700  2550
Wire Wire Line
	800  2550 700  2550
Connection ~ 700  2550
Wire Wire Line
	700  2550 700  2650
Wire Wire Line
	800  2650 700  2650
Connection ~ 700  2650
Wire Wire Line
	700  2650 700  2750
Text Label 1150 2150 0    50   ~ 0
INT
Text Label 3850 1350 2    50   ~ 0
NSS
Wire Wire Line
	1150 2150 1500 2150
$Comp
L Connector_Generic:Conn_01x01 J2
U 1 1 609899A9
P 4850 750
F 0 "J2" V 4850 950 50  0000 R CNN
F 1 "ANT" V 4950 800 50  0000 R CNN
F 2 "Connector_PinHeader_2.54mm:PinHeader_1x01_P2.54mm_Vertical" H 4768 617 50  0001 C CNN
F 3 "~" H 4850 750 50  0001 C CNN
	1    4850 750 
	0    -1   -1   0   
$EndComp
$Comp
L power:GND #PWR05
U 1 1 60985AF7
P 4850 1700
F 0 "#PWR05" H 4850 1450 50  0001 C CNN
F 1 "GND" H 4855 1527 50  0000 C CNN
F 2 "" H 4850 1700 50  0001 C CNN
F 3 "" H 4850 1700 50  0001 C CNN
	1    4850 1700
	1    0    0    -1  
$EndComp
Wire Wire Line
	7000 1650 7000 1500
$Comp
L power:GND #PWR013
U 1 1 60982542
P 7000 1650
F 0 "#PWR013" H 7000 1400 50  0001 C CNN
F 1 "GND" H 7005 1477 50  0000 C CNN
F 2 "" H 7000 1650 50  0001 C CNN
F 3 "" H 7000 1650 50  0001 C CNN
	1    7000 1650
	1    0    0    -1  
$EndComp
Wire Wire Line
	7000 1200 7000 1050
$Comp
L power:+3.3V #PWR012
U 1 1 6097E9A3
P 7000 1050
F 0 "#PWR012" H 7000 900 50  0001 C CNN
F 1 "+3.3V" H 7015 1223 50  0000 C CNN
F 2 "" H 7000 1050 50  0001 C CNN
F 3 "" H 7000 1050 50  0001 C CNN
	1    7000 1050
	1    0    0    -1  
$EndComp
$Comp
L Device:C C3
U 1 1 6097E25F
P 7000 1350
F 0 "C3" H 7000 1450 50  0000 L CNN
F 1 "104" H 7000 1250 50  0000 L CNN
F 2 "Capacitor_SMD:C_0805_2012Metric" H 7038 1200 50  0001 C CNN
F 3 "~" H 7000 1350 50  0001 C CNN
	1    7000 1350
	1    0    0    -1  
$EndComp
Wire Wire Line
	6550 1850 6550 1150
Connection ~ 6550 1850
Wire Wire Line
	6450 1850 6550 1850
Wire Wire Line
	6550 1150 6450 1150
Wire Wire Line
	6550 1950 6550 1850
$Comp
L power:GND #PWR010
U 1 1 609772B2
P 6550 1950
F 0 "#PWR010" H 6550 1700 50  0001 C CNN
F 1 "GND" H 6555 1777 50  0000 C CNN
F 2 "" H 6550 1950 50  0001 C CNN
F 3 "" H 6550 1950 50  0001 C CNN
	1    6550 1950
	1    0    0    -1  
$EndComp
Wire Wire Line
	4950 1450 5300 1450
Text Label 4950 1450 0    50   ~ 0
RESET
Wire Wire Line
	5150 1350 5300 1350
Wire Wire Line
	5150 1050 5150 1350
$Comp
L power:+3.3V #PWR06
U 1 1 60970CBB
P 5150 1050
F 0 "#PWR06" H 5150 900 50  0001 C CNN
F 1 "+3.3V" H 5165 1223 50  0000 C CNN
F 2 "" H 5150 1050 50  0001 C CNN
F 3 "" H 5150 1050 50  0001 C CNN
	1    5150 1050
	1    0    0    -1  
$EndComp
Wire Wire Line
	4950 1550 5300 1550
Wire Wire Line
	6450 1550 6800 1550
Wire Wire Line
	6450 1450 6800 1450
Wire Wire Line
	6450 1250 6800 1250
Wire Wire Line
	6450 1350 6800 1350
Text Label 6800 1350 2    50   ~ 0
MOSI
Text Label 6800 1450 2    50   ~ 0
MISO
Text Label 6800 1550 2    50   ~ 0
SCK
Text Label 6800 1250 2    50   ~ 0
NSS
Text Label 4950 1550 0    50   ~ 0
INT
$Comp
L Connector_Generic:Conn_01x02 J1
U 1 1 6098AEE9
P 4500 1250
F 0 "J1" H 4550 1050 50  0000 R CNN
F 1 "JP_ANT" H 4650 1350 50  0000 R CNN
F 2 "Connector_PinHeader_2.54mm:PinHeader_1x02_P2.54mm_Vertical" H 4500 1250 50  0001 C CNN
F 3 "~" H 4500 1250 50  0001 C CNN
	1    4500 1250
	-1   0    0    1   
$EndComp
Wire Wire Line
	5300 1250 4850 1250
Wire Wire Line
	4850 1250 4850 1700
$Comp
L My_Lib_KiCAD:Ra_CNT_v1.0 U1
U 1 1 6095C2B6
P 5850 1450
F 0 "U1" H 5875 2015 50  0000 C CNN
F 1 "Ra_CNT_v1.0" H 5875 1924 50  0000 C CNN
F 2 "RF_Module:Ai-Thinker-Ra-01-LoRa" H 5850 1450 50  0001 C CNN
F 3 "" H 5850 1450 50  0001 C CNN
	1    5850 1450
	1    0    0    -1  
$EndComp
Wire Wire Line
	4700 1250 4850 1250
Connection ~ 4850 1250
Wire Wire Line
	4700 1150 4850 1150
Wire Wire Line
	4850 950  4850 1150
Connection ~ 4850 1150
Wire Wire Line
	4850 1150 5300 1150
$Comp
L Device:R R5
U 1 1 609BC042
P 3700 4200
F 0 "R5" V 3800 4200 50  0000 L CNN
F 1 "1k" V 3700 4150 50  0000 L CNN
F 2 "Resistor_SMD:R_0805_2012Metric" V 3630 4200 50  0001 C CNN
F 3 "~" H 3700 4200 50  0001 C CNN
	1    3700 4200
	-1   0    0    1   
$EndComp
$Comp
L Device:R R6
U 1 1 609BC88F
P 4050 4200
F 0 "R6" V 4150 4200 50  0000 L CNN
F 1 "1k" V 4050 4150 50  0000 L CNN
F 2 "Resistor_SMD:R_0805_2012Metric" V 3980 4200 50  0001 C CNN
F 3 "~" H 4050 4200 50  0001 C CNN
	1    4050 4200
	-1   0    0    1   
$EndComp
$Comp
L Device:LED D2
U 1 1 609BCA7A
P 4050 4650
F 0 "D2" H 4250 4600 50  0000 R CNN
F 1 "LED" H 4100 4750 50  0000 R CNN
F 2 "LED_SMD:LED_0805_2012Metric" H 4050 4650 50  0001 C CNN
F 3 "~" H 4050 4650 50  0001 C CNN
	1    4050 4650
	0    -1   -1   0   
$EndComp
Wire Wire Line
	3700 4500 3700 4350
Wire Wire Line
	4050 4500 4050 4350
$Comp
L power:+3.3V #PWR04
U 1 1 609C3B2A
P 3850 3900
F 0 "#PWR04" H 3850 3750 50  0001 C CNN
F 1 "+3.3V" H 3865 4073 50  0000 C CNN
F 2 "" H 3850 3900 50  0001 C CNN
F 3 "" H 3850 3900 50  0001 C CNN
	1    3850 3900
	1    0    0    -1  
$EndComp
Wire Wire Line
	3700 4050 3700 3950
Wire Wire Line
	3700 3950 3850 3950
Wire Wire Line
	4050 3950 4050 4050
Wire Wire Line
	3850 3900 3850 3950
Connection ~ 3850 3950
Wire Wire Line
	3850 3950 4050 3950
Text Label 3300 4900 0    50   ~ 0
AL1_LED
Wire Wire Line
	3300 4900 3700 4900
Wire Wire Line
	3700 4900 3700 4800
Text Label 3300 5050 0    50   ~ 0
AL2_LED
Wire Wire Line
	3300 5050 4050 5050
Wire Wire Line
	4050 5050 4050 4800
$Comp
L Device:R R7
U 1 1 609D4407
P 4800 3700
F 0 "R7" V 5000 3700 50  0000 L CNN
F 1 "100R" V 4900 3650 50  0000 L CNN
F 2 "Resistor_SMD:R_0805_2012Metric" V 4730 3700 50  0001 C CNN
F 3 "~" H 4800 3700 50  0001 C CNN
	1    4800 3700
	0    -1   -1   0   
$EndComp
Wire Wire Line
	4950 3700 5050 3700
Wire Wire Line
	5350 3350 5350 3450
Text Label 4350 3700 0    50   ~ 0
TRIG
Wire Wire Line
	4350 3700 4650 3700
Wire Wire Line
	4950 3150 4950 3450
Wire Wire Line
	4950 3450 5350 3450
Connection ~ 5350 3450
Wire Wire Line
	5350 3450 5350 3500
$Comp
L power:+5V #PWR07
U 1 1 609E732C
P 5350 2550
F 0 "#PWR07" H 5350 2400 50  0001 C CNN
F 1 "+5V" H 5365 2723 50  0000 C CNN
F 2 "" H 5350 2550 50  0001 C CNN
F 3 "" H 5350 2550 50  0001 C CNN
	1    5350 2550
	1    0    0    -1  
$EndComp
Wire Wire Line
	5350 2550 5350 2650
Wire Wire Line
	4950 2850 4950 2650
Wire Wire Line
	4950 2650 5350 2650
Connection ~ 5350 2650
Wire Wire Line
	5350 2650 5350 2750
$Comp
L Connector:Screw_Terminal_01x02 J4
U 1 1 609F1859
P 6900 3200
F 0 "J4" H 6980 3192 50  0000 L CNN
F 1 "BAT" H 6980 3101 50  0000 L CNN
F 2 "TerminalBlock:TerminalBlock_bornier-2_P5.08mm" H 6900 3200 50  0001 C CNN
F 3 "~" H 6900 3200 50  0001 C CNN
	1    6900 3200
	1    0    0    -1  
$EndComp
Text Label 6100 3450 2    50   ~ 0
COM
Wire Wire Line
	5750 3450 5750 3350
Text Label 6100 2650 2    50   ~ 0
NO
Wire Wire Line
	6100 2650 5850 2650
Wire Wire Line
	5850 2650 5850 2750
Wire Wire Line
	5750 3450 5900 3450
Text Label 6050 3300 0    50   ~ 0
COM
Text Label 6500 2850 0    50   ~ 0
NO
Wire Wire Line
	6500 2850 6700 2850
$Comp
L power:+5V #PWR09
U 1 1 60A13EC4
P 6250 3150
F 0 "#PWR09" H 6250 3000 50  0001 C CNN
F 1 "+5V" H 6265 3323 50  0000 C CNN
F 2 "" H 6250 3150 50  0001 C CNN
F 3 "" H 6250 3150 50  0001 C CNN
	1    6250 3150
	1    0    0    -1  
$EndComp
$Comp
L power:GND #PWR011
U 1 1 60A24642
P 6450 3100
F 0 "#PWR011" H 6450 2850 50  0001 C CNN
F 1 "GND" H 6450 2950 50  0000 C CNN
F 2 "" H 6450 3100 50  0001 C CNN
F 3 "" H 6450 3100 50  0001 C CNN
	1    6450 3100
	1    0    0    -1  
$EndComp
$Comp
L Connector:Screw_Terminal_01x02 J3
U 1 1 609F09E8
P 6900 2850
F 0 "J3" H 6980 2842 50  0000 L CNN
F 1 "COIL" H 6980 2751 50  0000 L CNN
F 2 "TerminalBlock:TerminalBlock_bornier-2_P5.08mm" H 6900 2850 50  0001 C CNN
F 3 "~" H 6900 2850 50  0001 C CNN
	1    6900 2850
	1    0    0    -1  
$EndComp
Wire Wire Line
	6700 3200 6600 3200
Wire Wire Line
	6600 3200 6600 3050
Wire Wire Line
	6600 2950 6700 2950
Wire Wire Line
	6450 3100 6450 3050
Wire Wire Line
	6450 3050 6600 3050
Connection ~ 6600 3050
Wire Wire Line
	6600 3050 6600 2950
Wire Wire Line
	6700 3300 6250 3300
Wire Wire Line
	6250 3300 6250 3150
Wire Wire Line
	6050 3300 6250 3300
Connection ~ 6250 3300
$Comp
L power:GND #PWR08
U 1 1 60A4E471
P 5350 4050
F 0 "#PWR08" H 5350 3800 50  0001 C CNN
F 1 "GND" H 5350 3900 50  0000 C CNN
F 2 "" H 5350 4050 50  0001 C CNN
F 3 "" H 5350 4050 50  0001 C CNN
	1    5350 4050
	1    0    0    -1  
$EndComp
Wire Wire Line
	5350 4050 5350 3900
$Comp
L power:+5V #PWR014
U 1 1 60A607B1
P 7400 850
F 0 "#PWR014" H 7400 700 50  0001 C CNN
F 1 "+5V" H 7415 1023 50  0000 C CNN
F 2 "" H 7400 850 50  0001 C CNN
F 3 "" H 7400 850 50  0001 C CNN
	1    7400 850 
	1    0    0    -1  
$EndComp
Wire Wire Line
	8750 900  8550 900 
Wire Wire Line
	7400 900  7400 850 
Wire Wire Line
	7700 1000 7700 900 
Connection ~ 7700 900 
Wire Wire Line
	7700 900  7400 900 
Wire Wire Line
	8150 1000 8150 900 
Connection ~ 8150 900 
Wire Wire Line
	8150 900  7700 900 
Wire Wire Line
	8550 1000 8550 900 
Connection ~ 8550 900 
Wire Wire Line
	8550 900  8150 900 
$Comp
L power:+3.3V #PWR024
U 1 1 60A76F62
P 9750 850
F 0 "#PWR024" H 9750 700 50  0001 C CNN
F 1 "+3.3V" H 9765 1023 50  0000 C CNN
F 2 "" H 9750 850 50  0001 C CNN
F 3 "" H 9750 850 50  0001 C CNN
	1    9750 850 
	1    0    0    -1  
$EndComp
Wire Wire Line
	9350 900  9500 900 
Wire Wire Line
	9750 900  9750 850 
Wire Wire Line
	9500 1000 9500 900 
Connection ~ 9500 900 
Wire Wire Line
	9500 900  9750 900 
$Comp
L Switch:SW_Push SW3
U 1 1 60A8428E
P 8300 2850
F 0 "SW3" V 8346 2802 50  0000 R CNN
F 1 "SW_PUSH" V 8255 2802 50  0000 R CNN
F 2 "Button_Switch_THT:SW_PUSH_6mm" H 8300 3050 50  0001 C CNN
F 3 "~" H 8300 3050 50  0001 C CNN
	1    8300 2850
	0    -1   -1   0   
$EndComp
$Comp
L Switch:SW_Push SW4
U 1 1 60A844E9
P 8900 2850
F 0 "SW4" V 8946 2802 50  0000 R CNN
F 1 "SW_PUSH" V 8855 2802 50  0000 R CNN
F 2 "Button_Switch_THT:SW_PUSH_6mm" H 8900 3050 50  0001 C CNN
F 3 "~" H 8900 3050 50  0001 C CNN
	1    8900 2850
	0    -1   -1   0   
$EndComp
$Comp
L Device:R R8
U 1 1 60A8514C
P 7700 2350
F 0 "R8" V 7800 2350 50  0000 L CNN
F 1 "10k" V 7700 2300 50  0000 L CNN
F 2 "Resistor_SMD:R_0805_2012Metric" V 7630 2350 50  0001 C CNN
F 3 "~" H 7700 2350 50  0001 C CNN
	1    7700 2350
	-1   0    0    1   
$EndComp
$Comp
L Device:R R9
U 1 1 60A856BC
P 8300 2350
F 0 "R9" V 8400 2350 50  0000 L CNN
F 1 "10k" V 8300 2300 50  0000 L CNN
F 2 "Resistor_SMD:R_0805_2012Metric" V 8230 2350 50  0001 C CNN
F 3 "~" H 8300 2350 50  0001 C CNN
	1    8300 2350
	-1   0    0    1   
$EndComp
$Comp
L Device:R R10
U 1 1 60A868C2
P 8900 2350
F 0 "R10" V 9000 2350 50  0000 L CNN
F 1 "10k" V 8900 2300 50  0000 L CNN
F 2 "Resistor_SMD:R_0805_2012Metric" V 8830 2350 50  0001 C CNN
F 3 "~" H 8900 2350 50  0001 C CNN
	1    8900 2350
	-1   0    0    1   
$EndComp
$Comp
L power:GND #PWR016
U 1 1 60A86FD0
P 7700 3150
AR Path="/60A86FD0" Ref="#PWR016"  Part="1" 
AR Path="/6187C30E/60A86FD0" Ref="#PWR?"  Part="1" 
F 0 "#PWR016" H 7700 2900 50  0001 C CNN
F 1 "GND" H 7705 2977 50  0000 C CNN
F 2 "" H 7700 3150 50  0001 C CNN
F 3 "" H 7700 3150 50  0001 C CNN
	1    7700 3150
	1    0    0    -1  
$EndComp
$Comp
L power:GND #PWR019
U 1 1 60A87319
P 8300 3150
AR Path="/60A87319" Ref="#PWR019"  Part="1" 
AR Path="/6187C30E/60A87319" Ref="#PWR?"  Part="1" 
F 0 "#PWR019" H 8300 2900 50  0001 C CNN
F 1 "GND" H 8305 2977 50  0000 C CNN
F 2 "" H 8300 3150 50  0001 C CNN
F 3 "" H 8300 3150 50  0001 C CNN
	1    8300 3150
	1    0    0    -1  
$EndComp
$Comp
L power:GND #PWR021
U 1 1 60A874C6
P 8900 3150
AR Path="/60A874C6" Ref="#PWR021"  Part="1" 
AR Path="/6187C30E/60A874C6" Ref="#PWR?"  Part="1" 
F 0 "#PWR021" H 8900 2900 50  0001 C CNN
F 1 "GND" H 8905 2977 50  0000 C CNN
F 2 "" H 8900 3150 50  0001 C CNN
F 3 "" H 8900 3150 50  0001 C CNN
	1    8900 3150
	1    0    0    -1  
$EndComp
$Comp
L power:+3.3V #PWR018
U 1 1 60A8768A
P 8300 2000
F 0 "#PWR018" H 8300 1850 50  0001 C CNN
F 1 "+3.3V" H 8315 2173 50  0000 C CNN
F 2 "" H 8300 2000 50  0001 C CNN
F 3 "" H 8300 2000 50  0001 C CNN
	1    8300 2000
	1    0    0    -1  
$EndComp
Wire Wire Line
	7700 2200 7700 2100
Wire Wire Line
	7700 2100 8300 2100
Wire Wire Line
	8900 2100 8900 2200
Wire Wire Line
	8300 2000 8300 2100
Connection ~ 8300 2100
Wire Wire Line
	8300 2100 8900 2100
Wire Wire Line
	8300 2200 8300 2100
Wire Wire Line
	7700 2650 7700 2600
Wire Wire Line
	7700 3150 7700 3050
Wire Wire Line
	8300 3150 8300 3050
Wire Wire Line
	8300 2650 8300 2600
Wire Wire Line
	8900 3150 8900 3050
Wire Wire Line
	8900 2650 8900 2600
Text Label 8050 2600 0    50   ~ 0
SW1
Text Label 8600 2600 0    50   ~ 0
SW2
Text Label 7350 2600 0    50   ~ 0
VPP
Wire Wire Line
	7350 2600 7700 2600
Connection ~ 7700 2600
Wire Wire Line
	7700 2600 7700 2500
Wire Wire Line
	8050 2600 8300 2600
Connection ~ 8300 2600
Wire Wire Line
	8300 2600 8300 2500
Wire Wire Line
	8600 2600 8900 2600
Connection ~ 8900 2600
Wire Wire Line
	8900 2600 8900 2500
Wire Notes Line
	4200 3650 4200 5150
Wire Notes Line
	4200 5150 3200 5150
Wire Notes Line
	3200 5150 3200 3650
Wire Notes Line
	3200 3650 4200 3650
Wire Notes Line
	7200 550  7200 2200
Wire Notes Line
	7200 2200 4300 2200
Wire Notes Line
	4300 2200 4300 550 
Wire Notes Line
	4300 550  7200 550 
Wire Notes Line
	9300 1750 9300 3450
Wire Notes Line
	9300 3450 7300 3450
Wire Notes Line
	7300 3450 7300 1750
Wire Notes Line
	7300 1750 9300 1750
Wire Notes Line
	9900 550  9900 1650
Wire Notes Line
	9900 1650 7300 1650
Wire Notes Line
	7300 1650 7300 550 
Wire Notes Line
	7300 550  9900 550 
$Comp
L My_Lib_KiCAD:HLS6-4100H K1
U 1 1 60B7731B
P 5550 3050
F 0 "K1" H 6000 3050 50  0000 L CNN
F 1 "HLS6-4100H" H 5350 3500 50  0000 L CNN
F 2 "My_Lib_KiCAD:HLS6-4100H" H 6000 3000 50  0001 L CNN
F 3 "http://www.sanyourelay.ca/public/products/pdf/SRD.pdf" H 5550 3050 50  0001 C CNN
	1    5550 3050
	1    0    0    -1  
$EndComp
Wire Wire Line
	5900 3350 5900 3450
Connection ~ 5900 3450
Wire Wire Line
	5900 3450 6100 3450
Wire Notes Line
	7200 2300 7200 4300
Wire Notes Line
	7200 4300 4300 4300
Wire Notes Line
	4300 4300 4300 2300
Wire Notes Line
	4300 2300 7200 2300
Wire Wire Line
	3500 2150 3850 2150
$Comp
L power:+3.3V #PWR0101
U 1 1 60BE6C50
P 3450 2500
F 0 "#PWR0101" H 3450 2350 50  0001 C CNN
F 1 "+3.3V" H 3465 2673 50  0000 C CNN
F 2 "" H 3450 2500 50  0001 C CNN
F 3 "" H 3450 2500 50  0001 C CNN
	1    3450 2500
	1    0    0    -1  
$EndComp
Wire Wire Line
	3850 1350 3500 1350
$Comp
L Mechanical:MountingHole H1
U 1 1 60CDA0E9
P 1650 3700
F 0 "H1" H 1750 3746 50  0000 L CNN
F 1 "MountingHole" H 1750 3655 50  0000 L CNN
F 2 "MountingHole:MountingHole_3mm_Pad_Via" H 1650 3700 50  0001 C CNN
F 3 "~" H 1650 3700 50  0001 C CNN
	1    1650 3700
	1    0    0    -1  
$EndComp
$EndSCHEMATC
