EESchema Schematic File Version 4
EELAYER 30 0
EELAYER END
$Descr A4 11693 8268
encoding utf-8
Sheet 2 2
Title ""
Date ""
Rev ""
Comp ""
Comment1 ""
Comment2 ""
Comment3 ""
Comment4 ""
$EndDescr
$Comp
L power:+5V #PWR?
U 1 1 61D9D28E
P 10900 2050
AR Path="/61D9D28E" Ref="#PWR?"  Part="1" 
AR Path="/6187C30E/61D9D28E" Ref="#PWR074"  Part="1" 
F 0 "#PWR074" H 10900 1900 50  0001 C CNN
F 1 "+5V" H 10915 2223 50  0000 C CNN
F 2 "" H 10900 2050 50  0001 C CNN
F 3 "" H 10900 2050 50  0001 C CNN
	1    10900 2050
	1    0    0    -1  
$EndComp
$Comp
L Connector:Screw_Terminal_01x02 J?
U 1 1 61D9D294
P 5000 1950
AR Path="/61D9D294" Ref="J?"  Part="1" 
AR Path="/6187C30E/61D9D294" Ref="J1"  Part="1" 
F 0 "J1" H 5050 1650 50  0000 C CNN
F 1 "AC13V" H 4950 1750 50  0000 C CNN
F 2 "TerminalBlock:TerminalBlock_bornier-2_P5.08mm" H 5000 1950 50  0001 C CNN
F 3 "~" H 5000 1950 50  0001 C CNN
	1    5000 1950
	-1   0    0    1   
$EndComp
$Comp
L Device:CP C?
U 1 1 61D9D29A
P 6950 2200
AR Path="/61D9D29A" Ref="C?"  Part="1" 
AR Path="/6187C30E/61D9D29A" Ref="C8"  Part="1" 
F 0 "C8" H 7068 2246 50  0000 L CNN
F 1 "10uF" H 7068 2155 50  0000 L CNN
F 2 "Capacitor_SMD:C_1206_3216Metric" H 6988 2050 50  0001 C CNN
F 3 "~" H 6950 2200 50  0001 C CNN
F 4 "C89632" H 6950 2200 50  0001 C CNN "LCSC"
	1    6950 2200
	1    0    0    -1  
$EndComp
$Comp
L Device:CP C?
U 1 1 61D9D2A0
P 7400 2200
AR Path="/61D9D2A0" Ref="C?"  Part="1" 
AR Path="/6187C30E/61D9D2A0" Ref="C9"  Part="1" 
F 0 "C9" H 7518 2246 50  0000 L CNN
F 1 "1uF" H 7518 2155 50  0000 L CNN
F 2 "Capacitor_SMD:C_0603_1608Metric" H 7438 2050 50  0001 C CNN
F 3 "~" H 7400 2200 50  0001 C CNN
F 4 "C15849" H 7400 2200 50  0001 C CNN "LCSC"
	1    7400 2200
	1    0    0    -1  
$EndComp
$Comp
L Device:C C?
U 1 1 61D9D2A6
P 7800 2200
AR Path="/61D9D2A6" Ref="C?"  Part="1" 
AR Path="/6187C30E/61D9D2A6" Ref="C10"  Part="1" 
F 0 "C10" H 7915 2246 50  0000 L CNN
F 1 "104" H 7915 2155 50  0000 L CNN
F 2 "Capacitor_SMD:C_0805_2012Metric" H 7838 2050 50  0001 C CNN
F 3 "~" H 7800 2200 50  0001 C CNN
	1    7800 2200
	1    0    0    -1  
$EndComp
$Comp
L Device:C C?
U 1 1 61D9D2AC
P 10650 2400
AR Path="/61D9D2AC" Ref="C?"  Part="1" 
AR Path="/6187C30E/61D9D2AC" Ref="C13"  Part="1" 
F 0 "C13" H 10765 2446 50  0000 L CNN
F 1 "104" H 10765 2355 50  0000 L CNN
F 2 "Capacitor_SMD:C_0805_2012Metric" H 10688 2250 50  0001 C CNN
F 3 "~" H 10650 2400 50  0001 C CNN
	1    10650 2400
	1    0    0    -1  
$EndComp
$Comp
L power:GND #PWR?
U 1 1 61D9D2B2
P 5450 2000
AR Path="/61D9D2B2" Ref="#PWR?"  Part="1" 
AR Path="/6187C30E/61D9D2B2" Ref="#PWR032"  Part="1" 
F 0 "#PWR032" H 5450 1750 50  0001 C CNN
F 1 "GND" H 5450 1850 50  0000 C CNN
F 2 "" H 5450 2000 50  0001 C CNN
F 3 "" H 5450 2000 50  0001 C CNN
	1    5450 2000
	1    0    0    -1  
$EndComp
$Comp
L Regulator_Switching:LM2596S-5 U?
U 1 1 61D9D2B8
P 8700 2050
AR Path="/61D9D2B8" Ref="U?"  Part="1" 
AR Path="/6187C30E/61D9D2B8" Ref="U9"  Part="1" 
F 0 "U9" H 8700 2417 50  0000 C CNN
F 1 "LM2596S-5" H 8700 2326 50  0000 C CNN
F 2 "Package_TO_SOT_SMD:TO-263-5_TabPin3" H 8750 1800 50  0001 L CIN
F 3 "http://www.ti.com/lit/ds/symlink/lm2596.pdf" H 8700 2050 50  0001 C CNN
	1    8700 2050
	1    0    0    -1  
$EndComp
$Comp
L Diode:1N5822 D?
U 1 1 61D9D2BE
P 9400 2400
AR Path="/61D9D2BE" Ref="D?"  Part="1" 
AR Path="/6187C30E/61D9D2BE" Ref="D11"  Part="1" 
F 0 "D11" V 9354 2480 50  0000 L CNN
F 1 "1N5824" V 9445 2480 50  0000 L CNN
F 2 "Diode_SMD:D_SMA" H 9400 2225 50  0001 C CNN
F 3 "http://www.vishay.com/docs/88526/1n5820.pdf" H 9400 2400 50  0001 C CNN
F 4 "C266553" V 9400 2400 50  0001 C CNN "LCSC"
	1    9400 2400
	0    1    1    0   
$EndComp
$Comp
L pspice:INDUCTOR L?
U 1 1 61D9D2C4
P 9850 2150
AR Path="/61D9D2C4" Ref="L?"  Part="1" 
AR Path="/6187C30E/61D9D2C4" Ref="L1"  Part="1" 
F 0 "L1" H 9850 2365 50  0000 C CNN
F 1 "33uH" H 9850 2274 50  0000 C CNN
F 2 "Inductor_SMD:L_12x12mm_H8mm" H 9850 2150 50  0001 C CNN
F 3 "~" H 9850 2150 50  0001 C CNN
F 4 "C9400" H 9850 2150 50  0001 C CNN "LCSC"
	1    9850 2150
	1    0    0    -1  
$EndComp
$Comp
L power:GND #PWR?
U 1 1 61D9D2CA
P 8100 2250
AR Path="/61D9D2CA" Ref="#PWR?"  Part="1" 
AR Path="/6187C30E/61D9D2CA" Ref="#PWR069"  Part="1" 
F 0 "#PWR069" H 8100 2000 50  0001 C CNN
F 1 "GND" H 8105 2077 50  0000 C CNN
F 2 "" H 8100 2250 50  0001 C CNN
F 3 "" H 8100 2250 50  0001 C CNN
	1    8100 2250
	1    0    0    -1  
$EndComp
Wire Wire Line
	8200 2150 8100 2150
Wire Wire Line
	8100 2150 8100 2250
$Comp
L power:GND #PWR?
U 1 1 61D9D2D2
P 8700 2450
AR Path="/61D9D2D2" Ref="#PWR?"  Part="1" 
AR Path="/6187C30E/61D9D2D2" Ref="#PWR070"  Part="1" 
F 0 "#PWR070" H 8700 2200 50  0001 C CNN
F 1 "GND" H 8705 2277 50  0000 C CNN
F 2 "" H 8700 2450 50  0001 C CNN
F 3 "" H 8700 2450 50  0001 C CNN
	1    8700 2450
	1    0    0    -1  
$EndComp
Wire Wire Line
	8700 2450 8700 2350
$Comp
L power:GND #PWR?
U 1 1 61D9D2D9
P 9400 2650
AR Path="/61D9D2D9" Ref="#PWR?"  Part="1" 
AR Path="/6187C30E/61D9D2D9" Ref="#PWR071"  Part="1" 
F 0 "#PWR071" H 9400 2400 50  0001 C CNN
F 1 "GND" H 9405 2477 50  0000 C CNN
F 2 "" H 9400 2650 50  0001 C CNN
F 3 "" H 9400 2650 50  0001 C CNN
	1    9400 2650
	1    0    0    -1  
$EndComp
Wire Wire Line
	9400 2650 9400 2550
Wire Wire Line
	9200 2150 9400 2150
Wire Wire Line
	9400 2250 9400 2150
Connection ~ 9400 2150
Wire Wire Line
	9400 2150 9600 2150
$Comp
L Device:CP C?
U 1 1 61D9D2E4
P 10350 2400
AR Path="/61D9D2E4" Ref="C?"  Part="1" 
AR Path="/6187C30E/61D9D2E4" Ref="C12"  Part="1" 
F 0 "C12" H 10100 2450 50  0000 L CNN
F 1 "220uF" H 10000 2350 50  0000 L CNN
F 2 "Capacitor_SMD:CP_Elec_6.3x7.7" H 10388 2250 50  0001 C CNN
F 3 "~" H 10350 2400 50  0001 C CNN
F 4 "C294521" H 10350 2400 50  0001 C CNN "LCSC"
	1    10350 2400
	1    0    0    -1  
$EndComp
Wire Wire Line
	10100 2150 10350 2150
Wire Wire Line
	10900 2150 10900 2050
Connection ~ 10350 2150
Wire Wire Line
	10350 2150 10650 2150
Connection ~ 10650 2150
Wire Wire Line
	10650 2150 10900 2150
$Comp
L power:GND #PWR?
U 1 1 61D9D2F0
P 10350 2650
AR Path="/61D9D2F0" Ref="#PWR?"  Part="1" 
AR Path="/6187C30E/61D9D2F0" Ref="#PWR072"  Part="1" 
F 0 "#PWR072" H 10350 2400 50  0001 C CNN
F 1 "GND" H 10355 2477 50  0000 C CNN
F 2 "" H 10350 2650 50  0001 C CNN
F 3 "" H 10350 2650 50  0001 C CNN
	1    10350 2650
	1    0    0    -1  
$EndComp
$Comp
L power:GND #PWR?
U 1 1 61D9D2F6
P 10650 2650
AR Path="/61D9D2F6" Ref="#PWR?"  Part="1" 
AR Path="/6187C30E/61D9D2F6" Ref="#PWR073"  Part="1" 
F 0 "#PWR073" H 10650 2400 50  0001 C CNN
F 1 "GND" H 10655 2477 50  0000 C CNN
F 2 "" H 10650 2650 50  0001 C CNN
F 3 "" H 10650 2650 50  0001 C CNN
	1    10650 2650
	1    0    0    -1  
$EndComp
Wire Wire Line
	10350 2150 10350 2250
Wire Wire Line
	10650 2150 10650 2250
Wire Wire Line
	10350 2650 10350 2550
Wire Wire Line
	10650 2650 10650 2550
Wire Wire Line
	9200 1950 10350 1950
Wire Wire Line
	10350 1950 10350 2150
Wire Wire Line
	6950 2050 6950 1950
Wire Wire Line
	6950 1950 7400 1950
Wire Wire Line
	7400 2050 7400 1950
Connection ~ 7400 1950
Wire Wire Line
	7400 1950 7800 1950
Wire Wire Line
	7800 2050 7800 1950
$Comp
L power:GND #PWR?
U 1 1 61D9D308
P 6950 2450
AR Path="/61D9D308" Ref="#PWR?"  Part="1" 
AR Path="/6187C30E/61D9D308" Ref="#PWR053"  Part="1" 
F 0 "#PWR053" H 6950 2200 50  0001 C CNN
F 1 "GND" H 6955 2277 50  0000 C CNN
F 2 "" H 6950 2450 50  0001 C CNN
F 3 "" H 6950 2450 50  0001 C CNN
	1    6950 2450
	1    0    0    -1  
$EndComp
$Comp
L power:GND #PWR?
U 1 1 61D9D30E
P 7400 2450
AR Path="/61D9D30E" Ref="#PWR?"  Part="1" 
AR Path="/6187C30E/61D9D30E" Ref="#PWR057"  Part="1" 
F 0 "#PWR057" H 7400 2200 50  0001 C CNN
F 1 "GND" H 7405 2277 50  0000 C CNN
F 2 "" H 7400 2450 50  0001 C CNN
F 3 "" H 7400 2450 50  0001 C CNN
	1    7400 2450
	1    0    0    -1  
$EndComp
$Comp
L power:GND #PWR?
U 1 1 61D9D314
P 7800 2450
AR Path="/61D9D314" Ref="#PWR?"  Part="1" 
AR Path="/6187C30E/61D9D314" Ref="#PWR063"  Part="1" 
F 0 "#PWR063" H 7800 2200 50  0001 C CNN
F 1 "GND" H 7805 2277 50  0000 C CNN
F 2 "" H 7800 2450 50  0001 C CNN
F 3 "" H 7800 2450 50  0001 C CNN
	1    7800 2450
	1    0    0    -1  
$EndComp
Wire Wire Line
	6950 2450 6950 2350
Wire Wire Line
	7400 2450 7400 2350
Wire Wire Line
	7800 2450 7800 2350
$Comp
L power:+12V #PWR?
U 1 1 61D9D31D
P 7800 1800
AR Path="/61D9D31D" Ref="#PWR?"  Part="1" 
AR Path="/6187C30E/61D9D31D" Ref="#PWR060"  Part="1" 
F 0 "#PWR060" H 7800 1650 50  0001 C CNN
F 1 "+12V" H 7815 1973 50  0000 C CNN
F 2 "" H 7800 1800 50  0001 C CNN
F 3 "" H 7800 1800 50  0001 C CNN
	1    7800 1800
	1    0    0    -1  
$EndComp
$Comp
L Regulator_Linear:AMS1117-3.3 U?
U 1 1 61D9D323
P 6450 3400
AR Path="/61D9D323" Ref="U?"  Part="1" 
AR Path="/6187C30E/61D9D323" Ref="U6"  Part="1" 
F 0 "U6" H 6450 3642 50  0000 C CNN
F 1 "AMS1117-3.3" H 6450 3551 50  0000 C CNN
F 2 "Package_TO_SOT_SMD:SOT-223-3_TabPin2" H 6450 3600 50  0001 C CNN
F 3 "http://www.advanced-monolithic.com/pdf/ds1117.pdf" H 6550 3150 50  0001 C CNN
F 4 "C351784" H 6450 3400 50  0001 C CNN "LCSC"
	1    6450 3400
	1    0    0    -1  
$EndComp
$Comp
L Device:CP C?
U 1 1 61D9D329
P 6900 3650
AR Path="/61D9D329" Ref="C?"  Part="1" 
AR Path="/6187C30E/61D9D329" Ref="C6"  Part="1" 
F 0 "C6" H 7018 3696 50  0000 L CNN
F 1 "10uF" H 7018 3605 50  0000 L CNN
F 2 "Capacitor_Tantalum_SMD:CP_EIA-6032-15_Kemet-U" H 6938 3500 50  0001 C CNN
F 3 "~" H 6900 3650 50  0001 C CNN
F 4 "C7209" H 6900 3650 50  0001 C CNN "LCSC"
	1    6900 3650
	1    0    0    -1  
$EndComp
$Comp
L power:+3.3V #PWR?
U 1 1 61D9D32F
P 7150 3350
AR Path="/61D9D32F" Ref="#PWR?"  Part="1" 
AR Path="/6187C30E/61D9D32F" Ref="#PWR056"  Part="1" 
F 0 "#PWR056" H 7150 3200 50  0001 C CNN
F 1 "+3.3V" H 7165 3523 50  0000 C CNN
F 2 "" H 7150 3350 50  0001 C CNN
F 3 "" H 7150 3350 50  0001 C CNN
	1    7150 3350
	1    0    0    -1  
$EndComp
Wire Wire Line
	6750 3400 6900 3400
Wire Wire Line
	7150 3400 7150 3350
Wire Wire Line
	6900 3500 6900 3400
Connection ~ 6900 3400
Wire Wire Line
	6900 3400 7150 3400
$Comp
L power:GND #PWR?
U 1 1 61D9D33A
P 6450 3900
AR Path="/61D9D33A" Ref="#PWR?"  Part="1" 
AR Path="/6187C30E/61D9D33A" Ref="#PWR048"  Part="1" 
F 0 "#PWR048" H 6450 3650 50  0001 C CNN
F 1 "GND" H 6455 3727 50  0000 C CNN
F 2 "" H 6450 3900 50  0001 C CNN
F 3 "" H 6450 3900 50  0001 C CNN
	1    6450 3900
	1    0    0    -1  
$EndComp
$Comp
L power:GND #PWR?
U 1 1 61D9D340
P 6900 3900
AR Path="/61D9D340" Ref="#PWR?"  Part="1" 
AR Path="/6187C30E/61D9D340" Ref="#PWR051"  Part="1" 
F 0 "#PWR051" H 6900 3650 50  0001 C CNN
F 1 "GND" H 6905 3727 50  0000 C CNN
F 2 "" H 6900 3900 50  0001 C CNN
F 3 "" H 6900 3900 50  0001 C CNN
	1    6900 3900
	1    0    0    -1  
$EndComp
Wire Wire Line
	6450 3900 6450 3700
Wire Wire Line
	6900 3900 6900 3800
Wire Wire Line
	4950 3400 4950 3350
Wire Wire Line
	5100 3500 5100 3400
Connection ~ 5100 3400
Wire Wire Line
	5100 3400 4950 3400
Wire Wire Line
	5550 3500 5550 3400
Connection ~ 5550 3400
Wire Wire Line
	5550 3400 5100 3400
Wire Wire Line
	5950 3500 5950 3400
Wire Wire Line
	5950 3400 5550 3400
$Comp
L power:GND #PWR?
U 1 1 61D9D351
P 5950 3900
AR Path="/61D9D351" Ref="#PWR?"  Part="1" 
AR Path="/6187C30E/61D9D351" Ref="#PWR045"  Part="1" 
F 0 "#PWR045" H 5950 3650 50  0001 C CNN
F 1 "GND" H 5955 3727 50  0000 C CNN
F 2 "" H 5950 3900 50  0001 C CNN
F 3 "" H 5950 3900 50  0001 C CNN
	1    5950 3900
	1    0    0    -1  
$EndComp
$Comp
L power:GND #PWR?
U 1 1 61D9D357
P 5550 3900
AR Path="/61D9D357" Ref="#PWR?"  Part="1" 
AR Path="/6187C30E/61D9D357" Ref="#PWR044"  Part="1" 
F 0 "#PWR044" H 5550 3650 50  0001 C CNN
F 1 "GND" H 5555 3727 50  0000 C CNN
F 2 "" H 5550 3900 50  0001 C CNN
F 3 "" H 5550 3900 50  0001 C CNN
	1    5550 3900
	1    0    0    -1  
$EndComp
$Comp
L power:GND #PWR?
U 1 1 61D9D35D
P 5100 3900
AR Path="/61D9D35D" Ref="#PWR?"  Part="1" 
AR Path="/6187C30E/61D9D35D" Ref="#PWR028"  Part="1" 
F 0 "#PWR028" H 5100 3650 50  0001 C CNN
F 1 "GND" H 5105 3727 50  0000 C CNN
F 2 "" H 5100 3900 50  0001 C CNN
F 3 "" H 5100 3900 50  0001 C CNN
	1    5100 3900
	1    0    0    -1  
$EndComp
Wire Wire Line
	5100 3900 5100 3800
Wire Wire Line
	5550 3900 5550 3800
Wire Wire Line
	5950 3900 5950 3800
$Comp
L Device:CP C?
U 1 1 61D9D366
P 5100 3650
AR Path="/61D9D366" Ref="C?"  Part="1" 
AR Path="/6187C30E/61D9D366" Ref="C2"  Part="1" 
F 0 "C2" H 5218 3696 50  0000 L CNN
F 1 "10uF" H 5218 3605 50  0000 L CNN
F 2 "Capacitor_Tantalum_SMD:CP_EIA-6032-15_Kemet-U" H 5138 3500 50  0001 C CNN
F 3 "~" H 5100 3650 50  0001 C CNN
F 4 "C7209" H 5100 3650 50  0001 C CNN "LCSC"
	1    5100 3650
	1    0    0    -1  
$EndComp
$Comp
L Device:CP C?
U 1 1 61D9D36C
P 5550 3650
AR Path="/61D9D36C" Ref="C?"  Part="1" 
AR Path="/6187C30E/61D9D36C" Ref="C3"  Part="1" 
F 0 "C3" H 5668 3696 50  0000 L CNN
F 1 "1uF" H 5668 3605 50  0000 L CNN
F 2 "Capacitor_SMD:C_0805_2012Metric" H 5588 3500 50  0001 C CNN
F 3 "~" H 5550 3650 50  0001 C CNN
F 4 "C50683" H 5550 3650 50  0001 C CNN "LCSC"
	1    5550 3650
	1    0    0    -1  
$EndComp
$Comp
L Device:C C?
U 1 1 61D9D372
P 5950 3650
AR Path="/61D9D372" Ref="C?"  Part="1" 
AR Path="/6187C30E/61D9D372" Ref="C4"  Part="1" 
F 0 "C4" H 6065 3696 50  0000 L CNN
F 1 "104" H 6065 3605 50  0000 L CNN
F 2 "Capacitor_SMD:C_0805_2012Metric" H 5988 3500 50  0001 C CNN
F 3 "~" H 5950 3650 50  0001 C CNN
	1    5950 3650
	1    0    0    -1  
$EndComp
Wire Wire Line
	6150 3400 5950 3400
Connection ~ 5950 3400
Wire Notes Line
	7350 3050 7350 4200
Wire Notes Line
	7350 4200 4850 4200
Wire Notes Line
	4850 4200 4850 3050
Wire Notes Line
	4850 3050 7350 3050
Connection ~ 6950 1950
$Comp
L Diode_Bridge:DF01M D?
U 1 1 61D9D37F
P 5850 1950
AR Path="/61D9D37F" Ref="D?"  Part="1" 
AR Path="/6187C30E/61D9D37F" Ref="D7"  Part="1" 
F 0 "D7" H 6000 2200 50  0000 L CNN
F 1 "DF01M" H 6000 2100 50  0000 L CNN
F 2 "MB6S:SOIC245P670X270-4N" H 6000 2075 50  0001 L CNN
F 3 "http://www.vishay.com/docs/88571/dfm.pdf" H 5850 1950 50  0001 C CNN
F 4 "C123768" H 5850 1950 50  0001 C CNN "LCSC"
	1    5850 1950
	1    0    0    -1  
$EndComp
$Comp
L Device:CP C?
U 1 1 61D9D385
P 6450 2200
AR Path="/61D9D385" Ref="C?"  Part="1" 
AR Path="/6187C30E/61D9D385" Ref="C5"  Part="1" 
F 0 "C5" H 6568 2246 50  0000 L CNN
F 1 "470uF" H 6568 2155 50  0000 L CNN
F 2 "My_Lib_KiCAD:CP_Elec_16x16.5" H 6488 2050 50  0001 C CNN
F 3 "~" H 6450 2200 50  0001 C CNN
F 4 "C239252" H 6450 2200 50  0001 C CNN "LCSC"
	1    6450 2200
	1    0    0    -1  
$EndComp
Wire Wire Line
	6450 2050 6450 1950
Wire Wire Line
	6450 1950 6950 1950
$Comp
L power:GND #PWR?
U 1 1 61D9D38D
P 6450 2450
AR Path="/61D9D38D" Ref="#PWR?"  Part="1" 
AR Path="/6187C30E/61D9D38D" Ref="#PWR046"  Part="1" 
F 0 "#PWR046" H 6450 2200 50  0001 C CNN
F 1 "GND" H 6455 2277 50  0000 C CNN
F 2 "" H 6450 2450 50  0001 C CNN
F 3 "" H 6450 2450 50  0001 C CNN
	1    6450 2450
	1    0    0    -1  
$EndComp
Wire Wire Line
	6450 2450 6450 2350
Wire Wire Line
	8200 1950 7800 1950
Connection ~ 7800 1950
Wire Wire Line
	7800 1800 7800 1950
Wire Wire Line
	5550 1950 5450 1950
Wire Wire Line
	5450 1950 5450 2000
Wire Wire Line
	5200 1850 5300 1850
Wire Wire Line
	5300 1850 5300 1550
Wire Wire Line
	5300 1550 5850 1550
Wire Wire Line
	5850 1550 5850 1650
Wire Wire Line
	5200 1950 5300 1950
Wire Wire Line
	5300 1950 5300 2350
Wire Wire Line
	5300 2350 5850 2350
Wire Wire Line
	5850 2350 5850 2250
Wire Wire Line
	6150 1950 6450 1950
Connection ~ 6450 1950
Wire Notes Line
	11100 2950 4850 2950
Wire Notes Line
	4850 2950 4850 1350
Wire Notes Line
	4850 1350 11100 1350
Wire Notes Line
	11100 1350 11100 2950
$Comp
L power:+5V #PWR?
U 1 1 61D9D3A7
P 4950 3350
AR Path="/61D9D3A7" Ref="#PWR?"  Part="1" 
AR Path="/6187C30E/61D9D3A7" Ref="#PWR027"  Part="1" 
F 0 "#PWR027" H 4950 3200 50  0001 C CNN
F 1 "+5V" H 4965 3523 50  0000 C CNN
F 2 "" H 4950 3350 50  0001 C CNN
F 3 "" H 4950 3350 50  0001 C CNN
	1    4950 3350
	1    0    0    -1  
$EndComp
Text Notes 4950 1450 0    50   ~ 0
Power Supply
$Comp
L power:+12V #PWR?
U 1 1 61D9D3AE
P 3250 2900
AR Path="/61D9D3AE" Ref="#PWR?"  Part="1" 
AR Path="/6187C30E/61D9D3AE" Ref="#PWR022"  Part="1" 
F 0 "#PWR022" H 3250 2750 50  0001 C CNN
F 1 "+12V" H 3265 3073 50  0000 C CNN
F 2 "" H 3250 2900 50  0001 C CNN
F 3 "" H 3250 2900 50  0001 C CNN
	1    3250 2900
	1    0    0    -1  
$EndComp
Wire Wire Line
	3250 4350 3250 4100
$Comp
L power:GND #PWR?
U 1 1 61D9D3C1
P 3250 4350
AR Path="/61D9D3C1" Ref="#PWR?"  Part="1" 
AR Path="/6187C30E/61D9D3C1" Ref="#PWR026"  Part="1" 
F 0 "#PWR026" H 3250 4100 50  0001 C CNN
F 1 "GND" H 3255 4177 50  0000 C CNN
F 2 "" H 3250 4350 50  0001 C CNN
F 3 "" H 3250 4350 50  0001 C CNN
	1    3250 4350
	1    0    0    -1  
$EndComp
Wire Wire Line
	2800 4350 2800 4250
$Comp
L power:GND #PWR?
U 1 1 61D9D3C8
P 2800 4350
AR Path="/61D9D3C8" Ref="#PWR?"  Part="1" 
AR Path="/6187C30E/61D9D3C8" Ref="#PWR019"  Part="1" 
F 0 "#PWR019" H 2800 4100 50  0001 C CNN
F 1 "GND" H 2805 4177 50  0000 C CNN
F 2 "" H 2800 4350 50  0001 C CNN
F 3 "" H 2800 4350 50  0001 C CNN
	1    2800 4350
	1    0    0    -1  
$EndComp
Wire Wire Line
	2800 3900 2950 3900
Wire Wire Line
	2800 3950 2800 3900
Connection ~ 2800 3900
Wire Wire Line
	2650 3900 2800 3900
$Comp
L Device:R R?
U 1 1 61D9D3D3
P 2800 4100
AR Path="/61D9D3D3" Ref="R?"  Part="1" 
AR Path="/6187C30E/61D9D3D3" Ref="R50"  Part="1" 
F 0 "R50" H 2600 4150 50  0000 L CNN
F 1 "4.7k" H 2600 4050 50  0000 L CNN
F 2 "Resistor_SMD:R_0805_2012Metric" V 2730 4100 50  0001 C CNN
F 3 "~" H 2800 4100 50  0001 C CNN
	1    2800 4100
	1    0    0    -1  
$EndComp
$Comp
L Device:R R?
U 1 1 61D9D3D9
P 2500 3900
AR Path="/61D9D3D9" Ref="R?"  Part="1" 
AR Path="/6187C30E/61D9D3D9" Ref="R48"  Part="1" 
F 0 "R48" V 2600 3850 50  0000 L CNN
F 1 "10k" V 2500 3850 50  0000 L CNN
F 2 "Resistor_SMD:R_0805_2012Metric" V 2430 3900 50  0001 C CNN
F 3 "~" H 2500 3900 50  0001 C CNN
	1    2500 3900
	0    -1   -1   0   
$EndComp
$Comp
L power:+12V #PWR?
U 1 1 61D9D3DF
P 3250 1050
AR Path="/61D9D3DF" Ref="#PWR?"  Part="1" 
AR Path="/6187C30E/61D9D3DF" Ref="#PWR020"  Part="1" 
F 0 "#PWR020" H 3250 900 50  0001 C CNN
F 1 "+12V" H 3265 1223 50  0000 C CNN
F 2 "" H 3250 1050 50  0001 C CNN
F 3 "" H 3250 1050 50  0001 C CNN
	1    3250 1050
	1    0    0    -1  
$EndComp
Wire Wire Line
	3250 2450 3250 2200
$Comp
L power:GND #PWR?
U 1 1 61D9D3F2
P 3250 2450
AR Path="/61D9D3F2" Ref="#PWR?"  Part="1" 
AR Path="/6187C30E/61D9D3F2" Ref="#PWR021"  Part="1" 
F 0 "#PWR021" H 3250 2200 50  0001 C CNN
F 1 "GND" H 3255 2277 50  0000 C CNN
F 2 "" H 3250 2450 50  0001 C CNN
F 3 "" H 3250 2450 50  0001 C CNN
	1    3250 2450
	1    0    0    -1  
$EndComp
Wire Wire Line
	2800 2450 2800 2350
$Comp
L power:GND #PWR?
U 1 1 61D9D3F9
P 2800 2450
AR Path="/61D9D3F9" Ref="#PWR?"  Part="1" 
AR Path="/6187C30E/61D9D3F9" Ref="#PWR015"  Part="1" 
F 0 "#PWR015" H 2800 2200 50  0001 C CNN
F 1 "GND" H 2805 2277 50  0000 C CNN
F 2 "" H 2800 2450 50  0001 C CNN
F 3 "" H 2800 2450 50  0001 C CNN
	1    2800 2450
	1    0    0    -1  
$EndComp
Wire Wire Line
	2800 2000 2950 2000
Wire Wire Line
	2800 2050 2800 2000
Connection ~ 2800 2000
Wire Wire Line
	2650 2000 2800 2000
$Comp
L Device:R R?
U 1 1 61D9D404
P 2800 2200
AR Path="/61D9D404" Ref="R?"  Part="1" 
AR Path="/6187C30E/61D9D404" Ref="R49"  Part="1" 
F 0 "R49" H 2600 2250 50  0000 L CNN
F 1 "4.7k" H 2600 2150 50  0000 L CNN
F 2 "Resistor_SMD:R_0805_2012Metric" V 2730 2200 50  0001 C CNN
F 3 "~" H 2800 2200 50  0001 C CNN
	1    2800 2200
	1    0    0    -1  
$EndComp
$Comp
L Device:R R?
U 1 1 61D9D40A
P 2500 2000
AR Path="/61D9D40A" Ref="R?"  Part="1" 
AR Path="/6187C30E/61D9D40A" Ref="R45"  Part="1" 
F 0 "R45" V 2600 1950 50  0000 L CNN
F 1 "10k" V 2500 1950 50  0000 L CNN
F 2 "Resistor_SMD:R_0805_2012Metric" V 2430 2000 50  0001 C CNN
F 3 "~" H 2500 2000 50  0001 C CNN
	1    2500 2000
	0    -1   -1   0   
$EndComp
$Comp
L Isolator:PC817 U?
U 1 1 61D9D410
P 1950 1900
AR Path="/61D9D410" Ref="U?"  Part="1" 
AR Path="/6187C30E/61D9D410" Ref="U1"  Part="1" 
F 0 "U1" H 1950 2225 50  0000 C CNN
F 1 "PC817" H 1950 2134 50  0000 C CNN
F 2 "PC81713NIP0X:SOT254P1025X400-4N" H 1750 1700 50  0001 L CIN
F 3 "http://www.soselectronic.cz/a_info/resource/d/pc817.pdf" H 1950 1900 50  0001 L CNN
	1    1950 1900
	1    0    0    -1  
$EndComp
$Comp
L Isolator:PC817 U?
U 1 1 61D9D416
P 1950 3800
AR Path="/61D9D416" Ref="U?"  Part="1" 
AR Path="/6187C30E/61D9D416" Ref="U2"  Part="1" 
F 0 "U2" H 1950 4125 50  0000 C CNN
F 1 "PC817" H 1950 4034 50  0000 C CNN
F 2 "PC81713NIP0X:SOT254P1025X400-4N" H 1750 3600 50  0001 L CIN
F 3 "http://www.soselectronic.cz/a_info/resource/d/pc817.pdf" H 1950 3800 50  0001 L CNN
	1    1950 3800
	1    0    0    -1  
$EndComp
Wire Wire Line
	2350 2000 2250 2000
$Comp
L power:+12V #PWR?
U 1 1 61D9D41D
P 2350 1600
AR Path="/61D9D41D" Ref="#PWR?"  Part="1" 
AR Path="/6187C30E/61D9D41D" Ref="#PWR07"  Part="1" 
F 0 "#PWR07" H 2350 1450 50  0001 C CNN
F 1 "+12V" H 2365 1773 50  0000 C CNN
F 2 "" H 2350 1600 50  0001 C CNN
F 3 "" H 2350 1600 50  0001 C CNN
	1    2350 1600
	1    0    0    -1  
$EndComp
Wire Wire Line
	2250 1800 2350 1800
Wire Wire Line
	2350 1800 2350 1600
$Comp
L Device:R R?
U 1 1 61D9D425
P 1400 1800
AR Path="/61D9D425" Ref="R?"  Part="1" 
AR Path="/6187C30E/61D9D425" Ref="R39"  Part="1" 
F 0 "R39" V 1450 1600 50  0000 L CNN
F 1 "220R" V 1400 1700 50  0000 L CNN
F 2 "Resistor_SMD:R_0805_2012Metric" V 1330 1800 50  0001 C CNN
F 3 "~" H 1400 1800 50  0001 C CNN
	1    1400 1800
	0    -1   -1   0   
$EndComp
Wire Wire Line
	1000 1800 1250 1800
Wire Wire Line
	1550 1800 1650 1800
$Comp
L power:GND #PWR?
U 1 1 61D9D42D
P 1550 2500
AR Path="/61D9D42D" Ref="#PWR?"  Part="1" 
AR Path="/6187C30E/61D9D42D" Ref="#PWR04"  Part="1" 
F 0 "#PWR04" H 1550 2250 50  0001 C CNN
F 1 "GND" H 1555 2327 50  0000 C CNN
F 2 "" H 1550 2500 50  0001 C CNN
F 3 "" H 1550 2500 50  0001 C CNN
	1    1550 2500
	1    0    0    -1  
$EndComp
Wire Wire Line
	1550 2500 1550 2000
Wire Wire Line
	1550 2000 1650 2000
Wire Wire Line
	2250 3900 2350 3900
$Comp
L power:+12V #PWR?
U 1 1 61D9D436
P 2400 3450
AR Path="/61D9D436" Ref="#PWR?"  Part="1" 
AR Path="/6187C30E/61D9D436" Ref="#PWR010"  Part="1" 
F 0 "#PWR010" H 2400 3300 50  0001 C CNN
F 1 "+12V" H 2415 3623 50  0000 C CNN
F 2 "" H 2400 3450 50  0001 C CNN
F 3 "" H 2400 3450 50  0001 C CNN
	1    2400 3450
	1    0    0    -1  
$EndComp
Wire Wire Line
	2250 3700 2400 3700
Wire Wire Line
	2400 3700 2400 3450
$Comp
L Device:R R?
U 1 1 61D9D43E
P 1400 3700
AR Path="/61D9D43E" Ref="R?"  Part="1" 
AR Path="/6187C30E/61D9D43E" Ref="R43"  Part="1" 
F 0 "R43" V 1450 3500 50  0000 L CNN
F 1 "220R" V 1400 3600 50  0000 L CNN
F 2 "Resistor_SMD:R_0805_2012Metric" V 1330 3700 50  0001 C CNN
F 3 "~" H 1400 3700 50  0001 C CNN
	1    1400 3700
	0    -1   -1   0   
$EndComp
Wire Wire Line
	1000 3700 1250 3700
Wire Wire Line
	1550 3700 1650 3700
$Comp
L power:GND #PWR?
U 1 1 61D9D446
P 1550 4350
AR Path="/61D9D446" Ref="#PWR?"  Part="1" 
AR Path="/6187C30E/61D9D446" Ref="#PWR05"  Part="1" 
F 0 "#PWR05" H 1550 4100 50  0001 C CNN
F 1 "GND" H 1555 4177 50  0000 C CNN
F 2 "" H 1550 4350 50  0001 C CNN
F 3 "" H 1550 4350 50  0001 C CNN
	1    1550 4350
	1    0    0    -1  
$EndComp
Wire Wire Line
	1550 4350 1550 3900
Wire Wire Line
	1550 3900 1650 3900
$Comp
L Relay:SANYOU_SRD_Form_C K?
U 1 1 61D9D44E
P 4000 1450
AR Path="/61D9D44E" Ref="K?"  Part="1" 
AR Path="/6187C30E/61D9D44E" Ref="K1"  Part="1" 
F 0 "K1" H 4430 1496 50  0000 L CNN
F 1 "T93" H 4430 1405 50  0000 L CNN
F 2 "SLA-12VDC-SL-C(T93):RELAY_SLA-12VDC-SL-C" H 4450 1400 50  0001 L CNN
F 3 "http://www.sanyourelay.ca/public/products/pdf/SRD.pdf" H 4000 1450 50  0001 C CNN
	1    4000 1450
	1    0    0    -1  
$EndComp
Wire Wire Line
	3250 1600 3250 1750
Wire Wire Line
	3250 3500 3250 3650
$Comp
L Relay:SANYOU_SRD_Form_C K?
U 1 1 61D9D456
P 4000 3350
AR Path="/61D9D456" Ref="K?"  Part="1" 
AR Path="/6187C30E/61D9D456" Ref="K2"  Part="1" 
F 0 "K2" H 4430 3396 50  0000 L CNN
F 1 "T93" H 4430 3305 50  0000 L CNN
F 2 "SLA-12VDC-SL-C(T93):RELAY_SLA-12VDC-SL-C" H 4450 3300 50  0001 L CNN
F 3 "http://www.sanyourelay.ca/public/products/pdf/SRD.pdf" H 4000 3350 50  0001 C CNN
	1    4000 3350
	1    0    0    -1  
$EndComp
$Comp
L Device:R R?
U 1 1 61D9D45C
P 3000 3100
AR Path="/61D9D45C" Ref="R?"  Part="1" 
AR Path="/6187C30E/61D9D45C" Ref="R52"  Part="1" 
F 0 "R52" H 2800 3150 50  0000 L CNN
F 1 "1k" H 2800 3050 50  0000 L CNN
F 2 "Resistor_SMD:R_0805_2012Metric" V 2930 3100 50  0001 C CNN
F 3 "~" H 3000 3100 50  0001 C CNN
	1    3000 3100
	1    0    0    -1  
$EndComp
$Comp
L Device:LED D?
U 1 1 61D9D462
P 3000 3450
AR Path="/61D9D462" Ref="D?"  Part="1" 
AR Path="/6187C30E/61D9D462" Ref="D3"  Part="1" 
F 0 "D3" V 3050 3650 50  0000 R CNN
F 1 "LED" V 2950 3700 50  0000 R CNN
F 2 "LED_SMD:LED_1206_3216Metric" H 3000 3450 50  0001 C CNN
F 3 "~" H 3000 3450 50  0001 C CNN
F 4 "C192677" V 3000 3450 50  0001 C CNN "LCSC"
	1    3000 3450
	0    -1   -1   0   
$EndComp
Wire Wire Line
	3250 1050 3250 1100
Wire Wire Line
	3800 1750 3250 1750
Connection ~ 3250 1750
Wire Wire Line
	3250 1750 3250 1800
$Comp
L Device:R R?
U 1 1 61D9D46C
P 3000 1250
AR Path="/61D9D46C" Ref="R?"  Part="1" 
AR Path="/6187C30E/61D9D46C" Ref="R51"  Part="1" 
F 0 "R51" H 2800 1300 50  0000 L CNN
F 1 "1k" H 2800 1200 50  0000 L CNN
F 2 "Resistor_SMD:R_0805_2012Metric" V 2930 1250 50  0001 C CNN
F 3 "~" H 3000 1250 50  0001 C CNN
	1    3000 1250
	1    0    0    -1  
$EndComp
$Comp
L Device:LED D?
U 1 1 61D9D472
P 3000 1600
AR Path="/61D9D472" Ref="D?"  Part="1" 
AR Path="/6187C30E/61D9D472" Ref="D2"  Part="1" 
F 0 "D2" V 3050 1800 50  0000 R CNN
F 1 "LED" V 2950 1850 50  0000 R CNN
F 2 "LED_SMD:LED_1206_3216Metric" H 3000 1600 50  0001 C CNN
F 3 "~" H 3000 1600 50  0001 C CNN
F 4 "C192677" V 3000 1600 50  0001 C CNN "LCSC"
	1    3000 1600
	0    -1   -1   0   
$EndComp
Wire Wire Line
	3000 1450 3000 1400
Wire Wire Line
	3000 1100 3250 1100
Connection ~ 3250 1100
Wire Wire Line
	3000 1750 3250 1750
Wire Wire Line
	3250 1100 3250 1300
Wire Wire Line
	3250 1100 3800 1100
Wire Wire Line
	3800 1100 3800 1150
Wire Wire Line
	3250 2900 3250 2950
Wire Wire Line
	3000 3600 3000 3650
Wire Wire Line
	3000 3650 3250 3650
Connection ~ 3250 3650
Wire Wire Line
	3250 3650 3250 3700
Wire Wire Line
	3800 3650 3250 3650
Wire Wire Line
	3800 3050 3800 2950
Wire Wire Line
	3800 2950 3250 2950
Connection ~ 3250 2950
Wire Wire Line
	3250 2950 3250 3200
Wire Wire Line
	3000 2950 3250 2950
Wire Wire Line
	3000 3300 3000 3250
Text HLabel 1000 1800 0    50   Input ~ 0
RLY1
Text HLabel 1000 3700 0    50   Input ~ 0
RLY2
$Comp
L Device:Q_NPN_BCE Q?
U 1 1 62458089
P 3150 3900
AR Path="/62458089" Ref="Q?"  Part="1" 
AR Path="/6187C30E/62458089" Ref="Q4"  Part="1" 
F 0 "Q4" H 3341 3946 50  0000 L CNN
F 1 "D882" H 3341 3855 50  0000 L CNN
F 2 "Package_TO_SOT_SMD:SOT-223" H 3350 4000 50  0001 C CNN
F 3 "~" H 3150 3900 50  0001 C CNN
F 4 "C65836" H 3150 3900 50  0001 C CNN "LCSC"
	1    3150 3900
	1    0    0    -1  
$EndComp
$Comp
L Device:Q_NPN_BCE Q?
U 1 1 6245C094
P 3150 2000
AR Path="/6245C094" Ref="Q?"  Part="1" 
AR Path="/6187C30E/6245C094" Ref="Q3"  Part="1" 
F 0 "Q3" H 3341 2046 50  0000 L CNN
F 1 "D882" H 3341 1955 50  0000 L CNN
F 2 "Package_TO_SOT_SMD:SOT-223" H 3350 2100 50  0001 C CNN
F 3 "~" H 3150 2000 50  0001 C CNN
F 4 "C65836" H 3150 2000 50  0001 C CNN "LCSC"
	1    3150 2000
	1    0    0    -1  
$EndComp
$Comp
L Diode:1N4148 D?
U 1 1 62542D75
P 3250 1450
AR Path="/62542D75" Ref="D?"  Part="1" 
AR Path="/6187C30E/62542D75" Ref="D4"  Part="1" 
F 0 "D4" V 3100 1450 50  0000 L CNN
F 1 "1N4148" V 3350 1450 50  0000 L CNN
F 2 "Diode_SMD:D_SOD-123" H 3250 1275 50  0001 C CNN
F 3 "https://assets.nexperia.com/documents/data-sheet/1N4148_1N4448.pdf" H 3250 1450 50  0001 C CNN
F 4 "C2099" V 3250 1450 50  0001 C CNN "LCSC"
	1    3250 1450
	0    1    1    0   
$EndComp
$Comp
L Diode:1N4148 D?
U 1 1 62546EB2
P 3250 3350
AR Path="/62546EB2" Ref="D?"  Part="1" 
AR Path="/6187C30E/62546EB2" Ref="D6"  Part="1" 
F 0 "D6" V 3100 3350 50  0000 L CNN
F 1 "1N4148" V 3350 3350 50  0000 L CNN
F 2 "Diode_SMD:D_SOD-123" H 3250 3175 50  0001 C CNN
F 3 "https://assets.nexperia.com/documents/data-sheet/1N4148_1N4448.pdf" H 3250 3350 50  0001 C CNN
F 4 "C2099" V 3250 3350 50  0001 C CNN "LCSC"
	1    3250 3350
	0    1    1    0   
$EndComp
$EndSCHEMATC
