EESchema Schematic File Version 4
EELAYER 30 0
EELAYER END
$Descr A4 11693 8268
encoding utf-8
Sheet 1 2
Title "WPAS Lite SMD v0.1"
Date "2021-02-08"
Rev "0"
Comp "Everything Electronic"
Comment1 ""
Comment2 ""
Comment3 ""
Comment4 ""
$EndDescr
$Comp
L Device:C C1
U 1 1 600626EF
P 4850 2350
F 0 "C1" H 4965 2396 50  0000 L CNN
F 1 "104" H 4965 2305 50  0000 L CNN
F 2 "Capacitor_SMD:C_0805_2012Metric" H 4888 2200 50  0001 C CNN
F 3 "~" H 4850 2350 50  0001 C CNN
	1    4850 2350
	1    0    0    -1  
$EndComp
$Comp
L power:GND #PWR02
U 1 1 5FB0A6B6
P 4850 2550
F 0 "#PWR02" H 4850 2300 50  0001 C CNN
F 1 "GND" H 4855 2377 50  0000 C CNN
F 2 "" H 4850 2550 50  0001 C CNN
F 3 "" H 4850 2550 50  0001 C CNN
	1    4850 2550
	1    0    0    -1  
$EndComp
Wire Wire Line
	4850 2100 4850 2200
Wire Wire Line
	4850 2500 4850 2550
$Comp
L Mechanical:MountingHole H1
U 1 1 60062701
P 9800 6650
F 0 "H1" H 9900 6696 50  0000 L CNN
F 1 "MountingHole" H 9900 6605 50  0000 L CNN
F 2 "MountingHole:MountingHole_3mm" H 9800 6650 50  0001 C CNN
F 3 "~" H 9800 6650 50  0001 C CNN
	1    9800 6650
	1    0    0    -1  
$EndComp
$Comp
L Mechanical:MountingHole H2
U 1 1 600722EB
P 9800 6900
F 0 "H2" H 9900 6946 50  0000 L CNN
F 1 "MountingHole" H 9900 6855 50  0000 L CNN
F 2 "MountingHole:MountingHole_3mm" H 9800 6900 50  0001 C CNN
F 3 "~" H 9800 6900 50  0001 C CNN
	1    9800 6900
	1    0    0    -1  
$EndComp
$Comp
L Mechanical:MountingHole H3
U 1 1 60062703
P 9800 7150
F 0 "H3" H 9900 7196 50  0000 L CNN
F 1 "MountingHole" H 9900 7105 50  0000 L CNN
F 2 "MountingHole:MountingHole_3mm" H 9800 7150 50  0001 C CNN
F 3 "~" H 9800 7150 50  0001 C CNN
	1    9800 7150
	1    0    0    -1  
$EndComp
$Comp
L Mechanical:MountingHole H4
U 1 1 60072588
P 9800 7400
F 0 "H4" H 9900 7446 50  0000 L CNN
F 1 "MountingHole" H 9900 7355 50  0000 L CNN
F 2 "MountingHole:MountingHole_3mm" H 9800 7400 50  0001 C CNN
F 3 "~" H 9800 7400 50  0001 C CNN
	1    9800 7400
	1    0    0    -1  
$EndComp
$Comp
L power:GND #PWR08
U 1 1 5FEB5C8B
P 4450 1950
F 0 "#PWR08" H 4450 1700 50  0001 C CNN
F 1 "GND" H 4455 1777 50  0000 C CNN
F 2 "" H 4450 1950 50  0001 C CNN
F 3 "" H 4450 1950 50  0001 C CNN
	1    4450 1950
	1    0    0    -1  
$EndComp
Wire Wire Line
	4450 1950 4450 1850
$Comp
L power:GND #PWR013
U 1 1 600626F4
P 7150 2000
F 0 "#PWR013" H 7150 1750 50  0001 C CNN
F 1 "GND" H 7155 1827 50  0000 C CNN
F 2 "" H 7150 2000 50  0001 C CNN
F 3 "" H 7150 2000 50  0001 C CNN
	1    7150 2000
	1    0    0    -1  
$EndComp
Text Label 7000 1750 0    50   ~ 0
RXD
Text Label 7000 1850 0    50   ~ 0
TXD
$Comp
L Device:R R2
U 1 1 5FEE94B5
P 4800 1150
F 0 "R2" H 4900 1050 50  0000 L CNN
F 1 "10k" H 4850 1150 50  0000 L CNN
F 2 "Resistor_SMD:R_0805_2012Metric" V 4730 1150 50  0001 C CNN
F 3 "~" H 4800 1150 50  0001 C CNN
	1    4800 1150
	-1   0    0    1   
$EndComp
$Comp
L Device:R R3
U 1 1 5FEEA206
P 5050 1150
F 0 "R3" H 5150 1050 50  0000 L CNN
F 1 "10k" H 5100 1150 50  0000 L CNN
F 2 "Resistor_SMD:R_0805_2012Metric" V 4980 1150 50  0001 C CNN
F 3 "~" H 5050 1150 50  0001 C CNN
	1    5050 1150
	-1   0    0    1   
$EndComp
$Comp
L power:GND #PWR025
U 1 1 5FEEA735
P 5700 2800
F 0 "#PWR025" H 5700 2550 50  0001 C CNN
F 1 "GND" H 5705 2627 50  0000 C CNN
F 2 "" H 5700 2800 50  0001 C CNN
F 3 "" H 5700 2800 50  0001 C CNN
	1    5700 2800
	1    0    0    -1  
$EndComp
Wire Wire Line
	5700 2800 5700 2700
$Comp
L power:+3.3V #PWR023
U 1 1 5FEEE3E8
P 5700 850
F 0 "#PWR023" H 5700 700 50  0001 C CNN
F 1 "+3.3V" H 5715 1023 50  0000 C CNN
F 2 "" H 5700 850 50  0001 C CNN
F 3 "" H 5700 850 50  0001 C CNN
	1    5700 850 
	1    0    0    -1  
$EndComp
Wire Wire Line
	5050 1300 5050 1400
Wire Wire Line
	5050 1400 5100 1400
Wire Wire Line
	4800 1300 4800 1600
Wire Wire Line
	4800 1600 5100 1600
$Comp
L power:+3.3V #PWR016
U 1 1 5FEFEF6B
P 5050 850
F 0 "#PWR016" H 5050 700 50  0001 C CNN
F 1 "+3.3V" H 5065 1023 50  0000 C CNN
F 2 "" H 5050 850 50  0001 C CNN
F 3 "" H 5050 850 50  0001 C CNN
	1    5050 850 
	1    0    0    -1  
$EndComp
Wire Wire Line
	5050 1000 5050 900 
Wire Wire Line
	4800 1000 4800 900 
Wire Wire Line
	4800 900  5050 900 
Connection ~ 5050 900 
Wire Wire Line
	5050 900  5050 850 
Wire Wire Line
	5700 850  5700 900 
$Comp
L Switch:SW_Push SW1
U 1 1 5FEA2066
P 4450 1650
F 0 "SW1" V 4496 1602 50  0000 R CNN
F 1 "RST" V 4405 1602 50  0000 R CNN
F 2 "Button_Switch_THT:SW_PUSH_6mm" H 4450 1850 50  0001 C CNN
F 3 "~" H 4450 1850 50  0001 C CNN
	1    4450 1650
	0    -1   -1   0   
$EndComp
Wire Wire Line
	5050 1400 4450 1400
Wire Wire Line
	4450 1400 4450 1450
Connection ~ 5050 1400
$Comp
L power:GND #PWR035
U 1 1 600B2750
P 7150 2550
F 0 "#PWR035" H 7150 2300 50  0001 C CNN
F 1 "GND" H 7155 2377 50  0000 C CNN
F 2 "" H 7150 2550 50  0001 C CNN
F 3 "" H 7150 2550 50  0001 C CNN
	1    7150 2550
	1    0    0    -1  
$EndComp
$Comp
L Device:LED D5
U 1 1 600B2756
P 6950 2400
F 0 "D5" H 7150 2350 50  0000 R CNN
F 1 "LED" H 7000 2500 50  0000 R CNN
F 2 "LED_SMD:LED_0805_2012Metric" H 6950 2400 50  0001 C CNN
F 3 "~" H 6950 2400 50  0001 C CNN
	1    6950 2400
	-1   0    0    1   
$EndComp
Wire Wire Line
	6800 2400 6750 2400
Text Label 6550 1500 2    50   ~ 0
TXD
Wire Wire Line
	6550 1500 6300 1500
Text Label 6550 1700 2    50   ~ 0
RXD
Wire Wire Line
	6550 1700 6300 1700
$Comp
L Device:R R5
U 1 1 6010D408
P 6500 1150
F 0 "R5" H 6600 1050 50  0000 L CNN
F 1 "10k" H 6550 1150 50  0000 L CNN
F 2 "Resistor_SMD:R_0805_2012Metric" V 6430 1150 50  0001 C CNN
F 3 "~" H 6500 1150 50  0001 C CNN
	1    6500 1150
	-1   0    0    1   
$EndComp
Wire Wire Line
	6300 1400 6500 1400
Wire Wire Line
	6500 1400 6500 1300
Wire Wire Line
	6500 1000 6500 900 
Wire Wire Line
	6500 900  5700 900 
Connection ~ 5700 900 
Wire Wire Line
	5700 900  5700 1200
$Comp
L Device:R R6
U 1 1 6011D8D0
P 6600 2300
F 0 "R6" V 6550 2050 50  0000 L CNN
F 1 "10k" V 6600 2250 50  0000 L CNN
F 2 "Resistor_SMD:R_0805_2012Metric" V 6530 2300 50  0001 C CNN
F 3 "~" H 6600 2300 50  0001 C CNN
	1    6600 2300
	0    1    1    0   
$EndComp
$Comp
L power:GND #PWR036
U 1 1 601260D7
P 7300 2550
F 0 "#PWR036" H 7300 2300 50  0001 C CNN
F 1 "GND" H 7305 2377 50  0000 C CNN
F 2 "" H 7300 2550 50  0001 C CNN
F 3 "" H 7300 2550 50  0001 C CNN
	1    7300 2550
	1    0    0    -1  
$EndComp
Text Label 6650 1800 2    50   ~ 0
SDA_3.3V
$Comp
L Switch:SW_Push SW2
U 1 1 601440B4
P 6800 1650
F 0 "SW2" V 6846 1602 50  0000 R CNN
F 1 "PG" V 6755 1602 50  0000 R CNN
F 2 "Button_Switch_THT:SW_PUSH_6mm" H 6800 1850 50  0001 C CNN
F 3 "~" H 6800 1850 50  0001 C CNN
	1    6800 1650
	0    1    1    0   
$EndComp
$Comp
L power:GND #PWR033
U 1 1 601596F6
P 6800 1950
F 0 "#PWR033" H 6800 1700 50  0001 C CNN
F 1 "GND" H 6805 1777 50  0000 C CNN
F 2 "" H 6800 1950 50  0001 C CNN
F 3 "" H 6800 1950 50  0001 C CNN
	1    6800 1950
	1    0    0    -1  
$EndComp
Wire Wire Line
	6800 1950 6800 1850
$Comp
L Device:Buzzer BZ1
U 1 1 60163BE0
P 5700 3550
F 0 "BZ1" H 5700 3750 50  0000 L CNN
F 1 "Buzzer" H 5700 3350 50  0000 L CNN
F 2 "Buzzer_Beeper:Buzzer_12x9.5RM7.6" V 5675 3650 50  0001 C CNN
F 3 "~" V 5675 3650 50  0001 C CNN
	1    5700 3550
	1    0    0    -1  
$EndComp
$Comp
L Device:R R15
U 1 1 6016677A
P 4800 4050
F 0 "R15" V 5000 4050 50  0000 L CNN
F 1 "1k" V 4900 4000 50  0000 L CNN
F 2 "Resistor_SMD:R_0805_2012Metric" V 4730 4050 50  0001 C CNN
F 3 "~" H 4800 4050 50  0001 C CNN
	1    4800 4050
	0    -1   -1   0   
$EndComp
$Comp
L Device:R R16
U 1 1 60167523
P 5100 4250
F 0 "R16" H 4900 4300 50  0000 L CNN
F 1 "4.7k" H 4900 4200 50  0000 L CNN
F 2 "Resistor_SMD:R_0805_2012Metric" V 5030 4250 50  0001 C CNN
F 3 "~" H 5100 4250 50  0001 C CNN
	1    5100 4250
	1    0    0    -1  
$EndComp
Text Label 4350 4050 0    50   ~ 0
BUZ
Wire Wire Line
	4350 4050 4650 4050
Wire Wire Line
	4950 4050 5100 4050
Wire Wire Line
	5100 4100 5100 4050
Connection ~ 5100 4050
Wire Wire Line
	5100 4050 5250 4050
$Comp
L power:GND #PWR039
U 1 1 6018F5A0
P 5100 4500
F 0 "#PWR039" H 5100 4250 50  0001 C CNN
F 1 "GND" H 5105 4327 50  0000 C CNN
F 2 "" H 5100 4500 50  0001 C CNN
F 3 "" H 5100 4500 50  0001 C CNN
	1    5100 4500
	1    0    0    -1  
$EndComp
Wire Wire Line
	5100 4500 5100 4400
$Comp
L power:GND #PWR041
U 1 1 60199A4E
P 5550 4500
F 0 "#PWR041" H 5550 4250 50  0001 C CNN
F 1 "GND" H 5555 4327 50  0000 C CNN
F 2 "" H 5550 4500 50  0001 C CNN
F 3 "" H 5550 4500 50  0001 C CNN
	1    5550 4500
	1    0    0    -1  
$EndComp
Wire Wire Line
	5550 4500 5550 4250
Wire Wire Line
	5550 3850 5550 3650
Wire Wire Line
	5550 3650 5600 3650
$Comp
L power:+5V #PWR040
U 1 1 601AE3AB
P 5550 3400
F 0 "#PWR040" H 5550 3250 50  0001 C CNN
F 1 "+5V" H 5565 3573 50  0000 C CNN
F 2 "" H 5550 3400 50  0001 C CNN
F 3 "" H 5550 3400 50  0001 C CNN
	1    5550 3400
	1    0    0    -1  
$EndComp
Wire Wire Line
	5600 3450 5550 3450
Wire Wire Line
	5550 3450 5550 3400
Text Label 6650 1900 2    50   ~ 0
SCL_3.3V
Wire Wire Line
	7150 2550 7150 2400
Wire Wire Line
	7150 2400 7100 2400
Wire Wire Line
	7300 2550 7300 2300
Wire Wire Line
	6750 2300 7300 2300
Wire Wire Line
	6450 2300 6300 2300
Wire Wire Line
	6450 2400 6300 2400
Wire Wire Line
	7000 1750 7250 1750
Wire Wire Line
	7000 1850 7250 1850
Wire Wire Line
	7250 1950 7150 1950
Wire Wire Line
	7150 1950 7150 2000
$Comp
L Device:R R12
U 1 1 604495D4
P 7050 1100
F 0 "R12" H 7150 1000 50  0000 L CNN
F 1 "10k" H 7100 1100 50  0000 L CNN
F 2 "Resistor_SMD:R_0805_2012Metric" V 6980 1100 50  0001 C CNN
F 3 "~" H 7050 1100 50  0001 C CNN
	1    7050 1100
	-1   0    0    1   
$EndComp
$Comp
L Device:R R14
U 1 1 60449B02
P 7300 1100
F 0 "R14" H 7400 1000 50  0000 L CNN
F 1 "10k" H 7350 1100 50  0000 L CNN
F 2 "Resistor_SMD:R_0805_2012Metric" V 7230 1100 50  0001 C CNN
F 3 "~" H 7300 1100 50  0001 C CNN
	1    7300 1100
	-1   0    0    1   
$EndComp
Text Label 6850 1300 0    50   ~ 0
SDA_3.3V
Wire Wire Line
	6850 1300 7050 1300
Wire Wire Line
	7050 1300 7050 1250
Text Label 6850 1450 0    50   ~ 0
SCL_3.3V
Wire Wire Line
	6850 1450 7300 1450
Wire Wire Line
	7300 1450 7300 1250
$Comp
L power:+3.3V #PWR034
U 1 1 60486FC2
P 7150 850
F 0 "#PWR034" H 7150 700 50  0001 C CNN
F 1 "+3.3V" H 7150 1000 50  0000 C CNN
F 2 "" H 7150 850 50  0001 C CNN
F 3 "" H 7150 850 50  0001 C CNN
	1    7150 850 
	1    0    0    -1  
$EndComp
Wire Wire Line
	7050 950  7050 850 
Wire Wire Line
	7050 850  7150 850 
Wire Wire Line
	7150 850  7300 850 
Wire Wire Line
	7300 850  7300 950 
Connection ~ 7150 850 
$Comp
L My_Lib_KiCAD:ESP12E_My U4
U 1 1 606FB5DD
P 5700 1900
F 0 "U4" H 5350 2700 50  0000 C CNN
F 1 "ESP12E_My" H 5450 2600 50  0000 C CNN
F 2 "RF_Module:ESP-12E" H 5250 2700 50  0001 C CNN
F 3 "" H 6700 1100 50  0001 C CNN
	1    5700 1900
	1    0    0    -1  
$EndComp
$Comp
L power:+3.3V #PWR0101
U 1 1 608FF5A0
P 4850 2100
F 0 "#PWR0101" H 4850 1950 50  0001 C CNN
F 1 "+3.3V" H 4865 2273 50  0000 C CNN
F 2 "" H 4850 2100 50  0001 C CNN
F 3 "" H 4850 2100 50  0001 C CNN
	1    4850 2100
	1    0    0    -1  
$EndComp
$Comp
L Connector_Generic:Conn_01x03 J3
U 1 1 60943597
P 7450 1850
F 0 "J3" H 7300 1500 50  0000 L CNN
F 1 "ESP_Program" H 7050 1600 50  0000 L CNN
F 2 "Connector_PinHeader_2.54mm:PinHeader_1x03_P2.54mm_Vertical" H 7450 1850 50  0001 C CNN
F 3 "~" H 7450 1850 50  0001 C CNN
	1    7450 1850
	1    0    0    1   
$EndComp
Wire Notes Line
	6000 3150 6000 4750
Wire Notes Line
	6000 4750 4300 4750
Wire Notes Line
	4300 4750 4300 3150
Wire Notes Line
	4300 3150 6000 3150
$Comp
L Connector_Generic:Conn_01x05 J8
U 1 1 6058F993
P 4000 2750
F 0 "J8" H 3950 3150 50  0000 L CNN
F 1 "Program" H 3850 3050 50  0000 L CNN
F 2 "Connector_PinHeader_2.54mm:PinHeader_1x05_P2.54mm_Vertical" H 4000 2750 50  0001 C CNN
F 3 "~" H 4000 2750 50  0001 C CNN
	1    4000 2750
	1    0    0    -1  
$EndComp
Text Label 3600 2550 0    50   ~ 0
VPP
Wire Wire Line
	3600 2550 3800 2550
Text Label 3600 2850 0    50   ~ 0
PGD
Text Label 3600 2950 0    50   ~ 0
PGC
Wire Wire Line
	3600 2850 3800 2850
Wire Wire Line
	3600 2950 3800 2950
$Comp
L power:+5V #PWR037
U 1 1 6063316A
P 3450 2500
F 0 "#PWR037" H 3450 2350 50  0001 C CNN
F 1 "+5V" H 3465 2673 50  0000 C CNN
F 2 "" H 3450 2500 50  0001 C CNN
F 3 "" H 3450 2500 50  0001 C CNN
	1    3450 2500
	1    0    0    -1  
$EndComp
Wire Wire Line
	3800 2650 3450 2650
Wire Wire Line
	3450 2650 3450 2500
$Comp
L power:GND #PWR047
U 1 1 606545B3
P 3450 2950
F 0 "#PWR047" H 3450 2700 50  0001 C CNN
F 1 "GND" H 3455 2777 50  0000 C CNN
F 2 "" H 3450 2950 50  0001 C CNN
F 3 "" H 3450 2950 50  0001 C CNN
	1    3450 2950
	1    0    0    -1  
$EndComp
Wire Wire Line
	3800 2750 3450 2750
Wire Wire Line
	3450 2750 3450 2950
$Comp
L Device:C C18
U 1 1 60832942
P 850 1550
F 0 "C18" H 850 1650 50  0000 L CNN
F 1 "104" H 850 1450 50  0000 L CNN
F 2 "Capacitor_SMD:C_0805_2012Metric" H 888 1400 50  0001 C CNN
F 3 "~" H 850 1550 50  0001 C CNN
	1    850  1550
	1    0    0    -1  
$EndComp
$Comp
L power:+5V #PWR061
U 1 1 60834382
P 850 1350
F 0 "#PWR061" H 850 1200 50  0001 C CNN
F 1 "+5V" H 865 1523 50  0000 C CNN
F 2 "" H 850 1350 50  0001 C CNN
F 3 "" H 850 1350 50  0001 C CNN
	1    850  1350
	1    0    0    -1  
$EndComp
$Comp
L power:GND #PWR062
U 1 1 60834636
P 850 1750
F 0 "#PWR062" H 850 1500 50  0001 C CNN
F 1 "GND" H 855 1577 50  0000 C CNN
F 2 "" H 850 1750 50  0001 C CNN
F 3 "" H 850 1750 50  0001 C CNN
	1    850  1750
	1    0    0    -1  
$EndComp
Wire Wire Line
	850  1750 850  1700
Wire Wire Line
	850  1400 850  1350
$Comp
L power:GND #PWR01
U 1 1 60D39813
P 1200 5700
F 0 "#PWR01" H 1200 5450 50  0001 C CNN
F 1 "GND" H 1200 5550 50  0000 C CNN
F 2 "" H 1200 5700 50  0001 C CNN
F 3 "" H 1200 5700 50  0001 C CNN
	1    1200 5700
	1    0    0    -1  
$EndComp
$Comp
L Diode_Bridge:DF01M D1
U 1 1 60D39819
P 1600 5650
F 0 "D1" H 1750 5900 50  0000 L CNN
F 1 "DF01M" H 1750 5800 50  0000 L CNN
F 2 "MB6S:SOIC245P670X270-4N" H 1750 5775 50  0001 L CNN
F 3 "http://www.vishay.com/docs/88571/dfm.pdf" H 1600 5650 50  0001 C CNN
F 4 "C123768" H 1600 5650 50  0001 C CNN "LCSC"
	1    1600 5650
	1    0    0    -1  
$EndComp
Wire Wire Line
	1300 5650 1200 5650
Wire Wire Line
	1200 5650 1200 5700
Wire Wire Line
	950  5550 1050 5550
Wire Wire Line
	1050 5550 1050 5250
Wire Wire Line
	1050 5250 1600 5250
Wire Wire Line
	1600 5250 1600 5350
Wire Wire Line
	950  5650 1050 5650
Wire Wire Line
	1050 5650 1050 6050
Wire Wire Line
	1050 6050 1600 6050
Wire Wire Line
	1600 6050 1600 5950
$Comp
L Device:CP C7
U 1 1 60D6086B
P 2100 5900
F 0 "C7" H 2218 5946 50  0000 L CNN
F 1 "470uF" H 2218 5855 50  0000 L CNN
F 2 "My_Lib_KiCAD:CP_Elec_16x16.5" H 2138 5750 50  0001 C CNN
F 3 "~" H 2100 5900 50  0001 C CNN
F 4 "C239252" H 2100 5900 50  0001 C CNN "LCSC"
	1    2100 5900
	1    0    0    -1  
$EndComp
$Comp
L Regulator_Linear:LM7812_TO220 U5
U 1 1 60D60E37
P 2650 5650
F 0 "U5" H 2650 5892 50  0000 C CNN
F 1 "LM7812" H 2650 5801 50  0000 C CNN
F 2 "Package_TO_SOT_SMD:TO-252-2" H 2650 5875 50  0001 C CIN
F 3 "https://www.onsemi.cn/PowerSolutions/document/MC7800-D.PDF" H 2650 5600 50  0001 C CNN
F 4 "C26184" H 2650 5650 50  0001 C CNN "LCSC"
	1    2650 5650
	1    0    0    -1  
$EndComp
Wire Wire Line
	2350 5650 2100 5650
Wire Wire Line
	2100 5750 2100 5650
Connection ~ 2100 5650
Wire Wire Line
	2100 5650 1900 5650
$Comp
L power:GND #PWR06
U 1 1 60DB0212
P 2650 6150
F 0 "#PWR06" H 2650 5900 50  0001 C CNN
F 1 "GND" H 2650 6000 50  0000 C CNN
F 2 "" H 2650 6150 50  0001 C CNN
F 3 "" H 2650 6150 50  0001 C CNN
	1    2650 6150
	1    0    0    -1  
$EndComp
$Comp
L power:GND #PWR03
U 1 1 60DD7D14
P 2100 6150
F 0 "#PWR03" H 2100 5900 50  0001 C CNN
F 1 "GND" H 2100 6000 50  0000 C CNN
F 2 "" H 2100 6150 50  0001 C CNN
F 3 "" H 2100 6150 50  0001 C CNN
	1    2100 6150
	1    0    0    -1  
$EndComp
Wire Wire Line
	2100 6150 2100 6050
$Comp
L Device:D D8
U 1 1 60E002F5
P 3200 5650
F 0 "D8" H 3300 5450 50  0000 C CNN
F 1 "1N4007" H 3200 5550 50  0000 C CNN
F 2 "Diode_SMD:D_SMA" H 3200 5650 50  0001 C CNN
F 3 "~" H 3200 5650 50  0001 C CNN
F 4 "C727081" H 3200 5650 50  0001 C CNN "LCSC"
	1    3200 5650
	-1   0    0    1   
$EndComp
Wire Wire Line
	3050 5650 2950 5650
$Comp
L Device:CP C11
U 1 1 60E296C6
P 3500 5900
F 0 "C11" H 3250 5950 50  0000 L CNN
F 1 "470uF" H 3150 5850 50  0000 L CNN
F 2 "Capacitor_SMD:CP_Elec_8x10.5" H 3538 5750 50  0001 C CNN
F 3 "~" H 3500 5900 50  0001 C CNN
F 4 "C264235" H 3500 5900 50  0001 C CNN "LCSC"
	1    3500 5900
	1    0    0    -1  
$EndComp
$Comp
L Amplifier_Operational:LM741 U7
U 1 1 60E29E0D
P 5100 6300
F 0 "U7" H 5100 6550 50  0000 L CNN
F 1 "LM741" H 5100 6450 50  0000 L CNN
F 2 "Package_DIP:DIP-8_W7.62mm" H 5150 6350 50  0001 C CNN
F 3 "http://www.ti.com/lit/ds/symlink/lm741.pdf" H 5250 6450 50  0001 C CNN
	1    5100 6300
	1    0    0    -1  
$EndComp
$Comp
L Device:R_POT RV1
U 1 1 60E2C68D
P 4400 6200
F 0 "RV1" H 4600 6300 50  0000 R CNN
F 1 "10k" H 4600 6100 50  0000 R CNN
F 2 "Potentiometer_THT:Potentiometer_Bourns_3296W_Vertical" H 4400 6200 50  0001 C CNN
F 3 "~" H 4400 6200 50  0001 C CNN
	1    4400 6200
	1    0    0    -1  
$EndComp
$Comp
L Connector:Screw_Terminal_01x02 J7
U 1 1 60E855E5
P 3450 6800
F 0 "J7" H 3450 6500 50  0000 C CNN
F 1 "PD" H 3450 6600 50  0000 C CNN
F 2 "TerminalBlock:TerminalBlock_bornier-2_P5.08mm" H 3450 6800 50  0001 C CNN
F 3 "~" H 3450 6800 50  0001 C CNN
	1    3450 6800
	-1   0    0    1   
$EndComp
$Comp
L power:GND #PWR011
U 1 1 60EDCAD0
P 3800 6900
F 0 "#PWR011" H 3800 6650 50  0001 C CNN
F 1 "GND" H 3800 6750 50  0000 C CNN
F 2 "" H 3800 6900 50  0001 C CNN
F 3 "" H 3800 6900 50  0001 C CNN
	1    3800 6900
	1    0    0    -1  
$EndComp
Wire Wire Line
	2650 5950 2650 6150
Wire Wire Line
	3350 5650 3500 5650
Wire Wire Line
	5000 5650 5000 6000
Wire Wire Line
	4400 6050 4400 5650
Connection ~ 4400 5650
Wire Wire Line
	4400 5650 5000 5650
$Comp
L power:GND #PWR09
U 1 1 60FDB324
P 3500 6150
F 0 "#PWR09" H 3500 5900 50  0001 C CNN
F 1 "GND" H 3500 6000 50  0000 C CNN
F 2 "" H 3500 6150 50  0001 C CNN
F 3 "" H 3500 6150 50  0001 C CNN
	1    3500 6150
	1    0    0    -1  
$EndComp
Wire Wire Line
	3500 5650 3500 5750
Wire Wire Line
	3500 6150 3500 6050
Wire Wire Line
	4800 6200 4550 6200
$Comp
L power:GND #PWR012
U 1 1 610DD9C8
P 4400 6450
F 0 "#PWR012" H 4400 6200 50  0001 C CNN
F 1 "GND" H 4400 6300 50  0000 C CNN
F 2 "" H 4400 6450 50  0001 C CNN
F 3 "" H 4400 6450 50  0001 C CNN
	1    4400 6450
	1    0    0    -1  
$EndComp
Wire Wire Line
	4400 6450 4400 6350
Wire Wire Line
	4650 6700 4650 6400
Wire Wire Line
	4650 6400 4800 6400
$Comp
L Device:C C14
U 1 1 611E715D
P 3800 5900
F 0 "C14" H 3800 6000 50  0000 L CNN
F 1 "103" H 3800 5800 50  0000 L CNN
F 2 "Capacitor_SMD:C_0805_2012Metric" H 3838 5750 50  0001 C CNN
F 3 "~" H 3800 5900 50  0001 C CNN
	1    3800 5900
	1    0    0    -1  
$EndComp
$Comp
L Device:R R13
U 1 1 611E7C17
P 4150 5900
F 0 "R13" H 4200 5950 50  0000 L CNN
F 1 "56R" H 4200 5850 50  0000 L CNN
F 2 "Resistor_SMD:R_0805_2012Metric" V 4080 5900 50  0001 C CNN
F 3 "~" H 4150 5900 50  0001 C CNN
	1    4150 5900
	1    0    0    -1  
$EndComp
Wire Wire Line
	3500 5650 3800 5650
Connection ~ 3500 5650
Wire Wire Line
	3800 5750 3800 5650
Connection ~ 3800 5650
Wire Wire Line
	3800 5650 4150 5650
Wire Wire Line
	4150 5750 4150 5650
Connection ~ 4150 5650
Wire Wire Line
	4150 5650 4400 5650
Wire Wire Line
	3650 6700 3800 6700
Wire Wire Line
	3800 6050 3800 6700
Connection ~ 3800 6700
Wire Wire Line
	3800 6700 4150 6700
Wire Wire Line
	4150 6050 4150 6700
Connection ~ 4150 6700
Wire Wire Line
	4150 6700 4650 6700
$Comp
L power:GND #PWR014
U 1 1 61356AF3
P 5000 6700
F 0 "#PWR014" H 5000 6450 50  0001 C CNN
F 1 "GND" H 5000 6550 50  0000 C CNN
F 2 "" H 5000 6700 50  0001 C CNN
F 3 "" H 5000 6700 50  0001 C CNN
	1    5000 6700
	1    0    0    -1  
$EndComp
Wire Wire Line
	5000 6700 5000 6600
$Comp
L Device:R R21
U 1 1 61385E1F
P 5600 6550
F 0 "R21" H 5650 6600 50  0000 L CNN
F 1 "1k" H 5650 6500 50  0000 L CNN
F 2 "Resistor_SMD:R_0805_2012Metric" V 5530 6550 50  0001 C CNN
F 3 "~" H 5600 6550 50  0001 C CNN
	1    5600 6550
	1    0    0    -1  
$EndComp
$Comp
L Device:R R22
U 1 1 61386435
P 5600 7000
F 0 "R22" H 5650 7050 50  0000 L CNN
F 1 "1k" H 5650 6950 50  0000 L CNN
F 2 "Resistor_SMD:R_0805_2012Metric" V 5530 7000 50  0001 C CNN
F 3 "~" H 5600 7000 50  0001 C CNN
	1    5600 7000
	1    0    0    -1  
$EndComp
Wire Wire Line
	5400 6300 5600 6300
Wire Wire Line
	5600 6300 5600 6400
Wire Wire Line
	5600 6850 5600 6750
$Comp
L power:GND #PWR017
U 1 1 613E4A82
P 5600 7300
F 0 "#PWR017" H 5600 7050 50  0001 C CNN
F 1 "GND" H 5600 7150 50  0000 C CNN
F 2 "" H 5600 7300 50  0001 C CNN
F 3 "" H 5600 7300 50  0001 C CNN
	1    5600 7300
	1    0    0    -1  
$EndComp
Wire Wire Line
	5600 7300 5600 7150
$Comp
L Diode:1N47xxA D9
U 1 1 614145A6
P 5950 7000
F 0 "D9" V 5904 7080 50  0000 L CNN
F 1 "1N4733A" V 5995 7080 50  0000 L CNN
F 2 "Diode_SMD:D_SOD-123" H 5950 6825 50  0001 C CNN
F 3 "https://www.vishay.com/docs/85816/1n4728a.pdf" H 5950 7000 50  0001 C CNN
F 4 "C236187" V 5950 7000 50  0001 C CNN "LCSC"
	1    5950 7000
	0    1    1    0   
$EndComp
Wire Wire Line
	5950 6850 5950 6750
Wire Wire Line
	5950 6750 5600 6750
Connection ~ 5600 6750
Wire Wire Line
	5600 6750 5600 6700
$Comp
L power:GND #PWR018
U 1 1 61445ED7
P 5950 7300
F 0 "#PWR018" H 5950 7050 50  0001 C CNN
F 1 "GND" H 5950 7150 50  0000 C CNN
F 2 "" H 5950 7300 50  0001 C CNN
F 3 "" H 5950 7300 50  0001 C CNN
	1    5950 7300
	1    0    0    -1  
$EndComp
Wire Wire Line
	5950 7300 5950 7150
Text Label 6250 6750 2    50   ~ 0
POD
Wire Wire Line
	6250 6750 5950 6750
Connection ~ 5950 6750
$Comp
L Device:R R10
U 1 1 600B274A
P 6600 2400
F 0 "R10" V 6550 2150 50  0000 L CNN
F 1 "100R" V 6600 2300 50  0000 L CNN
F 2 "Resistor_SMD:R_0805_2012Metric" V 6530 2400 50  0001 C CNN
F 3 "~" H 6600 2400 50  0001 C CNN
	1    6600 2400
	0    1    1    0   
$EndComp
Wire Wire Line
	6500 1400 6800 1400
Wire Wire Line
	6800 1400 6800 1450
Connection ~ 6500 1400
Wire Notes Line
	7600 550  7600 3050
Wire Notes Line
	7600 3050 4300 3050
Wire Notes Line
	4300 3050 4300 550 
Wire Notes Line
	4300 550  7600 550 
Wire Notes Line
	6400 5200 6400 7700
Wire Notes Line
	6400 7700 600  7700
Wire Notes Line
	600  7700 600  5200
Wire Notes Line
	600  5200 6400 5200
$Comp
L Connector:Screw_Terminal_01x02 J2
U 1 1 60D3980D
P 750 5650
F 0 "J2" H 800 5350 50  0000 C CNN
F 1 "AC17V" H 700 5450 50  0000 C CNN
F 2 "TerminalBlock:TerminalBlock_bornier-2_P5.08mm" H 750 5650 50  0001 C CNN
F 3 "~" H 750 5650 50  0001 C CNN
	1    750  5650
	-1   0    0    1   
$EndComp
Text Notes 4350 650  0    50   ~ 0
ESP8266
$Sheet
S 9750 5150 1200 1000
U 6187C30E
F0 "Sheet6187C30D" 50
F1 "file6187C30D.sch" 50
F2 "RLY1" I L 9750 5400 50 
F3 "RLY2" I L 9750 5500 50 
$EndSheet
Wire Wire Line
	9900 3600 9900 3500
Wire Wire Line
	9800 3600 9900 3600
$Comp
L power:+2V5 #PWR050
U 1 1 6176DE20
P 9900 3500
F 0 "#PWR050" H 9900 3350 50  0001 C CNN
F 1 "+2V5" H 9915 3673 50  0000 C CNN
F 2 "" H 9900 3500 50  0001 C CNN
F 3 "" H 9900 3500 50  0001 C CNN
	1    9900 3500
	1    0    0    -1  
$EndComp
Wire Wire Line
	10000 2200 10000 2150
Wire Wire Line
	9850 2200 10000 2200
$Comp
L power:+2V5 #PWR052
U 1 1 61706644
P 10000 2150
F 0 "#PWR052" H 10000 2000 50  0001 C CNN
F 1 "+2V5" H 10015 2323 50  0000 C CNN
F 2 "" H 10000 2150 50  0001 C CNN
F 3 "" H 10000 2150 50  0001 C CNN
	1    10000 2150
	1    0    0    -1  
$EndComp
Wire Wire Line
	10150 1300 10150 1450
$Comp
L power:+2V5 #PWR067
U 1 1 616D258A
P 10150 1300
F 0 "#PWR067" H 10150 1150 50  0001 C CNN
F 1 "+2V5" H 10165 1473 50  0000 C CNN
F 2 "" H 10150 1300 50  0001 C CNN
F 3 "" H 10150 1300 50  0001 C CNN
	1    10150 1300
	1    0    0    -1  
$EndComp
Wire Wire Line
	10600 2150 10600 2100
$Comp
L power:+5V #PWR058
U 1 1 6153C883
P 10600 2100
F 0 "#PWR058" H 10600 1950 50  0001 C CNN
F 1 "+5V" H 10615 2273 50  0000 C CNN
F 2 "" H 10600 2100 50  0001 C CNN
F 3 "" H 10600 2100 50  0001 C CNN
	1    10600 2100
	1    0    0    -1  
$EndComp
Wire Wire Line
	10600 3600 10600 3500
$Comp
L power:+5V #PWR054
U 1 1 614D98A4
P 10600 3500
F 0 "#PWR054" H 10600 3350 50  0001 C CNN
F 1 "+5V" H 10615 3673 50  0000 C CNN
F 2 "" H 10600 3500 50  0001 C CNN
F 3 "" H 10600 3500 50  0001 C CNN
	1    10600 3500
	1    0    0    -1  
$EndComp
Wire Wire Line
	10450 1000 10450 900 
Wire Wire Line
	10450 1700 10450 1600
$Comp
L power:GND #PWR049
U 1 1 6043655B
P 10450 1700
F 0 "#PWR049" H 10450 1450 50  0001 C CNN
F 1 "GND" H 10455 1527 50  0000 C CNN
F 2 "" H 10450 1700 50  0001 C CNN
F 3 "" H 10450 1700 50  0001 C CNN
	1    10450 1700
	1    0    0    -1  
$EndComp
Wire Wire Line
	10600 3050 10600 2950
$Comp
L power:GND #PWR059
U 1 1 603D2874
P 10600 3050
F 0 "#PWR059" H 10600 2800 50  0001 C CNN
F 1 "GND" H 10605 2877 50  0000 C CNN
F 2 "" H 10600 3050 50  0001 C CNN
F 3 "" H 10600 3050 50  0001 C CNN
	1    10600 3050
	1    0    0    -1  
$EndComp
Wire Wire Line
	10100 2550 10050 2550
Wire Wire Line
	10100 2900 10100 2550
Wire Wire Line
	9850 2900 10100 2900
Wire Wire Line
	9400 2650 9350 2650
Wire Wire Line
	9400 2900 9400 2650
Wire Wire Line
	9550 2900 9400 2900
Wire Wire Line
	9400 2450 9350 2450
Wire Wire Line
	9400 2200 9400 2450
Wire Wire Line
	9550 2200 9400 2200
$Comp
L Device:R R40
U 1 1 6035E534
P 9700 2200
F 0 "R40" V 9750 2300 50  0000 L CNN
F 1 "100k" V 9800 2150 50  0000 L CNN
F 2 "Resistor_SMD:R_0805_2012Metric" V 9630 2200 50  0001 C CNN
F 3 "~" H 9700 2200 50  0001 C CNN
	1    9700 2200
	0    -1   -1   0   
$EndComp
$Comp
L Device:R R41
U 1 1 6035DC17
P 9700 2900
F 0 "R41" V 9750 3000 50  0000 L CNN
F 1 "100k" V 9800 2850 50  0000 L CNN
F 2 "Resistor_SMD:R_0805_2012Metric" V 9630 2900 50  0001 C CNN
F 3 "~" H 9700 2900 50  0001 C CNN
	1    9700 2900
	0    -1   -1   0   
$EndComp
Connection ~ 10100 2550
Wire Wire Line
	10150 2550 10100 2550
Wire Wire Line
	10600 2650 10600 2550
Wire Wire Line
	10600 2550 11000 2550
Wire Wire Line
	10600 2550 10450 2550
Connection ~ 10600 2550
Wire Wire Line
	10600 2450 10600 2550
Text Label 11000 2550 2    50   ~ 0
I1_Sense
$Comp
L Diode:1N4148 D12
U 1 1 60327015
P 10600 2300
F 0 "D12" V 10554 2380 50  0000 L CNN
F 1 "1N4148" V 10645 2380 50  0000 L CNN
F 2 "Diode_SMD:D_SOD-123" H 10600 2125 50  0001 C CNN
F 3 "https://assets.nexperia.com/documents/data-sheet/1N4148_1N4448.pdf" H 10600 2300 50  0001 C CNN
F 4 "C2099" V 10600 2300 50  0001 C CNN "LCSC"
	1    10600 2300
	0    1    1    0   
$EndComp
$Comp
L Device:C C17
U 1 1 6032700F
P 10600 2800
F 0 "C17" H 10715 2846 50  0000 L CNN
F 1 "103" H 10715 2755 50  0000 L CNN
F 2 "Capacitor_SMD:C_0805_2012Metric" H 10638 2650 50  0001 C CNN
F 3 "~" H 10600 2800 50  0001 C CNN
	1    10600 2800
	1    0    0    -1  
$EndComp
$Comp
L Device:R R44
U 1 1 60327009
P 10300 2550
F 0 "R44" V 10350 2650 50  0000 L CNN
F 1 "15k" V 10400 2500 50  0000 L CNN
F 2 "Resistor_SMD:R_0805_2012Metric" V 10230 2550 50  0001 C CNN
F 3 "~" H 10300 2550 50  0001 C CNN
	1    10300 2550
	0    -1   -1   0   
$EndComp
Connection ~ 9400 2650
Wire Wire Line
	9450 2650 9400 2650
Connection ~ 9400 2450
Wire Wire Line
	9450 2450 9400 2450
Wire Wire Line
	8750 2800 8400 2800
Wire Wire Line
	8750 2700 8750 2800
Wire Wire Line
	8400 2600 8350 2600
Wire Wire Line
	8400 2800 8400 2600
Connection ~ 8750 2800
Wire Wire Line
	9000 2800 8750 2800
Wire Wire Line
	9000 2650 9000 2800
Wire Wire Line
	9050 2650 9000 2650
Wire Wire Line
	8750 2300 9000 2300
Wire Wire Line
	8750 2400 8750 2300
Wire Wire Line
	9000 2450 9050 2450
Wire Wire Line
	9000 2300 9000 2450
Connection ~ 8750 2300
Wire Wire Line
	8400 2300 8750 2300
Wire Wire Line
	8400 2500 8400 2300
Wire Wire Line
	8350 2500 8400 2500
$Comp
L Connector:Screw_Terminal_01x02 J11
U 1 1 602D5A24
P 8150 2600
F 0 "J11" H 8200 2300 50  0000 C CNN
F 1 "I1_Sense" H 8100 2400 50  0000 C CNN
F 2 "TerminalBlock:TerminalBlock_bornier-2_P5.08mm" H 8150 2600 50  0001 C CNN
F 3 "~" H 8150 2600 50  0001 C CNN
	1    8150 2600
	-1   0    0    1   
$EndComp
$Comp
L Device:R R35
U 1 1 602D5A1E
P 9200 2650
F 0 "R35" V 9250 2750 50  0000 L CNN
F 1 "10k" V 9300 2600 50  0000 L CNN
F 2 "Resistor_SMD:R_0805_2012Metric" V 9130 2650 50  0001 C CNN
F 3 "~" H 9200 2650 50  0001 C CNN
	1    9200 2650
	0    -1   -1   0   
$EndComp
$Comp
L Device:R R29
U 1 1 602D5A18
P 8750 2550
F 0 "R29" H 8850 2450 50  0000 L CNN
F 1 "10R" H 8800 2550 50  0000 L CNN
F 2 "My_Lib_KiCAD:SMF 3W 10R" V 8680 2550 50  0001 C CNN
F 3 "~" H 8750 2550 50  0001 C CNN
F 4 "C395115" H 8750 2550 50  0001 C CNN "LCSC"
	1    8750 2550
	-1   0    0    1   
$EndComp
$Comp
L Device:R R34
U 1 1 602D5A12
P 9200 2450
F 0 "R34" V 9250 2550 50  0000 L CNN
F 1 "10k" V 9300 2400 50  0000 L CNN
F 2 "Resistor_SMD:R_0805_2012Metric" V 9130 2450 50  0001 C CNN
F 3 "~" H 9200 2450 50  0001 C CNN
	1    9200 2450
	0    -1   -1   0   
$EndComp
Wire Wire Line
	10150 1450 10100 1450
Connection ~ 10150 1450
Wire Wire Line
	10150 1700 10150 1450
Wire Wire Line
	9450 1700 10150 1700
Wire Wire Line
	9450 1550 9450 1700
Wire Wire Line
	9500 1550 9450 1550
Wire Wire Line
	9300 1850 9300 1750
$Comp
L power:GND #PWR065
U 1 1 60162929
P 9300 1850
F 0 "#PWR065" H 9300 1600 50  0001 C CNN
F 1 "GND" H 9305 1677 50  0000 C CNN
F 2 "" H 9300 1850 50  0001 C CNN
F 3 "" H 9300 1850 50  0001 C CNN
	1    9300 1850
	1    0    0    -1  
$EndComp
Wire Wire Line
	9300 950  9300 850 
$Comp
L power:+5V #PWR064
U 1 1 6013C2D5
P 9300 850
F 0 "#PWR064" H 9300 700 50  0001 C CNN
F 1 "+5V" H 9315 1023 50  0000 C CNN
F 2 "" H 9300 850 50  0001 C CNN
F 3 "" H 9300 850 50  0001 C CNN
	1    9300 850 
	1    0    0    -1  
$EndComp
Wire Wire Line
	9300 1350 9300 1250
Wire Wire Line
	9500 1350 9300 1350
Connection ~ 9300 1350
Wire Wire Line
	9300 1450 9300 1350
$Comp
L Device:R R47
U 1 1 6011484B
P 9300 1600
F 0 "R47" H 9400 1500 50  0000 L CNN
F 1 "10k" H 9350 1600 50  0000 L CNN
F 2 "Resistor_SMD:R_0805_2012Metric" V 9230 1600 50  0001 C CNN
F 3 "~" H 9300 1600 50  0001 C CNN
	1    9300 1600
	-1   0    0    1   
$EndComp
$Comp
L Device:R R46
U 1 1 60113ABE
P 9300 1100
F 0 "R46" H 9400 1000 50  0000 L CNN
F 1 "15k" H 9350 1100 50  0000 L CNN
F 2 "Resistor_SMD:R_0805_2012Metric" V 9230 1100 50  0001 C CNN
F 3 "~" H 9300 1100 50  0001 C CNN
	1    9300 1100
	-1   0    0    1   
$EndComp
Wire Wire Line
	10100 4000 10150 4000
Wire Wire Line
	10100 4400 10100 4000
Wire Wire Line
	9800 4400 10100 4400
Wire Wire Line
	10600 4100 10600 4000
Wire Wire Line
	10600 4000 10450 4000
Connection ~ 10600 4000
Wire Wire Line
	10600 3900 10600 4000
Wire Wire Line
	11000 4000 10600 4000
Text Label 11000 4000 2    50   ~ 0
V_Sense
$Comp
L Diode:1N4148 D10
U 1 1 600C1CFA
P 10600 3750
F 0 "D10" V 10554 3830 50  0000 L CNN
F 1 "1N4148" V 10645 3830 50  0000 L CNN
F 2 "Diode_SMD:D_SOD-123" H 10600 3575 50  0001 C CNN
F 3 "https://assets.nexperia.com/documents/data-sheet/1N4148_1N4448.pdf" H 10600 3750 50  0001 C CNN
F 4 "C2099" V 10600 3750 50  0001 C CNN "LCSC"
	1    10600 3750
	0    1    1    0   
$EndComp
Connection ~ 10100 4000
Wire Wire Line
	10050 4000 10100 4000
Wire Wire Line
	9400 3900 9350 3900
Wire Wire Line
	9400 3600 9400 3900
Wire Wire Line
	9500 3600 9400 3600
$Comp
L Connector:Screw_Terminal_01x02 J9
U 1 1 6006661D
P 8050 4050
F 0 "J9" H 8100 3750 50  0000 C CNN
F 1 "AC_Sense" H 8000 3850 50  0000 C CNN
F 2 "TerminalBlock:TerminalBlock_bornier-2_P5.08mm" H 8050 4050 50  0001 C CNN
F 3 "~" H 8050 4050 50  0001 C CNN
	1    8050 4050
	-1   0    0    1   
$EndComp
Connection ~ 9400 3900
Wire Wire Line
	9450 3900 9400 3900
Wire Wire Line
	9400 4100 9350 4100
Wire Wire Line
	9400 4400 9400 4100
Wire Wire Line
	9500 4400 9400 4400
Connection ~ 9400 4100
Wire Wire Line
	9450 4100 9400 4100
Wire Wire Line
	10600 4500 10600 4400
$Comp
L power:GND #PWR055
U 1 1 5FFE106F
P 10600 4500
F 0 "#PWR055" H 10600 4250 50  0001 C CNN
F 1 "GND" H 10605 4327 50  0000 C CNN
F 2 "" H 10600 4500 50  0001 C CNN
F 3 "" H 10600 4500 50  0001 C CNN
	1    10600 4500
	1    0    0    -1  
$EndComp
$Comp
L Device:C C15
U 1 1 5FFE0228
P 10600 4250
F 0 "C15" H 10715 4296 50  0000 L CNN
F 1 "103" H 10715 4205 50  0000 L CNN
F 2 "Capacitor_SMD:C_0805_2012Metric" H 10638 4100 50  0001 C CNN
F 3 "~" H 10600 4250 50  0001 C CNN
	1    10600 4250
	1    0    0    -1  
$EndComp
$Comp
L Device:R R42
U 1 1 5FFDFF3C
P 10300 4000
F 0 "R42" V 10350 4100 50  0000 L CNN
F 1 "10k" V 10400 3950 50  0000 L CNN
F 2 "Resistor_SMD:R_0805_2012Metric" V 10230 4000 50  0001 C CNN
F 3 "~" H 10300 4000 50  0001 C CNN
	1    10300 4000
	0    -1   -1   0   
$EndComp
$Comp
L Device:R R36
U 1 1 5FFDF67F
P 9650 3600
F 0 "R36" V 9700 3700 50  0000 L CNN
F 1 "10k" V 9750 3550 50  0000 L CNN
F 2 "Resistor_SMD:R_0805_2012Metric" V 9580 3600 50  0001 C CNN
F 3 "~" H 9650 3600 50  0001 C CNN
	1    9650 3600
	0    -1   -1   0   
$EndComp
$Comp
L Device:R R37
U 1 1 5FFDE1D3
P 9650 4400
F 0 "R37" V 9700 4500 50  0000 L CNN
F 1 "10k" V 9750 4350 50  0000 L CNN
F 2 "Resistor_SMD:R_0805_2012Metric" V 9580 4400 50  0001 C CNN
F 3 "~" H 9650 4400 50  0001 C CNN
	1    9650 4400
	0    -1   -1   0   
$EndComp
$Comp
L Device:R R25
U 1 1 5FFDDBBC
P 8500 4100
F 0 "R25" V 8600 4050 50  0000 L CNN
F 1 "2M" V 8500 4050 50  0000 L CNN
F 2 "Resistor_SMD:R_0805_2012Metric" V 8430 4100 50  0001 C CNN
F 3 "~" H 8500 4100 50  0001 C CNN
	1    8500 4100
	0    -1   -1   0   
$EndComp
$Comp
L Device:R R27
U 1 1 5FFDD920
P 8850 4100
F 0 "R27" V 8950 4050 50  0000 L CNN
F 1 "820k" V 8850 4000 50  0000 L CNN
F 2 "Resistor_SMD:R_0805_2012Metric" V 8780 4100 50  0001 C CNN
F 3 "~" H 8850 4100 50  0001 C CNN
	1    8850 4100
	0    -1   -1   0   
$EndComp
$Comp
L Device:R R31
U 1 1 5FFDD626
P 9200 4100
F 0 "R31" V 9300 4050 50  0000 L CNN
F 1 "15k" V 9200 4050 50  0000 L CNN
F 2 "Resistor_SMD:R_0805_2012Metric" V 9130 4100 50  0001 C CNN
F 3 "~" H 9200 4100 50  0001 C CNN
	1    9200 4100
	0    -1   -1   0   
$EndComp
$Comp
L Device:R R24
U 1 1 5FFDD021
P 8500 3900
F 0 "R24" V 8600 3850 50  0000 L CNN
F 1 "2M" V 8500 3850 50  0000 L CNN
F 2 "Resistor_SMD:R_0805_2012Metric" V 8430 3900 50  0001 C CNN
F 3 "~" H 8500 3900 50  0001 C CNN
	1    8500 3900
	0    -1   -1   0   
$EndComp
$Comp
L Device:R R30
U 1 1 5FFDCD44
P 9200 3900
F 0 "R30" V 9300 3850 50  0000 L CNN
F 1 "15k" V 9200 3850 50  0000 L CNN
F 2 "Resistor_SMD:R_0805_2012Metric" V 9130 3900 50  0001 C CNN
F 3 "~" H 9200 3900 50  0001 C CNN
	1    9200 3900
	0    -1   -1   0   
$EndComp
$Comp
L Device:R R26
U 1 1 5FFDB8CD
P 8850 3900
F 0 "R26" V 8950 3850 50  0000 L CNN
F 1 "820k" V 8850 3800 50  0000 L CNN
F 2 "Resistor_SMD:R_0805_2012Metric" V 8780 3900 50  0001 C CNN
F 3 "~" H 8850 3900 50  0001 C CNN
	1    8850 3900
	0    -1   -1   0   
$EndComp
$Comp
L Amplifier_Operational:LM324 U8
U 5 1 5FFDA121
P 10550 1300
F 0 "U8" H 10508 1346 50  0000 L CNN
F 1 "LM324" H 10508 1255 50  0000 L CNN
F 2 "Package_SO:SOIC-14_3.9x8.7mm_P1.27mm" H 10500 1400 50  0001 C CNN
F 3 "http://www.ti.com/lit/ds/symlink/lm2902-n.pdf" H 10600 1500 50  0001 C CNN
	5    10550 1300
	1    0    0    -1  
$EndComp
$Comp
L Amplifier_Operational:LM324 U8
U 4 1 5FFD8E36
P 9750 2550
F 0 "U8" H 9800 2800 50  0000 C CNN
F 1 "LM324" H 9850 2700 50  0000 C CNN
F 2 "Package_SO:SOIC-14_3.9x8.7mm_P1.27mm" H 9700 2650 50  0001 C CNN
F 3 "http://www.ti.com/lit/ds/symlink/lm2902-n.pdf" H 9800 2750 50  0001 C CNN
	4    9750 2550
	1    0    0    -1  
$EndComp
$Comp
L Amplifier_Operational:LM324 U8
U 2 1 5FFD680D
P 9800 1450
F 0 "U8" H 9800 1817 50  0000 C CNN
F 1 "LM324" H 9800 1726 50  0000 C CNN
F 2 "Package_SO:SOIC-14_3.9x8.7mm_P1.27mm" H 9750 1550 50  0001 C CNN
F 3 "http://www.ti.com/lit/ds/symlink/lm2902-n.pdf" H 9850 1650 50  0001 C CNN
F 4 "C7943" H 9800 1450 50  0001 C CNN "LCSC"
	2    9800 1450
	1    0    0    -1  
$EndComp
$Comp
L Amplifier_Operational:LM324 U8
U 1 1 5FFD5153
P 9750 4000
F 0 "U8" H 9800 4250 50  0000 C CNN
F 1 "LM324" H 9850 4150 50  0000 C CNN
F 2 "Package_SO:SOIC-14_3.9x8.7mm_P1.27mm" H 9700 4100 50  0001 C CNN
F 3 "http://www.ti.com/lit/ds/symlink/lm2902-n.pdf" H 9800 4200 50  0001 C CNN
	1    9750 4000
	1    0    0    -1  
$EndComp
$Comp
L MCU_Microchip_PIC16:PIC16F1512-IMV U3
U 1 1 602B5B79
P 2500 2050
F 0 "U3" H 1750 3250 50  0000 C CNN
F 1 "PIC16F1936-QFN" H 2000 3150 50  0000 C CNN
F 2 "Package_DFN_QFN:QFN-28-1EP_4x4mm_P0.4mm_EP2.3x2.3mm" H 2500 2050 50  0001 C CNN
F 3 "http://ww1.microchip.com/downloads/en/DeviceDoc/41624A.pdf" H 2500 2050 50  0001 C CNN
	1    2500 2050
	1    0    0    -1  
$EndComp
$Comp
L power:GND #PWR029
U 1 1 602EFED8
P 2500 3350
F 0 "#PWR029" H 2500 3100 50  0001 C CNN
F 1 "GND" H 2505 3177 50  0000 C CNN
F 2 "" H 2500 3350 50  0001 C CNN
F 3 "" H 2500 3350 50  0001 C CNN
	1    2500 3350
	1    0    0    -1  
$EndComp
Wire Wire Line
	2500 3350 2500 3300
Wire Wire Line
	2600 3250 2600 3300
Wire Wire Line
	2600 3300 2500 3300
Connection ~ 2500 3300
Wire Wire Line
	2500 3300 2500 3250
$Comp
L power:+5V #PWR024
U 1 1 60343368
P 2500 800
F 0 "#PWR024" H 2500 650 50  0001 C CNN
F 1 "+5V" H 2515 973 50  0000 C CNN
F 2 "" H 2500 800 50  0001 C CNN
F 3 "" H 2500 800 50  0001 C CNN
	1    2500 800 
	1    0    0    -1  
$EndComp
Text Label 3850 1250 2    50   ~ 0
RLY1
Text Label 3850 1350 2    50   ~ 0
RLY2
Text Label 3850 1450 2    50   ~ 0
BUZ
Text Label 3850 1550 2    50   ~ 0
SCL_5V
Text Label 3850 1650 2    50   ~ 0
SDA_5V
$Comp
L Device:R R18
U 1 1 604476FB
P 3800 2150
F 0 "R18" V 3900 2150 50  0000 L CNN
F 1 "10k" V 3800 2100 50  0000 L CNN
F 2 "Resistor_SMD:R_0805_2012Metric" V 3730 2150 50  0001 C CNN
F 3 "~" H 3800 2150 50  0001 C CNN
	1    3800 2150
	0    -1   -1   0   
$EndComp
$Comp
L power:+5V #PWR030
U 1 1 60447702
P 4000 2100
F 0 "#PWR030" H 4000 1950 50  0001 C CNN
F 1 "+5V" H 4015 2273 50  0000 C CNN
F 2 "" H 4000 2100 50  0001 C CNN
F 3 "" H 4000 2100 50  0001 C CNN
	1    4000 2100
	1    0    0    -1  
$EndComp
Text Label 3650 2150 2    50   ~ 0
VPP
Text Label 1100 3000 0    50   ~ 0
PGC
Text Label 1100 3100 0    50   ~ 0
PGD
Text Label 3850 1750 2    50   ~ 0
SEN_ERR
Wire Wire Line
	3500 1250 3850 1250
Wire Wire Line
	3500 1350 3850 1350
Wire Wire Line
	3500 1450 3850 1450
Wire Wire Line
	3500 1550 3850 1550
Wire Wire Line
	3500 1650 3850 1650
Wire Wire Line
	3850 1750 3500 1750
Text Label 3850 1850 2    50   ~ 0
VA_ERR
Text Label 3850 1950 2    50   ~ 0
OPERATE
Wire Wire Line
	3850 1850 3500 1850
Wire Wire Line
	3850 1950 3500 1950
Text Label 1100 1250 0    50   ~ 0
POD
Wire Wire Line
	1100 1250 1500 1250
Text Label 1100 1350 0    50   ~ 0
V_Sense
Wire Wire Line
	1500 1350 1100 1350
Text Label 1100 1450 0    50   ~ 0
I1_Sense
Wire Wire Line
	1100 1450 1500 1450
Text Label 1100 1550 0    50   ~ 0
SW_SET
Wire Wire Line
	1100 1550 1500 1550
$Comp
L Connector_Generic:Conn_01x06 J5
U 1 1 60969AF8
P 1650 4300
F 0 "J5" H 1600 4700 50  0000 L CNN
F 1 "Status" H 1550 4600 50  0000 L CNN
F 2 "Connector_PinHeader_2.54mm:PinHeader_1x06_P2.54mm_Vertical" H 1650 4300 50  0001 C CNN
F 3 "~" H 1650 4300 50  0001 C CNN
	1    1650 4300
	1    0    0    -1  
$EndComp
Text Label 650  4100 0    50   ~ 0
SW_SET
Text Label 650  4200 0    50   ~ 0
OPERATE
Wire Wire Line
	650  4200 1000 4200
Text Label 650  3950 0    50   ~ 0
SW_SET
$Comp
L Device:R R23
U 1 1 60A26F1F
P 1150 3950
F 0 "R23" V 1250 3950 50  0000 L CNN
F 1 "1k" V 1150 3900 50  0000 L CNN
F 2 "Resistor_SMD:R_0805_2012Metric" V 1080 3950 50  0001 C CNN
F 3 "~" H 1150 3950 50  0001 C CNN
	1    1150 3950
	0    -1   -1   0   
$EndComp
Wire Wire Line
	1000 3950 650  3950
$Comp
L power:+5V #PWR042
U 1 1 60A56FDC
P 1350 3900
F 0 "#PWR042" H 1350 3750 50  0001 C CNN
F 1 "+5V" H 1365 4073 50  0000 C CNN
F 2 "" H 1350 3900 50  0001 C CNN
F 3 "" H 1350 3900 50  0001 C CNN
	1    1350 3900
	1    0    0    -1  
$EndComp
Wire Wire Line
	1300 3950 1350 3950
Wire Wire Line
	1350 3950 1350 3900
Text Label 1100 1650 0    50   ~ 0
Debug
Wire Wire Line
	1100 1650 1500 1650
$Comp
L Connector_Generic:Conn_01x02 J6
U 1 1 60B19608
P 2450 3900
F 0 "J6" H 2400 4100 50  0000 L CNN
F 1 "Debug" H 2350 4000 50  0000 L CNN
F 2 "Connector_PinHeader_2.54mm:PinHeader_1x02_P2.54mm_Vertical" H 2450 3900 50  0001 C CNN
F 3 "~" H 2450 3900 50  0001 C CNN
	1    2450 3900
	1    0    0    -1  
$EndComp
Text Label 1950 3900 0    50   ~ 0
Debug
Wire Wire Line
	1950 3900 2250 3900
$Comp
L power:GND #PWR038
U 1 1 60B4BB9A
P 2200 4050
F 0 "#PWR038" H 2200 3800 50  0001 C CNN
F 1 "GND" H 2205 3877 50  0000 C CNN
F 2 "" H 2200 4050 50  0001 C CNN
F 3 "" H 2200 4050 50  0001 C CNN
	1    2200 4050
	1    0    0    -1  
$EndComp
Wire Wire Line
	2200 4050 2200 4000
Wire Wire Line
	2200 4000 2250 4000
Text Label 1100 1850 0    50   ~ 0
FLOW_ERR
Wire Wire Line
	1100 1850 1500 1850
Text Label 650  4500 0    50   ~ 0
FLOW_ERR
Text Label 650  4400 0    50   ~ 0
SEN_ERR
Text Label 650  4300 0    50   ~ 0
VA_ERR
Wire Wire Line
	1000 4500 650  4500
Wire Wire Line
	1000 4400 650  4400
Wire Wire Line
	1000 4300 650  4300
$Comp
L power:GND #PWR031
U 1 1 60D3AE16
P 1300 4650
F 0 "#PWR031" H 1300 4400 50  0001 C CNN
F 1 "GND" H 1305 4477 50  0000 C CNN
F 2 "" H 1300 4650 50  0001 C CNN
F 3 "" H 1300 4650 50  0001 C CNN
	1    1300 4650
	1    0    0    -1  
$EndComp
Wire Wire Line
	1300 4650 1300 4600
$Comp
L Connector_Generic:Conn_01x08 J4
U 1 1 60EE1E8F
P 650 2450
F 0 "J4" H 650 2950 50  0000 C CNN
F 1 "LVL" H 650 2850 50  0000 C CNN
F 2 "Connector_PinHeader_2.54mm:PinHeader_1x08_P2.54mm_Vertical" H 650 2450 50  0001 C CNN
F 3 "~" H 650 2450 50  0001 C CNN
	1    650  2450
	-1   0    0    -1  
$EndComp
Wire Wire Line
	1500 2150 1300 2150
Wire Wire Line
	1500 2250 1300 2250
Wire Wire Line
	1500 2350 1300 2350
Wire Wire Line
	1500 2450 1300 2450
Wire Wire Line
	1500 2550 1300 2550
Wire Wire Line
	1500 2650 1300 2650
Wire Wire Line
	1500 2750 1350 2750
Wire Wire Line
	1500 2850 1450 2850
Wire Wire Line
	1100 3000 1350 3000
Wire Wire Line
	1350 3000 1350 2750
Connection ~ 1350 2750
Wire Wire Line
	1350 2750 1300 2750
Wire Wire Line
	1100 3100 1450 3100
Wire Wire Line
	1450 3100 1450 2850
Connection ~ 1450 2850
Wire Wire Line
	1450 2850 1300 2850
$Comp
L power:+12V #PWR043
U 1 1 615A4250
P 10450 900
F 0 "#PWR043" H 10450 750 50  0001 C CNN
F 1 "+12V" H 10465 1073 50  0000 C CNN
F 2 "" H 10450 900 50  0001 C CNN
F 3 "" H 10450 900 50  0001 C CNN
	1    10450 900 
	1    0    0    -1  
$EndComp
$Comp
L Amplifier_Operational:LM324 U8
U 3 1 5FFD7C7E
P 8650 1450
F 0 "U8" H 8700 1700 50  0000 C CNN
F 1 "LM324" H 8750 1600 50  0000 C CNN
F 2 "Package_SO:SOIC-14_3.9x8.7mm_P1.27mm" H 8600 1550 50  0001 C CNN
F 3 "http://www.ti.com/lit/ds/symlink/lm2902-n.pdf" H 8700 1650 50  0001 C CNN
	3    8650 1450
	1    0    0    -1  
$EndComp
Wire Wire Line
	2500 850  2500 800 
Wire Wire Line
	3650 2150 3500 2150
Wire Wire Line
	3950 2150 4000 2150
Wire Wire Line
	4000 2150 4000 2100
Wire Notes Line
	4200 550  4200 3550
Wire Notes Line
	4200 3550 550  3550
Wire Notes Line
	550  3550 550  550 
Wire Notes Line
	550  550  4200 550 
Text Notes 600  650  0    50   ~ 0
MCU
Wire Wire Line
	8350 4100 8250 4100
Wire Wire Line
	8250 4100 8250 4050
Wire Wire Line
	8250 3950 8250 3900
Wire Wire Line
	8250 3900 8350 3900
Wire Wire Line
	8650 3900 8700 3900
Wire Wire Line
	9000 3900 9050 3900
Wire Wire Line
	8650 4100 8700 4100
Wire Wire Line
	9000 4100 9050 4100
Wire Notes Line
	11050 600  11050 4750
Wire Notes Line
	11050 4750 7900 4750
Wire Notes Line
	7900 4750 7900 600 
Wire Notes Line
	7900 600  11050 600 
Text Notes 7950 700  0    50   ~ 0
V/A Sense
Wire Notes Line
	1750 3650 1750 4900
Wire Notes Line
	1750 4900 550  4900
Wire Notes Line
	550  4900 550  3650
Wire Notes Line
	550  3650 1750 3650
Text Notes 600  3750 0    50   ~ 0
Status
Wire Notes Line
	2650 3650 2650 4300
Wire Notes Line
	2650 4300 1850 4300
Wire Notes Line
	1850 4300 1850 3650
Wire Notes Line
	1850 3650 2650 3650
Text Notes 1900 3750 0    50   ~ 0
Debug
Text Notes 4350 3250 0    50   ~ 0
Buzzer
Text Label 9400 5400 0    50   ~ 0
RLY1
Text Label 9400 5500 0    50   ~ 0
RLY2
Wire Wire Line
	9400 5400 9750 5400
Wire Wire Line
	9400 5500 9750 5500
$Comp
L Device:R_Pack04 RN2
U 1 1 622F2715
P 1100 2750
F 0 "RN2" V 850 3050 50  0000 C CNN
F 1 "470R" V 950 3050 50  0000 C CNN
F 2 "Resistor_SMD:R_Array_Convex_4x0603" V 1375 2750 50  0001 C CNN
F 3 "~" H 1100 2750 50  0001 C CNN
F 4 "C713474" V 1100 2750 50  0001 C CNN "LCSC"
	1    1100 2750
	0    1    1    0   
$EndComp
$Comp
L Device:R_Pack04 RN1
U 1 1 622F1191
P 1100 2350
F 0 "RN1" V 683 2350 50  0000 C CNN
F 1 "470R" V 774 2350 50  0000 C CNN
F 2 "Resistor_SMD:R_Array_Convex_4x0603" V 1375 2350 50  0001 C CNN
F 3 "~" H 1100 2350 50  0001 C CNN
F 4 "C713474" V 1100 2350 50  0001 C CNN "LCSC"
	1    1100 2350
	0    1    1    0   
$EndComp
Wire Wire Line
	900  2150 850  2150
Wire Wire Line
	900  2250 850  2250
Wire Wire Line
	900  2350 850  2350
Wire Wire Line
	900  2450 850  2450
Wire Wire Line
	900  2550 850  2550
Wire Wire Line
	900  2650 850  2650
Wire Wire Line
	900  2750 850  2750
Wire Wire Line
	900  2850 850  2850
$Comp
L Transistor_BJT:BC847 Q1
U 1 1 623DDE11
P 5450 4050
F 0 "Q1" H 5641 4096 50  0000 L CNN
F 1 "BC847" H 5641 4005 50  0000 L CNN
F 2 "Package_TO_SOT_SMD:SOT-23" H 5650 3975 50  0001 L CIN
F 3 "http://www.infineon.com/dgdl/Infineon-BC847SERIES_BC848SERIES_BC849SERIES_BC850SERIES-DS-v01_01-en.pdf?fileId=db3a304314dca389011541d4630a1657" H 5450 4050 50  0001 L CNN
F 4 "C475630" H 5450 4050 50  0001 C CNN "LCSC"
	1    5450 4050
	1    0    0    -1  
$EndComp
$Comp
L Device:R_Pack04 RN3
U 1 1 624AE973
P 1200 4400
F 0 "RN3" V 1400 4350 50  0000 C CNN
F 1 "470R" V 850 4400 50  0000 C CNN
F 2 "Resistor_SMD:R_Array_Convex_4x0603" V 1475 4400 50  0001 C CNN
F 3 "~" H 1200 4400 50  0001 C CNN
F 4 "C713474" V 1200 4400 50  0001 C CNN "LCSC"
	1    1200 4400
	0    1    1    0   
$EndComp
Wire Wire Line
	1450 4200 1400 4200
Wire Wire Line
	1450 4300 1400 4300
Wire Wire Line
	1450 4400 1400 4400
Wire Wire Line
	1450 4500 1400 4500
Wire Wire Line
	1300 4600 1450 4600
Wire Wire Line
	1450 4100 650  4100
Wire Wire Line
	3650 6800 3800 6800
Wire Wire Line
	3800 6800 3800 6900
$Comp
L Device:Q_NMOS_GSD Q5
U 1 1 62A50EF6
P 7000 3850
F 0 "Q5" V 7200 3750 50  0000 C CNN
F 1 "BS170" V 7200 4050 50  0000 C CNN
F 2 "Package_TO_SOT_SMD:SOT-23" H 7200 3950 50  0001 C CNN
F 3 "~" H 7000 3850 50  0001 C CNN
F 4 "C151050" V 7000 3850 50  0001 C CNN "LCSC"
	1    7000 3850
	0    1    1    0   
$EndComp
$Comp
L Device:R R4
U 1 1 62A5438A
P 6750 3650
F 0 "R4" H 6850 3550 50  0000 L CNN
F 1 "10k" H 6800 3650 50  0000 L CNN
F 2 "Resistor_SMD:R_0805_2012Metric" V 6680 3650 50  0001 C CNN
F 3 "~" H 6750 3650 50  0001 C CNN
	1    6750 3650
	-1   0    0    1   
$EndComp
$Comp
L Device:R R8
U 1 1 62A54D74
P 7350 3650
F 0 "R8" H 7450 3550 50  0000 L CNN
F 1 "10k" H 7400 3650 50  0000 L CNN
F 2 "Resistor_SMD:R_0805_2012Metric" V 7280 3650 50  0001 C CNN
F 3 "~" H 7350 3650 50  0001 C CNN
	1    7350 3650
	-1   0    0    1   
$EndComp
Text Label 7700 3950 2    50   ~ 0
SCL_5V
Wire Wire Line
	6300 1900 6650 1900
Wire Wire Line
	6300 1800 6650 1800
Text Label 6350 3950 0    50   ~ 0
SCL_3.3V
Wire Wire Line
	6350 3950 6750 3950
Wire Wire Line
	6750 3800 6750 3950
Connection ~ 6750 3950
Wire Wire Line
	6750 3950 6800 3950
$Comp
L power:+3.3V #PWR068
U 1 1 62AB81E1
P 6750 3350
F 0 "#PWR068" H 6750 3200 50  0001 C CNN
F 1 "+3.3V" H 6765 3523 50  0000 C CNN
F 2 "" H 6750 3350 50  0001 C CNN
F 3 "" H 6750 3350 50  0001 C CNN
	1    6750 3350
	1    0    0    -1  
$EndComp
Wire Wire Line
	6750 3500 6750 3400
Wire Wire Line
	7000 3650 7000 3400
Wire Wire Line
	7000 3400 6750 3400
Connection ~ 6750 3400
Wire Wire Line
	6750 3400 6750 3350
Wire Wire Line
	7700 3950 7350 3950
Wire Wire Line
	7350 3800 7350 3950
Connection ~ 7350 3950
Wire Wire Line
	7350 3950 7200 3950
$Comp
L power:+5V #PWR076
U 1 1 62B08A7C
P 7350 3350
F 0 "#PWR076" H 7350 3200 50  0001 C CNN
F 1 "+5V" H 7365 3523 50  0000 C CNN
F 2 "" H 7350 3350 50  0001 C CNN
F 3 "" H 7350 3350 50  0001 C CNN
	1    7350 3350
	1    0    0    -1  
$EndComp
Wire Wire Line
	7350 3350 7350 3500
$Comp
L Device:Q_NMOS_GSD Q2
U 1 1 62B1FA11
P 6950 4900
F 0 "Q2" V 7150 4750 50  0000 C CNN
F 1 "BS170" V 7150 5100 50  0000 C CNN
F 2 "Package_TO_SOT_SMD:SOT-23" H 7150 5000 50  0001 C CNN
F 3 "~" H 6950 4900 50  0001 C CNN
F 4 "C151050" V 6950 4900 50  0001 C CNN "LCSC"
	1    6950 4900
	0    1    1    0   
$EndComp
$Comp
L Device:R R1
U 1 1 62B1FA17
P 6700 4700
F 0 "R1" H 6800 4600 50  0000 L CNN
F 1 "10k" H 6750 4700 50  0000 L CNN
F 2 "Resistor_SMD:R_0805_2012Metric" V 6630 4700 50  0001 C CNN
F 3 "~" H 6700 4700 50  0001 C CNN
	1    6700 4700
	-1   0    0    1   
$EndComp
$Comp
L Device:R R7
U 1 1 62B1FA1D
P 7300 4700
F 0 "R7" H 7400 4600 50  0000 L CNN
F 1 "10k" H 7350 4700 50  0000 L CNN
F 2 "Resistor_SMD:R_0805_2012Metric" V 7230 4700 50  0001 C CNN
F 3 "~" H 7300 4700 50  0001 C CNN
	1    7300 4700
	-1   0    0    1   
$EndComp
Text Label 7650 5000 2    50   ~ 0
SDA_5V
Text Label 6300 5000 0    50   ~ 0
SDA_3.3V
Wire Wire Line
	6300 5000 6700 5000
Wire Wire Line
	6700 4850 6700 5000
Connection ~ 6700 5000
Wire Wire Line
	6700 5000 6750 5000
$Comp
L power:+3.3V #PWR066
U 1 1 62B1FA29
P 6700 4400
F 0 "#PWR066" H 6700 4250 50  0001 C CNN
F 1 "+3.3V" H 6715 4573 50  0000 C CNN
F 2 "" H 6700 4400 50  0001 C CNN
F 3 "" H 6700 4400 50  0001 C CNN
	1    6700 4400
	1    0    0    -1  
$EndComp
Wire Wire Line
	6700 4550 6700 4450
Wire Wire Line
	6950 4700 6950 4450
Wire Wire Line
	6950 4450 6700 4450
Connection ~ 6700 4450
Wire Wire Line
	6700 4450 6700 4400
Wire Wire Line
	7650 5000 7300 5000
Wire Wire Line
	7300 4850 7300 5000
Connection ~ 7300 5000
Wire Wire Line
	7300 5000 7150 5000
$Comp
L power:+5V #PWR075
U 1 1 62B1FA38
P 7300 4400
F 0 "#PWR075" H 7300 4250 50  0001 C CNN
F 1 "+5V" H 7315 4573 50  0000 C CNN
F 2 "" H 7300 4400 50  0001 C CNN
F 3 "" H 7300 4400 50  0001 C CNN
	1    7300 4400
	1    0    0    -1  
$EndComp
Wire Wire Line
	7300 4400 7300 4550
$EndSCHEMATC
