EESchema Schematic File Version 4
EELAYER 30 0
EELAYER END
$Descr A4 11693 8268
encoding utf-8
Sheet 1 1
Title "Smart Meter RS485 Isolation"
Date "2020-12-21"
Rev "0"
Comp ""
Comment1 ""
Comment2 ""
Comment3 ""
Comment4 ""
$EndDescr
$Comp
L power:+5V #PWR020
U 1 1 5FB0043B
P 6100 1300
F 0 "#PWR020" H 6100 1150 50  0001 C CNN
F 1 "+5V" H 6115 1473 50  0000 C CNN
F 2 "" H 6100 1300 50  0001 C CNN
F 3 "" H 6100 1300 50  0001 C CNN
	1    6100 1300
	1    0    0    -1  
$EndComp
$Comp
L Device:C C1
U 1 1 600626EF
P 750 6450
F 0 "C1" H 865 6496 50  0000 L CNN
F 1 "104" H 865 6405 50  0000 L CNN
F 2 "Capacitor_THT:C_Rect_L7.0mm_W3.5mm_P5.00mm" H 788 6300 50  0001 C CNN
F 3 "~" H 750 6450 50  0001 C CNN
	1    750  6450
	1    0    0    -1  
$EndComp
$Comp
L power:GND #PWR02
U 1 1 5FB0A6B6
P 750 6650
F 0 "#PWR02" H 750 6400 50  0001 C CNN
F 1 "GND" H 755 6477 50  0000 C CNN
F 2 "" H 750 6650 50  0001 C CNN
F 3 "" H 750 6650 50  0001 C CNN
	1    750  6650
	1    0    0    -1  
$EndComp
Wire Wire Line
	750  6200 750  6300
Wire Wire Line
	750  6600 750  6650
Text Notes 650  5250 0    50   ~ 0
MCU
$Comp
L Mechanical:MountingHole H1
U 1 1 60062701
P 10450 5550
F 0 "H1" H 10550 5596 50  0000 L CNN
F 1 "MountingHole" H 10550 5505 50  0000 L CNN
F 2 "MountingHole:MountingHole_3mm_Pad_Via" H 10450 5550 50  0001 C CNN
F 3 "~" H 10450 5550 50  0001 C CNN
	1    10450 5550
	1    0    0    -1  
$EndComp
$Comp
L Mechanical:MountingHole H2
U 1 1 600722EB
P 10450 5800
F 0 "H2" H 10550 5846 50  0000 L CNN
F 1 "MountingHole" H 10550 5755 50  0000 L CNN
F 2 "MountingHole:MountingHole_3mm_Pad_Via" H 10450 5800 50  0001 C CNN
F 3 "~" H 10450 5800 50  0001 C CNN
	1    10450 5800
	1    0    0    -1  
$EndComp
$Comp
L Mechanical:MountingHole H3
U 1 1 60062703
P 10450 6050
F 0 "H3" H 10550 6096 50  0000 L CNN
F 1 "MountingHole" H 10550 6005 50  0000 L CNN
F 2 "MountingHole:MountingHole_3mm_Pad_Via" H 10450 6050 50  0001 C CNN
F 3 "~" H 10450 6050 50  0001 C CNN
	1    10450 6050
	1    0    0    -1  
$EndComp
$Comp
L Mechanical:MountingHole H4
U 1 1 60072588
P 10450 6300
F 0 "H4" H 10550 6346 50  0000 L CNN
F 1 "MountingHole" H 10550 6255 50  0000 L CNN
F 2 "MountingHole:MountingHole_3mm_Pad_Via" H 10450 6300 50  0001 C CNN
F 3 "~" H 10450 6300 50  0001 C CNN
	1    10450 6300
	1    0    0    -1  
$EndComp
$Comp
L Connector:Screw_Terminal_01x02 J1
U 1 1 5FBC8EAC
P 750 1300
F 0 "J1" H 800 1000 50  0000 C CNN
F 1 "PowerIN" H 700 1100 50  0000 C CNN
F 2 "TerminalBlock:TerminalBlock_bornier-2_P5.08mm" H 750 1300 50  0001 C CNN
F 3 "~" H 750 1300 50  0001 C CNN
	1    750  1300
	-1   0    0    1   
$EndComp
$Comp
L Device:CP C3
U 1 1 5FBCC0FB
P 1750 1450
F 0 "C3" H 1868 1496 50  0000 L CNN
F 1 "10uF" H 1868 1405 50  0000 L CNN
F 2 "Capacitor_THT:C_Radial_D6.3mm_H11.0mm_P2.50mm" H 1788 1300 50  0001 C CNN
F 3 "~" H 1750 1450 50  0001 C CNN
	1    1750 1450
	1    0    0    -1  
$EndComp
$Comp
L Device:CP C5
U 1 1 5FBCDEEB
P 2200 1450
F 0 "C5" H 2318 1496 50  0000 L CNN
F 1 "1uF" H 2318 1405 50  0000 L CNN
F 2 "Capacitor_THT:C_Radial_D6.3mm_H11.0mm_P2.50mm" H 2238 1300 50  0001 C CNN
F 3 "~" H 2200 1450 50  0001 C CNN
	1    2200 1450
	1    0    0    -1  
$EndComp
$Comp
L Device:C C6
U 1 1 5FBD0331
P 2600 1450
F 0 "C6" H 2715 1496 50  0000 L CNN
F 1 "104" H 2715 1405 50  0000 L CNN
F 2 "Capacitor_THT:C_Rect_L7.0mm_W3.5mm_P5.00mm" H 2638 1300 50  0001 C CNN
F 3 "~" H 2600 1450 50  0001 C CNN
	1    2600 1450
	1    0    0    -1  
$EndComp
$Comp
L Device:CP C8
U 1 1 5FF57414
P 3000 1500
F 0 "C8" H 2850 1650 50  0000 L CNN
F 1 "470uF" H 3050 1650 50  0000 L CNN
F 2 "Capacitor_THT:CP_Radial_D8.0mm_P3.50mm" H 3038 1350 50  0001 C CNN
F 3 "~" H 3000 1500 50  0001 C CNN
	1    3000 1500
	1    0    0    -1  
$EndComp
$Comp
L Device:C C9
U 1 1 5FF821FC
P 5850 1650
F 0 "C9" H 5965 1696 50  0000 L CNN
F 1 "104" H 5965 1605 50  0000 L CNN
F 2 "Capacitor_THT:C_Rect_L7.0mm_W3.5mm_P5.00mm" H 5888 1500 50  0001 C CNN
F 3 "~" H 5850 1650 50  0001 C CNN
	1    5850 1650
	1    0    0    -1  
$EndComp
$Comp
L power:GND #PWR0117
U 1 1 60006FD8
P 1050 1400
F 0 "#PWR0117" H 1050 1150 50  0001 C CNN
F 1 "GND" H 1050 1250 50  0000 C CNN
F 2 "" H 1050 1400 50  0001 C CNN
F 3 "" H 1050 1400 50  0001 C CNN
	1    1050 1400
	1    0    0    -1  
$EndComp
Wire Wire Line
	950  1300 1050 1300
Wire Wire Line
	1050 1300 1050 1400
$Comp
L power:GND #PWR03
U 1 1 6026F84B
P 3000 1750
F 0 "#PWR03" H 3000 1500 50  0001 C CNN
F 1 "GND" H 3005 1577 50  0000 C CNN
F 2 "" H 3000 1750 50  0001 C CNN
F 3 "" H 3000 1750 50  0001 C CNN
	1    3000 1750
	1    0    0    -1  
$EndComp
Wire Wire Line
	3000 1750 3000 1650
Text Notes 650  800  0    50   ~ 0
Power Supply
$Comp
L Regulator_Switching:LM2596S-5 U2
U 1 1 5FC8C9A0
P 3900 1300
F 0 "U2" H 3900 1667 50  0000 C CNN
F 1 "LM2596S-5" H 3900 1576 50  0000 C CNN
F 2 "Package_TO_SOT_SMD:TO-263-5_TabPin3" H 3950 1050 50  0001 L CIN
F 3 "http://www.ti.com/lit/ds/symlink/lm2596.pdf" H 3900 1300 50  0001 C CNN
	1    3900 1300
	1    0    0    -1  
$EndComp
$Comp
L Diode:1N5822 D2
U 1 1 5FC8F02C
P 4600 1650
F 0 "D2" V 4554 1730 50  0000 L CNN
F 1 "1N5824" V 4645 1730 50  0000 L CNN
F 2 "Diode_SMD:D_SMA" H 4600 1475 50  0001 C CNN
F 3 "http://www.vishay.com/docs/88526/1n5820.pdf" H 4600 1650 50  0001 C CNN
	1    4600 1650
	0    1    1    0   
$EndComp
$Comp
L pspice:INDUCTOR L1
U 1 1 5FC910BF
P 5050 1400
F 0 "L1" H 5050 1615 50  0000 C CNN
F 1 "33uH" H 5050 1524 50  0000 C CNN
F 2 "Inductor_THT:L_Axial_L26.7mm_D14.0mm_P7.62mm_Vertical_Vishay_IHA-104" H 5050 1400 50  0001 C CNN
F 3 "~" H 5050 1400 50  0001 C CNN
	1    5050 1400
	1    0    0    -1  
$EndComp
$Comp
L power:GND #PWR0108
U 1 1 5FD0DC28
P 3300 1500
F 0 "#PWR0108" H 3300 1250 50  0001 C CNN
F 1 "GND" H 3305 1327 50  0000 C CNN
F 2 "" H 3300 1500 50  0001 C CNN
F 3 "" H 3300 1500 50  0001 C CNN
	1    3300 1500
	1    0    0    -1  
$EndComp
Wire Wire Line
	3400 1400 3300 1400
Wire Wire Line
	3300 1400 3300 1500
$Comp
L power:GND #PWR0112
U 1 1 5FD1A800
P 3900 1700
F 0 "#PWR0112" H 3900 1450 50  0001 C CNN
F 1 "GND" H 3905 1527 50  0000 C CNN
F 2 "" H 3900 1700 50  0001 C CNN
F 3 "" H 3900 1700 50  0001 C CNN
	1    3900 1700
	1    0    0    -1  
$EndComp
Wire Wire Line
	3900 1700 3900 1600
$Comp
L power:GND #PWR0115
U 1 1 5FD27415
P 4600 1900
F 0 "#PWR0115" H 4600 1650 50  0001 C CNN
F 1 "GND" H 4605 1727 50  0000 C CNN
F 2 "" H 4600 1900 50  0001 C CNN
F 3 "" H 4600 1900 50  0001 C CNN
	1    4600 1900
	1    0    0    -1  
$EndComp
Wire Wire Line
	4600 1900 4600 1800
Wire Wire Line
	4400 1400 4600 1400
Wire Wire Line
	4600 1500 4600 1400
Connection ~ 4600 1400
Wire Wire Line
	4600 1400 4800 1400
$Comp
L Device:CP C2
U 1 1 5FDA4CC7
P 5550 1650
F 0 "C2" H 5300 1700 50  0000 L CNN
F 1 "220uF" H 5200 1600 50  0000 L CNN
F 2 "Capacitor_THT:CP_Radial_D8.0mm_P3.50mm" H 5588 1500 50  0001 C CNN
F 3 "~" H 5550 1650 50  0001 C CNN
	1    5550 1650
	1    0    0    -1  
$EndComp
Wire Wire Line
	5300 1400 5550 1400
Wire Wire Line
	6100 1400 6100 1300
Connection ~ 5550 1400
Wire Wire Line
	5550 1400 5850 1400
Connection ~ 5850 1400
Wire Wire Line
	5850 1400 6100 1400
$Comp
L power:GND #PWR0116
U 1 1 5FDD847E
P 5550 1900
F 0 "#PWR0116" H 5550 1650 50  0001 C CNN
F 1 "GND" H 5555 1727 50  0000 C CNN
F 2 "" H 5550 1900 50  0001 C CNN
F 3 "" H 5550 1900 50  0001 C CNN
	1    5550 1900
	1    0    0    -1  
$EndComp
$Comp
L power:GND #PWR0118
U 1 1 5FDD876F
P 5850 1900
F 0 "#PWR0118" H 5850 1650 50  0001 C CNN
F 1 "GND" H 5855 1727 50  0000 C CNN
F 2 "" H 5850 1900 50  0001 C CNN
F 3 "" H 5850 1900 50  0001 C CNN
	1    5850 1900
	1    0    0    -1  
$EndComp
Wire Wire Line
	5550 1400 5550 1500
Wire Wire Line
	5850 1400 5850 1500
Wire Wire Line
	5550 1900 5550 1800
Wire Wire Line
	5850 1900 5850 1800
Wire Wire Line
	4400 1200 5550 1200
Wire Wire Line
	5550 1200 5550 1400
$Comp
L Device:D D3
U 1 1 5FEA3F85
P 1500 1200
F 0 "D3" H 1400 1300 50  0000 C CNN
F 1 "1N4007" H 1450 1100 50  0000 C CNN
F 2 "Diode_THT:D_DO-41_SOD81_P7.62mm_Horizontal" H 1500 1200 50  0001 C CNN
F 3 "~" H 1500 1200 50  0001 C CNN
	1    1500 1200
	-1   0    0    1   
$EndComp
Wire Wire Line
	3000 1350 3000 1200
Wire Wire Line
	3000 1200 3400 1200
Wire Wire Line
	950  1200 1050 1200
Wire Wire Line
	1750 1300 1750 1200
Wire Wire Line
	1750 1200 2200 1200
Wire Wire Line
	2200 1300 2200 1200
Connection ~ 2200 1200
Wire Wire Line
	2200 1200 2600 1200
Wire Wire Line
	2600 1300 2600 1200
$Comp
L power:GND #PWR019
U 1 1 5FDE6587
P 1750 1700
F 0 "#PWR019" H 1750 1450 50  0001 C CNN
F 1 "GND" H 1755 1527 50  0000 C CNN
F 2 "" H 1750 1700 50  0001 C CNN
F 3 "" H 1750 1700 50  0001 C CNN
	1    1750 1700
	1    0    0    -1  
$EndComp
$Comp
L power:GND #PWR022
U 1 1 5FDE696E
P 2200 1700
F 0 "#PWR022" H 2200 1450 50  0001 C CNN
F 1 "GND" H 2205 1527 50  0000 C CNN
F 2 "" H 2200 1700 50  0001 C CNN
F 3 "" H 2200 1700 50  0001 C CNN
	1    2200 1700
	1    0    0    -1  
$EndComp
$Comp
L power:GND #PWR026
U 1 1 5FDE6AF2
P 2600 1700
F 0 "#PWR026" H 2600 1450 50  0001 C CNN
F 1 "GND" H 2605 1527 50  0000 C CNN
F 2 "" H 2600 1700 50  0001 C CNN
F 3 "" H 2600 1700 50  0001 C CNN
	1    2600 1700
	1    0    0    -1  
$EndComp
Wire Wire Line
	1750 1700 1750 1600
Wire Wire Line
	2200 1700 2200 1600
Wire Wire Line
	2600 1700 2600 1600
Wire Notes Line
	600  700  6300 700 
$Comp
L power:GND #PWR08
U 1 1 5FEB5C8B
P 1200 6600
F 0 "#PWR08" H 1200 6350 50  0001 C CNN
F 1 "GND" H 1205 6427 50  0000 C CNN
F 2 "" H 1200 6600 50  0001 C CNN
F 3 "" H 1200 6600 50  0001 C CNN
	1    1200 6600
	1    0    0    -1  
$EndComp
Wire Wire Line
	1200 6600 1200 6500
$Comp
L Relay:SANYOU_SRD_Form_C K1
U 1 1 5FAD8B60
P 9600 1500
F 0 "K1" H 10030 1546 50  0000 L CNN
F 1 "RLY1" H 10030 1455 50  0000 L CNN
F 2 "SLA-12VDC-SL-C(T93):RELAY_SLA-12VDC-SL-C" H 10050 1450 50  0001 L CNN
F 3 "http://www.sanyourelay.ca/public/products/pdf/SRD.pdf" H 9600 1500 50  0001 C CNN
	1    9600 1500
	1    0    0    -1  
$EndComp
$Comp
L Device:R R8
U 1 1 5FADC835
P 8800 2200
F 0 "R8" V 8600 2150 50  0000 L CNN
F 1 "10k" V 8700 2100 50  0000 L CNN
F 2 "Resistor_THT:R_Axial_DIN0207_L6.3mm_D2.5mm_P7.62mm_Horizontal" V 8730 2200 50  0001 C CNN
F 3 "~" H 8800 2200 50  0001 C CNN
	1    8800 2200
	0    1    1    0   
$EndComp
$Comp
L power:GND #PWR024
U 1 1 5FADD126
P 9400 2500
F 0 "#PWR024" H 9400 2250 50  0001 C CNN
F 1 "GND" H 9405 2327 50  0000 C CNN
F 2 "" H 9400 2500 50  0001 C CNN
F 3 "" H 9400 2500 50  0001 C CNN
	1    9400 2500
	1    0    0    -1  
$EndComp
Wire Wire Line
	9400 2500 9400 2400
Wire Wire Line
	9400 2000 9400 1900
Wire Wire Line
	8900 1350 8900 1100
Wire Wire Line
	8900 1100 9400 1100
Connection ~ 9400 1100
Wire Wire Line
	9400 1100 9400 1200
Wire Wire Line
	8900 1650 8900 1900
Wire Wire Line
	8900 1900 9400 1900
Connection ~ 9400 1900
Wire Wire Line
	9400 1900 9400 1800
Text Label 6900 2000 0    50   ~ 0
RLY1
$Comp
L Connector:Screw_Terminal_01x03 J6
U 1 1 5FC137B1
P 10700 1500
F 0 "J6" H 10780 1542 50  0000 L CNN
F 1 "RLY1_OUT" H 10780 1451 50  0000 L CNN
F 2 "TerminalBlock:TerminalBlock_bornier-3_P5.08mm" H 10700 1500 50  0001 C CNN
F 3 "~" H 10700 1500 50  0001 C CNN
	1    10700 1500
	1    0    0    -1  
$EndComp
Text Label 10100 1100 2    50   ~ 0
NO1
Text Label 10100 1000 2    50   ~ 0
NC1
Text Label 10100 1900 2    50   ~ 0
COM1
Wire Wire Line
	10100 1000 9700 1000
Wire Wire Line
	9700 1000 9700 1200
Wire Wire Line
	10100 1100 9900 1100
Wire Wire Line
	9900 1100 9900 1200
Wire Wire Line
	10100 1900 9800 1900
Wire Wire Line
	9800 1900 9800 1800
Text Label 10250 1500 0    50   ~ 0
NO1
Text Label 10250 1400 0    50   ~ 0
COM1
Text Label 10250 1600 0    50   ~ 0
NC1
Wire Wire Line
	10250 1500 10500 1500
Wire Wire Line
	10250 1400 10500 1400
Wire Wire Line
	10250 1600 10500 1600
$Comp
L power:+12V #PWR0107
U 1 1 5FE3026E
P 9400 950
F 0 "#PWR0107" H 9400 800 50  0001 C CNN
F 1 "+12V" H 9415 1123 50  0000 C CNN
F 2 "" H 9400 950 50  0001 C CNN
F 3 "" H 9400 950 50  0001 C CNN
	1    9400 950 
	1    0    0    -1  
$EndComp
Wire Wire Line
	9400 950  9400 1100
Text Notes 6800 800  0    50   ~ 0
Relay
$Comp
L Device:LED D4
U 1 1 6000ED4E
P 8500 1650
F 0 "D4" V 8539 1532 50  0000 R CNN
F 1 "LED" V 8448 1532 50  0000 R CNN
F 2 "LED_THT:LED_D5.0mm" H 8500 1650 50  0001 C CNN
F 3 "~" H 8500 1650 50  0001 C CNN
	1    8500 1650
	0    -1   -1   0   
$EndComp
$Comp
L Device:R R23
U 1 1 600100C9
P 8500 1300
F 0 "R23" V 8300 1250 50  0000 L CNN
F 1 "1k" V 8400 1200 50  0000 L CNN
F 2 "Resistor_THT:R_Axial_DIN0207_L6.3mm_D2.5mm_P7.62mm_Horizontal" V 8430 1300 50  0001 C CNN
F 3 "~" H 8500 1300 50  0001 C CNN
	1    8500 1300
	-1   0    0    1   
$EndComp
Wire Wire Line
	8500 1150 8500 1100
Wire Wire Line
	8500 1100 8900 1100
Connection ~ 8900 1100
Wire Wire Line
	8500 1450 8500 1500
Wire Wire Line
	8500 1800 8500 1900
Wire Wire Line
	8500 1900 8900 1900
Connection ~ 8900 1900
$Comp
L Device:D D14
U 1 1 60174E26
P 8900 1500
F 0 "D14" V 8800 1600 50  0000 C CNN
F 1 "1N4007" V 9000 1650 50  0000 C CNN
F 2 "Diode_THT:D_DO-41_SOD81_P7.62mm_Horizontal" H 8900 1500 50  0001 C CNN
F 3 "~" H 8900 1500 50  0001 C CNN
	1    8900 1500
	0    1    1    0   
$EndComp
$Comp
L Isolator:PC817 U3
U 1 1 601A9E95
P 7850 2100
F 0 "U3" H 7850 2425 50  0000 C CNN
F 1 "PC817" H 7850 2334 50  0000 C CNN
F 2 "Package_DIP:DIP-4_W7.62mm" H 7650 1900 50  0001 L CIN
F 3 "http://www.soselectronic.cz/a_info/resource/d/pc817.pdf" H 7850 2100 50  0001 L CNN
	1    7850 2100
	1    0    0    -1  
$EndComp
$Comp
L Device:R R7
U 1 1 601BBB39
P 7300 2000
F 0 "R7" V 7250 2100 50  0000 L CNN
F 1 "220R" V 7300 1900 50  0000 L CNN
F 2 "Resistor_THT:R_Axial_DIN0207_L6.3mm_D2.5mm_P7.62mm_Horizontal" V 7230 2000 50  0001 C CNN
F 3 "~" H 7300 2000 50  0001 C CNN
	1    7300 2000
	0    1    1    0   
$EndComp
Wire Wire Line
	6900 2000 7150 2000
Wire Wire Line
	7450 2000 7550 2000
$Comp
L power:GND #PWR029
U 1 1 601E596D
P 7450 2300
F 0 "#PWR029" H 7450 2050 50  0001 C CNN
F 1 "GND" H 7455 2127 50  0000 C CNN
F 2 "" H 7450 2300 50  0001 C CNN
F 3 "" H 7450 2300 50  0001 C CNN
	1    7450 2300
	1    0    0    -1  
$EndComp
Wire Wire Line
	7550 2200 7450 2200
Wire Wire Line
	7450 2200 7450 2300
$Comp
L 2SC945:2SC945 T1
U 1 1 601F06FD
P 9300 2200
F 0 "T1" H 9444 2246 50  0000 L CNN
F 1 "2SC1384" H 9444 2155 50  0000 L CNN
F 2 "Package_TO_SOT_THT:TO-92L_Inline_Wide" H 9300 2200 50  0001 L BNN
F 3 "" H 9300 2200 50  0001 L BNN
	1    9300 2200
	1    0    0    -1  
$EndComp
Wire Wire Line
	8950 2200 9050 2200
$Comp
L Device:R R9
U 1 1 601FBEB4
P 9050 2500
F 0 "R9" H 9100 2450 50  0000 L CNN
F 1 "47k" H 9100 2550 50  0000 L CNN
F 2 "Resistor_THT:R_Axial_DIN0207_L6.3mm_D2.5mm_P7.62mm_Horizontal" V 8980 2500 50  0001 C CNN
F 3 "~" H 9050 2500 50  0001 C CNN
	1    9050 2500
	-1   0    0    1   
$EndComp
$Comp
L power:GND #PWR031
U 1 1 602244E6
P 9050 2750
F 0 "#PWR031" H 9050 2500 50  0001 C CNN
F 1 "GND" H 9055 2577 50  0000 C CNN
F 2 "" H 9050 2750 50  0001 C CNN
F 3 "" H 9050 2750 50  0001 C CNN
	1    9050 2750
	1    0    0    -1  
$EndComp
$Comp
L power:+12V #PWR030
U 1 1 6022EA78
P 8250 1850
F 0 "#PWR030" H 8250 1700 50  0001 C CNN
F 1 "+12V" H 8265 2023 50  0000 C CNN
F 2 "" H 8250 1850 50  0001 C CNN
F 3 "" H 8250 1850 50  0001 C CNN
	1    8250 1850
	1    0    0    -1  
$EndComp
Wire Wire Line
	8250 1850 8250 2000
Wire Wire Line
	8250 2000 8150 2000
$Comp
L power:+12V #PWR032
U 1 1 602398BC
P 1050 1100
F 0 "#PWR032" H 1050 950 50  0001 C CNN
F 1 "+12V" H 1065 1273 50  0000 C CNN
F 2 "" H 1050 1100 50  0001 C CNN
F 3 "" H 1050 1100 50  0001 C CNN
	1    1050 1100
	1    0    0    -1  
$EndComp
Wire Wire Line
	1050 1100 1050 1200
Wire Notes Line
	11150 5300 6750 5300
$Comp
L power:GND #PWR013
U 1 1 600626F4
P 4400 5850
F 0 "#PWR013" H 4400 5600 50  0001 C CNN
F 1 "GND" H 4405 5677 50  0000 C CNN
F 2 "" H 4400 5850 50  0001 C CNN
F 3 "" H 4400 5850 50  0001 C CNN
	1    4400 5850
	1    0    0    -1  
$EndComp
Text Label 4250 5600 0    50   ~ 0
RXD
Text Label 4250 5700 0    50   ~ 0
TXD
$Comp
L Device:R R2
U 1 1 5FEE94B5
P 1550 5800
F 0 "R2" H 1650 5700 50  0000 L CNN
F 1 "10k" H 1600 5800 50  0000 L CNN
F 2 "Resistor_THT:R_Axial_DIN0207_L6.3mm_D2.5mm_P7.62mm_Horizontal" V 1480 5800 50  0001 C CNN
F 3 "~" H 1550 5800 50  0001 C CNN
	1    1550 5800
	-1   0    0    1   
$EndComp
$Comp
L Device:R R3
U 1 1 5FEEA206
P 1800 5800
F 0 "R3" H 1900 5700 50  0000 L CNN
F 1 "10k" H 1850 5800 50  0000 L CNN
F 2 "Resistor_THT:R_Axial_DIN0207_L6.3mm_D2.5mm_P7.62mm_Horizontal" V 1730 5800 50  0001 C CNN
F 3 "~" H 1800 5800 50  0001 C CNN
	1    1800 5800
	-1   0    0    1   
$EndComp
$Comp
L power:GND #PWR025
U 1 1 5FEEA735
P 2450 7450
F 0 "#PWR025" H 2450 7200 50  0001 C CNN
F 1 "GND" H 2455 7277 50  0000 C CNN
F 2 "" H 2450 7450 50  0001 C CNN
F 3 "" H 2450 7450 50  0001 C CNN
	1    2450 7450
	1    0    0    -1  
$EndComp
Wire Wire Line
	2450 7450 2450 7350
$Comp
L power:+3.3V #PWR023
U 1 1 5FEEE3E8
P 2450 5500
F 0 "#PWR023" H 2450 5350 50  0001 C CNN
F 1 "+3.3V" H 2465 5673 50  0000 C CNN
F 2 "" H 2450 5500 50  0001 C CNN
F 3 "" H 2450 5500 50  0001 C CNN
	1    2450 5500
	1    0    0    -1  
$EndComp
Wire Wire Line
	1800 5950 1800 6050
Wire Wire Line
	1800 6050 1850 6050
Wire Wire Line
	1550 5950 1550 6250
Wire Wire Line
	1550 6250 1850 6250
$Comp
L power:+3.3V #PWR016
U 1 1 5FEFEF6B
P 1800 5500
F 0 "#PWR016" H 1800 5350 50  0001 C CNN
F 1 "+3.3V" H 1815 5673 50  0000 C CNN
F 2 "" H 1800 5500 50  0001 C CNN
F 3 "" H 1800 5500 50  0001 C CNN
	1    1800 5500
	1    0    0    -1  
$EndComp
Wire Wire Line
	1800 5650 1800 5550
Wire Wire Line
	1550 5650 1550 5550
Wire Wire Line
	1550 5550 1800 5550
Connection ~ 1800 5550
Wire Wire Line
	1800 5550 1800 5500
Wire Wire Line
	2450 5500 2450 5550
Text Label 1550 6450 0    50   ~ 0
ADC
Wire Wire Line
	1550 6450 1850 6450
$Comp
L Regulator_Linear:AMS1117-3.3 U1
U 1 1 5FF50324
P 2200 2750
F 0 "U1" H 2200 2992 50  0000 C CNN
F 1 "AMS1117-3.3" H 2200 2901 50  0000 C CNN
F 2 "Package_TO_SOT_SMD:SOT-223-3_TabPin2" H 2200 2950 50  0001 C CNN
F 3 "http://www.advanced-monolithic.com/pdf/ds1117.pdf" H 2300 2500 50  0001 C CNN
	1    2200 2750
	1    0    0    -1  
$EndComp
$Comp
L Device:CP C13
U 1 1 5FF5739D
P 2650 3000
F 0 "C13" H 2768 3046 50  0000 L CNN
F 1 "10uF" H 2768 2955 50  0000 L CNN
F 2 "Capacitor_THT:C_Radial_D6.3mm_H11.0mm_P2.50mm" H 2688 2850 50  0001 C CNN
F 3 "~" H 2650 3000 50  0001 C CNN
	1    2650 3000
	1    0    0    -1  
$EndComp
$Comp
L power:+5V #PWR04
U 1 1 5FF578C6
P 700 2700
F 0 "#PWR04" H 700 2550 50  0001 C CNN
F 1 "+5V" H 715 2873 50  0000 C CNN
F 2 "" H 700 2700 50  0001 C CNN
F 3 "" H 700 2700 50  0001 C CNN
	1    700  2700
	1    0    0    -1  
$EndComp
$Comp
L power:+3.3V #PWR028
U 1 1 5FF584A5
P 2900 2700
F 0 "#PWR028" H 2900 2550 50  0001 C CNN
F 1 "+3.3V" H 2915 2873 50  0000 C CNN
F 2 "" H 2900 2700 50  0001 C CNN
F 3 "" H 2900 2700 50  0001 C CNN
	1    2900 2700
	1    0    0    -1  
$EndComp
Wire Wire Line
	2500 2750 2650 2750
Wire Wire Line
	2900 2750 2900 2700
Wire Wire Line
	2650 2850 2650 2750
Connection ~ 2650 2750
Wire Wire Line
	2650 2750 2900 2750
$Comp
L power:GND #PWR021
U 1 1 5FF68240
P 2200 3250
F 0 "#PWR021" H 2200 3000 50  0001 C CNN
F 1 "GND" H 2205 3077 50  0000 C CNN
F 2 "" H 2200 3250 50  0001 C CNN
F 3 "" H 2200 3250 50  0001 C CNN
	1    2200 3250
	1    0    0    -1  
$EndComp
$Comp
L power:GND #PWR027
U 1 1 5FF6851C
P 2650 3250
F 0 "#PWR027" H 2650 3000 50  0001 C CNN
F 1 "GND" H 2655 3077 50  0000 C CNN
F 2 "" H 2650 3250 50  0001 C CNN
F 3 "" H 2650 3250 50  0001 C CNN
	1    2650 3250
	1    0    0    -1  
$EndComp
Wire Wire Line
	2200 3250 2200 3050
Wire Wire Line
	2650 3250 2650 3150
Wire Wire Line
	8150 2200 8650 2200
Wire Wire Line
	9050 2350 9050 2200
Connection ~ 9050 2200
Wire Wire Line
	9050 2200 9200 2200
Wire Wire Line
	9050 2650 9050 2750
Wire Wire Line
	700  2750 700  2700
Wire Wire Line
	850  2850 850  2750
Connection ~ 850  2750
Wire Wire Line
	850  2750 700  2750
Wire Wire Line
	1300 2850 1300 2750
Connection ~ 1300 2750
Wire Wire Line
	1300 2750 850  2750
Wire Wire Line
	1700 2850 1700 2750
Wire Wire Line
	1700 2750 1300 2750
$Comp
L power:GND #PWR015
U 1 1 5FFA7244
P 1700 3250
F 0 "#PWR015" H 1700 3000 50  0001 C CNN
F 1 "GND" H 1705 3077 50  0000 C CNN
F 2 "" H 1700 3250 50  0001 C CNN
F 3 "" H 1700 3250 50  0001 C CNN
	1    1700 3250
	1    0    0    -1  
$EndComp
$Comp
L power:GND #PWR010
U 1 1 5FFA744B
P 1300 3250
F 0 "#PWR010" H 1300 3000 50  0001 C CNN
F 1 "GND" H 1305 3077 50  0000 C CNN
F 2 "" H 1300 3250 50  0001 C CNN
F 3 "" H 1300 3250 50  0001 C CNN
	1    1300 3250
	1    0    0    -1  
$EndComp
$Comp
L power:GND #PWR05
U 1 1 5FFA75F4
P 850 3250
F 0 "#PWR05" H 850 3000 50  0001 C CNN
F 1 "GND" H 855 3077 50  0000 C CNN
F 2 "" H 850 3250 50  0001 C CNN
F 3 "" H 850 3250 50  0001 C CNN
	1    850  3250
	1    0    0    -1  
$EndComp
Wire Wire Line
	850  3250 850  3150
Wire Wire Line
	1300 3250 1300 3150
Wire Wire Line
	1700 3250 1700 3150
$Comp
L Device:CP C4
U 1 1 5FFBDF70
P 850 3000
F 0 "C4" H 968 3046 50  0000 L CNN
F 1 "10uF" H 968 2955 50  0000 L CNN
F 2 "Capacitor_THT:C_Radial_D6.3mm_H11.0mm_P2.50mm" H 888 2850 50  0001 C CNN
F 3 "~" H 850 3000 50  0001 C CNN
	1    850  3000
	1    0    0    -1  
$EndComp
$Comp
L Device:CP C10
U 1 1 5FFBDF76
P 1300 3000
F 0 "C10" H 1418 3046 50  0000 L CNN
F 1 "1uF" H 1418 2955 50  0000 L CNN
F 2 "Capacitor_THT:C_Radial_D6.3mm_H11.0mm_P2.50mm" H 1338 2850 50  0001 C CNN
F 3 "~" H 1300 3000 50  0001 C CNN
	1    1300 3000
	1    0    0    -1  
$EndComp
$Comp
L Device:C C12
U 1 1 5FFBDF7C
P 1700 3000
F 0 "C12" H 1815 3046 50  0000 L CNN
F 1 "104" H 1815 2955 50  0000 L CNN
F 2 "Capacitor_THT:C_Rect_L7.0mm_W3.5mm_P5.00mm" H 1738 2850 50  0001 C CNN
F 3 "~" H 1700 3000 50  0001 C CNN
	1    1700 3000
	1    0    0    -1  
$EndComp
Wire Wire Line
	1900 2750 1700 2750
Connection ~ 1700 2750
Wire Notes Line
	3100 2400 3100 3550
Wire Notes Line
	3100 3550 600  3550
Wire Notes Line
	600  3550 600  2400
Wire Notes Line
	600  2400 3100 2400
$Comp
L My_Lib_KiCAD:RSM3485CHT U5
U 1 1 5FFD71AE
P 2250 4350
F 0 "U5" H 2250 4815 50  0000 C CNN
F 1 "RSM3485CHT" H 2250 4724 50  0000 C CNN
F 2 "My_Lib_KiCAD:RSM3-485CHT" H 2250 4350 50  0001 C CNN
F 3 "" H 2250 4350 50  0001 C CNN
	1    2250 4350
	1    0    0    -1  
$EndComp
$Comp
L Relay:SANYOU_SRD_Form_C K2
U 1 1 5FFF4635
P 9550 3750
F 0 "K2" H 9980 3796 50  0000 L CNN
F 1 "RLY1" H 9980 3705 50  0000 L CNN
F 2 "SLA-12VDC-SL-C(T93):RELAY_SLA-12VDC-SL-C" H 10000 3700 50  0001 L CNN
F 3 "http://www.sanyourelay.ca/public/products/pdf/SRD.pdf" H 9550 3750 50  0001 C CNN
	1    9550 3750
	1    0    0    -1  
$EndComp
$Comp
L Device:R R19
U 1 1 5FFF463B
P 8750 4450
F 0 "R19" V 8550 4400 50  0000 L CNN
F 1 "10k" V 8650 4350 50  0000 L CNN
F 2 "Resistor_THT:R_Axial_DIN0207_L6.3mm_D2.5mm_P7.62mm_Horizontal" V 8680 4450 50  0001 C CNN
F 3 "~" H 8750 4450 50  0001 C CNN
	1    8750 4450
	0    1    1    0   
$EndComp
$Comp
L power:GND #PWR046
U 1 1 5FFF4641
P 9350 4750
F 0 "#PWR046" H 9350 4500 50  0001 C CNN
F 1 "GND" H 9355 4577 50  0000 C CNN
F 2 "" H 9350 4750 50  0001 C CNN
F 3 "" H 9350 4750 50  0001 C CNN
	1    9350 4750
	1    0    0    -1  
$EndComp
Wire Wire Line
	9350 4750 9350 4650
Wire Wire Line
	9350 4250 9350 4150
Wire Wire Line
	8850 3600 8850 3350
Wire Wire Line
	8850 3350 9350 3350
Connection ~ 9350 3350
Wire Wire Line
	9350 3350 9350 3450
Wire Wire Line
	8850 3900 8850 4150
Wire Wire Line
	8850 4150 9350 4150
Connection ~ 9350 4150
Wire Wire Line
	9350 4150 9350 4050
Text Label 6850 4250 0    50   ~ 0
RLY2
$Comp
L Connector:Screw_Terminal_01x03 J5
U 1 1 5FFF4652
P 10650 3750
F 0 "J5" H 10730 3792 50  0000 L CNN
F 1 "RLY2_OUT" H 10730 3701 50  0000 L CNN
F 2 "TerminalBlock:TerminalBlock_bornier-3_P5.08mm" H 10650 3750 50  0001 C CNN
F 3 "~" H 10650 3750 50  0001 C CNN
	1    10650 3750
	1    0    0    -1  
$EndComp
Text Label 10050 3350 2    50   ~ 0
NO2
Text Label 10050 3250 2    50   ~ 0
NC2
Text Label 10050 4150 2    50   ~ 0
COM2
Wire Wire Line
	10050 3250 9650 3250
Wire Wire Line
	9650 3250 9650 3450
Wire Wire Line
	10050 3350 9850 3350
Wire Wire Line
	9850 3350 9850 3450
Wire Wire Line
	10050 4150 9750 4150
Wire Wire Line
	9750 4150 9750 4050
Text Label 10200 3750 0    50   ~ 0
NO2
Text Label 10200 3650 0    50   ~ 0
COM2
Text Label 10200 3850 0    50   ~ 0
NC2
Wire Wire Line
	10200 3750 10450 3750
Wire Wire Line
	10200 3650 10450 3650
Wire Wire Line
	10200 3850 10450 3850
$Comp
L power:+12V #PWR045
U 1 1 5FFF4667
P 9350 3200
F 0 "#PWR045" H 9350 3050 50  0001 C CNN
F 1 "+12V" H 9365 3373 50  0000 C CNN
F 2 "" H 9350 3200 50  0001 C CNN
F 3 "" H 9350 3200 50  0001 C CNN
	1    9350 3200
	1    0    0    -1  
$EndComp
Wire Wire Line
	9350 3200 9350 3350
$Comp
L Device:LED D6
U 1 1 5FFF466E
P 8450 3900
F 0 "D6" V 8489 3782 50  0000 R CNN
F 1 "LED" V 8398 3782 50  0000 R CNN
F 2 "LED_THT:LED_D5.0mm" H 8450 3900 50  0001 C CNN
F 3 "~" H 8450 3900 50  0001 C CNN
	1    8450 3900
	0    -1   -1   0   
$EndComp
$Comp
L Device:R R18
U 1 1 5FFF4674
P 8450 3550
F 0 "R18" V 8250 3500 50  0000 L CNN
F 1 "1k" V 8350 3450 50  0000 L CNN
F 2 "Resistor_THT:R_Axial_DIN0207_L6.3mm_D2.5mm_P7.62mm_Horizontal" V 8380 3550 50  0001 C CNN
F 3 "~" H 8450 3550 50  0001 C CNN
	1    8450 3550
	-1   0    0    1   
$EndComp
Wire Wire Line
	8450 3400 8450 3350
Wire Wire Line
	8450 3350 8850 3350
Connection ~ 8850 3350
Wire Wire Line
	8450 3700 8450 3750
Wire Wire Line
	8450 4050 8450 4150
Wire Wire Line
	8450 4150 8850 4150
Connection ~ 8850 4150
$Comp
L Device:D D7
U 1 1 5FFF4681
P 8850 3750
F 0 "D7" V 8750 3850 50  0000 C CNN
F 1 "1N4007" V 8950 3900 50  0000 C CNN
F 2 "Diode_THT:D_DO-41_SOD81_P7.62mm_Horizontal" H 8850 3750 50  0001 C CNN
F 3 "~" H 8850 3750 50  0001 C CNN
	1    8850 3750
	0    1    1    0   
$EndComp
$Comp
L Isolator:PC817 U6
U 1 1 5FFF4687
P 7800 4350
F 0 "U6" H 7800 4675 50  0000 C CNN
F 1 "PC817" H 7800 4584 50  0000 C CNN
F 2 "Package_DIP:DIP-4_W7.62mm" H 7600 4150 50  0001 L CIN
F 3 "http://www.soselectronic.cz/a_info/resource/d/pc817.pdf" H 7800 4350 50  0001 L CNN
	1    7800 4350
	1    0    0    -1  
$EndComp
$Comp
L Device:R R17
U 1 1 5FFF468D
P 7250 4250
F 0 "R17" V 7200 4350 50  0000 L CNN
F 1 "220R" V 7250 4150 50  0000 L CNN
F 2 "Resistor_THT:R_Axial_DIN0207_L6.3mm_D2.5mm_P7.62mm_Horizontal" V 7180 4250 50  0001 C CNN
F 3 "~" H 7250 4250 50  0001 C CNN
	1    7250 4250
	0    1    1    0   
$EndComp
Wire Wire Line
	6850 4250 7100 4250
Wire Wire Line
	7400 4250 7500 4250
$Comp
L power:GND #PWR042
U 1 1 5FFF4695
P 7400 4550
F 0 "#PWR042" H 7400 4300 50  0001 C CNN
F 1 "GND" H 7405 4377 50  0000 C CNN
F 2 "" H 7400 4550 50  0001 C CNN
F 3 "" H 7400 4550 50  0001 C CNN
	1    7400 4550
	1    0    0    -1  
$EndComp
Wire Wire Line
	7500 4450 7400 4450
Wire Wire Line
	7400 4450 7400 4550
$Comp
L 2SC945:2SC945 T2
U 1 1 5FFF469D
P 9250 4450
F 0 "T2" H 9394 4496 50  0000 L CNN
F 1 "2SC1384" H 9394 4405 50  0000 L CNN
F 2 "Package_TO_SOT_THT:TO-92L_Inline_Wide" H 9250 4450 50  0001 L BNN
F 3 "" H 9250 4450 50  0001 L BNN
	1    9250 4450
	1    0    0    -1  
$EndComp
Wire Wire Line
	8900 4450 9000 4450
$Comp
L Device:R R20
U 1 1 5FFF46A4
P 9000 4750
F 0 "R20" H 9050 4700 50  0000 L CNN
F 1 "47k" H 9050 4800 50  0000 L CNN
F 2 "Resistor_THT:R_Axial_DIN0207_L6.3mm_D2.5mm_P7.62mm_Horizontal" V 8930 4750 50  0001 C CNN
F 3 "~" H 9000 4750 50  0001 C CNN
	1    9000 4750
	-1   0    0    1   
$EndComp
$Comp
L power:GND #PWR044
U 1 1 5FFF46AA
P 9000 5000
F 0 "#PWR044" H 9000 4750 50  0001 C CNN
F 1 "GND" H 9005 4827 50  0000 C CNN
F 2 "" H 9000 5000 50  0001 C CNN
F 3 "" H 9000 5000 50  0001 C CNN
	1    9000 5000
	1    0    0    -1  
$EndComp
$Comp
L power:+12V #PWR043
U 1 1 5FFF46B0
P 8200 4100
F 0 "#PWR043" H 8200 3950 50  0001 C CNN
F 1 "+12V" H 8215 4273 50  0000 C CNN
F 2 "" H 8200 4100 50  0001 C CNN
F 3 "" H 8200 4100 50  0001 C CNN
	1    8200 4100
	1    0    0    -1  
$EndComp
Wire Wire Line
	8200 4100 8200 4250
Wire Wire Line
	8200 4250 8100 4250
Wire Wire Line
	8100 4450 8600 4450
Wire Wire Line
	9000 4600 9000 4450
Connection ~ 9000 4450
Wire Wire Line
	9000 4450 9150 4450
Wire Wire Line
	9000 4900 9000 5000
Wire Notes Line
	6750 700  11150 700 
Wire Notes Line
	11150 700  11150 5300
Wire Notes Line
	6750 700  6750 5300
$Comp
L Switch:SW_Push SW1
U 1 1 5FEA2066
P 1200 6300
F 0 "SW1" V 1246 6252 50  0000 R CNN
F 1 "RST" V 1155 6252 50  0000 R CNN
F 2 "Button_Switch_THT:SW_PUSH_6mm" H 1200 6500 50  0001 C CNN
F 3 "~" H 1200 6500 50  0001 C CNN
	1    1200 6300
	0    -1   -1   0   
$EndComp
Wire Wire Line
	1800 6050 1200 6050
Wire Wire Line
	1200 6050 1200 6100
Connection ~ 1800 6050
Text Label 3300 6850 2    50   ~ 0
RLY1
Text Label 3300 6250 2    50   ~ 0
RLY2
Wire Wire Line
	3300 6850 3050 6850
Wire Wire Line
	3300 6250 3050 6250
$Comp
L Device:R R1
U 1 1 6007356D
P 1250 1450
F 0 "R1" H 1100 1350 50  0000 L CNN
F 1 "10k" H 1050 1450 50  0000 L CNN
F 2 "Resistor_THT:R_Axial_DIN0207_L6.3mm_D2.5mm_P7.62mm_Horizontal" V 1180 1450 50  0001 C CNN
F 3 "~" H 1250 1450 50  0001 C CNN
	1    1250 1450
	-1   0    0    1   
$EndComp
Wire Wire Line
	1350 1200 1250 1200
Connection ~ 1050 1200
Wire Wire Line
	1250 1300 1250 1200
Connection ~ 1250 1200
Wire Wire Line
	1250 1200 1050 1200
Wire Wire Line
	1650 1200 1750 1200
Connection ~ 1750 1200
$Comp
L power:GND #PWR09
U 1 1 6008F5FB
P 1250 2000
F 0 "#PWR09" H 1250 1750 50  0001 C CNN
F 1 "GND" H 1255 1827 50  0000 C CNN
F 2 "" H 1250 2000 50  0001 C CNN
F 3 "" H 1250 2000 50  0001 C CNN
	1    1250 2000
	1    0    0    -1  
$EndComp
Wire Wire Line
	2600 1200 3000 1200
Connection ~ 2600 1200
Connection ~ 3000 1200
$Comp
L Device:LED D1
U 1 1 6009CB9B
P 1250 1800
F 0 "D1" V 1289 1682 50  0000 R CNN
F 1 "LED" V 1198 1682 50  0000 R CNN
F 2 "LED_THT:LED_D5.0mm" H 1250 1800 50  0001 C CNN
F 3 "~" H 1250 1800 50  0001 C CNN
	1    1250 1800
	0    -1   -1   0   
$EndComp
Wire Wire Line
	1250 2000 1250 1950
Wire Wire Line
	1250 1650 1250 1600
Wire Notes Line
	600  2300 6300 2300
Wire Notes Line
	600  700  600  2300
Wire Notes Line
	6300 700  6300 2300
$Comp
L Device:R R10
U 1 1 600B274A
P 3350 7050
F 0 "R10" V 3300 6800 50  0000 L CNN
F 1 "10k" V 3350 7000 50  0000 L CNN
F 2 "Resistor_THT:R_Axial_DIN0207_L6.3mm_D2.5mm_P7.62mm_Horizontal" V 3280 7050 50  0001 C CNN
F 3 "~" H 3350 7050 50  0001 C CNN
	1    3350 7050
	0    1    1    0   
$EndComp
$Comp
L power:GND #PWR035
U 1 1 600B2750
P 3900 7200
F 0 "#PWR035" H 3900 6950 50  0001 C CNN
F 1 "GND" H 3905 7027 50  0000 C CNN
F 2 "" H 3900 7200 50  0001 C CNN
F 3 "" H 3900 7200 50  0001 C CNN
	1    3900 7200
	1    0    0    -1  
$EndComp
$Comp
L Device:LED D5
U 1 1 600B2756
P 3700 7050
F 0 "D5" H 3900 7000 50  0000 R CNN
F 1 "LED" H 3750 7150 50  0000 R CNN
F 2 "LED_THT:LED_D5.0mm" H 3700 7050 50  0001 C CNN
F 3 "~" H 3700 7050 50  0001 C CNN
	1    3700 7050
	-1   0    0    1   
$EndComp
Wire Wire Line
	3550 7050 3500 7050
Text Label 3300 6150 2    50   ~ 0
TXD
Wire Wire Line
	3300 6150 3050 6150
$Comp
L power:+3.3V #PWR017
U 1 1 600E65A7
P 1750 3950
F 0 "#PWR017" H 1750 3800 50  0001 C CNN
F 1 "+3.3V" H 1765 4123 50  0000 C CNN
F 2 "" H 1750 3950 50  0001 C CNN
F 3 "" H 1750 3950 50  0001 C CNN
	1    1750 3950
	1    0    0    -1  
$EndComp
Wire Wire Line
	1850 4550 1750 4550
Wire Wire Line
	1750 4550 1750 3950
$Comp
L power:GND #PWR018
U 1 1 600EE405
P 1800 4750
F 0 "#PWR018" H 1800 4500 50  0001 C CNN
F 1 "GND" H 1805 4577 50  0000 C CNN
F 2 "" H 1800 4750 50  0001 C CNN
F 3 "" H 1800 4750 50  0001 C CNN
	1    1800 4750
	1    0    0    -1  
$EndComp
Wire Wire Line
	1800 4750 1800 4450
Wire Wire Line
	1800 4450 1850 4450
Text Label 3300 6350 2    50   ~ 0
RXD
Wire Wire Line
	3300 6350 3050 6350
Text Label 1550 4250 0    50   ~ 0
RXD
Text Label 1550 4350 0    50   ~ 0
TXD
Wire Wire Line
	1550 4350 1850 4350
Wire Wire Line
	1550 4250 1850 4250
$Comp
L Device:R R5
U 1 1 6010D408
P 3250 5800
F 0 "R5" H 3350 5700 50  0000 L CNN
F 1 "10k" H 3300 5800 50  0000 L CNN
F 2 "Resistor_THT:R_Axial_DIN0207_L6.3mm_D2.5mm_P7.62mm_Horizontal" V 3180 5800 50  0001 C CNN
F 3 "~" H 3250 5800 50  0001 C CNN
	1    3250 5800
	-1   0    0    1   
$EndComp
Wire Wire Line
	3050 6050 3250 6050
Wire Wire Line
	3250 6050 3250 5950
Wire Wire Line
	3250 5650 3250 5550
Wire Wire Line
	3250 5550 2450 5550
Connection ~ 2450 5550
Wire Wire Line
	2450 5550 2450 5850
$Comp
L Device:R R6
U 1 1 6011D8D0
P 3350 6950
F 0 "R6" V 3300 6700 50  0000 L CNN
F 1 "10k" V 3350 6900 50  0000 L CNN
F 2 "Resistor_THT:R_Axial_DIN0207_L6.3mm_D2.5mm_P7.62mm_Horizontal" V 3280 6950 50  0001 C CNN
F 3 "~" H 3350 6950 50  0001 C CNN
	1    3350 6950
	0    1    1    0   
$EndComp
$Comp
L power:GND #PWR036
U 1 1 601260D7
P 4050 7200
F 0 "#PWR036" H 4050 6950 50  0001 C CNN
F 1 "GND" H 4055 7027 50  0000 C CNN
F 2 "" H 4050 7200 50  0001 C CNN
F 3 "" H 4050 7200 50  0001 C CNN
	1    4050 7200
	1    0    0    -1  
$EndComp
Wire Wire Line
	2650 4350 2900 4350
Wire Wire Line
	2900 4350 2900 4200
Wire Wire Line
	2900 4600 2900 4450
Wire Wire Line
	2900 4450 2650 4450
Text Label 3300 6650 2    50   ~ 0
SCL
$Comp
L Switch:SW_Push SW2
U 1 1 601440B4
P 3750 6300
F 0 "SW2" V 3796 6252 50  0000 R CNN
F 1 "PG" V 3705 6252 50  0000 R CNN
F 2 "Button_Switch_THT:SW_PUSH_6mm" H 3750 6500 50  0001 C CNN
F 3 "~" H 3750 6500 50  0001 C CNN
	1    3750 6300
	0    1    1    0   
$EndComp
Wire Wire Line
	3250 6050 3750 6050
Wire Wire Line
	3750 6050 3750 6100
Connection ~ 3250 6050
$Comp
L power:GND #PWR033
U 1 1 601596F6
P 3750 6600
F 0 "#PWR033" H 3750 6350 50  0001 C CNN
F 1 "GND" H 3755 6427 50  0000 C CNN
F 2 "" H 3750 6600 50  0001 C CNN
F 3 "" H 3750 6600 50  0001 C CNN
	1    3750 6600
	1    0    0    -1  
$EndComp
Wire Wire Line
	3750 6600 3750 6500
$Comp
L Device:Buzzer BZ1
U 1 1 60163BE0
P 6500 6500
F 0 "BZ1" H 6500 6700 50  0000 L CNN
F 1 "Buzzer" H 6500 6300 50  0000 L CNN
F 2 "Buzzer_Beeper:Buzzer_12x9.5RM7.6" V 6475 6600 50  0001 C CNN
F 3 "~" V 6475 6600 50  0001 C CNN
	1    6500 6500
	1    0    0    -1  
$EndComp
$Comp
L Transistor_BJT:BC547 Q1
U 1 1 60165812
P 6250 7000
F 0 "Q1" H 6441 7046 50  0000 L CNN
F 1 "BC547" H 6441 6955 50  0000 L CNN
F 2 "Package_TO_SOT_THT:TO-92_Inline_Wide" H 6450 6925 50  0001 L CIN
F 3 "https://www.onsemi.com/pub/Collateral/BC550-D.pdf" H 6250 7000 50  0001 L CNN
	1    6250 7000
	1    0    0    -1  
$EndComp
$Comp
L Device:R R15
U 1 1 6016677A
P 5600 7000
F 0 "R15" V 5800 7000 50  0000 L CNN
F 1 "1k" V 5700 6950 50  0000 L CNN
F 2 "Resistor_THT:R_Axial_DIN0207_L6.3mm_D2.5mm_P7.62mm_Horizontal" V 5530 7000 50  0001 C CNN
F 3 "~" H 5600 7000 50  0001 C CNN
	1    5600 7000
	0    -1   -1   0   
$EndComp
$Comp
L Device:R R16
U 1 1 60167523
P 5900 7200
F 0 "R16" H 5700 7250 50  0000 L CNN
F 1 "4.7k" H 5700 7150 50  0000 L CNN
F 2 "Resistor_THT:R_Axial_DIN0207_L6.3mm_D2.5mm_P7.62mm_Horizontal" V 5830 7200 50  0001 C CNN
F 3 "~" H 5900 7200 50  0001 C CNN
	1    5900 7200
	1    0    0    -1  
$EndComp
Text Label 5150 7000 0    50   ~ 0
BUZ
Wire Wire Line
	5150 7000 5450 7000
Wire Wire Line
	5750 7000 5900 7000
Wire Wire Line
	5900 7050 5900 7000
Connection ~ 5900 7000
Wire Wire Line
	5900 7000 6050 7000
$Comp
L power:GND #PWR039
U 1 1 6018F5A0
P 5900 7450
F 0 "#PWR039" H 5900 7200 50  0001 C CNN
F 1 "GND" H 5905 7277 50  0000 C CNN
F 2 "" H 5900 7450 50  0001 C CNN
F 3 "" H 5900 7450 50  0001 C CNN
	1    5900 7450
	1    0    0    -1  
$EndComp
Wire Wire Line
	5900 7450 5900 7350
$Comp
L power:GND #PWR041
U 1 1 60199A4E
P 6350 7450
F 0 "#PWR041" H 6350 7200 50  0001 C CNN
F 1 "GND" H 6355 7277 50  0000 C CNN
F 2 "" H 6350 7450 50  0001 C CNN
F 3 "" H 6350 7450 50  0001 C CNN
	1    6350 7450
	1    0    0    -1  
$EndComp
Wire Wire Line
	6350 7450 6350 7200
Wire Wire Line
	6350 6800 6350 6600
Wire Wire Line
	6350 6600 6400 6600
$Comp
L power:+5V #PWR040
U 1 1 601AE3AB
P 6350 6350
F 0 "#PWR040" H 6350 6200 50  0001 C CNN
F 1 "+5V" H 6365 6523 50  0000 C CNN
F 2 "" H 6350 6350 50  0001 C CNN
F 3 "" H 6350 6350 50  0001 C CNN
	1    6350 6350
	1    0    0    -1  
$EndComp
Wire Wire Line
	6400 6400 6350 6400
Wire Wire Line
	6350 6400 6350 6350
Text Label 3300 6450 2    50   ~ 0
BUZ
Wire Wire Line
	3300 6450 3050 6450
Text Label 3300 6750 2    50   ~ 0
SDA
Wire Wire Line
	3300 6650 3050 6650
Wire Wire Line
	3300 6750 3050 6750
$Comp
L Device:C C11
U 1 1 601DA68B
P 1200 4300
F 0 "C11" H 1315 4346 50  0000 L CNN
F 1 "104" H 1315 4255 50  0000 L CNN
F 2 "Capacitor_THT:C_Rect_L7.0mm_W3.5mm_P5.00mm" H 1238 4150 50  0001 C CNN
F 3 "~" H 1200 4300 50  0001 C CNN
	1    1200 4300
	1    0    0    -1  
$EndComp
$Comp
L power:+3.3V #PWR011
U 1 1 601E9427
P 1200 4050
F 0 "#PWR011" H 1200 3900 50  0001 C CNN
F 1 "+3.3V" H 1215 4223 50  0000 C CNN
F 2 "" H 1200 4050 50  0001 C CNN
F 3 "" H 1200 4050 50  0001 C CNN
	1    1200 4050
	1    0    0    -1  
$EndComp
$Comp
L power:GND #PWR014
U 1 1 601E989C
P 1200 4550
F 0 "#PWR014" H 1200 4300 50  0001 C CNN
F 1 "GND" H 1205 4377 50  0000 C CNN
F 2 "" H 1200 4550 50  0001 C CNN
F 3 "" H 1200 4550 50  0001 C CNN
	1    1200 4550
	1    0    0    -1  
$EndComp
Wire Wire Line
	1200 4150 1200 4050
Wire Wire Line
	1200 4450 1200 4550
$Comp
L Device:R R13
U 1 1 6012F234
P 3550 4400
F 0 "R13" H 3400 4350 50  0000 L CNN
F 1 "120R" H 3300 4450 50  0000 L CNN
F 2 "Resistor_THT:R_Axial_DIN0207_L6.3mm_D2.5mm_P7.62mm_Horizontal" V 3480 4400 50  0001 C CNN
F 3 "~" H 3550 4400 50  0001 C CNN
	1    3550 4400
	-1   0    0    1   
$EndComp
$Comp
L Device:R R4
U 1 1 6023333D
P 3000 4400
F 0 "R4" H 2850 4300 50  0000 L CNN
F 1 "20k" H 2800 4400 50  0000 L CNN
F 2 "Resistor_THT:R_Axial_DIN0207_L6.3mm_D2.5mm_P7.62mm_Horizontal" V 2930 4400 50  0001 C CNN
F 3 "~" H 3000 4400 50  0001 C CNN
	1    3000 4400
	-1   0    0    1   
$EndComp
$Comp
L Device:R R11
U 1 1 6023463E
P 3250 4400
F 0 "R11" H 3100 4300 50  0000 L CNN
F 1 "20k" H 3050 4400 50  0000 L CNN
F 2 "Resistor_THT:R_Axial_DIN0207_L6.3mm_D2.5mm_P7.62mm_Horizontal" V 3180 4400 50  0001 C CNN
F 3 "~" H 3250 4400 50  0001 C CNN
	1    3250 4400
	-1   0    0    1   
$EndComp
Wire Wire Line
	2900 4600 3000 4600
Wire Wire Line
	3550 4600 3550 4550
Wire Wire Line
	3000 4550 3000 4600
Connection ~ 3000 4600
Wire Wire Line
	3000 4600 3550 4600
Wire Wire Line
	2650 4250 2750 4250
Wire Wire Line
	2750 4250 2750 4100
Wire Wire Line
	2750 4100 3000 4100
Wire Wire Line
	3000 4100 3000 4250
Wire Wire Line
	3550 4200 3550 4250
Wire Wire Line
	2900 4200 3250 4200
Wire Wire Line
	3250 4250 3250 4200
Connection ~ 3250 4200
Wire Wire Line
	3250 4200 3550 4200
Wire Wire Line
	2650 4550 2750 4550
Wire Wire Line
	2750 4550 2750 4700
Wire Wire Line
	2750 4700 3250 4700
Wire Wire Line
	3250 4700 3250 4550
$Comp
L Connector:Screw_Terminal_01x04 J2
U 1 1 6027AF35
P 4100 4350
F 0 "J2" H 4180 4342 50  0000 L CNN
F 1 "RS485_OUT" H 4180 4251 50  0000 L CNN
F 2 "TerminalBlock:TerminalBlock_bornier-4_P5.08mm" H 4100 4350 50  0001 C CNN
F 3 "~" H 4100 4350 50  0001 C CNN
	1    4100 4350
	1    0    0    -1  
$EndComp
Wire Wire Line
	3900 4250 3900 4100
Wire Wire Line
	3900 4100 3000 4100
Connection ~ 3000 4100
Wire Wire Line
	3900 4550 3900 4700
Wire Wire Line
	3900 4700 3250 4700
Connection ~ 3250 4700
Wire Wire Line
	3900 4350 3800 4350
Wire Wire Line
	3800 4350 3800 4200
Wire Wire Line
	3800 4200 3550 4200
Connection ~ 3550 4200
Wire Wire Line
	3900 4450 3800 4450
Wire Wire Line
	3800 4450 3800 4600
Wire Wire Line
	3800 4600 3550 4600
Connection ~ 3550 4600
$Comp
L Device:CP C7
U 1 1 602B0977
P 800 4300
F 0 "C7" H 918 4346 50  0000 L CNN
F 1 "10uF" H 918 4255 50  0000 L CNN
F 2 "Capacitor_THT:C_Radial_D6.3mm_H11.0mm_P2.50mm" H 838 4150 50  0001 C CNN
F 3 "~" H 800 4300 50  0001 C CNN
	1    800  4300
	1    0    0    -1  
$EndComp
$Comp
L power:+3.3V #PWR06
U 1 1 602B1873
P 800 4050
F 0 "#PWR06" H 800 3900 50  0001 C CNN
F 1 "+3.3V" H 815 4223 50  0000 C CNN
F 2 "" H 800 4050 50  0001 C CNN
F 3 "" H 800 4050 50  0001 C CNN
	1    800  4050
	1    0    0    -1  
$EndComp
$Comp
L power:GND #PWR07
U 1 1 602B1BDC
P 800 4550
F 0 "#PWR07" H 800 4300 50  0001 C CNN
F 1 "GND" H 805 4377 50  0000 C CNN
F 2 "" H 800 4550 50  0001 C CNN
F 3 "" H 800 4550 50  0001 C CNN
	1    800  4550
	1    0    0    -1  
$EndComp
Wire Wire Line
	800  4550 800  4450
Wire Wire Line
	800  4150 800  4050
Wire Wire Line
	3900 7200 3900 7050
Wire Wire Line
	3900 7050 3850 7050
Wire Wire Line
	4050 7200 4050 6950
Wire Wire Line
	3500 6950 4050 6950
Wire Wire Line
	3200 6950 3050 6950
Wire Wire Line
	3200 7050 3050 7050
Text Label 1550 4150 0    50   ~ 0
CON
Wire Wire Line
	1550 4150 1850 4150
Text Label 3300 6550 2    50   ~ 0
CON
Wire Wire Line
	3300 6550 3050 6550
Wire Wire Line
	4250 5600 4500 5600
Wire Wire Line
	4250 5700 4500 5700
Wire Wire Line
	4500 5800 4400 5800
Wire Wire Line
	4400 5800 4400 5850
$Comp
L Connector_Generic:Conn_01x04 J4
U 1 1 6040BD87
P 4700 6450
F 0 "J4" H 4780 6442 50  0000 L CNN
F 1 "I2C" H 4780 6351 50  0000 L CNN
F 2 "Connector_PinHeader_2.54mm:PinHeader_1x04_P2.54mm_Vertical" H 4700 6450 50  0001 C CNN
F 3 "~" H 4700 6450 50  0001 C CNN
	1    4700 6450
	1    0    0    -1  
$EndComp
$Comp
L power:GND #PWR038
U 1 1 6040D1C0
P 4400 6700
F 0 "#PWR038" H 4400 6450 50  0001 C CNN
F 1 "GND" H 4405 6527 50  0000 C CNN
F 2 "" H 4400 6700 50  0001 C CNN
F 3 "" H 4400 6700 50  0001 C CNN
	1    4400 6700
	1    0    0    -1  
$EndComp
Wire Wire Line
	4500 6350 4400 6350
Wire Wire Line
	4400 6350 4400 6300
Wire Wire Line
	4500 6650 4400 6650
Wire Wire Line
	4400 6650 4400 6700
Text Label 4300 6450 0    50   ~ 0
SDA
Text Label 4300 6550 0    50   ~ 0
SCL
Wire Wire Line
	4300 6450 4500 6450
Wire Wire Line
	4300 6550 4500 6550
$Comp
L Device:R R12
U 1 1 604495D4
P 3700 5600
F 0 "R12" H 3800 5500 50  0000 L CNN
F 1 "10k" H 3750 5600 50  0000 L CNN
F 2 "Resistor_THT:R_Axial_DIN0207_L6.3mm_D2.5mm_P7.62mm_Horizontal" V 3630 5600 50  0001 C CNN
F 3 "~" H 3700 5600 50  0001 C CNN
	1    3700 5600
	-1   0    0    1   
$EndComp
$Comp
L Device:R R14
U 1 1 60449B02
P 3950 5600
F 0 "R14" H 4050 5500 50  0000 L CNN
F 1 "10k" H 4000 5600 50  0000 L CNN
F 2 "Resistor_THT:R_Axial_DIN0207_L6.3mm_D2.5mm_P7.62mm_Horizontal" V 3880 5600 50  0001 C CNN
F 3 "~" H 3950 5600 50  0001 C CNN
	1    3950 5600
	-1   0    0    1   
$EndComp
Text Label 3500 5800 0    50   ~ 0
SDA
Wire Wire Line
	3500 5800 3700 5800
Wire Wire Line
	3700 5800 3700 5750
Text Label 3500 5950 0    50   ~ 0
SCL
Wire Wire Line
	3500 5950 3950 5950
Wire Wire Line
	3950 5950 3950 5750
$Comp
L power:+3.3V #PWR034
U 1 1 60486FC2
P 3800 5350
F 0 "#PWR034" H 3800 5200 50  0001 C CNN
F 1 "+3.3V" H 3800 5500 50  0000 C CNN
F 2 "" H 3800 5350 50  0001 C CNN
F 3 "" H 3800 5350 50  0001 C CNN
	1    3800 5350
	1    0    0    -1  
$EndComp
Wire Wire Line
	3700 5450 3700 5350
Wire Wire Line
	3700 5350 3800 5350
Wire Wire Line
	3800 5350 3950 5350
Wire Wire Line
	3950 5350 3950 5450
Connection ~ 3800 5350
Wire Notes Line
	4650 3650 4650 5050
Wire Notes Line
	4650 5050 600  5050
Wire Notes Line
	600  5050 600  3650
Wire Notes Line
	600  3650 4650 3650
Text Notes 650  3750 0    50   ~ 0
RSM3485CHT\n
Wire Notes Line
	5000 7700 5000 5150
Wire Notes Line
	5000 5150 600  5150
Wire Notes Line
	600  5150 600  7700
Wire Notes Line
	600  7700 5000 7700
$Comp
L My_Lib_KiCAD:ESP12E_My U4
U 1 1 606FB5DD
P 2450 6550
F 0 "U4" H 2100 7350 50  0000 C CNN
F 1 "ESP12E_My" H 2200 7250 50  0000 C CNN
F 2 "RF_Module:ESP-12E" H 2000 7350 50  0001 C CNN
F 3 "" H 3450 5750 50  0001 C CNN
	1    2450 6550
	1    0    0    -1  
$EndComp
$Comp
L power:+3.3V #PWR0101
U 1 1 608FF5A0
P 750 6200
F 0 "#PWR0101" H 750 6050 50  0001 C CNN
F 1 "+3.3V" H 765 6373 50  0000 C CNN
F 2 "" H 750 6200 50  0001 C CNN
F 3 "" H 750 6200 50  0001 C CNN
	1    750  6200
	1    0    0    -1  
$EndComp
$Comp
L power:+3.3V #PWR0102
U 1 1 6092CBD3
P 4400 6300
F 0 "#PWR0102" H 4400 6150 50  0001 C CNN
F 1 "+3.3V" H 4400 6450 50  0000 C CNN
F 2 "" H 4400 6300 50  0001 C CNN
F 3 "" H 4400 6300 50  0001 C CNN
	1    4400 6300
	1    0    0    -1  
$EndComp
$Comp
L Connector_Generic:Conn_01x03 J3
U 1 1 60943597
P 4700 5700
F 0 "J3" H 4550 5350 50  0000 L CNN
F 1 "Program" H 4550 5450 50  0000 L CNN
F 2 "Connector_PinHeader_2.54mm:PinHeader_1x03_P2.54mm_Vertical" H 4700 5700 50  0001 C CNN
F 3 "~" H 4700 5700 50  0001 C CNN
	1    4700 5700
	1    0    0    1   
$EndComp
Wire Notes Line
	6800 6100 6800 7700
Wire Notes Line
	6800 7700 5100 7700
Wire Notes Line
	5100 7700 5100 6100
Wire Notes Line
	5100 6100 6800 6100
$EndSCHEMATC
