%TF.GenerationSoftware,KiCad,Pcbnew,(5.1.7)-1*%
%TF.CreationDate,2021-04-30T08:53:54+06:30*%
%TF.ProjectId,WirelessTrigger(RX)RLY_SMD_v0.1,57697265-6c65-4737-9354-726967676572,0*%
%TF.SameCoordinates,Original*%
%TF.FileFunction,Soldermask,Bot*%
%TF.FilePolarity,Negative*%
%FSLAX46Y46*%
G04 Gerber Fmt 4.6, Leading zero omitted, Abs format (unit mm)*
G04 Created by KiCad (PCBNEW (5.1.7)-1) date 2021-04-30 08:53:54*
%MOMM*%
%LPD*%
G01*
G04 APERTURE LIST*
%ADD10C,0.800000*%
%ADD11C,6.000000*%
%ADD12C,1.524000*%
%ADD13O,1.600000X1.600000*%
%ADD14R,1.600000X1.600000*%
%ADD15O,1.700000X1.700000*%
%ADD16R,1.700000X1.700000*%
%ADD17C,2.000000*%
%ADD18C,3.000000*%
%ADD19R,3.000000X3.000000*%
G04 APERTURE END LIST*
D10*
%TO.C,H1*%
X107000990Y-160969010D03*
X105410000Y-160310000D03*
X103819010Y-160969010D03*
X103160000Y-162560000D03*
X103819010Y-164150990D03*
X105410000Y-164810000D03*
X107000990Y-164150990D03*
X107660000Y-162560000D03*
D11*
X105410000Y-162560000D03*
%TD*%
D12*
%TO.C,K1*%
X99100800Y-126056200D03*
X99100800Y-136256200D03*
X99100800Y-138756200D03*
X91500800Y-126056200D03*
X91500800Y-136256200D03*
X91500800Y-138756200D03*
%TD*%
D13*
%TO.C,SW1*%
X74752200Y-157271000D03*
X82372200Y-164891000D03*
X77292200Y-157271000D03*
X79832200Y-164891000D03*
X79832200Y-157271000D03*
X77292200Y-164891000D03*
X82372200Y-157271000D03*
D14*
X74752200Y-164891000D03*
%TD*%
D15*
%TO.C,J1*%
X63779400Y-126654800D03*
D16*
X63779400Y-129194800D03*
%TD*%
D17*
%TO.C,SW4*%
X101018200Y-157068800D03*
X101018200Y-152568800D03*
X107518200Y-157068800D03*
X107518200Y-152568800D03*
%TD*%
%TO.C,SW3*%
X101018200Y-148488400D03*
X101018200Y-143988400D03*
X107518200Y-148488400D03*
X107518200Y-143988400D03*
%TD*%
%TO.C,SW2*%
X88957000Y-164769800D03*
X88957000Y-160269800D03*
X95457000Y-164769800D03*
X95457000Y-160269800D03*
%TD*%
D15*
%TO.C,J8*%
X87122000Y-156768800D03*
X89662000Y-156768800D03*
X92202000Y-156768800D03*
X94742000Y-156768800D03*
D16*
X97282000Y-156768800D03*
%TD*%
D15*
%TO.C,J6*%
X80187800Y-144805400D03*
D16*
X82727800Y-144805400D03*
%TD*%
D18*
%TO.C,J4*%
X63830200Y-162306000D03*
D19*
X68910200Y-162306000D03*
%TD*%
D18*
%TO.C,J3*%
X105079800Y-135246200D03*
D19*
X105079800Y-130166200D03*
%TD*%
D16*
%TO.C,J2*%
X67928400Y-126654800D03*
%TD*%
M02*
