%TF.GenerationSoftware,KiCad,Pcbnew,(5.1.7)-1*%
%TF.CreationDate,2021-04-30T08:53:54+06:30*%
%TF.ProjectId,WirelessTrigger(RX)RLY_SMD_v0.1,57697265-6c65-4737-9354-726967676572,0*%
%TF.SameCoordinates,Original*%
%TF.FileFunction,Other,User*%
%FSLAX46Y46*%
G04 Gerber Fmt 4.6, Leading zero omitted, Abs format (unit mm)*
G04 Created by KiCad (PCBNEW (5.1.7)-1) date 2021-04-30 08:53:54*
%MOMM*%
%LPD*%
G01*
G04 APERTURE LIST*
%ADD10C,0.050000*%
%ADD11C,0.120000*%
G04 APERTURE END LIST*
D10*
%TO.C,H1*%
X108660000Y-162560000D02*
G75*
G03*
X108660000Y-162560000I-3250000J0D01*
G01*
D11*
%TO.C,K1*%
X89800800Y-140756200D02*
X89800800Y-124656200D01*
X89800800Y-124656200D02*
X100900800Y-124656200D01*
X100900800Y-124656200D02*
X100900800Y-140756200D01*
X100900800Y-140756200D02*
X89800800Y-140756200D01*
D10*
%TO.C,SW1*%
X72052200Y-166241000D02*
X85052200Y-166241000D01*
X85052200Y-166241000D02*
X85052200Y-155941000D01*
X85052200Y-155941000D02*
X72052200Y-155941000D01*
X72052200Y-155941000D02*
X72052200Y-166241000D01*
%TO.C,J1*%
X65579400Y-130994800D02*
X65579400Y-124844800D01*
X65579400Y-124844800D02*
X61979400Y-124844800D01*
X61979400Y-124844800D02*
X61979400Y-130994800D01*
X61979400Y-130994800D02*
X65579400Y-130994800D01*
%TO.C,U3*%
X87690000Y-153633400D02*
X87690000Y-148433400D01*
X87690000Y-148433400D02*
X82490000Y-148433400D01*
X82490000Y-148433400D02*
X82490000Y-153633400D01*
X82490000Y-153633400D02*
X87690000Y-153633400D01*
%TO.C,U2*%
X71380200Y-142729400D02*
X62580200Y-142729400D01*
X71380200Y-149929400D02*
X71380200Y-142729400D01*
X62580200Y-149929400D02*
X71380200Y-149929400D01*
X62580200Y-142729400D02*
X62580200Y-149929400D01*
%TO.C,U1*%
X70277400Y-142654800D02*
X70277400Y-124654800D01*
X88777400Y-142654800D02*
X70277400Y-142654800D01*
X88777400Y-124654800D02*
X88777400Y-142654800D01*
X70277400Y-124654800D02*
X88777400Y-124654800D01*
%TO.C,SW4*%
X99768200Y-151068800D02*
X99518200Y-151068800D01*
X99518200Y-151068800D02*
X99518200Y-151318800D01*
X99768200Y-158568800D02*
X99518200Y-158568800D01*
X99518200Y-158568800D02*
X99518200Y-158318800D01*
X109018200Y-158318800D02*
X109018200Y-158568800D01*
X109018200Y-158568800D02*
X108768200Y-158568800D01*
X109018200Y-151318800D02*
X109018200Y-151068800D01*
X109018200Y-151068800D02*
X108768200Y-151068800D01*
X108768200Y-158568800D02*
X99768200Y-158568800D01*
X109018200Y-151318800D02*
X109018200Y-158318800D01*
X99768200Y-151068800D02*
X108768200Y-151068800D01*
X99518200Y-158318800D02*
X99518200Y-151318800D01*
%TO.C,SW3*%
X99768200Y-142488400D02*
X99518200Y-142488400D01*
X99518200Y-142488400D02*
X99518200Y-142738400D01*
X99768200Y-149988400D02*
X99518200Y-149988400D01*
X99518200Y-149988400D02*
X99518200Y-149738400D01*
X109018200Y-149738400D02*
X109018200Y-149988400D01*
X109018200Y-149988400D02*
X108768200Y-149988400D01*
X109018200Y-142738400D02*
X109018200Y-142488400D01*
X109018200Y-142488400D02*
X108768200Y-142488400D01*
X108768200Y-149988400D02*
X99768200Y-149988400D01*
X109018200Y-142738400D02*
X109018200Y-149738400D01*
X99768200Y-142488400D02*
X108768200Y-142488400D01*
X99518200Y-149738400D02*
X99518200Y-142738400D01*
%TO.C,SW2*%
X87707000Y-158769800D02*
X87457000Y-158769800D01*
X87457000Y-158769800D02*
X87457000Y-159019800D01*
X87707000Y-166269800D02*
X87457000Y-166269800D01*
X87457000Y-166269800D02*
X87457000Y-166019800D01*
X96957000Y-166019800D02*
X96957000Y-166269800D01*
X96957000Y-166269800D02*
X96707000Y-166269800D01*
X96957000Y-159019800D02*
X96957000Y-158769800D01*
X96957000Y-158769800D02*
X96707000Y-158769800D01*
X96707000Y-166269800D02*
X87707000Y-166269800D01*
X96957000Y-159019800D02*
X96957000Y-166019800D01*
X87707000Y-158769800D02*
X96707000Y-158769800D01*
X87457000Y-166019800D02*
X87457000Y-159019800D01*
%TO.C,R10*%
X92149500Y-150547533D02*
X92149500Y-148647533D01*
X92149500Y-148647533D02*
X95509500Y-148647533D01*
X95509500Y-148647533D02*
X95509500Y-150547533D01*
X95509500Y-150547533D02*
X92149500Y-150547533D01*
%TO.C,R9*%
X92149500Y-148422400D02*
X92149500Y-146522400D01*
X92149500Y-146522400D02*
X95509500Y-146522400D01*
X95509500Y-146522400D02*
X95509500Y-148422400D01*
X95509500Y-148422400D02*
X92149500Y-148422400D01*
%TO.C,R8*%
X98232000Y-154315166D02*
X96332000Y-154315166D01*
X96332000Y-154315166D02*
X96332000Y-150955166D01*
X96332000Y-150955166D02*
X98232000Y-150955166D01*
X98232000Y-150955166D02*
X98232000Y-154315166D01*
%TO.C,R7*%
X88591200Y-148422400D02*
X88591200Y-146522400D01*
X88591200Y-146522400D02*
X91951200Y-146522400D01*
X91951200Y-146522400D02*
X91951200Y-148422400D01*
X91951200Y-148422400D02*
X88591200Y-148422400D01*
%TO.C,R6*%
X92149500Y-154797800D02*
X92149500Y-152897800D01*
X92149500Y-152897800D02*
X95509500Y-152897800D01*
X95509500Y-152897800D02*
X95509500Y-154797800D01*
X95509500Y-154797800D02*
X92149500Y-154797800D01*
%TO.C,R5*%
X92149500Y-152672666D02*
X92149500Y-150772666D01*
X92149500Y-150772666D02*
X95509500Y-150772666D01*
X95509500Y-150772666D02*
X95509500Y-152672666D01*
X95509500Y-152672666D02*
X92149500Y-152672666D01*
%TO.C,Q1*%
X89273400Y-144813000D02*
X89273400Y-141413000D01*
X89273400Y-141413000D02*
X92773400Y-141413000D01*
X92773400Y-141413000D02*
X92773400Y-144813000D01*
X92773400Y-144813000D02*
X89273400Y-144813000D01*
%TO.C,J8*%
X99082000Y-154968800D02*
X85332000Y-154968800D01*
X85332000Y-154968800D02*
X85332000Y-158568800D01*
X85332000Y-158568800D02*
X99082000Y-158568800D01*
X99082000Y-158568800D02*
X99082000Y-154968800D01*
%TO.C,J6*%
X84527800Y-143005400D02*
X78377800Y-143005400D01*
X78377800Y-143005400D02*
X78377800Y-146605400D01*
X78377800Y-146605400D02*
X84527800Y-146605400D01*
X84527800Y-146605400D02*
X84527800Y-143005400D01*
%TO.C,J4*%
X71620200Y-166306000D02*
X61120200Y-166306000D01*
X71620200Y-166306000D02*
X71620200Y-158306000D01*
X61120200Y-158306000D02*
X61120200Y-166306000D01*
X61120200Y-158306000D02*
X71620200Y-158306000D01*
%TO.C,J3*%
X109079800Y-127456200D02*
X109079800Y-137956200D01*
X109079800Y-127456200D02*
X101079800Y-127456200D01*
X101079800Y-137956200D02*
X109079800Y-137956200D01*
X101079800Y-137956200D02*
X101079800Y-127456200D01*
%TO.C,J2*%
X69728400Y-128454800D02*
X69728400Y-124854800D01*
X69728400Y-124854800D02*
X66128400Y-124854800D01*
X66128400Y-124854800D02*
X66128400Y-128454800D01*
X66128400Y-128454800D02*
X69728400Y-128454800D01*
%TO.C,D3*%
X97700800Y-143263000D02*
X93000800Y-143263000D01*
X93000800Y-143263000D02*
X93000800Y-140963000D01*
X93000800Y-140963000D02*
X97700800Y-140963000D01*
X97700800Y-143263000D02*
X97700800Y-140963000D01*
%TO.C,D2*%
X88566200Y-154797800D02*
X88566200Y-152897800D01*
X88566200Y-152897800D02*
X91926200Y-152897800D01*
X91926200Y-152897800D02*
X91926200Y-154797800D01*
X91926200Y-154797800D02*
X88566200Y-154797800D01*
%TO.C,D1*%
X88566200Y-152672666D02*
X88566200Y-150772666D01*
X88566200Y-150772666D02*
X91926200Y-150772666D01*
X91926200Y-150772666D02*
X91926200Y-152672666D01*
X91926200Y-152672666D02*
X88566200Y-152672666D01*
%TO.C,C18*%
X82006000Y-150975800D02*
X80046000Y-150975800D01*
X80046000Y-150975800D02*
X80046000Y-147575800D01*
X80046000Y-147575800D02*
X82006000Y-147575800D01*
X82006000Y-147575800D02*
X82006000Y-150975800D01*
%TO.C,C7*%
X73474300Y-150372200D02*
X73474300Y-154072200D01*
X73474300Y-154072200D02*
X65974300Y-154072200D01*
X65974300Y-154072200D02*
X65974300Y-150372200D01*
X65974300Y-150372200D02*
X73474300Y-150372200D01*
%TO.C,C6*%
X64580200Y-150141933D02*
X64580200Y-152101933D01*
X64580200Y-152101933D02*
X61180200Y-152101933D01*
X61180200Y-152101933D02*
X61180200Y-150141933D01*
X61180200Y-150141933D02*
X64580200Y-150141933D01*
%TO.C,C5*%
X64580200Y-152314466D02*
X64580200Y-154274466D01*
X64580200Y-154274466D02*
X61180200Y-154274466D01*
X61180200Y-154274466D02*
X61180200Y-152314466D01*
X61180200Y-152314466D02*
X64580200Y-152314466D01*
%TO.C,C4*%
X62542700Y-158187000D02*
X62542700Y-154487000D01*
X62542700Y-154487000D02*
X70042700Y-154487000D01*
X70042700Y-154487000D02*
X70042700Y-158187000D01*
X70042700Y-158187000D02*
X62542700Y-158187000D01*
%TO.C,C3*%
X69619600Y-129674800D02*
X69619600Y-131634800D01*
X69619600Y-131634800D02*
X66219600Y-131634800D01*
X66219600Y-131634800D02*
X66219600Y-129674800D01*
X66219600Y-129674800D02*
X69619600Y-129674800D01*
%TD*%
M02*
