%TF.GenerationSoftware,KiCad,Pcbnew,(5.1.7)-1*%
%TF.CreationDate,2021-04-30T08:53:54+06:30*%
%TF.ProjectId,WirelessTrigger(RX)RLY_SMD_v0.1,57697265-6c65-4737-9354-726967676572,0*%
%TF.SameCoordinates,Original*%
%TF.FileFunction,Paste,Top*%
%TF.FilePolarity,Positive*%
%FSLAX46Y46*%
G04 Gerber Fmt 4.6, Leading zero omitted, Abs format (unit mm)*
G04 Created by KiCad (PCBNEW (5.1.7)-1) date 2021-04-30 08:53:54*
%MOMM*%
%LPD*%
G01*
G04 APERTURE LIST*
%ADD10R,2.000000X1.500000*%
%ADD11R,2.000000X3.800000*%
%ADD12R,0.800000X0.900000*%
%ADD13R,0.900000X1.200000*%
G04 APERTURE END LIST*
%TO.C,U3*%
G36*
G01*
X84980000Y-150225900D02*
X84980000Y-150690900D01*
G75*
G02*
X84747500Y-150923400I-232500J0D01*
G01*
X84282500Y-150923400D01*
G75*
G02*
X84050000Y-150690900I0J232500D01*
G01*
X84050000Y-150225900D01*
G75*
G02*
X84282500Y-149993400I232500J0D01*
G01*
X84747500Y-149993400D01*
G75*
G02*
X84980000Y-150225900I0J-232500D01*
G01*
G37*
G36*
G01*
X84980000Y-151375900D02*
X84980000Y-151840900D01*
G75*
G02*
X84747500Y-152073400I-232500J0D01*
G01*
X84282500Y-152073400D01*
G75*
G02*
X84050000Y-151840900I0J232500D01*
G01*
X84050000Y-151375900D01*
G75*
G02*
X84282500Y-151143400I232500J0D01*
G01*
X84747500Y-151143400D01*
G75*
G02*
X84980000Y-151375900I0J-232500D01*
G01*
G37*
G36*
G01*
X86130000Y-150225900D02*
X86130000Y-150690900D01*
G75*
G02*
X85897500Y-150923400I-232500J0D01*
G01*
X85432500Y-150923400D01*
G75*
G02*
X85200000Y-150690900I0J232500D01*
G01*
X85200000Y-150225900D01*
G75*
G02*
X85432500Y-149993400I232500J0D01*
G01*
X85897500Y-149993400D01*
G75*
G02*
X86130000Y-150225900I0J-232500D01*
G01*
G37*
G36*
G01*
X86130000Y-151375900D02*
X86130000Y-151840900D01*
G75*
G02*
X85897500Y-152073400I-232500J0D01*
G01*
X85432500Y-152073400D01*
G75*
G02*
X85200000Y-151840900I0J232500D01*
G01*
X85200000Y-151375900D01*
G75*
G02*
X85432500Y-151143400I232500J0D01*
G01*
X85897500Y-151143400D01*
G75*
G02*
X86130000Y-151375900I0J-232500D01*
G01*
G37*
G36*
G01*
X86390000Y-152608400D02*
X86390000Y-153333400D01*
G75*
G02*
X86340000Y-153383400I-50000J0D01*
G01*
X86240000Y-153383400D01*
G75*
G02*
X86190000Y-153333400I0J50000D01*
G01*
X86190000Y-152608400D01*
G75*
G02*
X86240000Y-152558400I50000J0D01*
G01*
X86340000Y-152558400D01*
G75*
G02*
X86390000Y-152608400I0J-50000D01*
G01*
G37*
G36*
G01*
X85990000Y-152608400D02*
X85990000Y-153333400D01*
G75*
G02*
X85940000Y-153383400I-50000J0D01*
G01*
X85840000Y-153383400D01*
G75*
G02*
X85790000Y-153333400I0J50000D01*
G01*
X85790000Y-152608400D01*
G75*
G02*
X85840000Y-152558400I50000J0D01*
G01*
X85940000Y-152558400D01*
G75*
G02*
X85990000Y-152608400I0J-50000D01*
G01*
G37*
G36*
G01*
X85590000Y-152608400D02*
X85590000Y-153333400D01*
G75*
G02*
X85540000Y-153383400I-50000J0D01*
G01*
X85440000Y-153383400D01*
G75*
G02*
X85390000Y-153333400I0J50000D01*
G01*
X85390000Y-152608400D01*
G75*
G02*
X85440000Y-152558400I50000J0D01*
G01*
X85540000Y-152558400D01*
G75*
G02*
X85590000Y-152608400I0J-50000D01*
G01*
G37*
G36*
G01*
X85190000Y-152608400D02*
X85190000Y-153333400D01*
G75*
G02*
X85140000Y-153383400I-50000J0D01*
G01*
X85040000Y-153383400D01*
G75*
G02*
X84990000Y-153333400I0J50000D01*
G01*
X84990000Y-152608400D01*
G75*
G02*
X85040000Y-152558400I50000J0D01*
G01*
X85140000Y-152558400D01*
G75*
G02*
X85190000Y-152608400I0J-50000D01*
G01*
G37*
G36*
G01*
X84790000Y-152608400D02*
X84790000Y-153333400D01*
G75*
G02*
X84740000Y-153383400I-50000J0D01*
G01*
X84640000Y-153383400D01*
G75*
G02*
X84590000Y-153333400I0J50000D01*
G01*
X84590000Y-152608400D01*
G75*
G02*
X84640000Y-152558400I50000J0D01*
G01*
X84740000Y-152558400D01*
G75*
G02*
X84790000Y-152608400I0J-50000D01*
G01*
G37*
G36*
G01*
X84390000Y-152608400D02*
X84390000Y-153333400D01*
G75*
G02*
X84340000Y-153383400I-50000J0D01*
G01*
X84240000Y-153383400D01*
G75*
G02*
X84190000Y-153333400I0J50000D01*
G01*
X84190000Y-152608400D01*
G75*
G02*
X84240000Y-152558400I50000J0D01*
G01*
X84340000Y-152558400D01*
G75*
G02*
X84390000Y-152608400I0J-50000D01*
G01*
G37*
G36*
G01*
X83990000Y-152608400D02*
X83990000Y-153333400D01*
G75*
G02*
X83940000Y-153383400I-50000J0D01*
G01*
X83840000Y-153383400D01*
G75*
G02*
X83790000Y-153333400I0J50000D01*
G01*
X83790000Y-152608400D01*
G75*
G02*
X83840000Y-152558400I50000J0D01*
G01*
X83940000Y-152558400D01*
G75*
G02*
X83990000Y-152608400I0J-50000D01*
G01*
G37*
G36*
G01*
X83565000Y-152183400D02*
X83565000Y-152283400D01*
G75*
G02*
X83515000Y-152333400I-50000J0D01*
G01*
X82790000Y-152333400D01*
G75*
G02*
X82740000Y-152283400I0J50000D01*
G01*
X82740000Y-152183400D01*
G75*
G02*
X82790000Y-152133400I50000J0D01*
G01*
X83515000Y-152133400D01*
G75*
G02*
X83565000Y-152183400I0J-50000D01*
G01*
G37*
G36*
G01*
X83565000Y-151783400D02*
X83565000Y-151883400D01*
G75*
G02*
X83515000Y-151933400I-50000J0D01*
G01*
X82790000Y-151933400D01*
G75*
G02*
X82740000Y-151883400I0J50000D01*
G01*
X82740000Y-151783400D01*
G75*
G02*
X82790000Y-151733400I50000J0D01*
G01*
X83515000Y-151733400D01*
G75*
G02*
X83565000Y-151783400I0J-50000D01*
G01*
G37*
G36*
G01*
X83565000Y-151383400D02*
X83565000Y-151483400D01*
G75*
G02*
X83515000Y-151533400I-50000J0D01*
G01*
X82790000Y-151533400D01*
G75*
G02*
X82740000Y-151483400I0J50000D01*
G01*
X82740000Y-151383400D01*
G75*
G02*
X82790000Y-151333400I50000J0D01*
G01*
X83515000Y-151333400D01*
G75*
G02*
X83565000Y-151383400I0J-50000D01*
G01*
G37*
G36*
G01*
X83565000Y-150983400D02*
X83565000Y-151083400D01*
G75*
G02*
X83515000Y-151133400I-50000J0D01*
G01*
X82790000Y-151133400D01*
G75*
G02*
X82740000Y-151083400I0J50000D01*
G01*
X82740000Y-150983400D01*
G75*
G02*
X82790000Y-150933400I50000J0D01*
G01*
X83515000Y-150933400D01*
G75*
G02*
X83565000Y-150983400I0J-50000D01*
G01*
G37*
G36*
G01*
X83565000Y-150583400D02*
X83565000Y-150683400D01*
G75*
G02*
X83515000Y-150733400I-50000J0D01*
G01*
X82790000Y-150733400D01*
G75*
G02*
X82740000Y-150683400I0J50000D01*
G01*
X82740000Y-150583400D01*
G75*
G02*
X82790000Y-150533400I50000J0D01*
G01*
X83515000Y-150533400D01*
G75*
G02*
X83565000Y-150583400I0J-50000D01*
G01*
G37*
G36*
G01*
X83565000Y-150183400D02*
X83565000Y-150283400D01*
G75*
G02*
X83515000Y-150333400I-50000J0D01*
G01*
X82790000Y-150333400D01*
G75*
G02*
X82740000Y-150283400I0J50000D01*
G01*
X82740000Y-150183400D01*
G75*
G02*
X82790000Y-150133400I50000J0D01*
G01*
X83515000Y-150133400D01*
G75*
G02*
X83565000Y-150183400I0J-50000D01*
G01*
G37*
G36*
G01*
X83565000Y-149783400D02*
X83565000Y-149883400D01*
G75*
G02*
X83515000Y-149933400I-50000J0D01*
G01*
X82790000Y-149933400D01*
G75*
G02*
X82740000Y-149883400I0J50000D01*
G01*
X82740000Y-149783400D01*
G75*
G02*
X82790000Y-149733400I50000J0D01*
G01*
X83515000Y-149733400D01*
G75*
G02*
X83565000Y-149783400I0J-50000D01*
G01*
G37*
G36*
G01*
X83990000Y-148733400D02*
X83990000Y-149458400D01*
G75*
G02*
X83940000Y-149508400I-50000J0D01*
G01*
X83840000Y-149508400D01*
G75*
G02*
X83790000Y-149458400I0J50000D01*
G01*
X83790000Y-148733400D01*
G75*
G02*
X83840000Y-148683400I50000J0D01*
G01*
X83940000Y-148683400D01*
G75*
G02*
X83990000Y-148733400I0J-50000D01*
G01*
G37*
G36*
G01*
X84390000Y-148733400D02*
X84390000Y-149458400D01*
G75*
G02*
X84340000Y-149508400I-50000J0D01*
G01*
X84240000Y-149508400D01*
G75*
G02*
X84190000Y-149458400I0J50000D01*
G01*
X84190000Y-148733400D01*
G75*
G02*
X84240000Y-148683400I50000J0D01*
G01*
X84340000Y-148683400D01*
G75*
G02*
X84390000Y-148733400I0J-50000D01*
G01*
G37*
G36*
G01*
X84790000Y-148733400D02*
X84790000Y-149458400D01*
G75*
G02*
X84740000Y-149508400I-50000J0D01*
G01*
X84640000Y-149508400D01*
G75*
G02*
X84590000Y-149458400I0J50000D01*
G01*
X84590000Y-148733400D01*
G75*
G02*
X84640000Y-148683400I50000J0D01*
G01*
X84740000Y-148683400D01*
G75*
G02*
X84790000Y-148733400I0J-50000D01*
G01*
G37*
G36*
G01*
X85190000Y-148733400D02*
X85190000Y-149458400D01*
G75*
G02*
X85140000Y-149508400I-50000J0D01*
G01*
X85040000Y-149508400D01*
G75*
G02*
X84990000Y-149458400I0J50000D01*
G01*
X84990000Y-148733400D01*
G75*
G02*
X85040000Y-148683400I50000J0D01*
G01*
X85140000Y-148683400D01*
G75*
G02*
X85190000Y-148733400I0J-50000D01*
G01*
G37*
G36*
G01*
X85590000Y-148733400D02*
X85590000Y-149458400D01*
G75*
G02*
X85540000Y-149508400I-50000J0D01*
G01*
X85440000Y-149508400D01*
G75*
G02*
X85390000Y-149458400I0J50000D01*
G01*
X85390000Y-148733400D01*
G75*
G02*
X85440000Y-148683400I50000J0D01*
G01*
X85540000Y-148683400D01*
G75*
G02*
X85590000Y-148733400I0J-50000D01*
G01*
G37*
G36*
G01*
X85990000Y-148733400D02*
X85990000Y-149458400D01*
G75*
G02*
X85940000Y-149508400I-50000J0D01*
G01*
X85840000Y-149508400D01*
G75*
G02*
X85790000Y-149458400I0J50000D01*
G01*
X85790000Y-148733400D01*
G75*
G02*
X85840000Y-148683400I50000J0D01*
G01*
X85940000Y-148683400D01*
G75*
G02*
X85990000Y-148733400I0J-50000D01*
G01*
G37*
G36*
G01*
X86390000Y-148733400D02*
X86390000Y-149458400D01*
G75*
G02*
X86340000Y-149508400I-50000J0D01*
G01*
X86240000Y-149508400D01*
G75*
G02*
X86190000Y-149458400I0J50000D01*
G01*
X86190000Y-148733400D01*
G75*
G02*
X86240000Y-148683400I50000J0D01*
G01*
X86340000Y-148683400D01*
G75*
G02*
X86390000Y-148733400I0J-50000D01*
G01*
G37*
G36*
G01*
X87440000Y-149783400D02*
X87440000Y-149883400D01*
G75*
G02*
X87390000Y-149933400I-50000J0D01*
G01*
X86665000Y-149933400D01*
G75*
G02*
X86615000Y-149883400I0J50000D01*
G01*
X86615000Y-149783400D01*
G75*
G02*
X86665000Y-149733400I50000J0D01*
G01*
X87390000Y-149733400D01*
G75*
G02*
X87440000Y-149783400I0J-50000D01*
G01*
G37*
G36*
G01*
X87440000Y-150183400D02*
X87440000Y-150283400D01*
G75*
G02*
X87390000Y-150333400I-50000J0D01*
G01*
X86665000Y-150333400D01*
G75*
G02*
X86615000Y-150283400I0J50000D01*
G01*
X86615000Y-150183400D01*
G75*
G02*
X86665000Y-150133400I50000J0D01*
G01*
X87390000Y-150133400D01*
G75*
G02*
X87440000Y-150183400I0J-50000D01*
G01*
G37*
G36*
G01*
X87440000Y-150583400D02*
X87440000Y-150683400D01*
G75*
G02*
X87390000Y-150733400I-50000J0D01*
G01*
X86665000Y-150733400D01*
G75*
G02*
X86615000Y-150683400I0J50000D01*
G01*
X86615000Y-150583400D01*
G75*
G02*
X86665000Y-150533400I50000J0D01*
G01*
X87390000Y-150533400D01*
G75*
G02*
X87440000Y-150583400I0J-50000D01*
G01*
G37*
G36*
G01*
X87440000Y-150983400D02*
X87440000Y-151083400D01*
G75*
G02*
X87390000Y-151133400I-50000J0D01*
G01*
X86665000Y-151133400D01*
G75*
G02*
X86615000Y-151083400I0J50000D01*
G01*
X86615000Y-150983400D01*
G75*
G02*
X86665000Y-150933400I50000J0D01*
G01*
X87390000Y-150933400D01*
G75*
G02*
X87440000Y-150983400I0J-50000D01*
G01*
G37*
G36*
G01*
X87440000Y-151383400D02*
X87440000Y-151483400D01*
G75*
G02*
X87390000Y-151533400I-50000J0D01*
G01*
X86665000Y-151533400D01*
G75*
G02*
X86615000Y-151483400I0J50000D01*
G01*
X86615000Y-151383400D01*
G75*
G02*
X86665000Y-151333400I50000J0D01*
G01*
X87390000Y-151333400D01*
G75*
G02*
X87440000Y-151383400I0J-50000D01*
G01*
G37*
G36*
G01*
X87440000Y-151783400D02*
X87440000Y-151883400D01*
G75*
G02*
X87390000Y-151933400I-50000J0D01*
G01*
X86665000Y-151933400D01*
G75*
G02*
X86615000Y-151883400I0J50000D01*
G01*
X86615000Y-151783400D01*
G75*
G02*
X86665000Y-151733400I50000J0D01*
G01*
X87390000Y-151733400D01*
G75*
G02*
X87440000Y-151783400I0J-50000D01*
G01*
G37*
G36*
G01*
X87440000Y-152183400D02*
X87440000Y-152283400D01*
G75*
G02*
X87390000Y-152333400I-50000J0D01*
G01*
X86665000Y-152333400D01*
G75*
G02*
X86615000Y-152283400I0J50000D01*
G01*
X86615000Y-152183400D01*
G75*
G02*
X86665000Y-152133400I50000J0D01*
G01*
X87390000Y-152133400D01*
G75*
G02*
X87440000Y-152183400I0J-50000D01*
G01*
G37*
%TD*%
D10*
%TO.C,U2*%
X63830200Y-144029400D03*
X63830200Y-148629400D03*
X63830200Y-146329400D03*
D11*
X70130200Y-146329400D03*
%TD*%
D10*
%TO.C,U1*%
X71527400Y-126654800D03*
X71527400Y-128654800D03*
X71527400Y-130654800D03*
X71527400Y-132654800D03*
X71527400Y-134654800D03*
X71527400Y-136654800D03*
X71527400Y-138654800D03*
X71527400Y-140654800D03*
X87527400Y-140654800D03*
X87527400Y-138654800D03*
X87527400Y-136654800D03*
X87527400Y-134654800D03*
X87527400Y-132654800D03*
X87527400Y-130654800D03*
X87527400Y-128654800D03*
X87527400Y-126654800D03*
%TD*%
%TO.C,R10*%
G36*
G01*
X94229500Y-150047534D02*
X94229500Y-149147532D01*
G75*
G02*
X94479499Y-148897533I249999J0D01*
G01*
X95004501Y-148897533D01*
G75*
G02*
X95254500Y-149147532I0J-249999D01*
G01*
X95254500Y-150047534D01*
G75*
G02*
X95004501Y-150297533I-249999J0D01*
G01*
X94479499Y-150297533D01*
G75*
G02*
X94229500Y-150047534I0J249999D01*
G01*
G37*
G36*
G01*
X92404500Y-150047534D02*
X92404500Y-149147532D01*
G75*
G02*
X92654499Y-148897533I249999J0D01*
G01*
X93179501Y-148897533D01*
G75*
G02*
X93429500Y-149147532I0J-249999D01*
G01*
X93429500Y-150047534D01*
G75*
G02*
X93179501Y-150297533I-249999J0D01*
G01*
X92654499Y-150297533D01*
G75*
G02*
X92404500Y-150047534I0J249999D01*
G01*
G37*
%TD*%
%TO.C,R9*%
G36*
G01*
X94229500Y-147922401D02*
X94229500Y-147022399D01*
G75*
G02*
X94479499Y-146772400I249999J0D01*
G01*
X95004501Y-146772400D01*
G75*
G02*
X95254500Y-147022399I0J-249999D01*
G01*
X95254500Y-147922401D01*
G75*
G02*
X95004501Y-148172400I-249999J0D01*
G01*
X94479499Y-148172400D01*
G75*
G02*
X94229500Y-147922401I0J249999D01*
G01*
G37*
G36*
G01*
X92404500Y-147922401D02*
X92404500Y-147022399D01*
G75*
G02*
X92654499Y-146772400I249999J0D01*
G01*
X93179501Y-146772400D01*
G75*
G02*
X93429500Y-147022399I0J-249999D01*
G01*
X93429500Y-147922401D01*
G75*
G02*
X93179501Y-148172400I-249999J0D01*
G01*
X92654499Y-148172400D01*
G75*
G02*
X92404500Y-147922401I0J249999D01*
G01*
G37*
%TD*%
%TO.C,R8*%
G36*
G01*
X97732001Y-152235166D02*
X96831999Y-152235166D01*
G75*
G02*
X96582000Y-151985167I0J249999D01*
G01*
X96582000Y-151460165D01*
G75*
G02*
X96831999Y-151210166I249999J0D01*
G01*
X97732001Y-151210166D01*
G75*
G02*
X97982000Y-151460165I0J-249999D01*
G01*
X97982000Y-151985167D01*
G75*
G02*
X97732001Y-152235166I-249999J0D01*
G01*
G37*
G36*
G01*
X97732001Y-154060166D02*
X96831999Y-154060166D01*
G75*
G02*
X96582000Y-153810167I0J249999D01*
G01*
X96582000Y-153285165D01*
G75*
G02*
X96831999Y-153035166I249999J0D01*
G01*
X97732001Y-153035166D01*
G75*
G02*
X97982000Y-153285165I0J-249999D01*
G01*
X97982000Y-153810167D01*
G75*
G02*
X97732001Y-154060166I-249999J0D01*
G01*
G37*
%TD*%
%TO.C,R7*%
G36*
G01*
X90671200Y-147922401D02*
X90671200Y-147022399D01*
G75*
G02*
X90921199Y-146772400I249999J0D01*
G01*
X91446201Y-146772400D01*
G75*
G02*
X91696200Y-147022399I0J-249999D01*
G01*
X91696200Y-147922401D01*
G75*
G02*
X91446201Y-148172400I-249999J0D01*
G01*
X90921199Y-148172400D01*
G75*
G02*
X90671200Y-147922401I0J249999D01*
G01*
G37*
G36*
G01*
X88846200Y-147922401D02*
X88846200Y-147022399D01*
G75*
G02*
X89096199Y-146772400I249999J0D01*
G01*
X89621201Y-146772400D01*
G75*
G02*
X89871200Y-147022399I0J-249999D01*
G01*
X89871200Y-147922401D01*
G75*
G02*
X89621201Y-148172400I-249999J0D01*
G01*
X89096199Y-148172400D01*
G75*
G02*
X88846200Y-147922401I0J249999D01*
G01*
G37*
%TD*%
%TO.C,R6*%
G36*
G01*
X94229500Y-154297801D02*
X94229500Y-153397799D01*
G75*
G02*
X94479499Y-153147800I249999J0D01*
G01*
X95004501Y-153147800D01*
G75*
G02*
X95254500Y-153397799I0J-249999D01*
G01*
X95254500Y-154297801D01*
G75*
G02*
X95004501Y-154547800I-249999J0D01*
G01*
X94479499Y-154547800D01*
G75*
G02*
X94229500Y-154297801I0J249999D01*
G01*
G37*
G36*
G01*
X92404500Y-154297801D02*
X92404500Y-153397799D01*
G75*
G02*
X92654499Y-153147800I249999J0D01*
G01*
X93179501Y-153147800D01*
G75*
G02*
X93429500Y-153397799I0J-249999D01*
G01*
X93429500Y-154297801D01*
G75*
G02*
X93179501Y-154547800I-249999J0D01*
G01*
X92654499Y-154547800D01*
G75*
G02*
X92404500Y-154297801I0J249999D01*
G01*
G37*
%TD*%
%TO.C,R5*%
G36*
G01*
X94229500Y-152172667D02*
X94229500Y-151272665D01*
G75*
G02*
X94479499Y-151022666I249999J0D01*
G01*
X95004501Y-151022666D01*
G75*
G02*
X95254500Y-151272665I0J-249999D01*
G01*
X95254500Y-152172667D01*
G75*
G02*
X95004501Y-152422666I-249999J0D01*
G01*
X94479499Y-152422666D01*
G75*
G02*
X94229500Y-152172667I0J249999D01*
G01*
G37*
G36*
G01*
X92404500Y-152172667D02*
X92404500Y-151272665D01*
G75*
G02*
X92654499Y-151022666I249999J0D01*
G01*
X93179501Y-151022666D01*
G75*
G02*
X93429500Y-151272665I0J-249999D01*
G01*
X93429500Y-152172667D01*
G75*
G02*
X93179501Y-152422666I-249999J0D01*
G01*
X92654499Y-152422666D01*
G75*
G02*
X92404500Y-152172667I0J249999D01*
G01*
G37*
%TD*%
D12*
%TO.C,Q1*%
X91023400Y-142113000D03*
X91973400Y-144113000D03*
X90073400Y-144113000D03*
%TD*%
D13*
%TO.C,D3*%
X93700800Y-142113000D03*
X97000800Y-142113000D03*
%TD*%
%TO.C,D2*%
G36*
G01*
X90696200Y-154304050D02*
X90696200Y-153391550D01*
G75*
G02*
X90939950Y-153147800I243750J0D01*
G01*
X91427450Y-153147800D01*
G75*
G02*
X91671200Y-153391550I0J-243750D01*
G01*
X91671200Y-154304050D01*
G75*
G02*
X91427450Y-154547800I-243750J0D01*
G01*
X90939950Y-154547800D01*
G75*
G02*
X90696200Y-154304050I0J243750D01*
G01*
G37*
G36*
G01*
X88821200Y-154304050D02*
X88821200Y-153391550D01*
G75*
G02*
X89064950Y-153147800I243750J0D01*
G01*
X89552450Y-153147800D01*
G75*
G02*
X89796200Y-153391550I0J-243750D01*
G01*
X89796200Y-154304050D01*
G75*
G02*
X89552450Y-154547800I-243750J0D01*
G01*
X89064950Y-154547800D01*
G75*
G02*
X88821200Y-154304050I0J243750D01*
G01*
G37*
%TD*%
%TO.C,D1*%
G36*
G01*
X90696200Y-152178916D02*
X90696200Y-151266416D01*
G75*
G02*
X90939950Y-151022666I243750J0D01*
G01*
X91427450Y-151022666D01*
G75*
G02*
X91671200Y-151266416I0J-243750D01*
G01*
X91671200Y-152178916D01*
G75*
G02*
X91427450Y-152422666I-243750J0D01*
G01*
X90939950Y-152422666D01*
G75*
G02*
X90696200Y-152178916I0J243750D01*
G01*
G37*
G36*
G01*
X88821200Y-152178916D02*
X88821200Y-151266416D01*
G75*
G02*
X89064950Y-151022666I243750J0D01*
G01*
X89552450Y-151022666D01*
G75*
G02*
X89796200Y-151266416I0J-243750D01*
G01*
X89796200Y-152178916D01*
G75*
G02*
X89552450Y-152422666I-243750J0D01*
G01*
X89064950Y-152422666D01*
G75*
G02*
X88821200Y-152178916I0J243750D01*
G01*
G37*
%TD*%
%TO.C,C18*%
G36*
G01*
X81501000Y-148825800D02*
X80551000Y-148825800D01*
G75*
G02*
X80301000Y-148575800I0J250000D01*
G01*
X80301000Y-148075800D01*
G75*
G02*
X80551000Y-147825800I250000J0D01*
G01*
X81501000Y-147825800D01*
G75*
G02*
X81751000Y-148075800I0J-250000D01*
G01*
X81751000Y-148575800D01*
G75*
G02*
X81501000Y-148825800I-250000J0D01*
G01*
G37*
G36*
G01*
X81501000Y-150725800D02*
X80551000Y-150725800D01*
G75*
G02*
X80301000Y-150475800I0J250000D01*
G01*
X80301000Y-149975800D01*
G75*
G02*
X80551000Y-149725800I250000J0D01*
G01*
X81501000Y-149725800D01*
G75*
G02*
X81751000Y-149975800I0J-250000D01*
G01*
X81751000Y-150475800D01*
G75*
G02*
X81501000Y-150725800I-250000J0D01*
G01*
G37*
%TD*%
%TO.C,C7*%
G36*
G01*
X68299300Y-151297200D02*
X68299300Y-153147200D01*
G75*
G02*
X68049300Y-153397200I-250000J0D01*
G01*
X66474300Y-153397200D01*
G75*
G02*
X66224300Y-153147200I0J250000D01*
G01*
X66224300Y-151297200D01*
G75*
G02*
X66474300Y-151047200I250000J0D01*
G01*
X68049300Y-151047200D01*
G75*
G02*
X68299300Y-151297200I0J-250000D01*
G01*
G37*
G36*
G01*
X73224300Y-151297200D02*
X73224300Y-153147200D01*
G75*
G02*
X72974300Y-153397200I-250000J0D01*
G01*
X71399300Y-153397200D01*
G75*
G02*
X71149300Y-153147200I0J250000D01*
G01*
X71149300Y-151297200D01*
G75*
G02*
X71399300Y-151047200I250000J0D01*
G01*
X72974300Y-151047200D01*
G75*
G02*
X73224300Y-151297200I0J-250000D01*
G01*
G37*
%TD*%
%TO.C,C6*%
G36*
G01*
X62430200Y-150646933D02*
X62430200Y-151596933D01*
G75*
G02*
X62180200Y-151846933I-250000J0D01*
G01*
X61680200Y-151846933D01*
G75*
G02*
X61430200Y-151596933I0J250000D01*
G01*
X61430200Y-150646933D01*
G75*
G02*
X61680200Y-150396933I250000J0D01*
G01*
X62180200Y-150396933D01*
G75*
G02*
X62430200Y-150646933I0J-250000D01*
G01*
G37*
G36*
G01*
X64330200Y-150646933D02*
X64330200Y-151596933D01*
G75*
G02*
X64080200Y-151846933I-250000J0D01*
G01*
X63580200Y-151846933D01*
G75*
G02*
X63330200Y-151596933I0J250000D01*
G01*
X63330200Y-150646933D01*
G75*
G02*
X63580200Y-150396933I250000J0D01*
G01*
X64080200Y-150396933D01*
G75*
G02*
X64330200Y-150646933I0J-250000D01*
G01*
G37*
%TD*%
%TO.C,C5*%
G36*
G01*
X62430200Y-152819466D02*
X62430200Y-153769466D01*
G75*
G02*
X62180200Y-154019466I-250000J0D01*
G01*
X61680200Y-154019466D01*
G75*
G02*
X61430200Y-153769466I0J250000D01*
G01*
X61430200Y-152819466D01*
G75*
G02*
X61680200Y-152569466I250000J0D01*
G01*
X62180200Y-152569466D01*
G75*
G02*
X62430200Y-152819466I0J-250000D01*
G01*
G37*
G36*
G01*
X64330200Y-152819466D02*
X64330200Y-153769466D01*
G75*
G02*
X64080200Y-154019466I-250000J0D01*
G01*
X63580200Y-154019466D01*
G75*
G02*
X63330200Y-153769466I0J250000D01*
G01*
X63330200Y-152819466D01*
G75*
G02*
X63580200Y-152569466I250000J0D01*
G01*
X64080200Y-152569466D01*
G75*
G02*
X64330200Y-152819466I0J-250000D01*
G01*
G37*
%TD*%
%TO.C,C4*%
G36*
G01*
X67717700Y-157262000D02*
X67717700Y-155412000D01*
G75*
G02*
X67967700Y-155162000I250000J0D01*
G01*
X69542700Y-155162000D01*
G75*
G02*
X69792700Y-155412000I0J-250000D01*
G01*
X69792700Y-157262000D01*
G75*
G02*
X69542700Y-157512000I-250000J0D01*
G01*
X67967700Y-157512000D01*
G75*
G02*
X67717700Y-157262000I0J250000D01*
G01*
G37*
G36*
G01*
X62792700Y-157262000D02*
X62792700Y-155412000D01*
G75*
G02*
X63042700Y-155162000I250000J0D01*
G01*
X64617700Y-155162000D01*
G75*
G02*
X64867700Y-155412000I0J-250000D01*
G01*
X64867700Y-157262000D01*
G75*
G02*
X64617700Y-157512000I-250000J0D01*
G01*
X63042700Y-157512000D01*
G75*
G02*
X62792700Y-157262000I0J250000D01*
G01*
G37*
%TD*%
%TO.C,C3*%
G36*
G01*
X67469600Y-130179800D02*
X67469600Y-131129800D01*
G75*
G02*
X67219600Y-131379800I-250000J0D01*
G01*
X66719600Y-131379800D01*
G75*
G02*
X66469600Y-131129800I0J250000D01*
G01*
X66469600Y-130179800D01*
G75*
G02*
X66719600Y-129929800I250000J0D01*
G01*
X67219600Y-129929800D01*
G75*
G02*
X67469600Y-130179800I0J-250000D01*
G01*
G37*
G36*
G01*
X69369600Y-130179800D02*
X69369600Y-131129800D01*
G75*
G02*
X69119600Y-131379800I-250000J0D01*
G01*
X68619600Y-131379800D01*
G75*
G02*
X68369600Y-131129800I0J250000D01*
G01*
X68369600Y-130179800D01*
G75*
G02*
X68619600Y-129929800I250000J0D01*
G01*
X69119600Y-129929800D01*
G75*
G02*
X69369600Y-130179800I0J-250000D01*
G01*
G37*
%TD*%
M02*
