%TF.GenerationSoftware,KiCad,Pcbnew,(5.1.7)-1*%
%TF.CreationDate,2021-04-30T08:53:54+06:30*%
%TF.ProjectId,WirelessTrigger(RX)RLY_SMD_v0.1,57697265-6c65-4737-9354-726967676572,0*%
%TF.SameCoordinates,Original*%
%TF.FileFunction,Legend,Top*%
%TF.FilePolarity,Positive*%
%FSLAX46Y46*%
G04 Gerber Fmt 4.6, Leading zero omitted, Abs format (unit mm)*
G04 Created by KiCad (PCBNEW (5.1.7)-1) date 2021-04-30 08:53:54*
%MOMM*%
%LPD*%
G01*
G04 APERTURE LIST*
%ADD10C,0.150000*%
%ADD11C,0.200000*%
%ADD12C,0.400000*%
%ADD13C,0.010000*%
%ADD14C,0.120000*%
G04 APERTURE END LIST*
D10*
X97699580Y-161327933D02*
X98699580Y-160994600D01*
X97699580Y-160661266D01*
X98699580Y-160327933D02*
X97699580Y-160327933D01*
X97699580Y-159946980D01*
X97747200Y-159851742D01*
X97794819Y-159804123D01*
X97890057Y-159756504D01*
X98032914Y-159756504D01*
X98128152Y-159804123D01*
X98175771Y-159851742D01*
X98223390Y-159946980D01*
X98223390Y-160327933D01*
X98699580Y-159327933D02*
X97699580Y-159327933D01*
X97699580Y-158946980D01*
X97747200Y-158851742D01*
X97794819Y-158804123D01*
X97890057Y-158756504D01*
X98032914Y-158756504D01*
X98128152Y-158804123D01*
X98175771Y-158851742D01*
X98223390Y-158946980D01*
X98223390Y-159327933D01*
D11*
X62296857Y-136766114D02*
X62296857Y-137032780D01*
X62715904Y-137032780D02*
X61915904Y-137032780D01*
X61915904Y-136651828D01*
X62715904Y-136232780D02*
X62677809Y-136308971D01*
X62639714Y-136347066D01*
X62563523Y-136385161D01*
X62334952Y-136385161D01*
X62258761Y-136347066D01*
X62220666Y-136308971D01*
X62182571Y-136232780D01*
X62182571Y-136118495D01*
X62220666Y-136042304D01*
X62258761Y-136004209D01*
X62334952Y-135966114D01*
X62563523Y-135966114D01*
X62639714Y-136004209D01*
X62677809Y-136042304D01*
X62715904Y-136118495D01*
X62715904Y-136232780D01*
X62715904Y-135623257D02*
X62182571Y-135623257D01*
X62334952Y-135623257D02*
X62258761Y-135585161D01*
X62220666Y-135547066D01*
X62182571Y-135470876D01*
X62182571Y-135394685D01*
X61915904Y-134289923D02*
X62487333Y-134289923D01*
X62601619Y-134328019D01*
X62677809Y-134404209D01*
X62715904Y-134518495D01*
X62715904Y-134594685D01*
X62715904Y-133489923D02*
X62715904Y-133947066D01*
X62715904Y-133718495D02*
X61915904Y-133718495D01*
X62030190Y-133794685D01*
X62106380Y-133870876D01*
X62144476Y-133947066D01*
X64115904Y-138747066D02*
X63734952Y-139013733D01*
X64115904Y-139204209D02*
X63315904Y-139204209D01*
X63315904Y-138899447D01*
X63354000Y-138823257D01*
X63392095Y-138785161D01*
X63468285Y-138747066D01*
X63582571Y-138747066D01*
X63658761Y-138785161D01*
X63696857Y-138823257D01*
X63734952Y-138899447D01*
X63734952Y-139204209D01*
X64115904Y-138061352D02*
X63696857Y-138061352D01*
X63620666Y-138099447D01*
X63582571Y-138175638D01*
X63582571Y-138328019D01*
X63620666Y-138404209D01*
X64077809Y-138061352D02*
X64115904Y-138137542D01*
X64115904Y-138328019D01*
X64077809Y-138404209D01*
X64001619Y-138442304D01*
X63925428Y-138442304D01*
X63849238Y-138404209D01*
X63811142Y-138328019D01*
X63811142Y-138137542D01*
X63773047Y-138061352D01*
X63315904Y-137528019D02*
X63315904Y-137451828D01*
X63354000Y-137375638D01*
X63392095Y-137337542D01*
X63468285Y-137299447D01*
X63620666Y-137261352D01*
X63811142Y-137261352D01*
X63963523Y-137299447D01*
X64039714Y-137337542D01*
X64077809Y-137375638D01*
X64115904Y-137451828D01*
X64115904Y-137528019D01*
X64077809Y-137604209D01*
X64039714Y-137642304D01*
X63963523Y-137680400D01*
X63811142Y-137718495D01*
X63620666Y-137718495D01*
X63468285Y-137680400D01*
X63392095Y-137642304D01*
X63354000Y-137604209D01*
X63315904Y-137528019D01*
X64115904Y-136499447D02*
X64115904Y-136956590D01*
X64115904Y-136728019D02*
X63315904Y-136728019D01*
X63430190Y-136804209D01*
X63506380Y-136880400D01*
X63544476Y-136956590D01*
X63811142Y-135547066D02*
X63811142Y-134937542D01*
X63315904Y-133794685D02*
X63315904Y-133642304D01*
X63354000Y-133566114D01*
X63430190Y-133489923D01*
X63582571Y-133451828D01*
X63849238Y-133451828D01*
X64001619Y-133489923D01*
X64077809Y-133566114D01*
X64115904Y-133642304D01*
X64115904Y-133794685D01*
X64077809Y-133870876D01*
X64001619Y-133947066D01*
X63849238Y-133985161D01*
X63582571Y-133985161D01*
X63430190Y-133947066D01*
X63354000Y-133870876D01*
X63315904Y-133794685D01*
X63582571Y-133108971D02*
X64382571Y-133108971D01*
X63620666Y-133108971D02*
X63582571Y-133032780D01*
X63582571Y-132880400D01*
X63620666Y-132804209D01*
X63658761Y-132766114D01*
X63734952Y-132728019D01*
X63963523Y-132728019D01*
X64039714Y-132766114D01*
X64077809Y-132804209D01*
X64115904Y-132880400D01*
X64115904Y-133032780D01*
X64077809Y-133108971D01*
X64077809Y-132080400D02*
X64115904Y-132156590D01*
X64115904Y-132308971D01*
X64077809Y-132385161D01*
X64001619Y-132423257D01*
X63696857Y-132423257D01*
X63620666Y-132385161D01*
X63582571Y-132308971D01*
X63582571Y-132156590D01*
X63620666Y-132080400D01*
X63696857Y-132042304D01*
X63773047Y-132042304D01*
X63849238Y-132423257D01*
X63582571Y-131699447D02*
X64115904Y-131699447D01*
X63658761Y-131699447D02*
X63620666Y-131661352D01*
X63582571Y-131585161D01*
X63582571Y-131470876D01*
X63620666Y-131394685D01*
X63696857Y-131356590D01*
X64115904Y-131356590D01*
X65515904Y-138899447D02*
X65134952Y-139166114D01*
X65515904Y-139356590D02*
X64715904Y-139356590D01*
X64715904Y-139051828D01*
X64754000Y-138975638D01*
X64792095Y-138937542D01*
X64868285Y-138899447D01*
X64982571Y-138899447D01*
X65058761Y-138937542D01*
X65096857Y-138975638D01*
X65134952Y-139051828D01*
X65134952Y-139356590D01*
X65515904Y-138213733D02*
X65096857Y-138213733D01*
X65020666Y-138251828D01*
X64982571Y-138328019D01*
X64982571Y-138480400D01*
X65020666Y-138556590D01*
X65477809Y-138213733D02*
X65515904Y-138289923D01*
X65515904Y-138480400D01*
X65477809Y-138556590D01*
X65401619Y-138594685D01*
X65325428Y-138594685D01*
X65249238Y-138556590D01*
X65211142Y-138480400D01*
X65211142Y-138289923D01*
X65173047Y-138213733D01*
X64715904Y-137680400D02*
X64715904Y-137604209D01*
X64754000Y-137528019D01*
X64792095Y-137489923D01*
X64868285Y-137451828D01*
X65020666Y-137413733D01*
X65211142Y-137413733D01*
X65363523Y-137451828D01*
X65439714Y-137489923D01*
X65477809Y-137528019D01*
X65515904Y-137604209D01*
X65515904Y-137680400D01*
X65477809Y-137756590D01*
X65439714Y-137794685D01*
X65363523Y-137832780D01*
X65211142Y-137870876D01*
X65020666Y-137870876D01*
X64868285Y-137832780D01*
X64792095Y-137794685D01*
X64754000Y-137756590D01*
X64715904Y-137680400D01*
X64792095Y-137108971D02*
X64754000Y-137070876D01*
X64715904Y-136994685D01*
X64715904Y-136804209D01*
X64754000Y-136728019D01*
X64792095Y-136689923D01*
X64868285Y-136651828D01*
X64944476Y-136651828D01*
X65058761Y-136689923D01*
X65515904Y-137147066D01*
X65515904Y-136651828D01*
X65211142Y-135699447D02*
X65211142Y-135089923D01*
X65439714Y-133642304D02*
X65477809Y-133680400D01*
X65515904Y-133794685D01*
X65515904Y-133870876D01*
X65477809Y-133985161D01*
X65401619Y-134061352D01*
X65325428Y-134099447D01*
X65173047Y-134137542D01*
X65058761Y-134137542D01*
X64906380Y-134099447D01*
X64830190Y-134061352D01*
X64754000Y-133985161D01*
X64715904Y-133870876D01*
X64715904Y-133794685D01*
X64754000Y-133680400D01*
X64792095Y-133642304D01*
X65515904Y-133185161D02*
X65477809Y-133261352D01*
X65401619Y-133299447D01*
X64715904Y-133299447D01*
X65515904Y-132766114D02*
X65477809Y-132842304D01*
X65439714Y-132880400D01*
X65363523Y-132918495D01*
X65134952Y-132918495D01*
X65058761Y-132880400D01*
X65020666Y-132842304D01*
X64982571Y-132766114D01*
X64982571Y-132651828D01*
X65020666Y-132575638D01*
X65058761Y-132537542D01*
X65134952Y-132499447D01*
X65363523Y-132499447D01*
X65439714Y-132537542D01*
X65477809Y-132575638D01*
X65515904Y-132651828D01*
X65515904Y-132766114D01*
X65477809Y-132194685D02*
X65515904Y-132118495D01*
X65515904Y-131966114D01*
X65477809Y-131889923D01*
X65401619Y-131851828D01*
X65363523Y-131851828D01*
X65287333Y-131889923D01*
X65249238Y-131966114D01*
X65249238Y-132080400D01*
X65211142Y-132156590D01*
X65134952Y-132194685D01*
X65096857Y-132194685D01*
X65020666Y-132156590D01*
X64982571Y-132080400D01*
X64982571Y-131966114D01*
X65020666Y-131889923D01*
X65477809Y-131204209D02*
X65515904Y-131280400D01*
X65515904Y-131432780D01*
X65477809Y-131508971D01*
X65401619Y-131547066D01*
X65096857Y-131547066D01*
X65020666Y-131508971D01*
X64982571Y-131432780D01*
X64982571Y-131280400D01*
X65020666Y-131204209D01*
X65096857Y-131166114D01*
X65173047Y-131166114D01*
X65249238Y-131547066D01*
D12*
X67957819Y-164945047D02*
X69862580Y-164945047D01*
X62877819Y-164948371D02*
X64782580Y-164948371D01*
X63830200Y-165900752D02*
X63830200Y-163995990D01*
D13*
%TO.C,G\u002A\u002A\u002A*%
G36*
X107450094Y-127889960D02*
G01*
X107660719Y-128009901D01*
X107795293Y-128199680D01*
X107814533Y-128305038D01*
X107761487Y-128510579D01*
X107634971Y-128689138D01*
X107483921Y-128774030D01*
X107469819Y-128774800D01*
X107428356Y-128851711D01*
X107399868Y-129051620D01*
X107391200Y-129282801D01*
X107395596Y-129564288D01*
X107419979Y-129716257D01*
X107481139Y-129778494D01*
X107595865Y-129790783D01*
X107605586Y-129790801D01*
X107895302Y-129836736D01*
X108186823Y-129953657D01*
X108413045Y-130110235D01*
X108485052Y-130201400D01*
X108574874Y-130523893D01*
X108529745Y-130850724D01*
X108374460Y-131101237D01*
X108172388Y-131303309D01*
X108374460Y-131493147D01*
X108544552Y-131757728D01*
X108578316Y-132066435D01*
X108476330Y-132363737D01*
X108363971Y-132500975D01*
X108151410Y-132700666D01*
X108363971Y-132922533D01*
X108542810Y-133213519D01*
X108567744Y-133526204D01*
X108438582Y-133820944D01*
X108368715Y-133900982D01*
X108160897Y-134108801D01*
X108368715Y-134316619D01*
X108552399Y-134596434D01*
X108586333Y-134889612D01*
X108484531Y-135166441D01*
X108261007Y-135397209D01*
X107929773Y-135552206D01*
X107769825Y-135586398D01*
X107391200Y-135643176D01*
X107391200Y-136145988D01*
X107403219Y-136412357D01*
X107434433Y-136594647D01*
X107469819Y-136648801D01*
X107587001Y-136702833D01*
X107681486Y-136781848D01*
X107800326Y-136991471D01*
X107785907Y-137205361D01*
X107669808Y-137389044D01*
X107483611Y-137508044D01*
X107258899Y-137527888D01*
X107071103Y-137448145D01*
X106922140Y-137259764D01*
X106891043Y-137071869D01*
X107067126Y-137071869D01*
X107078319Y-137243950D01*
X107182608Y-137374237D01*
X107311518Y-137409504D01*
X107409661Y-137366255D01*
X107512394Y-137298516D01*
X107626492Y-137138166D01*
X107607489Y-136970959D01*
X107479038Y-136854086D01*
X107320432Y-136834378D01*
X107148130Y-136916007D01*
X107067126Y-137071869D01*
X106891043Y-137071869D01*
X106883089Y-137023814D01*
X106955631Y-136806768D01*
X107052533Y-136713818D01*
X107145594Y-136628698D01*
X107197392Y-136490593D01*
X107218912Y-136255522D01*
X107221867Y-136035768D01*
X107221867Y-135463467D01*
X107505566Y-135463467D01*
X107930017Y-135410497D01*
X108240013Y-135256823D01*
X108411710Y-135029246D01*
X108470960Y-134829245D01*
X108430474Y-134669936D01*
X108349312Y-134547908D01*
X108144598Y-134358173D01*
X107913473Y-134239458D01*
X107710981Y-134154715D01*
X107653769Y-134078688D01*
X107747335Y-134031100D01*
X107853440Y-134024134D01*
X108043508Y-133962646D01*
X108251313Y-133812529D01*
X108419770Y-133625304D01*
X108491792Y-133452494D01*
X108491867Y-133447933D01*
X108410261Y-133188042D01*
X108177101Y-132958121D01*
X107957521Y-132836434D01*
X107754408Y-132737301D01*
X107691952Y-132676270D01*
X107752059Y-132632517D01*
X107773852Y-132625077D01*
X108070537Y-132517408D01*
X108251000Y-132412815D01*
X108364790Y-132279833D01*
X108391712Y-132232741D01*
X108457578Y-131996333D01*
X108413617Y-131797345D01*
X108334039Y-131647855D01*
X108201666Y-131534566D01*
X107973636Y-131427880D01*
X107772200Y-131354422D01*
X107680670Y-131308983D01*
X107718897Y-131261924D01*
X107888793Y-131195317D01*
X108145068Y-131059089D01*
X108358037Y-130866178D01*
X108479605Y-130664680D01*
X108491866Y-130592250D01*
X108440818Y-130460494D01*
X108314058Y-130271812D01*
X108272674Y-130220630D01*
X108095568Y-130048006D01*
X107902362Y-129973589D01*
X107680007Y-129960134D01*
X107306533Y-129960134D01*
X107306533Y-129373173D01*
X107300565Y-129057994D01*
X107275660Y-128872154D01*
X107221312Y-128775868D01*
X107137397Y-128732530D01*
X106971956Y-128606776D01*
X106923915Y-128454164D01*
X107074757Y-128454164D01*
X107083151Y-128478467D01*
X107206325Y-128592355D01*
X107429995Y-128581153D01*
X107511275Y-128554075D01*
X107625613Y-128436491D01*
X107627490Y-128260515D01*
X107519278Y-128098362D01*
X107341679Y-128034059D01*
X107178775Y-128097738D01*
X107074992Y-128250680D01*
X107074757Y-128454164D01*
X106923915Y-128454164D01*
X106908113Y-128403969D01*
X106940232Y-128178107D01*
X107062675Y-127983189D01*
X107225922Y-127884513D01*
X107450094Y-127889960D01*
G37*
X107450094Y-127889960D02*
X107660719Y-128009901D01*
X107795293Y-128199680D01*
X107814533Y-128305038D01*
X107761487Y-128510579D01*
X107634971Y-128689138D01*
X107483921Y-128774030D01*
X107469819Y-128774800D01*
X107428356Y-128851711D01*
X107399868Y-129051620D01*
X107391200Y-129282801D01*
X107395596Y-129564288D01*
X107419979Y-129716257D01*
X107481139Y-129778494D01*
X107595865Y-129790783D01*
X107605586Y-129790801D01*
X107895302Y-129836736D01*
X108186823Y-129953657D01*
X108413045Y-130110235D01*
X108485052Y-130201400D01*
X108574874Y-130523893D01*
X108529745Y-130850724D01*
X108374460Y-131101237D01*
X108172388Y-131303309D01*
X108374460Y-131493147D01*
X108544552Y-131757728D01*
X108578316Y-132066435D01*
X108476330Y-132363737D01*
X108363971Y-132500975D01*
X108151410Y-132700666D01*
X108363971Y-132922533D01*
X108542810Y-133213519D01*
X108567744Y-133526204D01*
X108438582Y-133820944D01*
X108368715Y-133900982D01*
X108160897Y-134108801D01*
X108368715Y-134316619D01*
X108552399Y-134596434D01*
X108586333Y-134889612D01*
X108484531Y-135166441D01*
X108261007Y-135397209D01*
X107929773Y-135552206D01*
X107769825Y-135586398D01*
X107391200Y-135643176D01*
X107391200Y-136145988D01*
X107403219Y-136412357D01*
X107434433Y-136594647D01*
X107469819Y-136648801D01*
X107587001Y-136702833D01*
X107681486Y-136781848D01*
X107800326Y-136991471D01*
X107785907Y-137205361D01*
X107669808Y-137389044D01*
X107483611Y-137508044D01*
X107258899Y-137527888D01*
X107071103Y-137448145D01*
X106922140Y-137259764D01*
X106891043Y-137071869D01*
X107067126Y-137071869D01*
X107078319Y-137243950D01*
X107182608Y-137374237D01*
X107311518Y-137409504D01*
X107409661Y-137366255D01*
X107512394Y-137298516D01*
X107626492Y-137138166D01*
X107607489Y-136970959D01*
X107479038Y-136854086D01*
X107320432Y-136834378D01*
X107148130Y-136916007D01*
X107067126Y-137071869D01*
X106891043Y-137071869D01*
X106883089Y-137023814D01*
X106955631Y-136806768D01*
X107052533Y-136713818D01*
X107145594Y-136628698D01*
X107197392Y-136490593D01*
X107218912Y-136255522D01*
X107221867Y-136035768D01*
X107221867Y-135463467D01*
X107505566Y-135463467D01*
X107930017Y-135410497D01*
X108240013Y-135256823D01*
X108411710Y-135029246D01*
X108470960Y-134829245D01*
X108430474Y-134669936D01*
X108349312Y-134547908D01*
X108144598Y-134358173D01*
X107913473Y-134239458D01*
X107710981Y-134154715D01*
X107653769Y-134078688D01*
X107747335Y-134031100D01*
X107853440Y-134024134D01*
X108043508Y-133962646D01*
X108251313Y-133812529D01*
X108419770Y-133625304D01*
X108491792Y-133452494D01*
X108491867Y-133447933D01*
X108410261Y-133188042D01*
X108177101Y-132958121D01*
X107957521Y-132836434D01*
X107754408Y-132737301D01*
X107691952Y-132676270D01*
X107752059Y-132632517D01*
X107773852Y-132625077D01*
X108070537Y-132517408D01*
X108251000Y-132412815D01*
X108364790Y-132279833D01*
X108391712Y-132232741D01*
X108457578Y-131996333D01*
X108413617Y-131797345D01*
X108334039Y-131647855D01*
X108201666Y-131534566D01*
X107973636Y-131427880D01*
X107772200Y-131354422D01*
X107680670Y-131308983D01*
X107718897Y-131261924D01*
X107888793Y-131195317D01*
X108145068Y-131059089D01*
X108358037Y-130866178D01*
X108479605Y-130664680D01*
X108491866Y-130592250D01*
X108440818Y-130460494D01*
X108314058Y-130271812D01*
X108272674Y-130220630D01*
X108095568Y-130048006D01*
X107902362Y-129973589D01*
X107680007Y-129960134D01*
X107306533Y-129960134D01*
X107306533Y-129373173D01*
X107300565Y-129057994D01*
X107275660Y-128872154D01*
X107221312Y-128775868D01*
X107137397Y-128732530D01*
X106971956Y-128606776D01*
X106923915Y-128454164D01*
X107074757Y-128454164D01*
X107083151Y-128478467D01*
X107206325Y-128592355D01*
X107429995Y-128581153D01*
X107511275Y-128554075D01*
X107625613Y-128436491D01*
X107627490Y-128260515D01*
X107519278Y-128098362D01*
X107341679Y-128034059D01*
X107178775Y-128097738D01*
X107074992Y-128250680D01*
X107074757Y-128454164D01*
X106923915Y-128454164D01*
X106908113Y-128403969D01*
X106940232Y-128178107D01*
X107062675Y-127983189D01*
X107225922Y-127884513D01*
X107450094Y-127889960D01*
D14*
%TO.C,K1*%
X89900800Y-140656200D02*
X89900800Y-124756200D01*
X89900800Y-124756200D02*
X100800800Y-124756200D01*
X100800800Y-124756200D02*
X100800800Y-140656200D01*
X100800800Y-140656200D02*
X89900800Y-140656200D01*
%TO.C,SW1*%
X72332200Y-166031000D02*
X72332200Y-156131000D01*
X84792200Y-166031000D02*
X84792200Y-156131000D01*
X72332200Y-166031000D02*
X84792200Y-166031000D01*
X72332200Y-156131000D02*
X84792200Y-156131000D01*
X72092200Y-166271000D02*
X72092200Y-164887000D01*
X72092200Y-166271000D02*
X73475200Y-166271000D01*
X74117200Y-163111000D02*
X75387200Y-163111000D01*
X75387200Y-163111000D02*
X75387200Y-159051000D01*
X75387200Y-159051000D02*
X74117200Y-159051000D01*
X74117200Y-159051000D02*
X74117200Y-163111000D01*
X74237200Y-163111000D02*
X74237200Y-161757667D01*
X74357200Y-163111000D02*
X74357200Y-161757667D01*
X74477200Y-163111000D02*
X74477200Y-161757667D01*
X74597200Y-163111000D02*
X74597200Y-161757667D01*
X74717200Y-163111000D02*
X74717200Y-161757667D01*
X74837200Y-163111000D02*
X74837200Y-161757667D01*
X74957200Y-163111000D02*
X74957200Y-161757667D01*
X75077200Y-163111000D02*
X75077200Y-161757667D01*
X75197200Y-163111000D02*
X75197200Y-161757667D01*
X75317200Y-163111000D02*
X75317200Y-161757667D01*
X74117200Y-161757667D02*
X75387200Y-161757667D01*
X76657200Y-163111000D02*
X77927200Y-163111000D01*
X77927200Y-163111000D02*
X77927200Y-159051000D01*
X77927200Y-159051000D02*
X76657200Y-159051000D01*
X76657200Y-159051000D02*
X76657200Y-163111000D01*
X76777200Y-163111000D02*
X76777200Y-161757667D01*
X76897200Y-163111000D02*
X76897200Y-161757667D01*
X77017200Y-163111000D02*
X77017200Y-161757667D01*
X77137200Y-163111000D02*
X77137200Y-161757667D01*
X77257200Y-163111000D02*
X77257200Y-161757667D01*
X77377200Y-163111000D02*
X77377200Y-161757667D01*
X77497200Y-163111000D02*
X77497200Y-161757667D01*
X77617200Y-163111000D02*
X77617200Y-161757667D01*
X77737200Y-163111000D02*
X77737200Y-161757667D01*
X77857200Y-163111000D02*
X77857200Y-161757667D01*
X76657200Y-161757667D02*
X77927200Y-161757667D01*
X79197200Y-163111000D02*
X80467200Y-163111000D01*
X80467200Y-163111000D02*
X80467200Y-159051000D01*
X80467200Y-159051000D02*
X79197200Y-159051000D01*
X79197200Y-159051000D02*
X79197200Y-163111000D01*
X79317200Y-163111000D02*
X79317200Y-161757667D01*
X79437200Y-163111000D02*
X79437200Y-161757667D01*
X79557200Y-163111000D02*
X79557200Y-161757667D01*
X79677200Y-163111000D02*
X79677200Y-161757667D01*
X79797200Y-163111000D02*
X79797200Y-161757667D01*
X79917200Y-163111000D02*
X79917200Y-161757667D01*
X80037200Y-163111000D02*
X80037200Y-161757667D01*
X80157200Y-163111000D02*
X80157200Y-161757667D01*
X80277200Y-163111000D02*
X80277200Y-161757667D01*
X80397200Y-163111000D02*
X80397200Y-161757667D01*
X79197200Y-161757667D02*
X80467200Y-161757667D01*
X81737200Y-163111000D02*
X83007200Y-163111000D01*
X83007200Y-163111000D02*
X83007200Y-159051000D01*
X83007200Y-159051000D02*
X81737200Y-159051000D01*
X81737200Y-159051000D02*
X81737200Y-163111000D01*
X81857200Y-163111000D02*
X81857200Y-161757667D01*
X81977200Y-163111000D02*
X81977200Y-161757667D01*
X82097200Y-163111000D02*
X82097200Y-161757667D01*
X82217200Y-163111000D02*
X82217200Y-161757667D01*
X82337200Y-163111000D02*
X82337200Y-161757667D01*
X82457200Y-163111000D02*
X82457200Y-161757667D01*
X82577200Y-163111000D02*
X82577200Y-161757667D01*
X82697200Y-163111000D02*
X82697200Y-161757667D01*
X82817200Y-163111000D02*
X82817200Y-161757667D01*
X82937200Y-163111000D02*
X82937200Y-161757667D01*
X81737200Y-161757667D02*
X83007200Y-161757667D01*
%TO.C,J1*%
X65109400Y-125324800D02*
X62449400Y-125324800D01*
X65109400Y-127924800D02*
X65109400Y-125324800D01*
X62449400Y-127924800D02*
X62449400Y-125324800D01*
X65109400Y-127924800D02*
X62449400Y-127924800D01*
X65109400Y-129194800D02*
X65109400Y-130524800D01*
X65109400Y-130524800D02*
X63779400Y-130524800D01*
%TO.C,U3*%
X83530000Y-153143400D02*
X82980000Y-153143400D01*
X82980000Y-153143400D02*
X82980000Y-152593400D01*
X86650000Y-148923400D02*
X87200000Y-148923400D01*
X87200000Y-148923400D02*
X87200000Y-149473400D01*
X83530000Y-148923400D02*
X82980000Y-148923400D01*
X82980000Y-148923400D02*
X82980000Y-149473400D01*
X86650000Y-153143400D02*
X87200000Y-153143400D01*
%TO.C,U2*%
X68890200Y-149739400D02*
X68890200Y-148479400D01*
X68890200Y-142919400D02*
X68890200Y-144179400D01*
X65130200Y-149739400D02*
X68890200Y-149739400D01*
X62880200Y-142919400D02*
X68890200Y-142919400D01*
D10*
%TO.C,U1*%
X87777400Y-124904800D02*
X87777400Y-125654800D01*
X71277400Y-124904800D02*
X87777400Y-124904800D01*
X71277400Y-125654800D02*
X71277400Y-124904800D01*
X87777400Y-142404800D02*
X87777400Y-141654800D01*
X71277400Y-142404800D02*
X87777400Y-142404800D01*
X71277400Y-141654800D02*
X71277400Y-142404800D01*
D14*
%TO.C,SW4*%
X106518200Y-151568800D02*
X102018200Y-151568800D01*
X107768200Y-155568800D02*
X107768200Y-154068800D01*
X102018200Y-158068800D02*
X106518200Y-158068800D01*
X100768200Y-154068800D02*
X100768200Y-155568800D01*
%TO.C,SW3*%
X106518200Y-142988400D02*
X102018200Y-142988400D01*
X107768200Y-146988400D02*
X107768200Y-145488400D01*
X102018200Y-149488400D02*
X106518200Y-149488400D01*
X100768200Y-145488400D02*
X100768200Y-146988400D01*
%TO.C,SW2*%
X94457000Y-159269800D02*
X89957000Y-159269800D01*
X95707000Y-163269800D02*
X95707000Y-161769800D01*
X89957000Y-165769800D02*
X94457000Y-165769800D01*
X88707000Y-161769800D02*
X88707000Y-163269800D01*
%TO.C,R10*%
X93602436Y-148862533D02*
X94056564Y-148862533D01*
X93602436Y-150332533D02*
X94056564Y-150332533D01*
%TO.C,R9*%
X93602436Y-146737400D02*
X94056564Y-146737400D01*
X93602436Y-148207400D02*
X94056564Y-148207400D01*
%TO.C,R8*%
X96547000Y-152862230D02*
X96547000Y-152408102D01*
X98017000Y-152862230D02*
X98017000Y-152408102D01*
%TO.C,R7*%
X90044136Y-146737400D02*
X90498264Y-146737400D01*
X90044136Y-148207400D02*
X90498264Y-148207400D01*
%TO.C,R6*%
X93602436Y-153112800D02*
X94056564Y-153112800D01*
X93602436Y-154582800D02*
X94056564Y-154582800D01*
%TO.C,R5*%
X93602436Y-150987666D02*
X94056564Y-150987666D01*
X93602436Y-152457666D02*
X94056564Y-152457666D01*
%TO.C,Q1*%
X92603400Y-142353000D02*
X91673400Y-142353000D01*
X89443400Y-142353000D02*
X90373400Y-142353000D01*
X89443400Y-142353000D02*
X89443400Y-144513000D01*
X92603400Y-142353000D02*
X92603400Y-143813000D01*
%TO.C,J8*%
X85792000Y-155438800D02*
X85792000Y-158098800D01*
X96012000Y-155438800D02*
X85792000Y-155438800D01*
X96012000Y-158098800D02*
X85792000Y-158098800D01*
X96012000Y-155438800D02*
X96012000Y-158098800D01*
X97282000Y-155438800D02*
X98612000Y-155438800D01*
X98612000Y-155438800D02*
X98612000Y-156768800D01*
%TO.C,J6*%
X78857800Y-143475400D02*
X78857800Y-146135400D01*
X81457800Y-143475400D02*
X78857800Y-143475400D01*
X81457800Y-146135400D02*
X78857800Y-146135400D01*
X81457800Y-143475400D02*
X81457800Y-146135400D01*
X82727800Y-143475400D02*
X84057800Y-143475400D01*
X84057800Y-143475400D02*
X84057800Y-144805400D01*
%TO.C,J4*%
X61290200Y-159766000D02*
X71450200Y-159766000D01*
X61290200Y-158496000D02*
X61290200Y-166116000D01*
X61290200Y-166116000D02*
X71450200Y-166116000D01*
X71450200Y-166116000D02*
X71450200Y-158496000D01*
X71450200Y-158496000D02*
X61290200Y-158496000D01*
%TO.C,J3*%
X102539800Y-137786200D02*
X102539800Y-127626200D01*
X101269800Y-137786200D02*
X108889800Y-137786200D01*
X108889800Y-137786200D02*
X108889800Y-127626200D01*
X108889800Y-127626200D02*
X101269800Y-127626200D01*
X101269800Y-127626200D02*
X101269800Y-137786200D01*
%TO.C,J2*%
X69258400Y-125324800D02*
X66598400Y-125324800D01*
X69258400Y-125384800D02*
X69258400Y-125324800D01*
X66598400Y-125384800D02*
X66598400Y-125324800D01*
X69258400Y-125384800D02*
X66598400Y-125384800D01*
X69258400Y-126654800D02*
X69258400Y-127984800D01*
X69258400Y-127984800D02*
X67928400Y-127984800D01*
%TO.C,D3*%
X97600800Y-143113000D02*
X97600800Y-141113000D01*
X97600800Y-141113000D02*
X93700800Y-141113000D01*
X97600800Y-143113000D02*
X93700800Y-143113000D01*
%TO.C,D2*%
X91246200Y-152887800D02*
X88561200Y-152887800D01*
X88561200Y-152887800D02*
X88561200Y-154807800D01*
X88561200Y-154807800D02*
X91246200Y-154807800D01*
%TO.C,D1*%
X91246200Y-150762666D02*
X88561200Y-150762666D01*
X88561200Y-150762666D02*
X88561200Y-152682666D01*
X88561200Y-152682666D02*
X91246200Y-152682666D01*
%TO.C,C18*%
X80291000Y-149537052D02*
X80291000Y-149014548D01*
X81761000Y-149537052D02*
X81761000Y-149014548D01*
%TO.C,C7*%
X66724300Y-153932200D02*
X73484300Y-153932200D01*
X73484300Y-153932200D02*
X73484300Y-150512200D01*
X73484300Y-150512200D02*
X66724300Y-150512200D01*
%TO.C,C6*%
X63141452Y-151856933D02*
X62618948Y-151856933D01*
X63141452Y-150386933D02*
X62618948Y-150386933D01*
%TO.C,C5*%
X63141452Y-154029466D02*
X62618948Y-154029466D01*
X63141452Y-152559466D02*
X62618948Y-152559466D01*
%TO.C,C4*%
X69292700Y-154627000D02*
X62532700Y-154627000D01*
X62532700Y-154627000D02*
X62532700Y-158047000D01*
X62532700Y-158047000D02*
X69292700Y-158047000D01*
%TO.C,C3*%
X68180852Y-131389800D02*
X67658348Y-131389800D01*
X68180852Y-129919800D02*
X67658348Y-129919800D01*
%TO.C,K1*%
D10*
X94612704Y-133091080D02*
X94612704Y-132091080D01*
X95184133Y-133091080D02*
X94755561Y-132519652D01*
X95184133Y-132091080D02*
X94612704Y-132662509D01*
X96136514Y-133091080D02*
X95565085Y-133091080D01*
X95850800Y-133091080D02*
X95850800Y-132091080D01*
X95755561Y-132233938D01*
X95660323Y-132329176D01*
X95565085Y-132376795D01*
%TO.C,SW1*%
X77406666Y-155649561D02*
X77549523Y-155697180D01*
X77787619Y-155697180D01*
X77882857Y-155649561D01*
X77930476Y-155601942D01*
X77978095Y-155506704D01*
X77978095Y-155411466D01*
X77930476Y-155316228D01*
X77882857Y-155268609D01*
X77787619Y-155220990D01*
X77597142Y-155173371D01*
X77501904Y-155125752D01*
X77454285Y-155078133D01*
X77406666Y-154982895D01*
X77406666Y-154887657D01*
X77454285Y-154792419D01*
X77501904Y-154744800D01*
X77597142Y-154697180D01*
X77835238Y-154697180D01*
X77978095Y-154744800D01*
X78311428Y-154697180D02*
X78549523Y-155697180D01*
X78740000Y-154982895D01*
X78930476Y-155697180D01*
X79168571Y-154697180D01*
X80073333Y-155697180D02*
X79501904Y-155697180D01*
X79787619Y-155697180D02*
X79787619Y-154697180D01*
X79692380Y-154840038D01*
X79597142Y-154935276D01*
X79501904Y-154982895D01*
%TO.C,J1*%
X61072780Y-128253133D02*
X61787066Y-128253133D01*
X61929923Y-128300752D01*
X62025161Y-128395990D01*
X62072780Y-128538847D01*
X62072780Y-128634085D01*
X62072780Y-127253133D02*
X62072780Y-127824561D01*
X62072780Y-127538847D02*
X61072780Y-127538847D01*
X61215638Y-127634085D01*
X61310876Y-127729323D01*
X61358495Y-127824561D01*
%TO.C,U3*%
X84328095Y-147254980D02*
X84328095Y-148064504D01*
X84375714Y-148159742D01*
X84423333Y-148207361D01*
X84518571Y-148254980D01*
X84709047Y-148254980D01*
X84804285Y-148207361D01*
X84851904Y-148159742D01*
X84899523Y-148064504D01*
X84899523Y-147254980D01*
X85280476Y-147254980D02*
X85899523Y-147254980D01*
X85566190Y-147635933D01*
X85709047Y-147635933D01*
X85804285Y-147683552D01*
X85851904Y-147731171D01*
X85899523Y-147826409D01*
X85899523Y-148064504D01*
X85851904Y-148159742D01*
X85804285Y-148207361D01*
X85709047Y-148254980D01*
X85423333Y-148254980D01*
X85328095Y-148207361D01*
X85280476Y-148159742D01*
%TO.C,U2*%
X71678895Y-145714280D02*
X71678895Y-146523804D01*
X71726514Y-146619042D01*
X71774133Y-146666661D01*
X71869371Y-146714280D01*
X72059847Y-146714280D01*
X72155085Y-146666661D01*
X72202704Y-146619042D01*
X72250323Y-146523804D01*
X72250323Y-145714280D01*
X72678895Y-145809519D02*
X72726514Y-145761900D01*
X72821752Y-145714280D01*
X73059847Y-145714280D01*
X73155085Y-145761900D01*
X73202704Y-145809519D01*
X73250323Y-145904757D01*
X73250323Y-145999995D01*
X73202704Y-146142852D01*
X72631276Y-146714280D01*
X73250323Y-146714280D01*
%TO.C,U1*%
X78765495Y-133039680D02*
X78765495Y-133849204D01*
X78813114Y-133944442D01*
X78860733Y-133992061D01*
X78955971Y-134039680D01*
X79146447Y-134039680D01*
X79241685Y-133992061D01*
X79289304Y-133944442D01*
X79336923Y-133849204D01*
X79336923Y-133039680D01*
X80336923Y-134039680D02*
X79765495Y-134039680D01*
X80051209Y-134039680D02*
X80051209Y-133039680D01*
X79955971Y-133182538D01*
X79860733Y-133277776D01*
X79765495Y-133325395D01*
%TO.C,SW4*%
X102934866Y-151026761D02*
X103077723Y-151074380D01*
X103315819Y-151074380D01*
X103411057Y-151026761D01*
X103458676Y-150979142D01*
X103506295Y-150883904D01*
X103506295Y-150788666D01*
X103458676Y-150693428D01*
X103411057Y-150645809D01*
X103315819Y-150598190D01*
X103125342Y-150550571D01*
X103030104Y-150502952D01*
X102982485Y-150455333D01*
X102934866Y-150360095D01*
X102934866Y-150264857D01*
X102982485Y-150169619D01*
X103030104Y-150122000D01*
X103125342Y-150074380D01*
X103363438Y-150074380D01*
X103506295Y-150122000D01*
X103839628Y-150074380D02*
X104077723Y-151074380D01*
X104268200Y-150360095D01*
X104458676Y-151074380D01*
X104696771Y-150074380D01*
X105506295Y-150407714D02*
X105506295Y-151074380D01*
X105268200Y-150026761D02*
X105030104Y-150741047D01*
X105649152Y-150741047D01*
%TO.C,SW3*%
X102934866Y-142136761D02*
X103077723Y-142184380D01*
X103315819Y-142184380D01*
X103411057Y-142136761D01*
X103458676Y-142089142D01*
X103506295Y-141993904D01*
X103506295Y-141898666D01*
X103458676Y-141803428D01*
X103411057Y-141755809D01*
X103315819Y-141708190D01*
X103125342Y-141660571D01*
X103030104Y-141612952D01*
X102982485Y-141565333D01*
X102934866Y-141470095D01*
X102934866Y-141374857D01*
X102982485Y-141279619D01*
X103030104Y-141232000D01*
X103125342Y-141184380D01*
X103363438Y-141184380D01*
X103506295Y-141232000D01*
X103839628Y-141184380D02*
X104077723Y-142184380D01*
X104268200Y-141470095D01*
X104458676Y-142184380D01*
X104696771Y-141184380D01*
X104982485Y-141184380D02*
X105601533Y-141184380D01*
X105268200Y-141565333D01*
X105411057Y-141565333D01*
X105506295Y-141612952D01*
X105553914Y-141660571D01*
X105601533Y-141755809D01*
X105601533Y-141993904D01*
X105553914Y-142089142D01*
X105506295Y-142136761D01*
X105411057Y-142184380D01*
X105125342Y-142184380D01*
X105030104Y-142136761D01*
X104982485Y-142089142D01*
%TO.C,SW2*%
X97877380Y-165154680D02*
X97544047Y-164678490D01*
X97305952Y-165154680D02*
X97305952Y-164154680D01*
X97686904Y-164154680D01*
X97782142Y-164202300D01*
X97829761Y-164249919D01*
X97877380Y-164345157D01*
X97877380Y-164488014D01*
X97829761Y-164583252D01*
X97782142Y-164630871D01*
X97686904Y-164678490D01*
X97305952Y-164678490D01*
X98258333Y-165107061D02*
X98401190Y-165154680D01*
X98639285Y-165154680D01*
X98734523Y-165107061D01*
X98782142Y-165059442D01*
X98829761Y-164964204D01*
X98829761Y-164868966D01*
X98782142Y-164773728D01*
X98734523Y-164726109D01*
X98639285Y-164678490D01*
X98448809Y-164630871D01*
X98353571Y-164583252D01*
X98305952Y-164535633D01*
X98258333Y-164440395D01*
X98258333Y-164345157D01*
X98305952Y-164249919D01*
X98353571Y-164202300D01*
X98448809Y-164154680D01*
X98686904Y-164154680D01*
X98829761Y-164202300D01*
X99115476Y-164154680D02*
X99686904Y-164154680D01*
X99401190Y-165154680D02*
X99401190Y-164154680D01*
%TO.C,R10*%
X96277133Y-150151513D02*
X95943800Y-149675323D01*
X95705705Y-150151513D02*
X95705705Y-149151513D01*
X96086657Y-149151513D01*
X96181895Y-149199133D01*
X96229514Y-149246752D01*
X96277133Y-149341990D01*
X96277133Y-149484847D01*
X96229514Y-149580085D01*
X96181895Y-149627704D01*
X96086657Y-149675323D01*
X95705705Y-149675323D01*
X97229514Y-150151513D02*
X96658086Y-150151513D01*
X96943800Y-150151513D02*
X96943800Y-149151513D01*
X96848562Y-149294371D01*
X96753324Y-149389609D01*
X96658086Y-149437228D01*
X97848562Y-149151513D02*
X97943800Y-149151513D01*
X98039038Y-149199133D01*
X98086657Y-149246752D01*
X98134276Y-149341990D01*
X98181895Y-149532466D01*
X98181895Y-149770561D01*
X98134276Y-149961037D01*
X98086657Y-150056275D01*
X98039038Y-150103894D01*
X97943800Y-150151513D01*
X97848562Y-150151513D01*
X97753324Y-150103894D01*
X97705705Y-150056275D01*
X97658086Y-149961037D01*
X97610467Y-149770561D01*
X97610467Y-149532466D01*
X97658086Y-149341990D01*
X97705705Y-149246752D01*
X97753324Y-149199133D01*
X97848562Y-149151513D01*
%TO.C,R9*%
X96277133Y-147975580D02*
X95943800Y-147499390D01*
X95705704Y-147975580D02*
X95705704Y-146975580D01*
X96086657Y-146975580D01*
X96181895Y-147023200D01*
X96229514Y-147070819D01*
X96277133Y-147166057D01*
X96277133Y-147308914D01*
X96229514Y-147404152D01*
X96181895Y-147451771D01*
X96086657Y-147499390D01*
X95705704Y-147499390D01*
X96753323Y-147975580D02*
X96943800Y-147975580D01*
X97039038Y-147927961D01*
X97086657Y-147880342D01*
X97181895Y-147737485D01*
X97229514Y-147547009D01*
X97229514Y-147166057D01*
X97181895Y-147070819D01*
X97134276Y-147023200D01*
X97039038Y-146975580D01*
X96848561Y-146975580D01*
X96753323Y-147023200D01*
X96705704Y-147070819D01*
X96658085Y-147166057D01*
X96658085Y-147404152D01*
X96705704Y-147499390D01*
X96753323Y-147547009D01*
X96848561Y-147594628D01*
X97039038Y-147594628D01*
X97134276Y-147547009D01*
X97181895Y-147499390D01*
X97229514Y-147404152D01*
%TO.C,R8*%
X99334580Y-152820666D02*
X98858390Y-153154000D01*
X99334580Y-153392095D02*
X98334580Y-153392095D01*
X98334580Y-153011142D01*
X98382200Y-152915904D01*
X98429819Y-152868285D01*
X98525057Y-152820666D01*
X98667914Y-152820666D01*
X98763152Y-152868285D01*
X98810771Y-152915904D01*
X98858390Y-153011142D01*
X98858390Y-153392095D01*
X98763152Y-152249238D02*
X98715533Y-152344476D01*
X98667914Y-152392095D01*
X98572676Y-152439714D01*
X98525057Y-152439714D01*
X98429819Y-152392095D01*
X98382200Y-152344476D01*
X98334580Y-152249238D01*
X98334580Y-152058761D01*
X98382200Y-151963523D01*
X98429819Y-151915904D01*
X98525057Y-151868285D01*
X98572676Y-151868285D01*
X98667914Y-151915904D01*
X98715533Y-151963523D01*
X98763152Y-152058761D01*
X98763152Y-152249238D01*
X98810771Y-152344476D01*
X98858390Y-152392095D01*
X98953628Y-152439714D01*
X99144104Y-152439714D01*
X99239342Y-152392095D01*
X99286961Y-152344476D01*
X99334580Y-152249238D01*
X99334580Y-152058761D01*
X99286961Y-151963523D01*
X99239342Y-151915904D01*
X99144104Y-151868285D01*
X98953628Y-151868285D01*
X98858390Y-151915904D01*
X98810771Y-151963523D01*
X98763152Y-152058761D01*
%TO.C,R7*%
X90104533Y-146324580D02*
X89771200Y-145848390D01*
X89533104Y-146324580D02*
X89533104Y-145324580D01*
X89914057Y-145324580D01*
X90009295Y-145372200D01*
X90056914Y-145419819D01*
X90104533Y-145515057D01*
X90104533Y-145657914D01*
X90056914Y-145753152D01*
X90009295Y-145800771D01*
X89914057Y-145848390D01*
X89533104Y-145848390D01*
X90437866Y-145324580D02*
X91104533Y-145324580D01*
X90675961Y-146324580D01*
%TO.C,R6*%
X96388180Y-154116066D02*
X95911990Y-154449400D01*
X96388180Y-154687495D02*
X95388180Y-154687495D01*
X95388180Y-154306542D01*
X95435800Y-154211304D01*
X95483419Y-154163685D01*
X95578657Y-154116066D01*
X95721514Y-154116066D01*
X95816752Y-154163685D01*
X95864371Y-154211304D01*
X95911990Y-154306542D01*
X95911990Y-154687495D01*
X95388180Y-153258923D02*
X95388180Y-153449400D01*
X95435800Y-153544638D01*
X95483419Y-153592257D01*
X95626276Y-153687495D01*
X95816752Y-153735114D01*
X96197704Y-153735114D01*
X96292942Y-153687495D01*
X96340561Y-153639876D01*
X96388180Y-153544638D01*
X96388180Y-153354161D01*
X96340561Y-153258923D01*
X96292942Y-153211304D01*
X96197704Y-153163685D01*
X95959609Y-153163685D01*
X95864371Y-153211304D01*
X95816752Y-153258923D01*
X95769133Y-153354161D01*
X95769133Y-153544638D01*
X95816752Y-153639876D01*
X95864371Y-153687495D01*
X95959609Y-153735114D01*
%TO.C,R5*%
X96388180Y-151880866D02*
X95911990Y-152214200D01*
X96388180Y-152452295D02*
X95388180Y-152452295D01*
X95388180Y-152071342D01*
X95435800Y-151976104D01*
X95483419Y-151928485D01*
X95578657Y-151880866D01*
X95721514Y-151880866D01*
X95816752Y-151928485D01*
X95864371Y-151976104D01*
X95911990Y-152071342D01*
X95911990Y-152452295D01*
X95388180Y-150976104D02*
X95388180Y-151452295D01*
X95864371Y-151499914D01*
X95816752Y-151452295D01*
X95769133Y-151357057D01*
X95769133Y-151118961D01*
X95816752Y-151023723D01*
X95864371Y-150976104D01*
X95959609Y-150928485D01*
X96197704Y-150928485D01*
X96292942Y-150976104D01*
X96340561Y-151023723D01*
X96388180Y-151118961D01*
X96388180Y-151357057D01*
X96340561Y-151452295D01*
X96292942Y-151499914D01*
%TO.C,Q1*%
X88169761Y-144159219D02*
X88074523Y-144111600D01*
X87979285Y-144016361D01*
X87836428Y-143873504D01*
X87741190Y-143825885D01*
X87645952Y-143825885D01*
X87693571Y-144063980D02*
X87598333Y-144016361D01*
X87503095Y-143921123D01*
X87455476Y-143730647D01*
X87455476Y-143397314D01*
X87503095Y-143206838D01*
X87598333Y-143111600D01*
X87693571Y-143063980D01*
X87884047Y-143063980D01*
X87979285Y-143111600D01*
X88074523Y-143206838D01*
X88122142Y-143397314D01*
X88122142Y-143730647D01*
X88074523Y-143921123D01*
X87979285Y-144016361D01*
X87884047Y-144063980D01*
X87693571Y-144063980D01*
X89074523Y-144063980D02*
X88503095Y-144063980D01*
X88788809Y-144063980D02*
X88788809Y-143063980D01*
X88693571Y-143206838D01*
X88598333Y-143302076D01*
X88503095Y-143349695D01*
%TO.C,J8*%
X85823466Y-158837380D02*
X85823466Y-159551666D01*
X85775847Y-159694523D01*
X85680609Y-159789761D01*
X85537752Y-159837380D01*
X85442514Y-159837380D01*
X86442514Y-159265952D02*
X86347276Y-159218333D01*
X86299657Y-159170714D01*
X86252038Y-159075476D01*
X86252038Y-159027857D01*
X86299657Y-158932619D01*
X86347276Y-158885000D01*
X86442514Y-158837380D01*
X86632990Y-158837380D01*
X86728228Y-158885000D01*
X86775847Y-158932619D01*
X86823466Y-159027857D01*
X86823466Y-159075476D01*
X86775847Y-159170714D01*
X86728228Y-159218333D01*
X86632990Y-159265952D01*
X86442514Y-159265952D01*
X86347276Y-159313571D01*
X86299657Y-159361190D01*
X86252038Y-159456428D01*
X86252038Y-159646904D01*
X86299657Y-159742142D01*
X86347276Y-159789761D01*
X86442514Y-159837380D01*
X86632990Y-159837380D01*
X86728228Y-159789761D01*
X86775847Y-159742142D01*
X86823466Y-159646904D01*
X86823466Y-159456428D01*
X86775847Y-159361190D01*
X86728228Y-159313571D01*
X86632990Y-159265952D01*
%TO.C,J6*%
X77162066Y-144190280D02*
X77162066Y-144904566D01*
X77114447Y-145047423D01*
X77019209Y-145142661D01*
X76876352Y-145190280D01*
X76781114Y-145190280D01*
X78066828Y-144190280D02*
X77876352Y-144190280D01*
X77781114Y-144237900D01*
X77733495Y-144285519D01*
X77638257Y-144428376D01*
X77590638Y-144618852D01*
X77590638Y-144999804D01*
X77638257Y-145095042D01*
X77685876Y-145142661D01*
X77781114Y-145190280D01*
X77971590Y-145190280D01*
X78066828Y-145142661D01*
X78114447Y-145095042D01*
X78162066Y-144999804D01*
X78162066Y-144761709D01*
X78114447Y-144666471D01*
X78066828Y-144618852D01*
X77971590Y-144571233D01*
X77781114Y-144571233D01*
X77685876Y-144618852D01*
X77638257Y-144666471D01*
X77590638Y-144761709D01*
%TO.C,J4*%
X65859066Y-158659580D02*
X65859066Y-159373866D01*
X65811447Y-159516723D01*
X65716209Y-159611961D01*
X65573352Y-159659580D01*
X65478114Y-159659580D01*
X66763828Y-158992914D02*
X66763828Y-159659580D01*
X66525733Y-158611961D02*
X66287638Y-159326247D01*
X66906685Y-159326247D01*
%TO.C,J3*%
X101433380Y-132895933D02*
X102147666Y-132895933D01*
X102290523Y-132943552D01*
X102385761Y-133038790D01*
X102433380Y-133181647D01*
X102433380Y-133276885D01*
X101433380Y-132514980D02*
X101433380Y-131895933D01*
X101814333Y-132229266D01*
X101814333Y-132086409D01*
X101861952Y-131991171D01*
X101909571Y-131943552D01*
X102004809Y-131895933D01*
X102242904Y-131895933D01*
X102338142Y-131943552D01*
X102385761Y-131991171D01*
X102433380Y-132086409D01*
X102433380Y-132372123D01*
X102385761Y-132467361D01*
X102338142Y-132514980D01*
%TO.C,J2*%
X67611666Y-128585980D02*
X67611666Y-129300266D01*
X67564047Y-129443123D01*
X67468809Y-129538361D01*
X67325952Y-129585980D01*
X67230714Y-129585980D01*
X68040238Y-128681219D02*
X68087857Y-128633600D01*
X68183095Y-128585980D01*
X68421190Y-128585980D01*
X68516428Y-128633600D01*
X68564047Y-128681219D01*
X68611666Y-128776457D01*
X68611666Y-128871695D01*
X68564047Y-129014552D01*
X67992619Y-129585980D01*
X68611666Y-129585980D01*
%TO.C,D3*%
X94562704Y-144394180D02*
X94562704Y-143394180D01*
X94800800Y-143394180D01*
X94943657Y-143441800D01*
X95038895Y-143537038D01*
X95086514Y-143632276D01*
X95134133Y-143822752D01*
X95134133Y-143965609D01*
X95086514Y-144156085D01*
X95038895Y-144251323D01*
X94943657Y-144346561D01*
X94800800Y-144394180D01*
X94562704Y-144394180D01*
X95467466Y-143394180D02*
X96086514Y-143394180D01*
X95753180Y-143775133D01*
X95896038Y-143775133D01*
X95991276Y-143822752D01*
X96038895Y-143870371D01*
X96086514Y-143965609D01*
X96086514Y-144203704D01*
X96038895Y-144298942D01*
X95991276Y-144346561D01*
X95896038Y-144394180D01*
X95610323Y-144394180D01*
X95515085Y-144346561D01*
X95467466Y-144298942D01*
%TO.C,D2*%
X86815704Y-154833580D02*
X86815704Y-153833580D01*
X87053800Y-153833580D01*
X87196657Y-153881200D01*
X87291895Y-153976438D01*
X87339514Y-154071676D01*
X87387133Y-154262152D01*
X87387133Y-154405009D01*
X87339514Y-154595485D01*
X87291895Y-154690723D01*
X87196657Y-154785961D01*
X87053800Y-154833580D01*
X86815704Y-154833580D01*
X87768085Y-153928819D02*
X87815704Y-153881200D01*
X87910942Y-153833580D01*
X88149038Y-153833580D01*
X88244276Y-153881200D01*
X88291895Y-153928819D01*
X88339514Y-154024057D01*
X88339514Y-154119295D01*
X88291895Y-154262152D01*
X87720466Y-154833580D01*
X88339514Y-154833580D01*
%TO.C,D1*%
X89488104Y-150591780D02*
X89488104Y-149591780D01*
X89726200Y-149591780D01*
X89869057Y-149639400D01*
X89964295Y-149734638D01*
X90011914Y-149829876D01*
X90059533Y-150020352D01*
X90059533Y-150163209D01*
X90011914Y-150353685D01*
X89964295Y-150448923D01*
X89869057Y-150544161D01*
X89726200Y-150591780D01*
X89488104Y-150591780D01*
X91011914Y-150591780D02*
X90440485Y-150591780D01*
X90726200Y-150591780D02*
X90726200Y-149591780D01*
X90630961Y-149734638D01*
X90535723Y-149829876D01*
X90440485Y-149877495D01*
%TO.C,C18*%
X79757542Y-149918657D02*
X79805161Y-149966276D01*
X79852780Y-150109133D01*
X79852780Y-150204371D01*
X79805161Y-150347228D01*
X79709923Y-150442466D01*
X79614685Y-150490085D01*
X79424209Y-150537704D01*
X79281352Y-150537704D01*
X79090876Y-150490085D01*
X78995638Y-150442466D01*
X78900400Y-150347228D01*
X78852780Y-150204371D01*
X78852780Y-150109133D01*
X78900400Y-149966276D01*
X78948019Y-149918657D01*
X79852780Y-148966276D02*
X79852780Y-149537704D01*
X79852780Y-149251990D02*
X78852780Y-149251990D01*
X78995638Y-149347228D01*
X79090876Y-149442466D01*
X79138495Y-149537704D01*
X79281352Y-148394847D02*
X79233733Y-148490085D01*
X79186114Y-148537704D01*
X79090876Y-148585323D01*
X79043257Y-148585323D01*
X78948019Y-148537704D01*
X78900400Y-148490085D01*
X78852780Y-148394847D01*
X78852780Y-148204371D01*
X78900400Y-148109133D01*
X78948019Y-148061514D01*
X79043257Y-148013895D01*
X79090876Y-148013895D01*
X79186114Y-148061514D01*
X79233733Y-148109133D01*
X79281352Y-148204371D01*
X79281352Y-148394847D01*
X79328971Y-148490085D01*
X79376590Y-148537704D01*
X79471828Y-148585323D01*
X79662304Y-148585323D01*
X79757542Y-148537704D01*
X79805161Y-148490085D01*
X79852780Y-148394847D01*
X79852780Y-148204371D01*
X79805161Y-148109133D01*
X79757542Y-148061514D01*
X79662304Y-148013895D01*
X79471828Y-148013895D01*
X79376590Y-148061514D01*
X79328971Y-148109133D01*
X79281352Y-148204371D01*
%TO.C,C7*%
X74626742Y-152388867D02*
X74674361Y-152436486D01*
X74721980Y-152579343D01*
X74721980Y-152674581D01*
X74674361Y-152817439D01*
X74579123Y-152912677D01*
X74483885Y-152960296D01*
X74293409Y-153007915D01*
X74150552Y-153007915D01*
X73960076Y-152960296D01*
X73864838Y-152912677D01*
X73769600Y-152817439D01*
X73721980Y-152674581D01*
X73721980Y-152579343D01*
X73769600Y-152436486D01*
X73817219Y-152388867D01*
X73721980Y-152055534D02*
X73721980Y-151388867D01*
X74721980Y-151817439D01*
%TO.C,C6*%
X65660542Y-151288600D02*
X65708161Y-151336219D01*
X65755780Y-151479076D01*
X65755780Y-151574314D01*
X65708161Y-151717172D01*
X65612923Y-151812410D01*
X65517685Y-151860029D01*
X65327209Y-151907648D01*
X65184352Y-151907648D01*
X64993876Y-151860029D01*
X64898638Y-151812410D01*
X64803400Y-151717172D01*
X64755780Y-151574314D01*
X64755780Y-151479076D01*
X64803400Y-151336219D01*
X64851019Y-151288600D01*
X64755780Y-150431457D02*
X64755780Y-150621934D01*
X64803400Y-150717172D01*
X64851019Y-150764791D01*
X64993876Y-150860029D01*
X65184352Y-150907648D01*
X65565304Y-150907648D01*
X65660542Y-150860029D01*
X65708161Y-150812410D01*
X65755780Y-150717172D01*
X65755780Y-150526695D01*
X65708161Y-150431457D01*
X65660542Y-150383838D01*
X65565304Y-150336219D01*
X65327209Y-150336219D01*
X65231971Y-150383838D01*
X65184352Y-150431457D01*
X65136733Y-150526695D01*
X65136733Y-150717172D01*
X65184352Y-150812410D01*
X65231971Y-150860029D01*
X65327209Y-150907648D01*
%TO.C,C5*%
X65660542Y-153461133D02*
X65708161Y-153508752D01*
X65755780Y-153651609D01*
X65755780Y-153746847D01*
X65708161Y-153889705D01*
X65612923Y-153984943D01*
X65517685Y-154032562D01*
X65327209Y-154080181D01*
X65184352Y-154080181D01*
X64993876Y-154032562D01*
X64898638Y-153984943D01*
X64803400Y-153889705D01*
X64755780Y-153746847D01*
X64755780Y-153651609D01*
X64803400Y-153508752D01*
X64851019Y-153461133D01*
X64755780Y-152556371D02*
X64755780Y-153032562D01*
X65231971Y-153080181D01*
X65184352Y-153032562D01*
X65136733Y-152937324D01*
X65136733Y-152699228D01*
X65184352Y-152603990D01*
X65231971Y-152556371D01*
X65327209Y-152508752D01*
X65565304Y-152508752D01*
X65660542Y-152556371D01*
X65708161Y-152603990D01*
X65755780Y-152699228D01*
X65755780Y-152937324D01*
X65708161Y-153032562D01*
X65660542Y-153080181D01*
%TO.C,C4*%
X71172342Y-156503666D02*
X71219961Y-156551285D01*
X71267580Y-156694142D01*
X71267580Y-156789380D01*
X71219961Y-156932238D01*
X71124723Y-157027476D01*
X71029485Y-157075095D01*
X70839009Y-157122714D01*
X70696152Y-157122714D01*
X70505676Y-157075095D01*
X70410438Y-157027476D01*
X70315200Y-156932238D01*
X70267580Y-156789380D01*
X70267580Y-156694142D01*
X70315200Y-156551285D01*
X70362819Y-156503666D01*
X70600914Y-155646523D02*
X71267580Y-155646523D01*
X70219961Y-155884619D02*
X70934247Y-156122714D01*
X70934247Y-155503666D01*
%TO.C,C3*%
X67752933Y-132691142D02*
X67705314Y-132738761D01*
X67562457Y-132786380D01*
X67467219Y-132786380D01*
X67324361Y-132738761D01*
X67229123Y-132643523D01*
X67181504Y-132548285D01*
X67133885Y-132357809D01*
X67133885Y-132214952D01*
X67181504Y-132024476D01*
X67229123Y-131929238D01*
X67324361Y-131834000D01*
X67467219Y-131786380D01*
X67562457Y-131786380D01*
X67705314Y-131834000D01*
X67752933Y-131881619D01*
X68086266Y-131786380D02*
X68705314Y-131786380D01*
X68371980Y-132167333D01*
X68514838Y-132167333D01*
X68610076Y-132214952D01*
X68657695Y-132262571D01*
X68705314Y-132357809D01*
X68705314Y-132595904D01*
X68657695Y-132691142D01*
X68610076Y-132738761D01*
X68514838Y-132786380D01*
X68229123Y-132786380D01*
X68133885Y-132738761D01*
X68086266Y-132691142D01*
%TD*%
M02*
