"Source:","D:\KiCAD_Work_Projects\kicadpcbs\EPS32_Smart_Power_Meter_SMD_v0.1\EPS32_Smart_Power_Meter_SMD_v0.1.sch"
"Date:","6/12/2022 6:08:06 PM"
"Tool:","Eeschema (5.1.7)-1"
"Generator:","C:\Program Files\KiCad\bin\scripting\plugins/bom_csv_grouped_by_value_with_fp.py"
"Component Count:","221"
"Ref","Qnty","Value","Cmp name","Footprint","Description","Vendor"
"BZ1, ","1","Buzzer","Buzzer","Buzzer_Beeper:Buzzer_15x7.5RM7.6","Buzzer, polarized",""
"C1, C2, C5, C34, C35, C40, C44, ","7","10uF","CP","Capacitor_SMD:C_0805_2012Metric","Polarized capacitor",""
"C3, C7, C8, C12, C13, C16, C17, C19, C21, C22, C23, C24, C25, C26, C31, C33, C36, C37, C38, C39, C41, C45, C46, C49, C50, ","25","104","C","Capacitor_SMD:C_0603_1608Metric","Unpolarized capacitor",""
"C4, ","1","100uF","CP","Capacitor_SMD:CP_Elec_10x10.5","Polarized capacitor",""
"C6, ","1","4.7uF","CP","Capacitor_SMD:C_0603_1608Metric","Polarized capacitor",""
"C9, C11, C18, C20, ","4","22uF","CP","Capacitor_SMD:C_0805_2012Metric","Polarized capacitor",""
"C10, ","1","1uF","CP","Capacitor_SMD:C_0603_1608Metric","Polarized capacitor",""
"C14, ","1","1000uF","CP","My_Lib_KiCAD:CP_Elec_12.5x13.5","Polarized capacitor",""
"C15, C47, C48, ","3","22pF","C","Capacitor_SMD:C_0402_1005Metric","Unpolarized capacitor",""
"C27, C28, C30, C32, ","4","10nF/100V","C","Capacitor_SMD:C_0402_1005Metric","Unpolarized capacitor",""
"C29, ","1","10nF/100V","C","Capacitor_SMD:C_0603_1608Metric","Unpolarized capacitor",""
"C42, C43, ","2","20pF","C","Capacitor_SMD:C_0402_1005Metric","Unpolarized capacitor",""
"D1, D17, D25, D26, D27, D28, D29, D30, ","8","Green","LED","LED_SMD:LED_0603_1608Metric","Light emitting diode",""
"D2, D16, ","2","Red","LED","LED_SMD:LED_0603_1608Metric","Light emitting diode",""
"D3, D5, ","2","SS56","1N5822","Diode_SMD:D_SMA","40V 3A Schottky Barrier Rectifier Diode, DO-201AD",""
"D4, D13, D14, ","3","BAT60A","BAT60A","Diode_SMD:D_SOD-323","10V 3A High Current Recitifier Schottky Diode, SOD-323",""
"D6, ","1","SLVU2.8-4","CDNBS08-SLVU2.8-4","Package_SO:SOIC-8_3.9x4.9mm_P1.27mm","Quad bidirectional transil, Suppressor for ESD protection, 5V Standoff, 4 Channels, SOIC-8",""
"D7, D8, D9, D10, ","4","ESD9B3.3ST5G","ESD9B3.3ST5G","My_Lib_KiCAD:LESD8D3.3CA","ESD protection diode, 3.3Vrwm, SOD-923",""
"D11, D12, D15, ","3","LESD5D5.0CTG1","ESD9B5.0ST5G","Diode_SMD:D_SOD-523","ESD protection diode, 5.0Vrwm, SOD-923",""
"D18, D19, D20, ","3","1N4007","1N4007","Diode_SMD:D_SMA","1000V 1A General Purpose Rectifier Diode, DO-41",""
"D21, ","1","BAS321","1N5822","Diode_SMD:D_SOD-323","40V 3A Schottky Barrier Rectifier Diode, DO-201AD",""
"D22, D23, D24, ","3","3V3","D_Zener","Diode_SMD:D_SMA","Zener diode",""
"H1, H2, H3, H4, ","4","MountingHole","MountingHole","MountingHole:MountingHole_3mm_Pad_Via","Mounting Hole without connection",""
"J1, ","1","DC12-60_INPUT","Screw_Terminal_01x02","TerminalBlock:TerminalBlock_bornier-2_P5.08mm","Generic screw terminal, single row, 01x02, script generated (kicad-library-utils/schlib/autogen/connector/)",""
"J2, ","1","DC Jack","Barrel_Jack_Switch_Pin3Ring","Connector_BarrelJack:BarrelJack_Wuerth_6941xx301002","DC Barrel Jack with an internal switch",""
"J4, ","1","BATT","Conn_01x02","My_Lib_KiCAD:XH_2.54mm_2Pin","Generic connector, single row, 01x02, script generated (kicad-library-utils/schlib/autogen/connector/)",""
"J5, ","1","RS485_OUT","Screw_Terminal_01x04","TerminalBlock:TerminalBlock_bornier-4_P5.08mm","Generic screw terminal, single row, 01x04, script generated (kicad-library-utils/schlib/autogen/connector/)",""
"J6, ","1","A9_PG","Conn_01x04","Connector_PinHeader_2.54mm:PinHeader_1x04_P2.54mm_Vertical","Generic connector, single row, 01x04, script generated (kicad-library-utils/schlib/autogen/connector/)",""
"J7, ","1","TEMP_HUMI","Conn_01x03","Connector_PinHeader_2.54mm:PinHeader_1x03_P2.54mm_Vertical","Generic connector, single row, 01x03, script generated (kicad-library-utils/schlib/autogen/connector/)",""
"J8, ","1","USB_B_Micro","USB_B_Micro","Connector_USB:USB_Micro-B_Molex_47346-0001","USB Micro Type B connector",""
"J9, ","1","To POE Board","Conn_01x04","Connector_PinHeader_2.54mm:PinHeader_1x04_P2.54mm_Vertical","Generic connector, single row, 01x04, script generated (kicad-library-utils/schlib/autogen/connector/)",""
"J10, ","1","RJ45","RJ45","Connector_RJ:RJ45_Amphenol_RJHSE538X","RJ connector, 8P8C (8 positions 8 connected)",""
"J11, ","1","STM32_PG","Conn_01x04","Connector_PinHeader_2.54mm:PinHeader_1x04_P2.54mm_Vertical","Generic connector, single row, 01x04, script generated (kicad-library-utils/schlib/autogen/connector/)",""
"J12, ","1","BOOT_Mode","Conn_01x03","Connector_PinHeader_2.54mm:PinHeader_1x03_P2.54mm_Vertical","Generic connector, single row, 01x03, script generated (kicad-library-utils/schlib/autogen/connector/)",""
"J13, J14, J15, ","3","RLY_OUT1","Screw_Terminal_01x02","TerminalBlock:TerminalBlock_bornier-2_P5.08mm","Generic screw terminal, single row, 01x02, script generated (kicad-library-utils/schlib/autogen/connector/)",""
"J16, ","1","STM32_IOs","Conn_01x11","Connector_PinHeader_2.54mm:PinHeader_1x11_P2.54mm_Vertical","Generic connector, single row, 01x11, script generated (kicad-library-utils/schlib/autogen/connector/)",""
"J17, ","1","STM32_SPI1","Conn_01x06","Connector_PinHeader_2.54mm:PinHeader_1x06_P2.54mm_Vertical","Generic connector, single row, 01x06, script generated (kicad-library-utils/schlib/autogen/connector/)",""
"J18, ","1","STM32_I2C1","Conn_01x04","Connector_PinHeader_2.54mm:PinHeader_1x04_P2.54mm_Vertical","Generic connector, single row, 01x04, script generated (kicad-library-utils/schlib/autogen/connector/)",""
"J19, ","1","ESP_USART","Conn_01x04","Connector_PinHeader_2.54mm:PinHeader_1x04_P2.54mm_Vertical","Generic connector, single row, 01x04, script generated (kicad-library-utils/schlib/autogen/connector/)",""
"J20, ","1","Digital Inputs","Screw_Terminal_01x07","TerminalBlock_Phoenix:TerminalBlock_Phoenix_MKDS-1,5-7_1x07_P5.00mm_Horizontal","Generic screw terminal, single row, 01x07, script generated (kicad-library-utils/schlib/autogen/connector/)",""
"K1, ","1","RLY1","SANYOU_SRD_Form_C","Relay_THT:Relay_SPDT_SANYOU_SRD_Series_Form_C","Sanyo SRD relay, Single Pole Miniature Power Relay,",""
"K2, ","1","RLY2","SANYOU_SRD_Form_C","Relay_THT:Relay_SPDT_SANYOU_SRD_Series_Form_C","Sanyo SRD relay, Single Pole Miniature Power Relay,",""
"K3, ","1","RLY3","SANYOU_SRD_Form_C","Relay_THT:Relay_SPDT_SANYOU_SRD_Series_Form_C","Sanyo SRD relay, Single Pole Miniature Power Relay,",""
"L1, ","1","33uH","INDUCTOR","Inductor_SMD:L_Bourns_SRR1260","Inductor symbol for simulation only",""
"L2, ","1","4.7uH","INDUCTOR","Inductor_SMD:L_TracoPower_TCK-047_5.2x5.8mm","Inductor symbol for simulation only",""
"MICRO_SD1, ","1","TF-01A","TF-01A","TF-01A:TF-01A","",""
"Q1, Q2, ","2","AO3401A","AO3401A","Package_TO_SOT_SMD:SOT-23","-4.0A Id, -30V Vds, P-Channel MOSFET, SOT-23",""
"Q3, Q4, Q5, Q9, ","4","S8050","Q_NPN_BEC","Package_TO_SOT_SMD:SOT-23","NPN transistor, base/emitter/collector",""
"Q6, Q7, Q8, ","3","C945_SMD","Q_NPN_BEC","Package_TO_SOT_SMD:SOT-23","NPN transistor, base/emitter/collector",""
"R1, R62, R64, R80, R81, R82, ","6","1k","R","Resistor_SMD:R_0603_1608Metric","Resistor",""
"R2, R3, R9, R39, ","4","2k","R","Resistor_SMD:R_0603_1608Metric","Resistor",""
"R4, R8, R21, R27, R28, R29, R30, R31, R32, R44, R49, R50, R51, R55, R65, ","15","10k","R","Resistor_SMD:R_0603_1608Metric","Resistor",""
"R5, R19, R26, R66, ","4","100k","R","Resistor_SMD:R_0603_1608Metric","Resistor",""
"R6, R7, R15, ","3","220R","R","Resistor_SMD:R_0603_1608Metric","Resistor",""
"R10, R11, R68, R70, R72, R73, ","6","4k7","R","Resistor_SMD:R_0603_1608Metric","Resistor",""
"R12, ","1","120R","R","Resistor_SMD:R_0603_1608Metric","Resistor",""
"R13, ","1","2M","R","Resistor_SMD:R_0603_1608Metric","Resistor",""
"R14, R61, ","2","1M","R","Resistor_SMD:R_0603_1608Metric","Resistor",""
"R20, ","1","22k1","R","Resistor_SMD:R_0603_1608Metric","Resistor",""
"R22, R23, R24, R25, R36, R52, R53, R54, R58, R59, ","10","0R","R","Resistor_SMD:R_0603_1608Metric","Resistor",""
"R33, R34, R35, R38, ","4","75R","R","Resistor_SMD:R_0603_1608Metric","Resistor",""
"R37, ","1","47k5","R","Resistor_SMD:R_0603_1608Metric","Resistor",""
"R40, R41, R42, R43, R46, R47, R56, R57, R60, R63, ","10","5k1","R","Resistor_SMD:R_0603_1608Metric","Resistor",""
"R45, ","1","10kk","R","Resistor_SMD:R_0603_1608Metric","Resistor",""
"R48, ","1","6k19","R","Resistor_SMD:R_0603_1608Metric","Resistor",""
"R67, R69, R71, R74, R75, R76, ","6","100R","R","Resistor_SMD:R_0603_1608Metric","Resistor",""
"R77, R78, R79, ","3","15R","R","Resistor_SMD:R_0603_1608Metric","Resistor",""
"SW1, SW2, SW4, ","3","SW_Push","SW_Push","Button_Switch_SMD:SW_SPST_TL3342","Push button switch, generic, two pins",""
"SW3, ","1","SW_DIP_x04","SW_DIP_x04","Button_Switch_SMD:SW_DIP_SPSTx04_Slide_6.7x11.72mm_W8.61mm_P2.54mm_LowProfile","4x DIP Switch, Single Pole Single Throw (SPST) switch, small symbol",""
"TP1, ","1","TestPoint2","TestPoint","TestPoint:TestPoint_Pad_D1.0mm","test point",""
"TP2, ","1","TestPoint3","TestPoint","TestPoint:TestPoint_Pad_D1.0mm","test point",""
"TP3, ","1","TestPoint1","TestPoint","TestPoint:TestPoint_Pad_D1.0mm","test point",""
"U1, ","1","A9_GSM_Module","A9_GSM_Module","BA56-12EWA(3Digit7Segment):A9_GSM_Module","",""
"U2, ","1","AP5056","AP5056","Package_SO:SOP-8_3.76x4.96mm_P1.27mm","",""
"U3, ","1","RSM3485CHT","RSM3485CHT","My_Lib_KiCAD:RSM3-485CHT","",""
"U4, ","1","LM2596S-5V","LM2596S-12","Package_TO_SOT_SMD:TO-263-5_TabPin3","12V 3A Step-Down Voltage Regulator, TO-263",""
"U5, ","1","SY8120","SY8120","Package_TO_SOT_SMD:SOT-23-6","",""
"U6, U7, U8, ","3","PC817","PC817","Package_DIP:SMDIP-4_W7.62mm","DC Optocoupler, Vce 35V, CTR 50-300%, DIP-4",""
"U9, ","1","Magnetic_Module","Magnetic_Module","Package_SO:SOIC-16W_7.5x12.8mm_P1.27mm","",""
"U10, ","1","CP2102N-A01-GQFN28","CP2102N-A01-GQFN28","Package_DFN_QFN:QFN-28-1EP_5x5mm_P0.5mm_EP3.35x3.35mm","USB to UART master bridge, QFN-28",""
"U11, ","1","IP101GRI","IP101GRI","Package_DFN_QFN:QFN-32-1EP_4x4mm_P0.4mm_EP2.9x2.9mm","",""
"U12, ","1","ESP32-WROOM-32","ESP32-WROOM-32","RF_Module:ESP32-WROOM-32","RF Module, ESP32-D0WDQ6 SoC, Wi-Fi 802.11b/g/n, Bluetooth, BLE, 32-bit, 2.7-3.6V, onboard antenna, SMD",""
"U13, ","1","STM32F030K6Tx","STM32F030K6Tx","Package_QFP:LQFP-32_7x7mm_P0.8mm","ARM Cortex-M0 MCU, 32KB flash, 4KB RAM, 48MHz, 2.4-3.6V, 25 GPIO, LQFP-32",""
"U14, ","1","74HC14","74HC14","Package_SO:SOIC-14_3.9x8.7mm_P1.27mm","Hex inverter schmitt trigger",""
"Y1, ","1","25MHz","Crystal_GND24","Crystal:Crystal_SMD_3225-4Pin_3.2x2.5mm","Four pin crystal, GND on pins 2 and 4",""
"Y2, ","1","8MHz","Crystal","Crystal:Crystal_HC49-4H_Vertical","Two pin crystal",""
