(module C0603 (layer F.Cu) (tedit 0)
  (descr <b>0603<b><p>)
  (fp_text reference C19 (at -1.27 0.254) (layer F.Mask)
    (effects (font (size 0.60325 0.60325) (thickness 0.060325)) (justify left bottom))
  )
  (fp_text value 0.1uF (at -1.27 0.1905) (layer F.Fab)
    (effects (font (size 0.36195 0.36195) (thickness 0.043434)) (justify left bottom))
  )
  (fp_line (start -1.397 -0.635) (end 1.397 -0.635) (layer F.SilkS) (width 0.127))
  (fp_line (start 1.397 -0.635) (end 1.397 0.635) (layer F.SilkS) (width 0.127))
  (fp_line (start 1.397 0.635) (end -1.397 0.635) (layer F.SilkS) (width 0.127))
  (fp_line (start -1.397 0.635) (end -1.397 -0.635) (layer F.SilkS) (width 0.127))
  (fp_poly (pts (xy -1.27 0.508) (xy 1.27 0.508) (xy 1.27 -0.508) (xy -1.27 -0.508)) (layer Dwgs.User) (width 0))
  (pad 1 smd roundrect (at -0.762 0) (size 0.889 0.889) (layers F.Cu F.Paste F.Mask) (roundrect_rratio 0.125)
    (solder_mask_margin 0.0508))
  (pad 2 smd roundrect (at 0.762 0) (size 0.889 0.889) (layers F.Cu F.Paste F.Mask) (roundrect_rratio 0.125)
    (solder_mask_margin 0.0508))
)
