EESchema Schematic File Version 4
EELAYER 30 0
EELAYER END
$Descr A4 11693 8268
encoding utf-8
Sheet 2 2
Title "A9 ESP Max485 Iso v0.1"
Date "2021-01-18"
Rev "0"
Comp "Everything Electronic"
Comment1 ""
Comment2 ""
Comment3 ""
Comment4 ""
$EndDescr
$Comp
L Device:C C16
U 1 1 601BE856
P 4450 2200
F 0 "C16" H 4565 2246 50  0000 L CNN
F 1 "104" H 4565 2155 50  0000 L CNN
F 2 "Capacitor_THT:C_Rect_L7.0mm_W3.5mm_P5.00mm" H 4488 2050 50  0001 C CNN
F 3 "~" H 4450 2200 50  0001 C CNN
	1    4450 2200
	1    0    0    -1  
$EndComp
$Comp
L power:GND #PWR056
U 1 1 601BE85C
P 4450 2400
F 0 "#PWR056" H 4450 2150 50  0001 C CNN
F 1 "GND" H 4455 2227 50  0000 C CNN
F 2 "" H 4450 2400 50  0001 C CNN
F 3 "" H 4450 2400 50  0001 C CNN
	1    4450 2400
	1    0    0    -1  
$EndComp
Wire Wire Line
	4450 1950 4450 2050
Wire Wire Line
	4450 2350 4450 2400
Text Notes 4350 1000 0    50   ~ 0
MCU
$Comp
L power:GND #PWR057
U 1 1 601BE865
P 4900 2350
F 0 "#PWR057" H 4900 2100 50  0001 C CNN
F 1 "GND" H 4905 2177 50  0000 C CNN
F 2 "" H 4900 2350 50  0001 C CNN
F 3 "" H 4900 2350 50  0001 C CNN
	1    4900 2350
	1    0    0    -1  
$EndComp
Wire Wire Line
	4900 2350 4900 2250
$Comp
L power:GND #PWR061
U 1 1 601BE86C
P 7350 1500
F 0 "#PWR061" H 7350 1250 50  0001 C CNN
F 1 "GND" H 7355 1327 50  0000 C CNN
F 2 "" H 7350 1500 50  0001 C CNN
F 3 "" H 7350 1500 50  0001 C CNN
	1    7350 1500
	1    0    0    -1  
$EndComp
$Comp
L Device:R R16
U 1 1 601BE874
P 5250 1550
F 0 "R16" H 5350 1450 50  0000 L CNN
F 1 "10k" H 5300 1550 50  0000 L CNN
F 2 "My_Lib_KiCAD:R_0.125W_MY" V 5180 1550 50  0001 C CNN
F 3 "~" H 5250 1550 50  0001 C CNN
	1    5250 1550
	-1   0    0    1   
$EndComp
$Comp
L Device:R R17
U 1 1 601BE87A
P 5500 1550
F 0 "R17" H 5600 1450 50  0000 L CNN
F 1 "10k" H 5550 1550 50  0000 L CNN
F 2 "My_Lib_KiCAD:R_0.125W_MY" V 5430 1550 50  0001 C CNN
F 3 "~" H 5500 1550 50  0001 C CNN
	1    5500 1550
	-1   0    0    1   
$EndComp
$Comp
L power:GND #PWR060
U 1 1 601BE880
P 6150 3200
F 0 "#PWR060" H 6150 2950 50  0001 C CNN
F 1 "GND" H 6155 3027 50  0000 C CNN
F 2 "" H 6150 3200 50  0001 C CNN
F 3 "" H 6150 3200 50  0001 C CNN
	1    6150 3200
	1    0    0    -1  
$EndComp
Wire Wire Line
	6150 3200 6150 3100
$Comp
L power:+3.3V #PWR059
U 1 1 601BE887
P 6150 1250
F 0 "#PWR059" H 6150 1100 50  0001 C CNN
F 1 "+3.3V" H 6165 1423 50  0000 C CNN
F 2 "" H 6150 1250 50  0001 C CNN
F 3 "" H 6150 1250 50  0001 C CNN
	1    6150 1250
	1    0    0    -1  
$EndComp
Wire Wire Line
	5500 1700 5500 1800
Wire Wire Line
	5500 1800 5550 1800
Wire Wire Line
	5250 1700 5250 2000
Wire Wire Line
	5250 2000 5550 2000
$Comp
L power:+3.3V #PWR058
U 1 1 601BE891
P 5500 1250
F 0 "#PWR058" H 5500 1100 50  0001 C CNN
F 1 "+3.3V" H 5515 1423 50  0000 C CNN
F 2 "" H 5500 1250 50  0001 C CNN
F 3 "" H 5500 1250 50  0001 C CNN
	1    5500 1250
	1    0    0    -1  
$EndComp
Wire Wire Line
	5500 1400 5500 1300
Wire Wire Line
	5250 1400 5250 1300
Wire Wire Line
	5250 1300 5500 1300
Connection ~ 5500 1300
Wire Wire Line
	5500 1300 5500 1250
Wire Wire Line
	6150 1250 6150 1300
$Comp
L Regulator_Linear:AMS1117-3.3 U8
U 1 1 601BE89D
P 2500 2550
F 0 "U8" H 2500 2792 50  0000 C CNN
F 1 "AMS1117-3.3" H 2500 2701 50  0000 C CNN
F 2 "Package_TO_SOT_SMD:SOT-223-3_TabPin2" H 2500 2750 50  0001 C CNN
F 3 "http://www.advanced-monolithic.com/pdf/ds1117.pdf" H 2600 2300 50  0001 C CNN
	1    2500 2550
	1    0    0    -1  
$EndComp
$Comp
L Device:CP C13
U 1 1 601BE8A3
P 2950 2800
F 0 "C13" H 3068 2846 50  0000 L CNN
F 1 "10uF" H 3068 2755 50  0000 L CNN
F 2 "Capacitor_THT:C_Radial_D6.3mm_H11.0mm_P2.50mm" H 2988 2650 50  0001 C CNN
F 3 "~" H 2950 2800 50  0001 C CNN
	1    2950 2800
	1    0    0    -1  
$EndComp
$Comp
L power:+5V #PWR042
U 1 1 601BE8A9
P 1000 2500
F 0 "#PWR042" H 1000 2350 50  0001 C CNN
F 1 "+5V" H 1015 2673 50  0000 C CNN
F 2 "" H 1000 2500 50  0001 C CNN
F 3 "" H 1000 2500 50  0001 C CNN
	1    1000 2500
	1    0    0    -1  
$EndComp
$Comp
L power:+3.3V #PWR052
U 1 1 601BE8AF
P 3200 2500
F 0 "#PWR052" H 3200 2350 50  0001 C CNN
F 1 "+3.3V" H 3215 2673 50  0000 C CNN
F 2 "" H 3200 2500 50  0001 C CNN
F 3 "" H 3200 2500 50  0001 C CNN
	1    3200 2500
	1    0    0    -1  
$EndComp
Wire Wire Line
	2800 2550 2950 2550
Wire Wire Line
	3200 2550 3200 2500
Wire Wire Line
	2950 2650 2950 2550
Connection ~ 2950 2550
Wire Wire Line
	2950 2550 3200 2550
$Comp
L power:GND #PWR049
U 1 1 601BE8BA
P 2500 3050
F 0 "#PWR049" H 2500 2800 50  0001 C CNN
F 1 "GND" H 2505 2877 50  0000 C CNN
F 2 "" H 2500 3050 50  0001 C CNN
F 3 "" H 2500 3050 50  0001 C CNN
	1    2500 3050
	1    0    0    -1  
$EndComp
$Comp
L power:GND #PWR050
U 1 1 601BE8C0
P 2950 3050
F 0 "#PWR050" H 2950 2800 50  0001 C CNN
F 1 "GND" H 2955 2877 50  0000 C CNN
F 2 "" H 2950 3050 50  0001 C CNN
F 3 "" H 2950 3050 50  0001 C CNN
	1    2950 3050
	1    0    0    -1  
$EndComp
Wire Wire Line
	2500 3050 2500 2850
Wire Wire Line
	2950 3050 2950 2950
Wire Wire Line
	1000 2550 1000 2500
Wire Wire Line
	1150 2650 1150 2550
Connection ~ 1150 2550
Wire Wire Line
	1150 2550 1000 2550
Wire Wire Line
	1600 2650 1600 2550
Connection ~ 1600 2550
Wire Wire Line
	1600 2550 1150 2550
Wire Wire Line
	2000 2650 2000 2550
Wire Wire Line
	2000 2550 1600 2550
$Comp
L power:GND #PWR047
U 1 1 601BE8D1
P 2000 3050
F 0 "#PWR047" H 2000 2800 50  0001 C CNN
F 1 "GND" H 2005 2877 50  0000 C CNN
F 2 "" H 2000 3050 50  0001 C CNN
F 3 "" H 2000 3050 50  0001 C CNN
	1    2000 3050
	1    0    0    -1  
$EndComp
$Comp
L power:GND #PWR045
U 1 1 601BE8D7
P 1600 3050
F 0 "#PWR045" H 1600 2800 50  0001 C CNN
F 1 "GND" H 1605 2877 50  0000 C CNN
F 2 "" H 1600 3050 50  0001 C CNN
F 3 "" H 1600 3050 50  0001 C CNN
	1    1600 3050
	1    0    0    -1  
$EndComp
$Comp
L power:GND #PWR043
U 1 1 601BE8DD
P 1150 3050
F 0 "#PWR043" H 1150 2800 50  0001 C CNN
F 1 "GND" H 1155 2877 50  0000 C CNN
F 2 "" H 1150 3050 50  0001 C CNN
F 3 "" H 1150 3050 50  0001 C CNN
	1    1150 3050
	1    0    0    -1  
$EndComp
Wire Wire Line
	1150 3050 1150 2950
Wire Wire Line
	1600 3050 1600 2950
Wire Wire Line
	2000 3050 2000 2950
$Comp
L Device:CP C9
U 1 1 601BE8E6
P 1150 2800
F 0 "C9" H 1268 2846 50  0000 L CNN
F 1 "10uF" H 1268 2755 50  0000 L CNN
F 2 "Capacitor_THT:C_Radial_D6.3mm_H11.0mm_P2.50mm" H 1188 2650 50  0001 C CNN
F 3 "~" H 1150 2800 50  0001 C CNN
	1    1150 2800
	1    0    0    -1  
$EndComp
$Comp
L Device:CP C10
U 1 1 601BE8EC
P 1600 2800
F 0 "C10" H 1718 2846 50  0000 L CNN
F 1 "1uF" H 1718 2755 50  0000 L CNN
F 2 "Capacitor_THT:C_Radial_D6.3mm_H11.0mm_P2.50mm" H 1638 2650 50  0001 C CNN
F 3 "~" H 1600 2800 50  0001 C CNN
	1    1600 2800
	1    0    0    -1  
$EndComp
$Comp
L Device:C C12
U 1 1 601BE8F2
P 2000 2800
F 0 "C12" H 2115 2846 50  0000 L CNN
F 1 "104" H 2115 2755 50  0000 L CNN
F 2 "Capacitor_THT:C_Rect_L7.0mm_W3.5mm_P5.00mm" H 2038 2650 50  0001 C CNN
F 3 "~" H 2000 2800 50  0001 C CNN
	1    2000 2800
	1    0    0    -1  
$EndComp
Wire Wire Line
	2200 2550 2000 2550
Connection ~ 2000 2550
$Comp
L Switch:SW_Push SW2
U 1 1 601BE8FA
P 4900 2050
F 0 "SW2" V 4946 2002 50  0000 R CNN
F 1 "RST" V 4855 2002 50  0000 R CNN
F 2 "Button_Switch_THT:SW_PUSH_6mm" H 4900 2250 50  0001 C CNN
F 3 "~" H 4900 2250 50  0001 C CNN
	1    4900 2050
	0    -1   -1   0   
$EndComp
Wire Wire Line
	5500 1800 4900 1800
Wire Wire Line
	4900 1800 4900 1850
Connection ~ 5500 1800
$Comp
L Device:R R20
U 1 1 601BE903
P 7050 2800
F 0 "R20" V 7000 2550 50  0000 L CNN
F 1 "10k" V 7050 2750 50  0000 L CNN
F 2 "My_Lib_KiCAD:R_0.125W_MY" V 6980 2800 50  0001 C CNN
F 3 "~" H 7050 2800 50  0001 C CNN
	1    7050 2800
	0    1    1    0   
$EndComp
$Comp
L power:GND #PWR063
U 1 1 601BE909
P 7600 2950
F 0 "#PWR063" H 7600 2700 50  0001 C CNN
F 1 "GND" H 7605 2777 50  0000 C CNN
F 2 "" H 7600 2950 50  0001 C CNN
F 3 "" H 7600 2950 50  0001 C CNN
	1    7600 2950
	1    0    0    -1  
$EndComp
$Comp
L Device:LED D3
U 1 1 601BE90F
P 7400 2800
F 0 "D3" H 7600 2750 50  0000 R CNN
F 1 "LED" H 7450 2900 50  0000 R CNN
F 2 "LED_THT:LED_D5.0mm" H 7400 2800 50  0001 C CNN
F 3 "~" H 7400 2800 50  0001 C CNN
	1    7400 2800
	-1   0    0    1   
$EndComp
Wire Wire Line
	7250 2800 7200 2800
Wire Wire Line
	7000 1900 6750 1900
Wire Wire Line
	7000 2100 6750 2100
$Comp
L Device:R R18
U 1 1 601BE91A
P 6950 1550
F 0 "R18" H 7050 1450 50  0000 L CNN
F 1 "10k" H 7000 1550 50  0000 L CNN
F 2 "My_Lib_KiCAD:R_0.125W_MY" V 6880 1550 50  0001 C CNN
F 3 "~" H 6950 1550 50  0001 C CNN
	1    6950 1550
	-1   0    0    1   
$EndComp
Wire Wire Line
	6750 1800 6950 1800
Wire Wire Line
	6950 1800 6950 1700
Wire Wire Line
	6950 1400 6950 1300
Wire Wire Line
	6950 1300 6150 1300
Connection ~ 6150 1300
Wire Wire Line
	6150 1300 6150 1600
$Comp
L Device:R R19
U 1 1 601BE926
P 7050 2700
F 0 "R19" V 7000 2450 50  0000 L CNN
F 1 "10k" V 7050 2650 50  0000 L CNN
F 2 "My_Lib_KiCAD:R_0.125W_MY" V 6980 2700 50  0001 C CNN
F 3 "~" H 7050 2700 50  0001 C CNN
	1    7050 2700
	0    1    1    0   
$EndComp
$Comp
L power:GND #PWR064
U 1 1 601BE92C
P 7750 2950
F 0 "#PWR064" H 7750 2700 50  0001 C CNN
F 1 "GND" H 7755 2777 50  0000 C CNN
F 2 "" H 7750 2950 50  0001 C CNN
F 3 "" H 7750 2950 50  0001 C CNN
	1    7750 2950
	1    0    0    -1  
$EndComp
$Comp
L Switch:SW_Push SW3
U 1 1 601BE933
P 7550 2050
F 0 "SW3" V 7596 2002 50  0000 R CNN
F 1 "PG" V 7505 2002 50  0000 R CNN
F 2 "Button_Switch_THT:SW_PUSH_6mm" H 7550 2250 50  0001 C CNN
F 3 "~" H 7550 2250 50  0001 C CNN
	1    7550 2050
	0    1    1    0   
$EndComp
Wire Wire Line
	7550 1800 7550 1850
$Comp
L power:GND #PWR062
U 1 1 601BE93C
P 7550 2350
F 0 "#PWR062" H 7550 2100 50  0001 C CNN
F 1 "GND" H 7555 2177 50  0000 C CNN
F 2 "" H 7550 2350 50  0001 C CNN
F 3 "" H 7550 2350 50  0001 C CNN
	1    7550 2350
	1    0    0    -1  
$EndComp
Wire Wire Line
	7550 2350 7550 2250
Wire Wire Line
	7600 2950 7600 2800
Wire Wire Line
	7600 2800 7550 2800
Wire Wire Line
	7750 2950 7750 2700
Wire Wire Line
	7200 2700 7750 2700
Wire Wire Line
	6900 2700 6750 2700
Wire Wire Line
	6900 2800 6750 2800
Wire Wire Line
	7200 1250 7450 1250
Wire Wire Line
	7200 1350 7450 1350
Wire Wire Line
	7450 1450 7350 1450
Wire Wire Line
	7350 1450 7350 1500
$Comp
L Connector_Generic:Conn_01x04 J10
U 1 1 601BE94E
P 10300 1250
F 0 "J10" H 10380 1242 50  0000 L CNN
F 1 "TFT" H 10380 1151 50  0000 L CNN
F 2 "My_Lib_KiCAD:PinHeader_1x04_P2.54mm_Vertical_MY" H 10300 1250 50  0001 C CNN
F 3 "~" H 10300 1250 50  0001 C CNN
	1    10300 1250
	1    0    0    -1  
$EndComp
$Comp
L My_Lib_KiCAD:ESP12E_My U9
U 1 1 601BE956
P 6150 2300
F 0 "U9" H 5800 3100 50  0000 C CNN
F 1 "ESP12E_My" H 5900 3000 50  0000 C CNN
F 2 "RF_Module:ESP-12E" H 5700 3100 50  0001 C CNN
F 3 "" H 7150 1500 50  0001 C CNN
	1    6150 2300
	1    0    0    -1  
$EndComp
$Comp
L power:+3.3V #PWR055
U 1 1 601BE95C
P 4450 1950
F 0 "#PWR055" H 4450 1800 50  0001 C CNN
F 1 "+3.3V" H 4465 2123 50  0000 C CNN
F 2 "" H 4450 1950 50  0001 C CNN
F 3 "" H 4450 1950 50  0001 C CNN
	1    4450 1950
	1    0    0    -1  
$EndComp
$Comp
L Connector_Generic:Conn_01x03 J8
U 1 1 601BE962
P 7650 1350
F 0 "J8" H 7500 1000 50  0000 L CNN
F 1 "Program" H 7500 1100 50  0000 L CNN
F 2 "Connector_PinHeader_2.54mm:PinHeader_1x03_P2.54mm_Vertical" H 7650 1350 50  0001 C CNN
F 3 "~" H 7650 1350 50  0001 C CNN
	1    7650 1350
	1    0    0    1   
$EndComp
$Comp
L power:+5VA #PWR071
U 1 1 601BE968
P 9700 1100
F 0 "#PWR071" H 9700 950 50  0001 C CNN
F 1 "+5VA" H 9715 1273 50  0000 C CNN
F 2 "" H 9700 1100 50  0001 C CNN
F 3 "" H 9700 1100 50  0001 C CNN
	1    9700 1100
	1    0    0    -1  
$EndComp
$Comp
L Isolator:PC817 U10
U 1 1 601BE96F
P 8850 1900
F 0 "U10" H 8850 2225 50  0000 C CNN
F 1 "PC817" H 8850 2134 50  0000 C CNN
F 2 "Package_DIP:DIP-4_W7.62mm" H 8650 1700 50  0001 L CIN
F 3 "http://www.soselectronic.cz/a_info/resource/d/pc817.pdf" H 8850 1900 50  0001 L CNN
	1    8850 1900
	1    0    0    -1  
$EndComp
$Comp
L Device:R R21
U 1 1 601BE977
P 8450 1350
F 0 "R21" H 8550 1250 50  0000 L CNN
F 1 "470R" H 8500 1350 50  0000 L CNN
F 2 "Resistor_THT:R_Axial_DIN0207_L6.3mm_D2.5mm_P7.62mm_Horizontal" V 8380 1350 50  0001 C CNN
F 3 "~" H 8450 1350 50  0001 C CNN
	1    8450 1350
	-1   0    0    1   
$EndComp
Wire Wire Line
	8550 1800 8450 1800
$Comp
L power:+3.3V #PWR065
U 1 1 601BE97E
P 8450 1100
F 0 "#PWR065" H 8450 950 50  0001 C CNN
F 1 "+3.3V" H 8465 1273 50  0000 C CNN
F 2 "" H 8450 1100 50  0001 C CNN
F 3 "" H 8450 1100 50  0001 C CNN
	1    8450 1100
	1    0    0    -1  
$EndComp
Wire Wire Line
	8450 1200 8450 1100
$Comp
L power:GNDA #PWR067
U 1 1 601BE985
P 9250 2150
F 0 "#PWR067" H 9250 1900 50  0001 C CNN
F 1 "GNDA" H 9255 1977 50  0000 C CNN
F 2 "" H 9250 2150 50  0001 C CNN
F 3 "" H 9250 2150 50  0001 C CNN
	1    9250 2150
	1    0    0    -1  
$EndComp
Wire Wire Line
	9150 2000 9250 2000
Wire Wire Line
	9250 2000 9250 2150
$Comp
L Device:R R23
U 1 1 601BE98D
P 9400 1350
F 0 "R23" H 9500 1250 50  0000 L CNN
F 1 "1k" H 9450 1350 50  0000 L CNN
F 2 "My_Lib_KiCAD:R_0.125W_MY" V 9330 1350 50  0001 C CNN
F 3 "~" H 9400 1350 50  0001 C CNN
	1    9400 1350
	-1   0    0    1   
$EndComp
$Comp
L power:+5VA #PWR068
U 1 1 601BE993
P 9400 1100
F 0 "#PWR068" H 9400 950 50  0001 C CNN
F 1 "+5VA" H 9415 1273 50  0000 C CNN
F 2 "" H 9400 1100 50  0001 C CNN
F 3 "" H 9400 1100 50  0001 C CNN
	1    9400 1100
	1    0    0    -1  
$EndComp
Wire Wire Line
	9400 1100 9400 1200
Wire Wire Line
	9150 1800 9400 1800
Text Label 9700 1800 2    50   ~ 0
RX_TFT
Wire Wire Line
	9400 1500 9400 1800
Wire Wire Line
	8450 1500 8450 1800
Wire Wire Line
	9700 1800 9400 1800
Connection ~ 9400 1800
Text Label 9800 1150 0    50   ~ 0
RX_TFT
Wire Wire Line
	9800 1150 10100 1150
$Comp
L power:GNDA #PWR072
U 1 1 601BE9A3
P 10000 1500
F 0 "#PWR072" H 10000 1250 50  0001 C CNN
F 1 "GNDA" H 10005 1327 50  0000 C CNN
F 2 "" H 10000 1500 50  0001 C CNN
F 3 "" H 10000 1500 50  0001 C CNN
	1    10000 1500
	1    0    0    -1  
$EndComp
Wire Notes Line
	7850 850  7850 3450
Wire Notes Line
	7850 3450 4300 3450
Wire Notes Line
	4300 3450 4300 850 
Wire Notes Line
	4300 850  7850 850 
Wire Notes Line
	10550 850  10550 2400
Wire Notes Line
	7950 2400 7950 850 
Text HLabel 7000 2100 2    50   Input ~ 0
RX1
Text HLabel 7000 1900 2    50   Input ~ 0
TX1
Text HLabel 8350 2000 0    50   Input ~ 0
STX_TFT
Wire Wire Line
	8550 2000 8350 2000
Text HLabel 7000 2600 2    50   Input ~ 0
IO2
Wire Wire Line
	7000 2400 6750 2400
Wire Notes Line
	7950 850  10550 850 
Wire Notes Line
	7950 2400 10550 2400
Text HLabel 7200 1250 0    50   Input ~ 0
RX1
Text HLabel 7200 1350 0    50   Input ~ 0
TX1
$Comp
L Connector:Screw_Terminal_01x02 J7
U 1 1 5FBC8EAC
P 950 1250
F 0 "J7" H 1000 950 50  0000 C CNN
F 1 "DC_INPUT" H 900 1050 50  0000 C CNN
F 2 "TerminalBlock:TerminalBlock_bornier-2_P5.08mm" H 950 1250 50  0001 C CNN
F 3 "~" H 950 1250 50  0001 C CNN
	1    950  1250
	-1   0    0    1   
$EndComp
Wire Wire Line
	1200 1650 1200 1250
Wire Wire Line
	1200 1250 1150 1250
Wire Wire Line
	6950 1800 7550 1800
Connection ~ 6950 1800
Text HLabel 7000 2400 2    50   Input ~ 0
TRIAC_2
Text HLabel 7000 2500 2    50   Input ~ 0
TRIAC_3
Wire Wire Line
	7000 2600 6750 2600
Wire Wire Line
	7000 2500 6750 2500
$Comp
L Regulator_Linear:LM7812_TO220 U7
U 1 1 6062CD22
P 2500 1150
F 0 "U7" H 2500 1392 50  0000 C CNN
F 1 "LM7812_TO220" H 2500 1301 50  0000 C CNN
F 2 "Package_TO_SOT_THT:TO-220-3_Vertical" H 2500 1375 50  0001 C CIN
F 3 "https://www.onsemi.cn/PowerSolutions/document/MC7800-D.PDF" H 2500 1100 50  0001 C CNN
	1    2500 1150
	1    0    0    -1  
$EndComp
Text Notes 750  800  0    50   ~ 0
Power Supply
$Comp
L Device:CP C14
U 1 1 606395E5
P 3150 1450
F 0 "C14" H 3268 1496 50  0000 L CNN
F 1 "470uF" H 3268 1405 50  0000 L CNN
F 2 "Capacitor_THT:C_Radial_D10.0mm_H12.5mm_P5.00mm" H 3188 1300 50  0001 C CNN
F 3 "~" H 3150 1450 50  0001 C CNN
	1    3150 1450
	1    0    0    -1  
$EndComp
$Comp
L Device:CP C11
U 1 1 60639AD7
P 1850 1450
F 0 "C11" H 1600 1500 50  0000 L CNN
F 1 "220uF" H 1500 1400 50  0000 L CNN
F 2 "Capacitor_THT:CP_Radial_D8.0mm_P3.50mm" H 1888 1300 50  0001 C CNN
F 3 "~" H 1850 1450 50  0001 C CNN
	1    1850 1450
	1    0    0    -1  
$EndComp
$Comp
L Device:C C15
U 1 1 6063DD93
P 3650 1450
F 0 "C15" H 3765 1496 50  0000 L CNN
F 1 "104" H 3765 1405 50  0000 L CNN
F 2 "Capacitor_THT:C_Rect_L7.0mm_W3.5mm_P5.00mm" H 3688 1300 50  0001 C CNN
F 3 "~" H 3650 1450 50  0001 C CNN
	1    3650 1450
	1    0    0    -1  
$EndComp
Wire Wire Line
	2200 1150 1850 1150
Wire Wire Line
	1850 1300 1850 1150
Connection ~ 1850 1150
Wire Wire Line
	1850 1150 1150 1150
Wire Wire Line
	1850 1650 1850 1600
$Comp
L power:+12VA #PWR054
U 1 1 606438ED
P 3950 1100
F 0 "#PWR054" H 3950 950 50  0001 C CNN
F 1 "+12VA" H 3965 1273 50  0000 C CNN
F 2 "" H 3950 1100 50  0001 C CNN
F 3 "" H 3950 1100 50  0001 C CNN
	1    3950 1100
	1    0    0    -1  
$EndComp
Wire Wire Line
	2800 1150 3150 1150
Wire Wire Line
	3950 1150 3950 1100
Wire Wire Line
	3150 1300 3150 1150
Connection ~ 3150 1150
Wire Wire Line
	3150 1150 3650 1150
Wire Wire Line
	3650 1300 3650 1150
Connection ~ 3650 1150
Wire Wire Line
	3650 1150 3950 1150
Wire Wire Line
	2500 1650 2500 1450
Wire Wire Line
	3150 1650 3150 1600
Wire Wire Line
	3650 1650 3650 1600
$Comp
L power:GNDA #PWR044
U 1 1 60662DE5
P 1200 1650
F 0 "#PWR044" H 1200 1400 50  0001 C CNN
F 1 "GNDA" H 1205 1477 50  0000 C CNN
F 2 "" H 1200 1650 50  0001 C CNN
F 3 "" H 1200 1650 50  0001 C CNN
	1    1200 1650
	1    0    0    -1  
$EndComp
$Comp
L power:GNDA #PWR046
U 1 1 606656F3
P 1850 1650
F 0 "#PWR046" H 1850 1400 50  0001 C CNN
F 1 "GNDA" H 1855 1477 50  0000 C CNN
F 2 "" H 1850 1650 50  0001 C CNN
F 3 "" H 1850 1650 50  0001 C CNN
	1    1850 1650
	1    0    0    -1  
$EndComp
$Comp
L power:GNDA #PWR048
U 1 1 60665920
P 2500 1650
F 0 "#PWR048" H 2500 1400 50  0001 C CNN
F 1 "GNDA" H 2505 1477 50  0000 C CNN
F 2 "" H 2500 1650 50  0001 C CNN
F 3 "" H 2500 1650 50  0001 C CNN
	1    2500 1650
	1    0    0    -1  
$EndComp
$Comp
L power:GNDA #PWR051
U 1 1 60665B60
P 3150 1650
F 0 "#PWR051" H 3150 1400 50  0001 C CNN
F 1 "GNDA" H 3155 1477 50  0000 C CNN
F 2 "" H 3150 1650 50  0001 C CNN
F 3 "" H 3150 1650 50  0001 C CNN
	1    3150 1650
	1    0    0    -1  
$EndComp
$Comp
L power:GNDA #PWR053
U 1 1 60666188
P 3650 1650
F 0 "#PWR053" H 3650 1400 50  0001 C CNN
F 1 "GNDA" H 3655 1477 50  0000 C CNN
F 2 "" H 3650 1650 50  0001 C CNN
F 3 "" H 3650 1650 50  0001 C CNN
	1    3650 1650
	1    0    0    -1  
$EndComp
Wire Wire Line
	10100 1350 10000 1350
Wire Wire Line
	10000 1350 10000 1500
Wire Wire Line
	10100 1450 9700 1450
Wire Wire Line
	9700 1450 9700 1100
Wire Wire Line
	7000 2200 6750 2200
Text HLabel 7000 2200 2    50   Input ~ 0
STX_TFT
$Comp
L Connector_Generic:Conn_01x03 J9
U 1 1 605843F4
P 9650 3350
F 0 "J9" H 9500 3000 50  0000 L CNN
F 1 "TEMP" H 9500 3100 50  0000 L CNN
F 2 "Connector_PinHeader_2.54mm:PinHeader_1x03_P2.54mm_Vertical" H 9650 3350 50  0001 C CNN
F 3 "~" H 9650 3350 50  0001 C CNN
	1    9650 3350
	1    0    0    1   
$EndComp
$Comp
L Device:R R22
U 1 1 60584B3C
P 9200 3150
F 0 "R22" H 9300 3050 50  0000 L CNN
F 1 "10k" H 9250 3150 50  0000 L CNN
F 2 "My_Lib_KiCAD:R_0.125W_MY" V 9130 3150 50  0001 C CNN
F 3 "~" H 9200 3150 50  0001 C CNN
	1    9200 3150
	-1   0    0    1   
$EndComp
Text Label 7300 2300 2    50   ~ 0
TEMP
Wire Wire Line
	7300 2300 6750 2300
Text Label 8850 3350 0    50   ~ 0
TEMP
Wire Wire Line
	8850 3350 9200 3350
Wire Wire Line
	9200 3300 9200 3350
Connection ~ 9200 3350
Wire Wire Line
	9200 3350 9450 3350
$Comp
L power:+3.3V #PWR066
U 1 1 6058C669
P 9200 2900
F 0 "#PWR066" H 9200 2750 50  0001 C CNN
F 1 "+3.3V" H 9215 3073 50  0000 C CNN
F 2 "" H 9200 2900 50  0001 C CNN
F 3 "" H 9200 2900 50  0001 C CNN
	1    9200 2900
	1    0    0    -1  
$EndComp
$Comp
L power:+3.3V #PWR069
U 1 1 6058D1AD
P 9400 2900
F 0 "#PWR069" H 9400 2750 50  0001 C CNN
F 1 "+3.3V" H 9415 3073 50  0000 C CNN
F 2 "" H 9400 2900 50  0001 C CNN
F 3 "" H 9400 2900 50  0001 C CNN
	1    9400 2900
	1    0    0    -1  
$EndComp
Wire Wire Line
	9400 2900 9400 3250
Wire Wire Line
	9400 3250 9450 3250
Wire Wire Line
	9200 3000 9200 2900
$Comp
L power:GND #PWR070
U 1 1 60592F2D
P 9400 3600
F 0 "#PWR070" H 9400 3350 50  0001 C CNN
F 1 "GND" H 9405 3427 50  0000 C CNN
F 2 "" H 9400 3600 50  0001 C CNN
F 3 "" H 9400 3600 50  0001 C CNN
	1    9400 3600
	1    0    0    -1  
$EndComp
Wire Wire Line
	9400 3600 9400 3450
Wire Wire Line
	9400 3450 9450 3450
$EndSCHEMATC
